{
    "format_version": "1.10.0",
    "animation_controllers": {
        "controller.animation.battleaxe_teleport4_ad1": {
            "states": {
                "default": {
                    "transitions": [
                        {
                            "alive": "query.is_alive"
						}
                    ]
                },
                "alive": {
					"on_entry": [
						"/execute @a[tag=using_battleaxe,tag=battleaxe_hitting] ~~~ tp @e[type=yes:battleaxe_hit_entity_ad1,c=1] ^ ^ ^4 facing @a[tag=using_battleaxe,tag=battleaxe_hitting]"
					],
                    "transitions": [
                        {
                            "default": "query.is_alive"
						}
                    ],
                    "on_exit": [
                        "/execute @a[tag=using_battleaxe,tag=battleaxe_hitting] ~~~ tp @e[type=yes:battleaxe_hit_entity_ad1,c=1] ^ ^ ^4 facing @a[tag=using_battleaxe,tag=battleaxe_hitting]"
                    ]
                }
            }
        }
    }
}