{
    "format_version": "1.10.0",
    "animation_controllers": {
        "controller.animation.battleaxe_teleport2_ad2": {
            "states": {
                "default": {
                    "transitions": [
                        {
                            "alive": "query.is_alive"
						}
                    ]
                },
                "alive": {
					"on_entry": [
						"/execute @a[tag=using_battleaxe] ~~~ tp @e[type=yes:battleaxe_entity2_ad2,tag=alive,c=1] ~ ~ ~",
						"/function battleaxe"
					],
                    "transitions": [
                        {
                            "default": "query.is_alive"
						}
                    ],
                    "on_exit": [
                        "/execute @a[tag=using_battleaxe] ~~~ tp @e[type=yes:battleaxe_entity2_ad2,tag=alive,c=1] ~ ~ ~",
						"/function battleaxe"
                    ]
                }
            }
        }
    }
}