{
    "format_version": "1.10.0",
    "animation_controllers": {
        "controller.animation.battleaxe_teleport4c": {
            "states": {
                "default": {
                    "transitions": [
                        {
                            "alive": "query.is_alive"
						}
                    ]
                },
                "alive": {
					"on_entry": [
						"/execute @e[type=husk,c=1,tag=mob_battleaxe_hitting] ~~~ tp @e[type=yes:battleaxe_hit_entityc,c=1] ^ ^ ^4 facing @e[type=husk,c=1,tag=mob_battleaxe_hitting]",
						"/execute @e[type=skeleton,c=1,tag=mob_battleaxe_hitting] ~~~ tp @e[type=yes:battleaxe_hit_entityc,c=1] ^ ^ ^4 facing @e[type=husk,c=1,tag=mob_battleaxe_hitting]",
						"/execute @e[type=stray,c=1,tag=mob_battleaxe_hitting] ~~~ tp @e[type=yes:battleaxe_hit_entityc,c=1] ^ ^ ^4 facing @e[type=husk,c=1,tag=mob_battleaxe_hitting]",
						"/execute @e[type=zombie,c=1,tag=mob_battleaxe_hitting] ~~~ tp @e[type=yes:battleaxe_hit_entityc,c=1] ^ ^ ^4 facing @e[type=husk,c=1,tag=mob_battleaxe_hitting]",
						"/execute @e[type=zombie_villager,c=1,tag=mob_battleaxe_hitting] ~~~ tp @e[type=yes:battleaxe_hit_entityc,c=1] ^ ^ ^4 facing @e[type=husk,c=1,tag=mob_battleaxe_hitting]"
					],
                    "transitions": [
                        {
                            "default": "query.is_alive"
						}
                    ],
                    "on_exit": [
                  "/execute @e[type=husk,c=1,tag=mob_battleaxe_hitting] ~~~ tp @e[type=yes:battleaxe_hit_entityc,c=1] ^ ^ ^4 facing @e[type=husk,c=1,tag=mob_battleaxe_hitting]",
						"/execute @e[type=skeleton,c=1,tag=mob_battleaxe_hitting] ~~~ tp @e[type=yes:battleaxe_hit_entityc,c=1] ^ ^ ^4 facing @e[type=husk,c=1,tag=mob_battleaxe_hitting]",
						"/execute @e[type=stray,c=1,tag=mob_battleaxe_hitting] ~~~ tp @e[type=yes:battleaxe_hit_entityc,c=1] ^ ^ ^4 facing @e[type=husk,c=1,tag=mob_battleaxe_hitting]",
						"/execute @e[type=zombie,c=1,tag=mob_battleaxe_hitting] ~~~ tp @e[type=yes:battleaxe_hit_entityc,c=1] ^ ^ ^4 facing @e[type=husk,c=1,tag=mob_battleaxe_hitting]",
						"/execute @e[type=zombie_villager,c=1,tag=mob_battleaxe_hitting] ~~~ tp @e[type=yes:battleaxe_hit_entityc,c=1] ^ ^ ^4 facing @e[type=husk,c=1,tag=mob_battleaxe_hitting]"
                    ]
                }
            }
        }
    }
}