{
	"format_version": "1.10.0",
	"particle_effect": {
		"description": {
			"identifier": "yes:greatsword_left_particle",
			"basic_render_parameters": {
				"material": "particles_alpha",
				"texture": "textures/particle/greatsword_left_particle"
			}
		},
		"components": {
			"minecraft:emitter_rate_instant": {
				"num_particles": 1
			},
			"minecraft:emitter_lifetime_once": {},
			"minecraft:emitter_shape_sphere": {
				"radius": 0.025
			},
			"minecraft:particle_lifetime_expression": {
				"max_lifetime": 0.3
			},
			"minecraft:particle_initial_speed": 0,
			"minecraft:particle_motion_dynamic": {},
			"minecraft:particle_appearance_billboard": {
				"size": [2.5, 1.75],
				"facing_camera_mode": "lookat_xyz",
				"direction": {
					"mode": "derive_from_velocity"
				},
				"uv": {
					"texture_width": 64,
					"texture_height": 4,
					"flipbook": {
						"base_UV": [0, 0],
						"size_UV": [8, 4],
						"step_UV": [8, 0],
						"frames_per_second": 8,
						"max_frame": 8,
						"stretch_to_lifetime": true
					}
				}
			}
		}
	}
}