{
  "format_version": "1.16.100",
  "minecraft:item": {
        "description": {
      "category": "equipment",
      "identifier": "yes:amethyst_helmet"
    },
    "components": {
      "minecraft:creative_category": {
        "parent": "itemGroup.name.helmet"
     },
      "minecraft:display_name": {
  		"value": "Amethyst Helmet\n§l§r"
	  },
     "minecraft:icon": {
        "texture": "amethyst_helmet"
     },
    "minecraft:render_offsets": "helmets",
      "minecraft:max_stack_size": 1,
      "minecraft:enchantable": {
        "value": 22,
        "slot": "armor_torso"
      },
      "minecraft:durability": {
        "max_durability": 203
      },
      "minecraft:armor": {
        "protection": 3
      },
		"minecraft:knockback_resistance": {
			"protection": -1
		},
      "minecraft:wearable": {
        "slot": "slot.armor.head"
      },
                  "minecraft:repairable": {
                "repair_items": [
                    {
                        "items": [
                            "yes:amethyst_helmet",
                            "minecraft:amethyst_shard"
                            ],
                            "repair_amount": 406
          }
        ]
      }
    }
  }
}