{
    "format_version": "1.10.0",
    "animation_controllers": {
        "controller.animation.copper_hammer_teleportb": {
            "states": {
                "default": {
                    "transitions": [
                        {
                            "alive": "query.is_alive"
						}
                    ]
                },
                "alive": {
					"on_entry": [
						"/execute @p[tag=using_copper_hammer] ~~~ tp @e[c=1,type=yes:copper_hammer_entityb,tag=alive] ~ ~ ~",
						"/execute @a[c=1,scores={hammeranimation=1..}] ~~~ scoreboard players remove @s hammeranimation 1"
					],
                    "transitions": [
                        {
                            "default": "query.is_alive"
						}
                    ],
                    "on_exit": [
                        "/execute @p[tag=using_copper_hammer] ~~~ tp @e[c=1,type=yes:copper_hammer_entityb,tag=alive] ~ ~ ~"
                    ]
                }
            }
        }
    }
}