{
    "format_version": "1.10.0",
    "animation_controllers": {
        "controller.animation.copper_hammer_knockbackc_teleport": {
            "states": {
                "default": {
                    "transitions": [
                        {
                            "alive": "query.is_alive"
						}
                    ]
                },
                "alive": {
					"on_entry": [
						"/execute @e[type=!player,tag=mob_hammer_attacking,c=1] ~~~ tp @e[type=yes:copper_hammer_knockbackc,c=1] ^ ^ ^2"
					],
                    "transitions": [
                        {
                            "default": "query.is_alive"
						}
                    ],
                    "on_exit": [
                        "/execute @e[type=!player,tag=mob_hammer_attacking,c=1] ~~~ tp @e[type=yes:copper_hammer_knockbackc,c=1] ^ ^ ^2"
                    ]
                }
            }
        }
    }
}