{
	"tiers": [
		{
			"groups": [
				{
					"num_to_select": 2,
					"trades": [
						{
							"wants": [
								{
									"item": "minecraft:dirt",
									"quantity": {
										"min": 56,
										"max": 64
									}
								}
							],
							"gives": [
								{
									"item": "bb:pstoken_stack",
									"quantity": {
										"min": 1,
										"max": 1
									}
								}
							],
							"max_uses": 2
						},
						{
							"wants": [
								{
									"item": "minecraft:gravel",
									"quantity": {
										"min": 56,
										"max": 64
									}
								}
							],
							"gives": [
								{
									"item": "bb:pstoken_stack",
									"quantity": {
										"min": 1,
										"max": 1
									}
								}
							],
							"max_uses": 2
						},
						{
							"wants": [
								{
									"item": "minecraft:sand",
									"quantity": {
										"min": 56,
										"max": 64
									}
								}
							],
							"gives": [
								{
									"item": "bb:pstoken_stack",
									"quantity": {
										"min": 1,
										"max": 1
									}
								}
							],
							"max_uses": 2
						},
						{
							"wants": [
								{
									"item": "minecraft:cobblestone",
									"quantity": {
										"min": 56,
										"max": 64
									}
								}
							],
							"gives": [
								{
									"item": "bb:pstoken_stack",
									"quantity": {
										"min": 1,
										"max": 1
									}
								}
							],
							"max_uses": 2
						},
						{
							"wants": [
								{
									"item": "minecraft:planks:0",
									"quantity": {
										"min": 56,
										"max": 64
									}
								}
							],
							"gives": [
								{
									"item": "bb:pstoken_stack",
									"quantity": {
										"min": 1,
										"max": 1
									}
								}
							],
							"max_uses": 2
						},
						{
							"wants": [
								{
									"item": "minecraft:planks:1",
									"quantity": {
										"min": 56,
										"max": 64
									}
								}
							],
							"gives": [
								{
									"item": "bb:pstoken_stack",
									"quantity": {
										"min": 1,
										"max": 1
									}
								}
							],
							"max_uses": 2
						},
						{
							"wants": [
								{
									"item": "minecraft:planks:2",
									"quantity": {
										"min": 56,
										"max": 64
									}
								}
							],
							"gives": [
								{
									"item": "bb:pstoken_stack",
									"quantity": {
										"min": 1,
										"max": 1
									}
								}
							],
							"max_uses": 2
						},
						{
							"wants": [
								{
									"item": "minecraft:planks:3",
									"quantity": {
										"min": 56,
										"max": 64
									}
								}
							],
							"gives": [
								{
									"item": "bb:pstoken_stack",
									"quantity": {
										"min": 1,
										"max": 1
									}
								}
							],
							"max_uses": 2
						},
						{
							"wants": [
								{
									"item": "minecraft:planks:4",
									"quantity": {
										"min": 56,
										"max": 64
									}
								}
							],
							"gives": [
								{
									"item": "bb:pstoken_stack",
									"quantity": {
										"min": 1,
										"max": 1
									}
								}
							],
							"max_uses": 2
						},
						{
							"wants": [
								{
									"item": "minecraft:planks:5",
									"quantity": {
										"min": 56,
										"max": 64
									}
								}
							],
							"gives": [
								{
									"item": "bb:pstoken_stack",
									"quantity": {
										"min": 1,
										"max": 1
									}
								}
							],
							"max_uses": 2
						}
					]
				},
				{
					"num_to_select": 2,
					"trades": [
						{
							"wants": [
								{
									"item": "minecraft:diamond",
									"quantity": {
										"min": 1,
										"max": 1
									}
								}
							],
							"gives": [
								{
									"item": "bb:minecoin",
									"quantity": {
										"min": 7,
										"max": 8
									}
								}
							],
							"max_uses": 2
						},
						{
							"wants": [
								{
									"item": "minecraft:netherite_scrap",
									"quantity": {
										"min": 1,
										"max": 1
									}
								}
							],
							"gives": [
								{
									"item": "bb:minecoin",
									"quantity": {
										"min": 20,
										"max": 24
									}
								}
							],
							"max_uses": 2
						}
					]
				},
				{
					"num_to_select": 2,
					"trades": [
						{
							"wants": [
								{
									"item": "minecraft:clock",
									"quantity": {
										"min": 1,
										"max": 1
									}
								}
							],
							"gives": [
								{
									"item": "bb:minecoin",
									"quantity": {
										"min": 2,
										"max": 3
									}
								}
							],
							"max_uses": 2
						},
						{
							"wants": [
								{
									"item": "minecraft:compass",
									"quantity": {
										"min": 1,
										"max": 1
									}
								}
							],
							"gives": [
								{
									"item": "bb:minecoin",
									"quantity": {
										"min": 2,
										"max": 3
									}
								}
							],
							"max_uses": 2
						},
						{
							"wants": [
								{
									"item": "minecraft:painting",
									"quantity": {
										"min": 1,
										"max": 1
									}
								}
							],
							"gives": [
								{
									"item": "bb:minecoin",
									"quantity": {
										"min": 2,
										"max": 3
									}
								}
							],
							"max_uses": 2
						},
						{
							"wants": [
								{
									"item": "minecraft:beehive",
									"quantity": {
										"min": 1,
										"max": 1
									}
								}
							],
							"gives": [
								{
									"item": "bb:minecoin",
									"quantity": {
										"min": 3,
										"max": 4
									}
								}
							],
							"max_uses": 2
						},
						{
							"wants": [
								{
									"item": "minecraft:campfire",
									"quantity": {
										"min": 1,
										"max": 1
									}
								}
							],
							"gives": [
								{
									"item": "bb:minecoin",
									"quantity": {
										"min": 2,
										"max": 3
									}
								}
							],
							"max_uses": 2
						},
						{
							"wants": [
								{
									"item": "minecraft:lit_pumpkin",
									"quantity": {
										"min": 1,
										"max": 1
									}
								}
							],
							"gives": [
								{
									"item": "bb:minecoin",
									"quantity": {
										"min": 3,
										"max": 4
									}
								}
							],
							"max_uses": 2
						},
						{
							"wants": [
								{
									"item": "minecraft:carrot_on_a_stick",
									"quantity": {
										"min": 1,
										"max": 1
									}
								}
							],
							"gives": [
								{
									"item": "bb:minecoin",
									"quantity": {
										"min": 3,
										"max": 4
									}
								}
							],
							"max_uses": 2
						}
					]
				},
				{
					"num_to_select": 2,
					"trades": [
						{
							"wants": [
								{
									"item": "minecraft:pufferfish_bucket",
									"quantity": {
										"min": 1,
										"max": 1
									}
								}
							],
							"gives": [
								{
									"item": "bb:minecoin",
									"quantity": {
										"min": 2,
										"max": 3
									}
								}
							],
							"max_uses": 2
						},
						{
							"wants": [
								{
									"item": "minecraft:axolotl_bucket",
									"quantity": {
										"min": 1,
										"max": 1
									}
								}
							],
							"gives": [
								{
									"item": "bb:minecoin",
									"quantity": {
										"min": 2,
										"max": 3
									}
								}
							],
							"max_uses": 2
						},
						{
							"wants": [
								{
									"item": "minecraft:tropical_fish_bucket",
									"quantity": {
										"min": 1,
										"max": 1
									}
								}
							],
							"gives": [
								{
									"item": "bb:minecoin",
									"quantity": {
										"min": 2,
										"max": 3
									}
								}
							],
							"max_uses": 2
						},
						{
							"wants": [
								{
									"item": "minecraft:powder_snow_bucket",
									"quantity": {
										"min": 1,
										"max": 1
									}
								}
							],
							"gives": [
								{
									"item": "bb:minecoin",
									"quantity": {
										"min": 3,
										"max": 4
									}
								}
							],
							"max_uses": 2
						}
					]
				},
				{
					"num_to_select": 2,
					"trades": [
						{
							"wants": [
								{
									"item": "minecraft:skull:0",
									"quantity": {
										"min": 1,
										"max": 1
									}
								}
							],
							"gives": [
								{
									"item": "bb:minecoin",
									"quantity": {
										"min": 7,
										"max": 9
									}
								}
							],
							"max_uses": 2
						},
						{
							"wants": [
								{
									"item": "minecraft:skull:1",
									"quantity": {
										"min": 1,
										"max": 1
									}
								}
							],
							"gives": [
								{
									"item": "bb:minecoin",
									"quantity": {
										"min": 7,
										"max": 9
									}
								}
							],
							"max_uses": 2
						},
						{
							"wants": [
								{
									"item": "minecraft:skull:2",
									"quantity": {
										"min": 1,
										"max": 1
									}
								}
							],
							"gives": [
								{
									"item": "bb:minecoin",
									"quantity": {
										"min": 7,
										"max": 9
									}
								}
							],
							"max_uses": 2
						},
						{
							"wants": [
								{
									"item": "minecraft:skull:4",
									"quantity": {
										"min": 1,
										"max": 1
									}
								}
							],
							"gives": [
								{
									"item": "bb:minecoin",
									"quantity": {
										"min": 7,
										"max": 9
									}
								}
							],
							"max_uses": 2
						},
						{
							"wants": [
								{
									"item": "minecraft:skull:5",
									"quantity": {
										"min": 1,
										"max": 1
									}
								}
							],
							"gives": [
								{
									"item": "bb:minecoin",
									"quantity": {
										"min": 7,
										"max": 9
									}
								}
							],
							"max_uses": 2
						}
					]
				},
				{
					"num_to_select": 2,
					"trades": [
						{
							"wants": [
								{
									"item": "minecraft:spyglass",
									"quantity": {
										"min": 1,
										"max": 1
									}
								}
							],
							"gives": [
								{
									"item": "bb:minecoin",
									"quantity": {
										"min": 3,
										"max": 4
									}
								}
							],
							"max_uses": 2
						},
						{
							"wants": [
								{
									"item": "minecraft:soul_campfire",
									"quantity": {
										"min": 1,
										"max": 1
									}
								}
							],
							"gives": [
								{
									"item": "bb:minecoin",
									"quantity": {
										"min": 3,
										"max": 4
									}
								}
							],
							"max_uses": 2
						},
						{
							"wants": [
								{
									"item": "minecraft:fire_charge",
									"quantity": {
										"min": 1,
										"max": 1
									}
								}
							],
							"gives": [
								{
									"item": "bb:minecoin",
									"quantity": {
										"min": 2,
										"max": 3
									}
								}
							],
							"max_uses": 2
						},
						{
							"wants": [
								{
									"item": "minecraft:tnt_minecart",
									"quantity": {
										"min": 1,
										"max": 1
									}
								}
							],
							"gives": [
								{
									"item": "bb:minecoin",
									"quantity": {
										"min": 3,
										"max": 4
									}
								}
							],
							"max_uses": 2
						},
						{
							"wants": [
								{
									"item": "minecraft:lightning_rod",
									"quantity": {
										"min": 1,
										"max": 1
									}
								}
							],
							"gives": [
								{
									"item": "bb:minecoin",
									"quantity": {
										"min": 1,
										"max": 2
									}
								}
							],
							"max_uses": 2
						},
						{
							"wants": [
								{
									"item": "minecraft:respawn_anchor",
									"quantity": {
										"min": 1,
										"max": 1
									}
								}
							],
							"gives": [
								{
									"item": "bb:minecoin",
									"quantity": {
										"min": 4,
										"max": 5
									}
								}
							],
							"max_uses": 2
						},
						{
							"wants": [
								{
									"item": "minecraft:end_crystal",
									"quantity": {
										"min": 1,
										"max": 1
									}
								}
							],
							"gives": [
								{
									"item": "bb:minecoin",
									"quantity": {
										"min": 6,
										"max": 7
									}
								}
							],
							"max_uses": 2
						},
						{
							"wants": [
								{
									"item": "minecraft:bell",
									"quantity": {
										"min": 1,
										"max": 1
									}
								}
							],
							"gives": [
								{
									"item": "bb:minecoin",
									"quantity": {
										"min": 1,
										"max": 2
									}
								}
							],
							"max_uses": 2
						},
						{
							"wants": [
								{
									"item": "minecraft:lodestone",
									"quantity": {
										"min": 1,
										"max": 1
									}
								}
							],
							"gives": [
								{
									"item": "bb:minecoin",
									"quantity": {
										"min": 24,
										"max": 32
									}
								}
							],
							"max_uses": 2
						}
					]
				},
				{
					"num_to_select": 2,
					"trades": [
						{
							"wants": [
								{
									"item": "minecraft:cooked_rabbit",
									"quantity": {
										"min": 1,
										"max": 1
									}
								}
							],
							"gives": [
								{
									"item": "bb:minecoin",
									"quantity": {
										"min": 1,
										"max": 2
									}
								}
							],
							"max_uses": 2
						},
						{
							"wants": [
								{
									"item": "minecraft:saddle",
									"quantity": {
										"min": 1,
										"max": 1
									}
								}
							],
							"gives": [
								{
									"item": "bb:minecoin",
									"quantity": {
										"min": 4,
										"max": 6
									}
								}
							],
							"max_uses": 2
						},
						{
							"wants": [
								{
									"item": "minecraft:glow_ink_sac",
									"quantity": {
										"min": 1,
										"max": 1
									}
								}
							],
							"gives": [
								{
									"item": "bb:minecoin",
									"quantity": {
										"min": 1,
										"max": 2
									}
								}
							],
							"max_uses": 2
						},
						{
							"wants": [
								{
									"item": "minecraft:phantom_membrane",
									"quantity": {
										"min": 1,
										"max": 1
									}
								}
							],
							"gives": [
								{
									"item": "bb:minecoin",
									"quantity": {
										"min": 2,
										"max": 3
									}
								}
							],
							"max_uses": 2
						},
						{
							"wants": [
								{
									"item": "minecraft:shulker_shell",
									"quantity": {
										"min": 1,
										"max": 1
									}
								}
							],
							"gives": [
								{
									"item": "bb:minecoin",
									"quantity": {
										"min": 3,
										"max": 4
									}
								}
							],
							"max_uses": 2
						},
						{
							"wants": [
								{
									"item": "minecraft:glowstone",
									"quantity": {
										"min": 1,
										"max": 1
									}
								}
							],
							"gives": [
								{
									"item": "bb:minecoin",
									"quantity": {
										"min": 3,
										"max": 4
									}
								}
							],
							"max_uses": 2
						}
					]
				},
				{
					"num_to_select": 2,
					"trades": [
						{
							"wants": [
								{
									"item": "minecraft:sea_pickle",
									"quantity": {
										"min": 1,
										"max": 1
									}
								}
							],
							"gives": [
								{
									"item": "bb:minecoin",
									"quantity": {
										"min": 1,
										"max": 2
									}
								}
							],
							"max_uses": 2
						},
						{
							"wants": [
								{
									"item": "minecraft:nautilus_shell",
									"quantity": {
										"min": 1,
										"max": 1
									}
								}
							],
							"gives": [
								{
									"item": "bb:minecoin",
									"quantity": {
										"min": 4,
										"max": 6
									}
								}
							],
							"max_uses": 2
						},
						{
							"wants": [
								{
									"item": "minecraft:trident",
									"quantity": {
										"min": 1,
										"max": 1
									}
								}
							],
							"gives": [
								{
									"item": "bb:minecoin",
									"quantity": {
										"min": 5,
										"max": 7
									}
								}
							],
							"max_uses": 2
						},
						{
							"wants": [
								{
									"item": "minecraft:turtle_egg",
									"quantity": {
										"min": 1,
										"max": 1
									}
								}
							],
							"gives": [
								{
									"item": "bb:minecoin",
									"quantity": {
										"min": 4,
										"max": 6
									}
								}
							],
							"max_uses": 2
						},
						{
							"wants": [
								{
									"item": "minecraft:turtle_helmet",
									"quantity": {
										"min": 1,
										"max": 1
									}
								}
							],
							"gives": [
								{
									"item": "bb:minecoin",
									"quantity": {
										"min": 8,
										"max": 9
									}
								}
							],
							"max_uses": 2
						},
						{
							"wants": [
								{
									"item": "minecraft:sponge",
									"quantity": {
										"min": 1,
										"max": 1
									}
								}
							],
							"gives": [
								{
									"item": "bb:minecoin",
									"quantity": {
										"min": 3,
										"max": 5
									}
								}
							],
							"max_uses": 2
						}
					]
				},
				{
					"num_to_select": 2,
					"trades": [
						{
							"wants": [
								{
									"item": "minecraft:heart_of_the_sea",
									"quantity": {
										"min": 1,
										"max": 1
									}
								}
							],
							"gives": [
								{
									"item": "bb:minecoin",
									"quantity": {
										"min": 6,
										"max": 8
									}
								}
							],
							"max_uses": 2
						},
						{
							"wants": [
								{
									"item": "minecraft:nether_star",
									"quantity": {
										"min": 1,
										"max": 1
									}
								}
							],
							"gives": [
								{
									"item": "bb:minecoin",
									"quantity": {
										"min": 16,
										"max": 18
									}
								}
							],
							"max_uses": 2
						},
						{
							"wants": [
								{
									"item": "minecraft:diamond_horse_armor",
									"quantity": {
										"min": 1,
										"max": 1
									}
								}
							],
							"gives": [
								{
									"item": "bb:minecoin",
									"quantity": {
										"min": 7,
										"max": 8
									}
								}
							],
							"max_uses": 2
						},
						{
							"wants": [
								{
									"item": "minecraft:elytra",
									"quantity": {
										"min": 1,
										"max": 1
									}
								}
							],
							"gives": [
								{
									"item": "bb:minecoin",
									"quantity": {
										"min": 8,
										"max": 12
									}
								}
							],
							"max_uses": 2
						},
						{
							"wants": [
								{
									"item": "minecraft:music_disc_pigstep",
									"quantity": {
										"min": 1,
										"max": 1
									}
								}
							],
							"gives": [
								{
									"item": "bb:minecoin",
									"quantity": {
										"min": 6,
										"max": 9
									}
								}
							],
							"max_uses": 2
						},
						{
							"wants": [
								{
									"item": "minecraft:golden_horse_armor",
									"quantity": {
										"min": 1,
										"max": 1
									}
								}
							],
							"gives": [
								{
									"item": "bb:minecoin",
									"quantity": {
										"min": 4,
										"max": 6
									}
								}
							],
							"max_uses": 2
						},
						{
							"wants": [
								{
									"item": "minecraft:totem_of_undying",
									"quantity": {
										"min": 1,
										"max": 1
									}
								}
							],
							"gives": [
								{
									"item": "bb:minecoin",
									"quantity": {
										"min": 6,
										"max": 8
									}
								}
							],
							"max_uses": 2
						},
						{
							"wants": [
								{
									"item": "minecraft:enchanted_golden_apple",
									"quantity": {
										"min": 1,
										"max": 1
									}
								}
							],
							"gives": [
								{
									"item": "bb:minecoin",
									"quantity": {
										"min": 18,
										"max": 24
									}
								}
							],
							"max_uses": 2
						},
						{
							"wants": [
								{
									"item": "minecraft:iron_horse_armor",
									"quantity": {
										"min": 1,
										"max": 1
									}
								}
							],
							"gives": [
								{
									"item": "bb:minecoin",
									"quantity": {
										"min": 3,
										"max": 4
									}
								}
							],
							"max_uses": 2
						}
					]
				}
			]
		}
	]
}