{
    "format_version": "1.19.10",
    "minecraft:block": {
        "description": {
            "identifier": "block:television",
            "properties": {
                "tv:direction": [ 2, 3, 4, 5 ],
                "tv:state": [ 0, 1 ],
                "tv:channel": [ 0, 1, 2, 3, 4, 5, 6, 7, 8, 9, 10, 11, 12, 13, 14, 15 ],
                "tv:part": [ 0, 1 ]
            }
        },
        "components": {
            "minecraft:creative_category": {
                "category": "items",
                "group": "itemGroup.name.tv"
            },
            "tag:metal": {},
            "minecraft:loot": "loot_tables/blocks/television.json",
            "minecraft:light_dampening": 0,
            "minecraft:destructible_by_explosion": {
                "explosion_resistance": 10
            },
            "minecraft:destructible_by_mining": {
                "seconds_to_destroy": 3
            },
            "minecraft:on_player_placing": {
                "event": "facing_direction"
            },
            "minecraft:on_interact": {
                "event": "switch_channel"
            }
        },
        "events": {
            "facing_direction": {
              "set_block_property": {
                "tv:direction": "q.cardinal_facing_2d",
                "tv:state": "math.trunc((q.block_face / 4 ) + 0.5)"
              }
            },
            "switch_channel": {
                "sequence": [
                    {
                        "condition": "q.block_property('tv:part') == 0 && q.block_property('tv:channel') <= 14",
                        "set_block_property": {
                            "tv:channel": "q.block_property('tv:channel') + 1"
                        }
                    },
                    {
                        "condition": "q.block_property('tv:part') == 1 && q.block_property('tv:channel') <= 3",
                        "set_block_property": {
                            "tv:channel": "q.block_property('tv:channel') + 1"
                        }
                    },
                    {
                        "condition": "q.block_property('tv:part') == 0 && query.block_property('tv:channel') == 15",
                        "set_block_property": {
                            "tv:channel": 0,
                            "tv:part": 1
                        }
                    },
                    {
                        "condition": "q.block_property('tv:part') == 1 && query.block_property('tv:channel') == 4",
                        "set_block_property": {
                            "tv:channel": 1,
                            "tv:part": 0
                        }
                    },
                    {
                        "condition": "q.is_sneaking",
                        "set_block_property": {
                            "tv:channel": 0,
                            "tv:part": 0
                        }
                    }
                ]
            }
        },
        "permutations": [
            {
                "condition": "query.block_property('tv:state') == 0",
                "components": {
                    "minecraft:geometry": "geometry.standing_tv",
                    "minecraft:collision_box": {
                      "origin": [ -8, 0, -1 ],
                      "size": [ 16, 16, 2 ]
                  },
                  "minecraft:selection_box": {
                      "origin": [ -8, 0, -1 ],
                      "size": [ 16, 16, 2 ]
                  }
                }
            },
            {
                "condition": "query.block_property('tv:state') == 1",
                "components": {
                    "minecraft:geometry": "geometry.wall_tv",
                    "minecraft:collision_box": {
                      "origin": [ -8, 0, -7 ],
                      "size": [ 16, 16, 2 ]
                  },
                  "minecraft:selection_box": {
                      "origin": [ -8, 0, -7 ],
                      "size": [ 16, 16, 2 ]
                  }
                }
            },
            {
                "condition": "query.block_property('tv:direction') == 2",
                "components": {
                    "minecraft:rotation": [ 0, 0, 0 ]
                }
            },
            {
                "condition": "query.block_property('tv:direction') == 3",
                "components": {
                    "minecraft:rotation": [ 0, 180, 0 ]
                }
            },
            {
                "condition": "query.block_property('tv:direction') == 4",
                "components": {
                    "minecraft:rotation": [ 0, 90, 0 ]
                }
            },
            {
                "condition": "query.block_property('tv:direction') == 5",
                "components": {
                    "minecraft:rotation": [ 0, -90, 0 ]
                }
            },
            {
                "condition": "query.block_property('tv:part') == 0 && query.block_property('tv:channel') == 0",
                "components": {
                    "minecraft:light_emission": 0,
                    "minecraft:material_instances": {
                      "*": {
                          "texture": "tv_color",
                          "render_method": "alpha_test"
                        },
                        "back_screen": {
                          "texture": "tv_back_screen",
                          "render_method": "alpha_test"
                        },
                        "transparent": {
                          "texture": "transparent",
                          "render_method": "alpha_test"
                        },
                        "screen": {
                           "texture": "off_screen",
                           "render_method": "alpha_test"
                        }
                    }
                }
            },
            {
                "condition": "query.block_property('tv:part') == 0 && query.block_property('tv:channel') == 1",
                "components": {
                    "minecraft:light_emission": 10,
                    "minecraft:material_instances": {
                      "*": {
                          "texture": "tv_color",
                          "render_method": "alpha_test"
                        },
                        "back_screen": {
                          "texture": "tv_back_screen",
                          "render_method": "alpha_test"
                        },
                        "transparent": {
                          "texture": "transparent",
                          "render_method": "alpha_test"
                        },
                        "screen": {
                           "texture": "channel_1",
                           "render_method": "alpha_test"
                        }
                    }
                }
            },
            {
                "condition": "query.block_property('tv:part') == 0 && query.block_property('tv:channel') == 2",
                "components": {
                    "minecraft:light_emission": 10,
                    "minecraft:material_instances": {
                      "*": {
                          "texture": "tv_color",
                          "render_method": "alpha_test"
                        },
                        "back_screen": {
                          "texture": "tv_back_screen",
                          "render_method": "alpha_test"
                        },
                        "transparent": {
                          "texture": "transparent",
                          "render_method": "alpha_test"
                        },
                        "screen": {
                           "texture": "channel_2",
                           "render_method": "alpha_test"
                        }
                    }
                }
            },
            {
                "condition": "query.block_property('tv:part') == 0 && query.block_property('tv:channel') == 3",
                "components": {
                    "minecraft:light_emission": 10,
                    "minecraft:material_instances": {
                      "*": {
                          "texture": "tv_color",
                          "render_method": "alpha_test"
                        },
                        "back_screen": {
                          "texture": "tv_back_screen",
                          "render_method": "alpha_test"
                        },
                        "transparent": {
                          "texture": "transparent",
                          "render_method": "alpha_test"
                        },
                        "screen": {
                           "texture": "channel_3",
                           "render_method": "alpha_test"
                        }
                    }
                }
            },
            {
                "condition": "query.block_property('tv:part') == 0 && query.block_property('tv:channel') == 4",
                "components": {
                    "minecraft:light_emission": 10,
                    "minecraft:material_instances": {
                      "*": {
                          "texture": "tv_color",
                          "render_method": "alpha_test"
                        },
                        "back_screen": {
                          "texture": "tv_back_screen",
                          "render_method": "alpha_test"
                        },
                        "transparent": {
                          "texture": "transparent",
                          "render_method": "alpha_test"
                        },
                        "screen": {
                           "texture": "channel_4",
                           "render_method": "alpha_test"
                        }
                    }
                }
            },
            {
                "condition": "query.block_property('tv:part') == 0 && query.block_property('tv:channel') == 5",
                "components": {
                    "minecraft:light_emission": 10,
                    "minecraft:material_instances": {
                      "*": {
                          "texture": "tv_color",
                          "render_method": "alpha_test"
                        },
                        "back_screen": {
                          "texture": "tv_back_screen",
                          "render_method": "alpha_test"
                        },
                        "transparent": {
                          "texture": "transparent",
                          "render_method": "alpha_test"
                        },
                        "screen": {
                           "texture": "channel_5",
                           "render_method": "alpha_test"
                        }
                    }
                }
            },
            {
                "condition": "query.block_property('tv:part') == 0 && query.block_property('tv:channel') == 6",
                "components": {
                    "minecraft:light_emission": 10,
                    "minecraft:material_instances": {
                      "*": {
                          "texture": "tv_color",
                          "render_method": "alpha_test"
                        },
                        "back_screen": {
                          "texture": "tv_back_screen",
                          "render_method": "alpha_test"
                        },
                        "transparent": {
                          "texture": "transparent",
                          "render_method": "alpha_test"
                        },
                        "screen": {
                           "texture": "channel_6",
                           "render_method": "alpha_test"
                        }
                    }
                }
            },
            {
                "condition": "query.block_property('tv:part') == 0 && query.block_property('tv:channel') == 7",
                "components": {
                    "minecraft:light_emission": 10,
                    "minecraft:material_instances": {
                      "*": {
                          "texture": "tv_color",
                          "render_method": "alpha_test"
                        },
                        "back_screen": {
                          "texture": "tv_back_screen",
                          "render_method": "alpha_test"
                        },
                        "transparent": {
                          "texture": "transparent",
                          "render_method": "alpha_test"
                        },
                        "screen": {
                           "texture": "channel_7",
                           "render_method": "alpha_test"
                        }
                    }
                }
            },
            {
                "condition": "query.block_property('tv:part') == 0 && query.block_property('tv:channel') == 8",
                "components": {
                    "minecraft:light_emission": 10,
                    "minecraft:material_instances": {
                      "*": {
                          "texture": "tv_color",
                          "render_method": "alpha_test"
                        },
                        "back_screen": {
                          "texture": "tv_back_screen",
                          "render_method": "alpha_test"
                        },
                        "transparent": {
                          "texture": "transparent",
                          "render_method": "alpha_test"
                        },
                        "screen": {
                           "texture": "channel_8",
                           "render_method": "alpha_test"
                        }
                    }
                }
            },
            {
                "condition": "query.block_property('tv:part') == 0 && query.block_property('tv:channel') == 9",
                "components": {
                    "minecraft:light_emission": 10,
                    "minecraft:material_instances": {
                      "*": {
                          "texture": "tv_color",
                          "render_method": "alpha_test"
                        },
                        "back_screen": {
                          "texture": "tv_back_screen",
                          "render_method": "alpha_test"
                        },
                        "transparent": {
                          "texture": "transparent",
                          "render_method": "alpha_test"
                        },
                        "screen": {
                           "texture": "channel_9",
                           "render_method": "alpha_test"
                        }
                    }
                }
            },
            {
                "condition": "query.block_property('tv:part') == 0 && query.block_property('tv:channel') == 10",
                "components": {
                    "minecraft:light_emission": 10,
                    "minecraft:material_instances": {
                      "*": {
                          "texture": "tv_color",
                          "render_method": "alpha_test"
                        },
                        "back_screen": {
                          "texture": "tv_back_screen",
                          "render_method": "alpha_test"
                        },
                        "transparent": {
                          "texture": "transparent",
                          "render_method": "alpha_test"
                        },
                        "screen": {
                           "texture": "channel_10",
                           "render_method": "alpha_test"
                        }
                    }
                }
            },
            {
                "condition": "query.block_property('tv:part') == 0 && query.block_property('tv:channel') == 11",
                "components": {
                    "minecraft:light_emission": 10,
                    "minecraft:material_instances": {
                      "*": {
                          "texture": "tv_color",
                          "render_method": "alpha_test"
                        },
                        "back_screen": {
                          "texture": "tv_back_screen",
                          "render_method": "alpha_test"
                        },
                        "transparent": {
                          "texture": "transparent",
                          "render_method": "alpha_test"
                        },
                        "screen": {
                           "texture": "channel_11",
                           "render_method": "alpha_test"
                        }
                    }
                }
            },
            {
                "condition": "query.block_property('tv:part') == 0 && query.block_property('tv:channel') == 12",
                "components": {
                    "minecraft:light_emission": 10,
                    "minecraft:material_instances": {
                      "*": {
                          "texture": "tv_color",
                          "render_method": "alpha_test"
                        },
                        "back_screen": {
                          "texture": "tv_back_screen",
                          "render_method": "alpha_test"
                        },
                        "transparent": {
                          "texture": "transparent",
                          "render_method": "alpha_test"
                        },
                        "screen": {
                           "texture": "channel_12",
                           "render_method": "alpha_test"
                        }
                    }
                }
            },
            {
                "condition": "query.block_property('tv:part') == 0 && query.block_property('tv:channel') == 13",
                "components": {
                    "minecraft:light_emission": 10,
                    "minecraft:material_instances": {
                      "*": {
                          "texture": "tv_color",
                          "render_method": "alpha_test"
                        },
                        "back_screen": {
                          "texture": "tv_back_screen",
                          "render_method": "alpha_test"
                        },
                        "transparent": {
                          "texture": "transparent",
                          "render_method": "alpha_test"
                        },
                        "screen": {
                           "texture": "channel_13",
                           "render_method": "alpha_test"
                        }
                    }
                }
            },
            {
                "condition": "query.block_property('tv:part') == 0 && query.block_property('tv:channel') == 14",
                "components": {
                    "minecraft:light_emission": 10,
                    "minecraft:material_instances": {
                      "*": {
                          "texture": "tv_color",
                          "render_method": "alpha_test"
                        },
                        "back_screen": {
                          "texture": "tv_back_screen",
                          "render_method": "alpha_test"
                        },
                        "transparent": {
                          "texture": "transparent",
                          "render_method": "alpha_test"
                        },
                        "screen": {
                           "texture": "channel_14",
                           "render_method": "alpha_test"
                        }
                    }
                }
            },
            {
                "condition": "query.block_property('tv:part') == 0 && query.block_property('tv:channel') == 15",
                "components": {
                    "minecraft:light_emission": 10,
                    "minecraft:material_instances": {
                      "*": {
                          "texture": "tv_color",
                          "render_method": "alpha_test"
                        },
                        "back_screen": {
                          "texture": "tv_back_screen",
                          "render_method": "alpha_test"
                        },
                        "transparent": {
                          "texture": "transparent",
                          "render_method": "alpha_test"
                        },
                        "screen": {
                           "texture": "channel_15",
                           "render_method": "alpha_test"
                        }
                    }
                }
            },
            {
                "condition": "query.block_property('tv:part') == 1 && query.block_property('tv:channel') == 0",
                "components": {
                    "minecraft:light_emission": 10,
                    "minecraft:material_instances": {
                      "*": {
                          "texture": "tv_color",
                          "render_method": "alpha_test"
                        },
                        "back_screen": {
                          "texture": "tv_back_screen",
                          "render_method": "alpha_test"
                        },
                        "transparent": {
                          "texture": "transparent",
                          "render_method": "alpha_test"
                        },
                        "screen": {
                           "texture": "channel_16",
                           "render_method": "alpha_test"
                        }
                    }
                }
            },
            {
                "condition": "query.block_property('tv:part') == 1 && query.block_property('tv:channel') == 1",
                "components": {
                    "minecraft:light_emission": 10,
                    "minecraft:material_instances": {
                      "*": {
                          "texture": "tv_color",
                          "render_method": "alpha_test"
                        },
                        "back_screen": {
                          "texture": "tv_back_screen",
                          "render_method": "alpha_test"
                        },
                        "transparent": {
                          "texture": "transparent",
                          "render_method": "alpha_test"
                        },
                        "screen": {
                           "texture": "channel_17",
                           "render_method": "alpha_test"
                        }
                    }
                }
            },
            {
                "condition": "query.block_property('tv:part') == 1 && query.block_property('tv:channel') == 2",
                "components": {
                    "minecraft:light_emission": 10,
                    "minecraft:material_instances": {
                      "*": {
                          "texture": "tv_color",
                          "render_method": "alpha_test"
                        },
                        "back_screen": {
                          "texture": "tv_back_screen",
                          "render_method": "alpha_test"
                        },
                        "transparent": {
                          "texture": "transparent",
                          "render_method": "alpha_test"
                        },
                        "screen": {
                           "texture": "channel_18",
                           "render_method": "alpha_test"
                        }
                    }
                }
            },
            {
                "condition": "query.block_property('tv:part') == 1 && query.block_property('tv:channel') == 3",
                "components": {
                    "minecraft:light_emission": 10,
                    "minecraft:material_instances": {
                      "*": {
                          "texture": "tv_color",
                          "render_method": "alpha_test"
                        },
                        "back_screen": {
                          "texture": "tv_back_screen",
                          "render_method": "alpha_test"
                        },
                        "transparent": {
                          "texture": "transparent",
                          "render_method": "alpha_test"
                        },
                        "screen": {
                           "texture": "channel_19",
                           "render_method": "alpha_test"
                        }
                    }
                }
            },
            {
                "condition": "query.block_property('tv:part') == 1 && query.block_property('tv:channel') == 4",
                "components": {
                    "minecraft:light_emission": 10,
                    "minecraft:material_instances": {
                      "*": {
                          "texture": "tv_color",
                          "render_method": "alpha_test"
                        },
                        "back_screen": {
                          "texture": "tv_back_screen",
                          "render_method": "alpha_test"
                        },
                        "transparent": {
                          "texture": "transparent",
                          "render_method": "alpha_test"
                        },
                        "screen": {
                           "texture": "channel_20",
                           "render_method": "alpha_test"
                        }
                    }
                }
            }
        ]
    }
}