{
  "format_version": "1.12",
  "minecraft:recipe_shapeless": {
    "description": {
    "identifier": "yes:gilded_netherite_axe3"
    },  
    "tags": [ "crafting_table" ],
    "ingredients": [
      {
        "item": "minecraft:diamond_axe",
        "data": 0
      },
      {
        "item": "gilded_netherite_ingot:netherite_ingot",
        "data": 0
      }
    ],
    "result": {
      "item": "yes:gilded_netherite_axe",
      "data": 0,
      "count": 1
    }
  }
}
