{
	"format_version": "1.18.30",
	"minecraft:ore_feature": {
		"description": {
			"identifier": "nether:burmastone_stone_patches"
		},
		"count": 30,
		"replace_rules": [
			{
				"places_block": "nether:burmastone",
				"may_replace": [
					"minecraft:netherrack",
					"minecraft:basalt"
				]
			}
		]
	}
}