{
	"format_version": "1.13.0",
	"minecraft:structure_template_feature": {
		"description": {
			"identifier": "nether:death_cap_tree_2_structure"
		},
		"structure_name": "mystructure:death_command_tree2",
		"facing_direction": "random",
		"adjustment_radius": 8,
		"constraints": {
			"block_intersection": {
				"block_allowlist": [
					"nether:death_cap_fungus",
					"minecraft:air"
				]
			},
			"unburied": {}
		}
	}
}