{
	"format_version": "1.17.0",
	"minecraft:weighted_random_feature": {
		"description": {
			"identifier": "nether:death_cap_forest_tree_together"
		},
		"features": [
			[
				"nether:death_cap_tree_1_structure",
				40
			],
			[
				"nether:death_cap_tree_2_structure",
				40
			],
			[
				"nether:death_cap_tree_3_structure",
				20
			]
		]
	}
}