{
	"format_version": "1.13.0",
	"minecraft:structure_template_feature": {
		"description": {
			"identifier": "nether:psilocybe_tree_1_structure"
		},
		"structure_name": "mystructure:psilocybe_command_tree1",
		"facing_direction": "random",
		"adjustment_radius": 8,
		"constraints": {
			"block_intersection": {
				"block_allowlist": [
					"minecraft:air"
				]
			},
			"unburied": {}
		}
	}
}