{
	"format_version": "1.18.0",
	"minecraft:recipe_shapeless": {
		"description": {
			"identifier": "nether:chaga_mushroom_stew"
		},
		"tags": [
			"crafting_table"
		],
		"ingredients": [
			{
				"item": "nether:chagashroom_item",
				"count": 2
			},
			{
				"item": "minecraft:bowl"
			}
		],
		"result": [
			{
				"item": "nether:chaga_mushroom_stew"
			}
		]
	}
}