{
	"format_version": "1.16.100",
	"minecraft:item": {
		"description": {
			"identifier": "disenchanter:bow_item",
			"category": "items"
		},
		"components": {
			"minecraft:icon":{
				"frame": 0,
				"texture": "bow_standby"
			},
			"minecraft:enchantable": {
				"slot": "bow", // Can be any of the enchant slot listed below
				"value": 10
			}			
		},
		"events": {
		}
	}
}