{
  "format_version": "1.12",
  "minecraft:recipe_shapeless": {
    "description": {
      "identifier": "vampirism_i_netherite_sword"
    },
    "tags": [
      "crafting_table"
    ],
    "ingredients": [
      {
        "item": "minecraft:netherite_sword"
      },
      {
        "item": "btr:vampirism_i_book"
      }
    ],
    "result": {
      "item": "btr:vampirism_i_netherite_sword"
    }
  }
}