{
    "format_version": "1.19.50",
    "animation_controllers": {
        "controller.animation.experience_storage_entity.saved": {
            "initial_state": "default",
            "states": {
                "default": {
                    "transitions": [
                        {
                            "saved": "query.is_saddled"
                        }
                    ]
                },
                "saved": {
                    "transitions": [
                        {
                            "default": "!query.is_saddled"
                        }
                    ],
                    "on_entry": [
                        "/scoreboard objectives add \"storage xp\" dummy",
                        "/tag @a[scores={\"players xp\"=1}] remove xp",
                        "/scoreboard players add @s \"storage xp\" 1",
                        "/scoreboard players remove @p[scores={\"players xp\"=..30}] \"players xp\" 1",
                        "/scoreboard players remove @p[scores={\"players xp\"=31..}] \"players xp\" 2",
                        "/titleraw @p actionbar {\"rawtext\":[{\"translate\":\"translation.experience_block.saved\"},{\"score\":{\"name\":\"@s\",\"objective\":\"storage xp\"}},{\"text\":\"XP\"}]}",
                        "/playsound random.orb @p",
                        "/particle minecraft:totem_manual ~~1~",
                        "/particle minecraft:totem_manual ~~1~",
                        "/particle minecraft:totem_manual ~~1~",
                        "/particle minecraft:totem_manual ~~1~",
                        "/particle minecraft:totem_manual ~~1~",
                        "/tag @s[scores={\"storage xp\"=100..}] add full",
                        "/tag @s[scores={\"storage xp\"=0..100}] add xp"
                    ]
                }
            }
        },
        "controller.animation.experience_storage_entity.full": {
            "initial_state": "default",
            "states": {
                "default": {
                    "transitions": [
                        {
                            "full": "query.is_chested"
                        }
                    ]
                },
                "full": {
                    "transitions": [
                        {
                            "default": "!query.is_chested"
                        }
                    ],
                    "on_entry": [
                        "/titleraw @p actionbar {\"rawtext\":[{\"translate\":\"translation.experience_block.full\"}]}",
                        "/playsound random.break @p"
                    ]
                }
            }
        },
        "controller.animation.experience_storage_entity.insufficient": {
            "initial_state": "default",
            "states": {
                "default": {
                    "transitions": [
                        {
                            "insufficient": "query.variant == 1"
                        }
                    ]
                },
                "insufficient": {
                    "transitions": [
                        {
                            "default": "query.variant == 0"
                        }
                    ],
                    "on_entry": [
                        "/titleraw @p actionbar {\"rawtext\":[{\"translate\":\"translation.experience_block.insufficient\"}]}",
                        "/playsound random.break @p"
                    ]
                }
            }
        },
        "controller.animation.experience_storage_entity.remove": {
            "initial_state": "default",
            "states": {
                "default": {
                    "transitions": [
                        {
                            "remove": "query.variant == 2"
                        }
                    ]
                },
                "remove": {
                    "transitions": [
                        {
                            "default": "query.variant == 0"
                        }
                    ],
                    "on_entry": [
                        "/scoreboard players remove @s \"storage xp\" 1",
                        "/xp 1l @p",
                        "/tag @s[scores={\"storage xp\"=..0}] remove xp",
                        "/tag @s[scores={\"storage xp\"=..100}] remove full",
                        "/titleraw @p actionbar {\"rawtext\":[{\"translate\":\"translation.experience_block.remove\"},{\"score\":{\"name\":\"@s\",\"objective\":\"storage xp\"}},{\"text\":\"XP\"}]}",
                        "/playsound random.levelup @p"
                    ]
                }
            }
        },
        "controller.animation.experience_storage_entity.exhausted": {
            "initial_state": "default",
            "states": {
                "default": {
                    "transitions": [
                        {
                            "exhausted": "query.variant == 3"
                        }
                    ]
                },
                "exhausted": {
                    "transitions": [
                        {
                            "default": "query.variant == 0"
                        }
                    ],
                    "on_entry": [
                        "/titleraw @p actionbar {\"rawtext\":[{\"translate\":\"translation.experience_block.exhausted\"}]}",
                        "/playsound random.break @p"
                    ]
                }
            }
        }
    }
}