{
    "format_version": "1.16.100",
    "minecraft:item": {
        "description": {
            "identifier": "yes:aetherite_greatsword_ad1",
            "category": "equipment"
        },
        "components": {
			"minecraft:foil": true,
				"minecraft:mirrored_art": false,
            "minecraft:damage": 6,
            "minecraft:icon": {
                "texture": "aetherite_greatsword"
            },
            "minecraft:display_name": {
				"value": "§bAetherite Greatsword\n§l§r\n\n§6Normal Attack:\n§e[§9+7 atk§e]\n§e[§90.0 secs§e]\n§e[§90.5 secs§e]\n§7Ability Damage I"
			},
            "minecraft:creative_category": {
                "parent": "itemGroup.name.sword"
            },
            "minecraft:hand_equipped": true,
            "minecraft:max_stack_size": 1,
            "minecraft:allow_off_hand": true,
            "minecraft:render_offsets": "tools",
            "minecraft:enchantable": {
                "value": 20,
                "slot": "sword"
            },
            "minecraft:durability": {
                "max_durability": 1929,
                "damage_chance": {
                    "min": 60,
                    "max": 100
                }
            },
            "minecraft:repairable": {
                "repair_items": [
                    {
                        "items": [
                            "yes:aetherite_greatsword",
                            "yes:aetherite_ingot"
                        ],
                        "repair_amount": 1929
                    }
                ]
            },
            "minecraft:weapon": {
                "on_hurt_entity": {
                    "event": "yes:hit_event",
                    "target": "self"
                },
                "on_not_hurt_entity": {
                    "event": "yes:hit_event2",
                    "target": "self"
                }
            },
            "minecraft:mining_speed": 1,
            "minecraft:can_destroy_in_creative": false,
            "minecraft:digger": {
                "on_dig": {
                    "event": "yes:damage_event",
                    "target": "self"
                },
                "use_efficiency": true,
                "destroy_speeds": [
                    {
                        "block": "minecraft:web",
                        "speed": 10,
                        "on_dig": {
                            "event": "yes:damage_event",
                            "target": "self"
                        }
                    },
                    {
                        "block": "minecraft:bamboo",
                        "speed": 10,
                        "on_dig": {
                            "event": "yes:damage_event",
                            "target": "self"
                        }
                    }
                ]
            },
     		 "minecraft:render_offsets": {
       		 "main_hand": {
         	 "first_person": {
          	  "position": [ 
      		        0.6, //x
            		  0.075, //y
          		    -1.44 //z
            ],
				  "scale": [
              0.005,
              0.005,
              0.005
            ]
          },
          "third_person": {
            "position": [ 
         		     0.41, //x
         		     1.65, //z
          		    -0.69 //y
          			  ],
							"scale": [
			              0.01,
			              0.01,
			              0.01
			            ]
       		  	  }
      		  }
    		  }
        },
        "events": {
            "yes:damage_event": {
                "damage": {
                    "type": "durability",
                    "amount": 1
                }
            },
            "yes:hit_event2": {
					"sequence": [
						{
							"add_mob_effect": {
								"effect": "weakness",
								"target": "holder",
								"duration": 0.5,
								"amplifier": 255
							}
						},
						{
							"add_mob_effect": {
								"effect": "mining_fatigue",
								"target": "holder",
								"duration": 1.56,
								"amplifier": 20
							},
					"run_command": {
               "command": [
						"scoreboard objectives add greatsword_atk dummy",
						"scoreboard objectives add greatsword_anim dummy",
						"scoreboard objectives add gs_durability dummy",
						
						"scoreboard players add @s greatsword_anim 0",
						
						"playanimation @s[tag=!greatsword_loop,scores={greatsword_anim=0}] animation.greatsword_left_swing",
						"execute @s[scores={greatsword_anim=0}] ~~~ particle yes:greatsword_left_particle ^ ^0.2 ^2.85",
						"scoreboard players set @s[scores={greatsword_anim=0}] greatsword_anim 3",
						
						"playanimation @s[tag=greatsword_loop,scores={greatsword_anim=3}] animation.greatsword_right_swing",
						"execute @s[scores={greatsword_anim=3}] ~~~ particle yes:greatsword_right_particle ^ ^0.2 ^2.85",
						
						"playanimation @s[tag=greatsword_loop,scores={greatsword_anim=2}] animation.greatsword_left_swing_connected",
						"execute @s[scores={greatsword_anim=2}] ~~~ particle yes:greatsword_left_particle ^ ^0.2 ^2.85",
						
						"scoreboard players remove @s[tag=greatsword_loop] greatsword_anim 1",
						"scoreboard players set @s[scores={greatsword_anim=1}] greatsword_anim 3",
						"tag @s add greatsword_loop",
						"tag @s remove played_animation",
						
						
						"tag @s add using_greatsword",
						"scoreboard players set @s greatsword_atk 33",
						"scoreboard objectives setdisplay list greatsword_anim",
						
						"scoreboard players random @s weapon_sound 1 5",
						"execute @s[scores={weapon_sound=1}] ~~~ playsound weapon.greatsword_weewee @a[r=20] ~~1~ 1 0.7 0.5",
						"execute @s[scores={weapon_sound=2}] ~~~ playsound weapon.greatsword_weewee @a[r=20] ~~1~ 1 0.8 0.5",
						"execute @s[scores={weapon_sound=3}] ~~~ playsound weapon.greatsword_weewee @a[r=20] ~~1~ 1 0.9 0.5",
						"execute @s[scores={weapon_sound=4}] ~~~ playsound weapon.greatsword_weewee @a[r=20] ~~1~ 1 1 0.5",
						"execute @s[scores={weapon_sound=5}] ~~~ playsound weapon.greatsword_weewee @a[r=20] ~~1~ 1 1.1 0.5",
						
						"tag @s add greatsword_attacking",
						"tag @e[family=!weeweejuice,family=!inanimate,type=!item,tag=!greatsword_attacking,r=4] add greatsword_target",
						
						"execute @s ^^^4 execute @e[tag=greatsword_target,r=4] ~~~ tag @p[tag=using_greatsword,r=4] add hitting_mob",
						"execute @s[tag=hitting_mob,scores={weapon_sound=1}] ~~~ playsound weapon.greatsword_hit_weewee @a[r=20] ~~1~ 1 0.7 0.5",
						"execute @s[tag=hitting_mob,scores={weapon_sound=2}] ~~~ playsound weapon.greatsword_hit_weewee @a[r=20] ~~1~ 1 0.8 0.5",
						"execute @s[tag=hitting_mob,scores={weapon_sound=3}] ~~~ playsound weapon.greatsword_hit_weewee @a[r=20] ~~1~ 1 0.9 0.5",
						"execute @s[tag=hitting_mob,scores={weapon_sound=4}] ~~~ playsound weapon.greatsword_hit_weewee @a[r=20] ~~1~ 1 1 0.5",
						"execute @s[tag=hitting_mob,scores={weapon_sound=5}] ~~~ playsound weapon.greatsword_hit_weewee @a[r=20] ~~1~ 1 1.1 0.5",
						"tag @s remove hitting_mob",
						
						"execute @s ^^^4 tag @e[tag=greatsword_target,r=4] add greatsword_target2",
						"execute @e[tag=greatsword_target,tag=greatsword_target2,r=4,c=4] ~~~ scoreboard players set @a[r=4,c=1,hasitem={item=yes:aetherite_greatsword,location=slot.weapon.mainhand},scores={greatsword_atk=33}] gs_durability 1",
						"damage @e[tag=greatsword_target,tag=greatsword_target2,r=4,c=4] 7 entity_attack entity @s",
						"tag @e[family=!weeweejuice,family=!inanimate,type=!item,tag=greatsword_target,r=6] remove greatsword_target",
						"tag @e[family=!weeweejuice,family=!inanimate,type=!item,tag=greatsword_target2,r=9] remove greatsword_target2",
						"tag @s remove greatsword_attacking"
								],
                    "target": "self"
							}
						},
						{
							"condition": "query.scoreboard('gs_durability') == 1",
	                	"damage": {
	                    	"type": "durability",
	                    	"amount": 1
	                	}
						}
					]
				},
            "yes:hit_event": {
					"sequence": [
						{
							"add_mob_effect": {
								"effect": "weakness",
								"target": "holder",
								"duration": 0.5,
								"amplifier": 255
							}
						},
						{
							"add_mob_effect": {
								"effect": "mining_fatigue",
								"target": "holder",
								"duration": 1.56,
								"amplifier": 20
							},
					"run_command": {
               "command": [
						"scoreboard objectives add greatsword_atk dummy",
						"scoreboard objectives add greatsword_anim dummy",
						"scoreboard objectives add gs_durability dummy",
						
						"scoreboard players add @s greatsword_anim 0",
						
						"playanimation @s[tag=!greatsword_loop,scores={greatsword_anim=0}] animation.greatsword_left_swing",
						"execute @s[scores={greatsword_anim=0}] ~~~ particle yes:greatsword_left_particle ^ ^0.2 ^2.85",
						"scoreboard players set @s[scores={greatsword_anim=0}] greatsword_anim 3",
						
						"playanimation @s[tag=greatsword_loop,scores={greatsword_anim=3}] animation.greatsword_right_swing",
						"execute @s[scores={greatsword_anim=3}] ~~~ particle yes:greatsword_right_particle ^ ^0.2 ^2.85",
						
						"playanimation @s[tag=greatsword_loop,scores={greatsword_anim=2}] animation.greatsword_left_swing_connected",
						"execute @s[scores={greatsword_anim=2}] ~~~ particle yes:greatsword_left_particle ^ ^0.2 ^2.85",
						
						"scoreboard players remove @s[tag=greatsword_loop] greatsword_anim 1",
						"scoreboard players set @s[scores={greatsword_anim=1}] greatsword_anim 3",
						"tag @s add greatsword_loop",
						"tag @s remove played_animation",
						
						
						"tag @s add using_greatsword",
						"scoreboard players set @s greatsword_atk 33",
						"scoreboard objectives setdisplay list greatsword_anim",
						
						"scoreboard players random @s weapon_sound 1 5",
						"execute @s[scores={weapon_sound=1}] ~~~ playsound weapon.greatsword_weewee @a[r=20] ~~1~ 1 0.7 0.5",
						"execute @s[scores={weapon_sound=2}] ~~~ playsound weapon.greatsword_weewee @a[r=20] ~~1~ 1 0.8 0.5",
						"execute @s[scores={weapon_sound=3}] ~~~ playsound weapon.greatsword_weewee @a[r=20] ~~1~ 1 0.9 0.5",
						"execute @s[scores={weapon_sound=4}] ~~~ playsound weapon.greatsword_weewee @a[r=20] ~~1~ 1 1 0.5",
						"execute @s[scores={weapon_sound=5}] ~~~ playsound weapon.greatsword_weewee @a[r=20] ~~1~ 1 1.1 0.5",
						
						"tag @s add greatsword_attacking",
						"tag @e[family=!weeweejuice,family=!inanimate,type=!item,tag=!greatsword_attacking,r=4] add greatsword_target",
						
						"execute @s ^^^4 execute @e[tag=greatsword_target,r=4] ~~~ tag @p[tag=using_greatsword,r=4] add hitting_mob",
						"execute @s[tag=hitting_mob,scores={weapon_sound=1}] ~~~ playsound weapon.greatsword_hit_weewee @a[r=20] ~~1~ 1 0.7 0.5",
						"execute @s[tag=hitting_mob,scores={weapon_sound=2}] ~~~ playsound weapon.greatsword_hit_weewee @a[r=20] ~~1~ 1 0.8 0.5",
						"execute @s[tag=hitting_mob,scores={weapon_sound=3}] ~~~ playsound weapon.greatsword_hit_weewee @a[r=20] ~~1~ 1 0.9 0.5",
						"execute @s[tag=hitting_mob,scores={weapon_sound=4}] ~~~ playsound weapon.greatsword_hit_weewee @a[r=20] ~~1~ 1 1 0.5",
						"execute @s[tag=hitting_mob,scores={weapon_sound=5}] ~~~ playsound weapon.greatsword_hit_weewee @a[r=20] ~~1~ 1 1.1 0.5",
						"tag @s remove hitting_mob",
						
						"execute @s ^^^4 tag @e[tag=greatsword_target,r=4] add greatsword_target2",
						"execute @e[tag=greatsword_target,tag=greatsword_target2,r=4,c=4] ~~~ scoreboard players set @a[r=4,c=1,hasitem={item=yes:aetherite_greatsword,location=slot.weapon.mainhand},scores={greatsword_atk=33}] gs_durability 1",
						"damage @e[tag=greatsword_target,tag=greatsword_target2,r=4,c=4] 7 entity_attack entity @s",
						"tag @e[family=!weeweejuice,family=!inanimate,type=!item,tag=greatsword_target,r=6] remove greatsword_target",
						"tag @e[family=!weeweejuice,family=!inanimate,type=!item,tag=greatsword_target2,r=9] remove greatsword_target2",
						"tag @s remove greatsword_attacking"
								],
                    "target": "self"
							}
						},
						{
							"condition": "query.scoreboard('gs_durability') == 1",
	                	"damage": {
	                    	"type": "durability",
	                    	"amount": 1
	                	}
						}
					]
				}
		  }
	 }
}
