{
	"format_version": "1.8.0",
	"animations": {
		"animation.skeletons.hammer1": {
			"animation_length": 2.72,
			"bones": {
				"root": {
					"rotation": [0, 0, 0],
					"position": [0, 0, 0]
				},
				"body": {
					"rotation": {
						"0.0": [0, 0, 0],
						"0.32": [0, -17.5, 0],
						"0.68": [-12.5, -35, 0],
						"0.88": [-15, -42.5, 0],
						"0.96": [12.5, -15, 0],
						"1.0": [45, -15, 0],
						"2.36": [45, -15, 0],
						"2.72": [0, 0, 0]
					},
					"position": {
						"0.0": [0, 0, 0],
						"0.32": [0, 0, 0],
						"0.68": [-1.5, -0.5, 2.25],
						"0.88": [-1.5, -0.5, 2.75],
						"0.96": [0.5, -0.5, -2],
						"1.0": [2.25, -3.75, -8],
						"2.36": [2.25, -3.75, -8],
						"2.72": [0, 0, 0]
					}
				},
				"rightArm": {
					"rotation": {
						"0.0": [0, 0, 0],
						"0.24": [-87.5, -65, 75],
						"0.28": [-87.5, -65, 63.75],
						"0.32": [-100, -60, 62.5],
						"0.36": [-105, -60, 62.5],
						"0.52": [-117.5, -60, 62.5],
						"0.68": [-122.5, -60, 32.5],
						"0.8": [-132.5, -57.5, 45],
						"0.88": [-117.5, -50, 2.5],
						"0.92": [-117.5, -50, -17.5],
						"0.96": [-62.5, -40, -10],
						"1.0": [-65, -10, -10],
						"1.08": [-67.5, -10, -10],
						"1.16": [-65, -10, -10],
						"2.36": [-65, -10, -10],
						"2.72": [-20, 0, 2.5]
					},
					"position": {
						"0.0": [0, 0, 0],
						"0.24": [1, -1, -0.75],
						"0.52": [1, -1, -0.75],
						"0.68": [3, -1, 1.25],
						"0.8": [3, -1, 1.25],
						"0.88": [2, 0, 1.25],
						"0.92": [3, 2, 0.25],
						"0.96": [3, 2, 0.25],
						"1.0": [2, 1, -0.75],
						"1.08": [2, 1, -0.75],
						"1.16": [2, 1, -0.75],
						"2.36": [2, 1, -0.75],
						"2.72": [0, 0, 0]
					}
				},
				"rightItem": {
					"rotation": {
						"0.0": [0, 0, 0],
						"0.24": [0, 0, 32.5],
						"0.32": [8.13, -12.5, 32.5],
						"0.36": [3.13, -15, 32.5],
						"0.52": [3.13, -25, 32.5],
						"0.68": [-26.87, -25, 102.5],
						"0.8": [-31.87, -25, 102.5],
						"0.88": [-1.87, -37.5, 87.5],
						"0.92": [0.63, -37.5, 87.5],
						"0.96": [40.63, -37.5, 62.5],
						"1.0": [63.13, 7.5, 15],
						"1.08": [63.13, 7.5, 15],
						"1.16": [63.13, 7.5, 15],
						"2.36": [63.13, 7.5, 15],
						"2.72": [0, 0, 0]
					},
					"position": {
						"0.0": [0, 0, 0],
						"0.24": [0, 0, 0],
						"0.52": [2, 0, 0],
						"0.68": [2, -2, 3],
						"0.8": [2, -2, 3],
						"0.88": [2, -2.5, 3.5],
						"0.92": [2, -2.5, 3.5],
						"0.96": [2, -2.5, 0.5],
						"1.0": [1, -2.5, -2.5],
						"1.08": [1, -2.5, -2.5],
						"1.16": [1, -2.5, -2.5],
						"2.36": [1, -2.5, -2.5],
						"2.72": [0, 0, 0]
					}
				},
				"leftArm": {
					"rotation": {
						"0.0": [0, 0, 0],
						"0.24": [-50, 32.5, 0],
						"0.52": [-82.5, -7.5, 0],
						"0.68": [-127.5, -57.5, -17.5],
						"0.8": [-127.5, -65, -17.5],
						"0.88": [-137.5, -65, -47.5],
						"0.92": [-142.5, -40, -50],
						"0.96": [-122.5, 35, -50],
						"1.0": [-50, 12.5, 45],
						"1.08": [-50, 12.5, 45],
						"1.16": [-50, 12.5, 45],
						"2.36": [-50, 12.5, 45],
						"2.72": [0, 0, -2.5]
					},
					"position": {
						"0.0": [0, 0, 0],
						"0.24": [0, 1, 1],
						"0.52": [-2, 1, 3],
						"0.68": [-4, -5, 1],
						"0.8": [-4, -5, 1],
						"0.88": [-1, 1, 0],
						"0.92": [-1, 1, 0],
						"0.96": [-1, 1, -2],
						"1.0": [-2, 1, -1],
						"1.08": [-2, 1, -1],
						"1.16": [-2, 1, -1],
						"2.36": [-2, 1, -1],
						"2.72": [0, 0, 0]
					}
				},
				"rightLeg": {
					"rotation": {
						"0.32": [0, 0, 0],
						"0.68": [12.5, 0, 0],
						"0.88": [15, 0, 0],
						"0.96": [-12.5, 0, 0],
						"1.0": [-45, 0, 0],
						"2.36": [-45, 0, 0],
						"2.72": [0, 0, 0]
					},
					"position": {
						"0.32": [0, 0, 0],
						"0.68": [0, 0, 0],
						"2.72": [0, 0, 0]
					}
				},
				"leftLeg": {
					"rotation": {
						"0.32": [0, 0, 0],
						"0.68": [12.5, 0, 0],
						"0.88": [15, 0, 0],
						"0.96": [-12.5, 0, 0],
						"1.0": [-45, 0, 0],
						"2.36": [-45, 0, 0],
						"2.72": [0, 0, 0]
					},
					"position": {
						"0.32": [0, 0, 0],
						"0.68": [0, 0, 0],
						"2.72": [0, 0, 0]
					}
				}
			}
		}
	}
}