{
  "format_version": "1.12",
  "minecraft:recipe_shaped": {
    "description": {
    "identifier": "yes:phantom_sword"
    },  
    "tags": [ "crafting_table" ],
    "pattern": [
      "Z",
      "Y",
      "X"
    ],
    "key": {
      "X": {
        "item": "minecraft:stick"
      },
      "Y": {
        "item": "yes:phantom_cloth"
      },
      "Z": {
        "item": "minecraft:bone"
      }
    },
    "result": {
      "item": "yes:phantom_sword"
    }
  }
}
