{
  "block_sounds": {
    "mycelium_deepslate": {
      "events": {
        "break": {
          "sound": "dig.deepslate",
          "volume": 1.0,
          "pitch": [ 0.80, 1.0 ]
        },
        "default": "",
        "fall": {
          "sounds": "fall.grass",
          "volume": 0.40
        },
        "hit": {
          "sound": "hit.deepslate",
          "volume": 0.3,
          "pitch": 0.50
        },
        "item.use.on": {
          "sound": "step.grass",
          "pitch": 0.80
        },
        "jump": {
          "sound": "jump.grass",
          "volume": 0.110
        },
        "land": {
          "sound": "land.grass",
          "volume": 0.210
        },
        "place": {
          "sound": "place.deepslate",
          "volume": 1.0,
          "pitch": [ 0.80, 1.0 ]
        },
        "power.off": {
          "sound": "block.click",
          "pitch": 0.50
        },
        "power.on": {
          "sound": "block.click",
          "pitch": 0.60
        },
        "step": {
          "sound": "step.grass",
          "volume": 0.30
        }
      },
      "pitch": 1.0,
      "volume": 1.0
    }
  },
  "entity_sounds": {
    "entities": {
      "nicothekid:moss_shroom": {
        "events": {
          "ambient": {
            "sound": "mob.shulker.ambient",
            "volume": 0.8,
            "pitch": [ 2.00, 2.30 ]
          },
          "attack": {
            "sound": "mob.panda.idle.worried",
            "volume": 0.8,
            "pitch": [ 1.90, 2.20 ]
          },
          "death": {
            "sound": "mob.rabbit.death",
            "volume": 0.8,
            "pitch": [ 0.20, 0.50 ]
          },
          "hurt": {
            "sound": "mob.rabbit.hurt",
            "volume": 0.8,
            "pitch": [ 0.20, 0.50 ]
          }
        },
        "pitch": [ 0.80, 1.20 ],
        "volume": 1.0
      },
      "nicothekid:mossy_skeleton": {
        "events": {
          "ambient": "mob.skeleton.say",
          "death": "mob.skeleton.death",
          "hurt": {
            "sound": "mob.skeleton.hurt",
            "volume": 0.70
          },
          "step": {
            "pitch": 1.0,
            "sound": "mob.skeleton.step",
            "volume": 1.0
          }
        },
        "pitch": [ 0.80, 1.20 ],
        "volume": 1.0
      },
      "nicothekid:myceling": {
        "events": {
          "ambient": {
            "sound": "mob.turtle.ambient",
            "volume": 1.0,
            "pitch": [ 0.60, 0.80 ]
          },
          "death": {
            "sound": "mob.turtle.death",
            "volume": 0.8,
            "pitch": [ 0.60, 0.80 ]
          },
          "hurt": {
            "sound": "mob.turtle.hurt",
            "volume": 0.8,
            "pitch": [ 0.60, 0.80 ]
          }
        },
        "pitch": [ 0.80, 1.20 ],
        "volume": 1.0
      }
    }
  }
}