{
	"format_version": "1.10.0",
	"minecraft:attachable": {
		"description": {
			"identifier": "nicothekid:brass_boots.player",
			"item": {
				"minecraft:iron_leggings": "query.owner_identifier == 'minecraft:player'"
			},
			"materials": {
				"default": "armor",
				"enchanted": "armor_enchanted"
			},
			"textures": {
				"default": "textures/models/nicos_cave_expansion/nicothekid_brass_armor_1",
				"enchanted": "textures/misc/enchanted_item_glint"
			},
			"geometry": {
				"default": "geometry.player.armor.boots"
			},
			"scripts": {
        "parent_setup": "variable.boot_layer_visible = 0.0;",
        "animate": [
          "offset"
        ]
      },
      "animations": {
        "offset": "animation.armor.boots.offset"
      },
			"render_controllers": [
				"controller.render.armor"
			]
		}
	}
}