{
  "format_version": "1.17.0",
  "minecraft:item": {
    "description": {
      "category": "equipment",
      "identifier": "btr:iron_hammer"
    },
    "components": {
      "minecraft:icon": {
        "texture": "iron_hammer"
      },
      "minecraft:creative_category": {
        "parent": "itemGroup.name.pickaxe"
      },
      "minecraft:max_stack_size": 1,
      "minecraft:hand_equipped": true,
      "minecraft:foil": false,
      "minecraft:durability": {
        "max_durability": 502
      },
      "minecraft:repairable": {
        "repair_items": [
          {
            "items": [
              "minecraft:iron_ingot"
            ],
            "repair_amount": 125
          },
          {
            "items": [
              "btr:iron_hammer"
            ],
            "repair_amount": "context.other->query.remaining_durability + 0.5 * context.other->query.max_durability"
          }
        ]
      },
      "minecraft:mining_speed": 1.5,
      "minecraft:damage": 7,
      "minecraft:enchantable": {
        "value": 14,
        "slot": "sword"
      },
      "minecraft:can_destroy_in_creative": false,
      "minecraft:weapon": {
        "on_hurt_entity": {
          "event": "attack"
        }
      },
      "tag:minecraft:is_sword": {},
      "minecraft:display_name": {},
      "minecraft:on_use": {
        "on_use": {
          "event": "slam"
        }
      },
      "minecraft:cooldown": {
        "category": "hammer",
        "duration": 10
      }
    },
    "events": {
      "attack": {
        "randomize": [
          {
            "weight": 75,
            "damage": {
              "type": "durability",
              "amount": 1,
              "target": "self"
            },
            "run_command": {
              "command": [
                "effect @s mining_fatigue 2 9 true",
                "effect @s weakness 2 9 true"
              ]
            }
          },
          {
            "weight": 25,
            "damage": {
              "type": "durability",
              "amount": 2,
              "target": "self"
            },
            "run_command": {
              "command": [
                "function stun",
                "effect @s mining_fatigue 2 9 true",
                "effect @s weakness 2 9 true"
              ]
            }
          }
        ]
      },
      "slam": {
        "swing": {},
        "run_command": {
          "command": [
            "function slam_iron"
          ]
        },
        "damage": {
          "type": "durability",
          "amount": 5,
          "target": "self"
        }
      }
    }
  }
}