{
	"format_version" : "1.17.0",
	"minecraft:item" : {
		"description" : {
			"category" : "equipment",
			"identifier" : "btr:potion_bottle_ender_warp"
		},
		"components" : {
			"minecraft:icon" : {
				"texture" : "potion_bottle_ender_warp"
			},
			"minecraft:creative_category" : {
				"parent" : "itemGroup.name.potion"
			},
			"minecraft:max_stack_size" : 1,
			"minecraft:hand_equipped" : false,
			"minecraft:foil" : true,
			"minecraft:display_name" : {},
			"minecraft:on_use" : {
				"on_use" : {
					"event" : "drink"
				}
			},
			"minecraft:cooldown" : {
				"category" : "ender_warp",
				"duration" : 1
			},
			"minecraft:use_duration" : 32
		},
		"events" : {
			"drink" : {
				"swing" : {},
				"decrement_stack" : {},
				"run_command" : {
					"command" : [
						"playsound random.drink @a [r=10] ~~~ 0.5",
						"spreadplayers ~ ~ 0.1 8.0 @s",
						"spreadplayers ~ ~ 0.1 8.0 @s",
						"spreadplayers ~ ~ 0.1 8.0 @s",
						"spreadplayers ~ ~ 0.1 8.0 @s",
						"spreadplayers ~ ~ 0.1 8.0 @s",
						"spreadplayers ~ ~ 0.1 8.0 @s",
						"spreadplayers ~ ~ 0.1 8.0 @s",
						"spreadplayers ~ ~ 0.1 8.0 @s",
						"give @s [m=s] glass_bottle"
					]
				}
			}
		}
	}
}
