{
  "format_version": "1.10",
  "minecraft:item": {
    "description": {
      "identifier": "btr:potion_bottle_milky",
      "category": "equipment"
    },
    "components": {
      "minecraft:hand_equipped": false,
      "minecraft:max_stack_size": 1,
      "minecraft:foil": false,
      "minecraft:stack_by_data": true,
      "minecraft:food": {
        "saturation_modifier": "poor",
        "nutrition": 6,
        "can_always_eat": true,
        "remove_effects": [
          "bad_omen",
          "blindness",
          "fatal_poison",
          "hunger",
          "instant_damage",
          "levitation",
          "mining_fatigue",
          "nausea",
          "poison",
          "slowness",
          "weakness",
          "wither",
          "absorption",
          "conduit_power",
          "fire_resistance",
          "haste",
          "health_boost",
          "instant_health",
          "invisibility",
          "jump_boost",
          "night_vision",
          "regeneration",
          "resistance",
          "saturation",
          "slow_falling",
          "speed",
          "strength",
          "village_hero",
          "water_breathing"
        ],
        "using_converts_to": "minecraft:glass_bottle"
      },
      "minecraft:use_duration": 32
    }
  }
}