{
  "format_version": "1.16.100",
  "minecraft:item": {
    "description": {
      "category": "equipment",
      "identifier": "btr:wooden_battleaxe"
    },
    "components": {
      "minecraft:icon": {
        "texture": "wooden_battleaxe"
      },
      "minecraft:creative_category": {
        "parent": "itemGroup.name.axe"
      },
      "minecraft:max_stack_size": 1,
      "minecraft:use_duration": 3600,
      "minecraft:hand_equipped": true,
      "minecraft:foil": false,
      "minecraft:durability": {
        "max_durability": 99
      },
      "minecraft:repairable": {
        "repair_items": [
          {
            "items": [
              "minecraft:planks"
            ],
            "repair_amount": 25
          },
          {
            "items": [
              "btr:wooden_battleaxe"
            ],
            "repair_amount": "context.other->query.remaining_durability + 0.5 * context.other->query.max_durability"
          }
        ]
      },
      "minecraft:mining_speed": 1.5,
      "minecraft:damage": 6,
      "minecraft:enchantable": {
        "value": 15,
        "slot": "sword"
      },
      "minecraft:can_destroy_in_creative": false,
      "minecraft:digger": {
        "use_efficiency": false,
        "destroy_speeds": [
          {
            "block": "minecraft:infested_deepslate",
            "speed": 10,
            "on_dig": {
              "event": "dig"
            }
          },
          {
            "block": "minecraft:bamboo",
            "speed": 10,
            "on_dig": {
              "event": "dig"
            }
          },
          {
            "block": "minecraft:monster_egg",
            "speed": 10,
            "on_dig": {
              "event": "dig"
            }
          },
          {
            "block": "minecraft:web",
            "speed": 15,
            "on_dig": {
              "event": "dig"
            }
          }
        ],
        "on_dig": {
          "event": "dig"
        }
      },
      "minecraft:weapon": {
        "on_hurt_entity": {
          "event": "attack"
        }
      },
      "tag:minecraft:is_sword": {},
      "minecraft:display_name": {},
      "minecraft:fuel": {
        "duration": 20.0
      }
    },
    "events": {
      "attack": {
        "randomize": [
          {
            "weight": 75,
            "damage": {
              "type": "durability",
              "amount": 1,
              "target": "self"
            },
            "run_command": {
              "command": [
                "effect @s mining_fatigue 2 9 true",
                "effect @s weakness 2 9 true"
              ]
            }
          },
          {
            "weight": 25,
            "damage": {
              "type": "durability",
              "amount": 2,
              "target": "self"
            },
            "run_command": {
              "command": [
                "function disarm",
                "effect @s mining_fatigue 2 9 true",
                "effect @s weakness 2 9 true"
              ]
            }
          }
        ]
      },
      "dig": {
        "damage": {
          "type": "durability",
          "amount": 2,
          "target": "self"
        }
      }
    }
  }
}