{
  "pools": [
    {
      "conditions": [
        {
          "condition": "random_regional_difficulty_chance",
          "max_chance": 0.1
        }
      ],
      "rolls": 1,
      "entries": [
        {
          "type": "item",
          "name": "yes:emerald_pickaxe",
          "weight": 1
        }
      ]
    },
    {
      "conditions": [
        {
          "condition": "random_regional_difficulty_chance",
          "max_chance": 0.1
        }
      ],
      "rolls": 1,
      "entries": [
        {
          "type": "item",
          "name": "yes:emerald_axe",
          "weight": 1
        }
      ]
    },
    {
      "conditions": [
        {
          "condition": "random_regional_difficulty_chance",
          "max_chance": 0.1
        }
      ],
      "rolls": 1,
      "entries": [
        {
          "type": "item",
          "name": "yes:emerald_shovel",
          "weight": 1
        }
      ]
    },
    {
      "conditions": [
        {
          "condition": "random_regional_difficulty_chance",
          "max_chance": 0.1
        }
      ],
      "rolls": 1,
      "entries": [
        {
          "type": "item",
          "name": "yes:emerald_hoe",
          "weight": 1
        }
      ]
    },
    {
      "rolls": {
        "min": 3,
        "max": 8
      },
      "entries": [
        {
          "type": "item",
          "functions": [
            {
              "function": "set_count",
              "count": {
                "min": 1,
                "max": 3
              }
            }
          ],
          "name": "minecraft:diamond"
        },
        {
          "type": "item",
          "weight": 5,
          "functions": [
            {
              "function": "set_count",
              "count": {
                "min": 1,
                "max": 5
              }
            }
          ],
          "name": "minecraft:iron_ingot"
        },
        {
          "type": "item",
          "functions": [
            {
              "function": "set_count",
              "count": {
                "min": 1,
                "max": 3
              }
            }
          ],
          "name": "minecraft:gold_ingot"
        },
        {
          "type": "item",
          "weight": 15,
          "functions": [
            {
              "function": "set_count",
              "count": {
                "min": 1,
                "max": 3
              }
            }
          ],
          "name": "minecraft:bread"
        },
        {
          "type": "item",
          "weight": 5,
          "name": "minecraft:iron_pickaxe"
        },
        {
          "type": "item",
          "functions": [
            {
              "function": "set_count",
              "count": {
                "min": 1,
                "max": 3
              }
            }
          ],
          "name": "minecraft:coal"
        },
        {
          "type": "item",
          "weight": 20,
          "functions": [
            {
              "function": "set_count",
              "count": {
                "min": 1,
                "max": 3
              }
            }
          ],
          "name": "minecraft:stick"
        },
        {
          "type": "item",
          "weight": 5,
          "name": "minecraft:iron_shovel"
        }
      ]
    }
  ]
}