{
  "format_version": "1.12",
  "minecraft:recipe_shapeless": {
    "description": {
      "identifier": "bash_iii_book"
    },
    "tags": [
      "crafting_table"
    ],
    "ingredients": [
      {
        "item": "btr:bash_ii_book"
      },
      {
        "item": "btr:bash_ii_book"
      }
    ],
    "result": {
      "item": "btr:bash_iii_book"
    }
  }
}