{
    "format_version": "1.16.100",
    "minecraft:item": {
        "description": {
            "identifier": "yes:amethyst_spear_ad1",
            "category": "equipment"
        },
        "components": {
			"minecraft:foil": true,
			  "minecraft:use_duration": 32,
        "minecraft:animates_in_toolbar": true,
            "minecraft:icon": {
                "texture": "amethyst_spear"
            },
	         "minecraft:cooldown": {
                "category": "amethyst_spear",
                "duration": 3
            },
 	 		  "minecraft:on_use": {
        	 	   "on_use": {
            	    "event": "yes:stab_attack",
					"condition": "!query.scoreboard('weakness') == 1",
            	    "target": "self"
    	                }
	              },
            "minecraft:display_name": {
				"value": "§bAmethyst Spear\n§l§r\n\n§6Special Attack:\n§e[§9+22 atk§e]\n§e[§90.64 secs§e]\n§e[§93.0 secs§e]\n§7Ability Damage I"
			},
            "minecraft:creative_category": {
                "parent": "itemGroup.name.sword"
            },
            "minecraft:hand_equipped": true,
            "minecraft:max_stack_size": 1,
            "minecraft:allow_off_hand": false,
            "minecraft:render_offsets": "tools",
            "minecraft:enchantable": {
                "value": 22,
                "slot": "sword"
            },
            "minecraft:durability": {
                "max_durability": 500,
                "damage_chance": {
                    "min": 90,
                    "max": 100
                }
            },
            "minecraft:repairable": {
                "repair_items": [
                    {
                        "items": [
                            "yes:amethyst_spear",
                            "minecraft:amethyst_shard"
                        ],
                        "repair_amount": 500
                    }
                ]
            },
            "minecraft:weapon": {
                "on_hurt_entity": {
                    "event": "yes:damage_event",
                    "target": "self"
                }
            },
            "minecraft:mining_speed": 1,
            "minecraft:damage": 4,
            "minecraft:can_destroy_in_creative": false,
            "minecraft:digger": {
                "on_dig": {
                    "event": "yes:damage_event",
                    "target": "self"
                },
                "use_efficiency": true,
                "destroy_speeds": [
                    {
                        "block": "minecraft:web",
                        "speed": 20,
                        "on_dig": {
                            "event": "yes:damage_event",
                            "target": "self"
                        }
                    },
                    {
                        "block": "minecraft:bamboo",
                        "speed": 20,
                        "on_dig": {
                            "event": "yes:damage_event",
                            "target": "self"
                        }
                    }
                ]
            }
        },
        "events": {
            "yes:damage_event": {
                "damage": {
                    "type": "durability",
                    "amount": 1
                }
            },
            "yes:stab_attack": {
					"sequence": [

						{
							"condition": "query.scoreboard('as_durability') == 1",
	                	"damage": {
	                    	"type": "durability",
	                    	"amount": 10
	                	}
						},
						{
							"swing": {},
							"run_command": {
		               "command": [
								"scoreboard objectives add as_durability dummy",
								"scoreboard players set @s as_durability 0",
								"tag @s add spear_attacking",
								"tag @s add temp_tag",
								
								"execute @s ^^0.5^0.75 execute @e[family=!inanimate,family=!weeweejuice,r=0.75] ~~~ scoreboard players set @a[c=1,r=2,tag=temp_tag,hasitem={item=yes:amethyst_spear,location=slot.weapon.mainhand}] as_durability 1",
								 "execute @s ^^0.5^1.5 execute @e[family=!inanimate,family=!weeweejuice,r=0.75] ~~~ scoreboard players set @a[c=1,r=3,tag=temp_tag,hasitem={item=yes:amethyst_spear,location=slot.weapon.mainhand}] as_durability 1",
								"execute @s ^^0.5^2.25 execute @e[family=!inanimate,family=!weeweejuice,r=0.75] ~~~ scoreboard players set @a[c=1,r=4,tag=temp_tag,hasitem={item=yes:amethyst_spear,location=slot.weapon.mainhand}] as_durability 1",
								   "execute @s ^^0.5^3 execute @e[family=!inanimate,family=!weeweejuice,r=0.75] ~~~ scoreboard players set @a[c=1,r=5,tag=temp_tag,hasitem={item=yes:amethyst_spear,location=slot.weapon.mainhand}] as_durability 1",
								"execute @s ^^0.5^3.75 execute @e[family=!inanimate,family=!weeweejuice,r=0.75] ~~~ scoreboard players set @a[c=1,r=6,tag=temp_tag,hasitem={item=yes:amethyst_spear,location=slot.weapon.mainhand}] as_durability 1",
								 "execute @s ^^0.5^4.5 execute @e[family=!inanimate,family=!weeweejuice,r=0.75] ~~~ scoreboard players set @a[c=1,r=7,tag=temp_tag,hasitem={item=yes:amethyst_spear,location=slot.weapon.mainhand}] as_durability 1",
								"execute @s ^^0.5^5.25 execute @e[family=!inanimate,family=!weeweejuice,r=0.75] ~~~ scoreboard players set @a[c=1,r=8,tag=temp_tag,hasitem={item=yes:amethyst_spear,location=slot.weapon.mainhand}] as_durability 1",

								"playanimation @s animation.player.stab2",
								"effect @s weakness 2 255 true",
								"summon yes:amethyst_spear_entity_ad1 ~~~ ",
								"effect @p mining_fatigue 2 8 true",
								"tag @s remove temp_tag"
								]
							}
						}
					]
				}
		  }
	 }
}
				
							
							
							
							
							
							
							
						