{
  "format_version": "1.16.100",
  "minecraft:item": {
        "description": {
      "category": "equipment",
      "identifier": "yes:warden_chestplate"
    },
    "components": {
		"tag:minecraft:is_armor": {},
		"tag:minecraft:netherite_tier": {},
      "minecraft:creative_category": {
        "parent": "itemGroup.name.chestplate"
     },
      "minecraft:display_name": {
  				"value": "Warden Chestplate\n§l§r"
		},
     "minecraft:icon": {
        "texture": "warden_chestplate"
     },
    "minecraft:render_offsets": "chestplate",
      "minecraft:max_stack_size": 1,
      "minecraft:enchantable": {
        "value": 12,
        "slot": "armor_torso"
      },
      "minecraft:durability": {
        "max_durability": 720,
			"damage_chance": {
				"min": 60,
				"max": 100
			}
      },
      "minecraft:armor": {
        "protection": 11
      },
		"minecraft:knockback_resistance": {
			"protection": 0.05
		},
      "minecraft:wearable": {
        "slot": "slot.armor.chest"
      },
            "minecraft:repairable": {
                "repair_items": [
                    {
                        "items": [
									"yes:warden_heart"
                        ],
                        "repair_amount": 720
                    },
						 {
                        "items": [
                            "yes:warden_chestplate"
                        ],
                        "repair_amount": "context.other->query.remaining_durability + 0.05 * context.other->query.max_durability"
                    },
                    {
                        "items": [
                            "minecraft:echo_shard"
                        ],
                        "repair_amount": 480
                    },
                    {
                        "items": [
									"yes:warden_tendril"
                        ],
                        "repair_amount": 240
                    }
                ]
            }
	 }
  }
}