{
	"format_version": "1.16.0",
	"minecraft:geometry": [
		{
			"description": {
				"identifier": "geometry.hammer",
				"texture_width": 64,
				"texture_height": 64,
				"visible_bounds_width": 6,
				"visible_bounds_height": 5,
				"visible_bounds_offset": [0, 1.5, 0]
			},
			"bones": [
				{
					"name": "root",
					"pivot": [0, 0, 0]
				},
				{
					"name": "waist",
					"parent": "root",
					"pivot": [0, 12, 0]
				},
				{
					"name": "body",
					"parent": "waist",
					"pivot": [0, 24, 0]
				},
				{
					"name": "head",
					"parent": "body",
					"pivot": [0, 24, 0]
				},
				{
					"name": "leftArm",
					"parent": "body",
					"pivot": [5, 22, 0]
				},
				{
					"name": "leftItem",
					"parent": "leftArm",
					"pivot": [6, 15, 1]
				},
				{
					"name": "rightArm",
					"parent": "body",
					"pivot": [-5, 22, 0]
				},
				{
					"name": "rightItem",
					"parent": "rightArm",
					"pivot": [-6, 15, 1]
				},
				{
					"name": "hammer",
					"parent": "rightItem",
					"pivot": [0, 0, 0],
					"rotation": [90, 90, 90],
					"cubes": [
						{
							"origin": [-1, 0, -1],
							"size": [2, 16, 2],
							"uv": {
								"north": {"uv": [20, 20], "uv_size": [2, 16]},
								"east": {"uv": [22, 20], "uv_size": [2, 16]},
								"south": {"uv": [24, 20], "uv_size": [2, 16]},
								"west": {"uv": [26, 20], "uv_size": [2, 16]},
								"up": {"uv": [2, 30], "uv_size": [2, 2]},
								"down": {"uv": [4, 32], "uv_size": [2, -2]}
							}
						},
						{
							"origin": [-1, -7, -0.5],
							"size": [2, 7, 1],
							"uv": {
								"north": {"uv": [28, 20], "uv_size": [2, 7]},
								"east": {"uv": [0, 30], "uv_size": [1, 7]},
								"south": {"uv": [28, 27], "uv_size": [2, 7]},
								"west": {"uv": [1, 30], "uv_size": [1, 7]},
								"up": {"uv": [6, 30], "uv_size": [2, 1]},
								"down": {"uv": [8, 31], "uv_size": [2, -1]}
							}
						},
						{
							"origin": [-8, 16, -5],
							"size": [16, 10, 10],
							"uv": {
								"north": {"uv": [0, 0], "uv_size": [16, 10]},
								"east": {"uv": [0, 20], "uv_size": [10, 10]},
								"south": {"uv": [0, 10], "uv_size": [16, 10]},
								"west": {"uv": [10, 20], "uv_size": [10, 10]},
								"up": {"uv": [16, 0], "uv_size": [16, 10]},
								"down": {"uv": [16, 20], "uv_size": [16, -10]}
							}
						}
					]
				},
				{
					"name": "leftLeg",
					"parent": "root",
					"pivot": [1.9, 12, 0]
				},
				{
					"name": "rightLeg",
					"parent": "root",
					"pivot": [-1.9, 12, 0]
				}
			]
		}
	]
}