{
	"format_version": "1.17.0",
	"minecraft:ore_feature": {
		"description": {
			"identifier": "v:garnet_ore_feature"
		},
		"count": 3,
		"replace_rules": [
			{
				"places_block": {
					"name": "v:garnet_ore"
				},
				"may_replace": [
					{
						"name": "minecraft:stone"
					}
				]
			},
			{
				"places_block": {
					"name": "v:deepslate_garnet_ore"
				},
				"may_replace": [
					{
						"name": "minecraft:deepslate"
					}
				]
			}
		]
	}
}