{
  "format_version": "1.16.100",
  "minecraft:item": {
    "description": {
      "category": "commands",
      "identifier": "btr:combo_iii_netherite_nunchaku"
    },
    "components": {
      "minecraft:icon": {
        "texture": "netherite_nunchaku"
      },
      "minecraft:max_stack_size": 1,
      "minecraft:use_duration": 3600,
      "minecraft:hand_equipped": true,
      "minecraft:foil": true,
      "minecraft:durability": {
        "max_durability": 2030
      },
      "minecraft:repairable": {
        "repair_items": [
          {
            "items": [
              "minecraft:netherite_ingot"
            ],
            "repair_amount": 507
          },
          {
            "items": [
              "btr:netherite_nunchaku"
            ],
            "repair_amount": "context.other->query.remaining_durability + 0.5 * context.other->query.max_durability"
          }
        ]
      },
      "minecraft:mining_speed": 1.5,
      "minecraft:damage": 8,
      "minecraft:enchantable": {
        "value": 22,
        "slot": "sword"
      },
      "minecraft:can_destroy_in_creative": false,
      "minecraft:digger": {
        "use_efficiency": false,
        "destroy_speeds": [
          {
            "block": "minecraft:infested_deepslate",
            "speed": 10,
            "on_dig": {
              "event": "reduce_durability"
            }
          },
          {
            "block": "minecraft:bamboo",
            "speed": 10,
            "on_dig": {
              "event": "reduce_durability"
            }
          },
          {
            "block": "minecraft:monster_egg",
            "speed": 10,
            "on_dig": {
              "event": "reduce_durability"
            }
          },
          {
            "block": "minecraft:web",
            "speed": 15,
            "on_dig": {
              "event": "reduce_durability"
            }
          }
        ],
        "on_dig": {
          "event": "reduce_durability"
        }
      },
      "minecraft:weapon": {
        "on_hurt_entity": {
          "event": "combo"
        }
      },
      "tag:minecraft:is_sword": {},
      "minecraft:display_name": {
        "value": "§bNetherite Nunchaku\n§7Combo III"
      }
    },
    "events": {
      "reduce_durability": {
        "damage": {
          "type": "durability",
          "amount": 1,
          "target": "self"
        }
      },
      "combo": {
        "randomize": [
          {
            "weight": 75,
            "damage": {
              "type": "durability",
              "amount": 1,
              "target": "self"
            }
          },
          {
            "weight": 25,
            "damage": {
              "type": "durability",
              "amount": 2,
              "target": "self"
            },
            "run_command": {
              "command": [
                "function enchantment/combo_iii"
              ]
            }
          }
        ]
      }
    }
  }
}