{
	"format_version": "1.16.100",
	"minecraft:item": {
		"description": {
			"identifier": "bb:minecoin",
			"category": "items"
		},
		"components": {
			"minecraft:icon": {
				"texture": "bb_minecoin"
			},
			"minecraft:explodable": false
		}
	}
}