{
    "format_version": "1.10.0",
    "animation_controllers": {
        "controller.animation.mace_range": {
            "states": {
                "default": {
                    "transitions": [
                        {
                            "alive": "query.is_alive"
						}
                    ]
                },
                "alive": {
					"on_entry": [
						"/execute @s[type=yes:gilded_netherite_mace_projectile] ~~~ execute @e[type=yes:mace_range_entity,rm=1.65,r=4] ~~~ event entity @e[type=yes:gilded_netherite_mace_projectile,c=1] yes:despawn",
						"/execute @s[type=yes:netherite_mace_projectile] ~~~ execute @e[type=yes:mace_range_entity,rm=1.65,r=4] ~~~ event entity @e[type=yes:netherite_mace_projectile,c=1] yes:despawn",
						"/execute @s[type=yes:diamond_mace_projectile] ~~~ execute @e[type=yes:mace_range_entity,rm=1.65,r=4] ~~~ event entity @e[type=yes:diamond_mace_projectile,c=1] yes:despawn"
					],
                    "transitions": [
                        {
                            "default": "query.is_alive"
						}
                    ],
                    "on_exit": [
						"/execute @s[type=yes:gilded_netherite_mace_projectile] ~~~ execute @e[type=yes:mace_range_entity,rm=1.65,r=4] ~~~ event entity @e[type=yes:gilded_netherite_mace_projectile,c=1] yes:despawn",
						"/execute @s[type=yes:netherite_mace_projectile] ~~~ execute @e[type=yes:mace_range_entity,rm=1.65,r=4] ~~~ event entity @e[type=yes:netherite_mace_projectile,c=1] yes:despawn",
						"/execute @s[type=yes:diamond_mace_projectile] ~~~ execute @e[type=yes:mace_range_entity,rm=1.65,r=4] ~~~ event entity @e[type=yes:diamond_mace_projectile,c=1] yes:despawn"
                    ]
                }
            }
        }
    }
}