{
    "format_version": "1.10.0",
    "animation_controllers": {
        "controller.animation.mace_dummy": {
            "states": {
                "default": {
                    "transitions": [
                        {
                            "dead": "query.health < 4000"
                        }
                    ]
                },
                "dead": {
                    "on_entry": [
                        "/tp @s ~ ~-200 ~"
                    ],
                    "transitions": [
                        {
                            "default": "query.is_alive"
                        }
                    ]
                }
            }
        }
    }
}