{
  "format_version": "1.12",
  "minecraft:recipe_shaped": {
    "description": {
      "identifier": "copper_boots"
    },
    "tags": [
      "crafting_table"
    ],
    "pattern": [
      "A A",
      "A A"
    ],
    "key": {
      "A": {
        "item": "minecraft:copper_ingot"
      }
    },
    "result": {
      "item": "btr:copper_boots"
    }
  }
}