{
  "format_version": "1.12",
  "minecraft:recipe_shaped": {
    "description": {
      "identifier": "golden_battleaxe"
    },
    "tags": [
      "crafting_table"
    ],
    "pattern": [
      "AAA",
      "ABA",
      " B "
    ],
    "key": {
      "A": {
        "item": "minecraft:gold_ingot"
      },
      "B": {
        "item": "minecraft:stick"
      }
    },
    "result": {
      "item": "btr:golden_battleaxe"
    }
  }
}