{
	"format_version" : "1.12",
	"minecraft:recipe_brewing_mix" : {
		"description" : {
			"identifier" : "lingering_cure"
		},
		"tags" : [ "brewing_stand" ],
		"input" : "btr:potion_lingering_milky",
		"reagent" : "minecraft:golden_apple",
		"output" : "btr:potion_lingering_cure"
	}
}
