{
	"format_version" : "1.12",
	"minecraft:recipe_brewing_mix" : {
		"description" : {
			"identifier" : "lingering_decay"
		},
		"tags" : [ "brewing_stand" ],
		"input" : {
			"item" : "minecraft:lingering_potion",
			"data" : 28
		},
		"reagent" : "minecraft:fermented_spider_eye",
		"output" : {
			"item" : "minecraft:lingering_potion",
			"data" : 36
		}
	}
}
