{
	"format_version" : "1.12",
	"minecraft:recipe_brewing_mix" : {
		"description" : {
			"identifier" : "splash_dispel"
		},
		"tags" : [ "brewing_stand" ],
		"input" : "btr:potion_splash_milky",
		"reagent" : "minecraft:fermented_spider_eye",
		"output" : "btr:potion_splash_dispel"
	}
}
