{
	"format_version" : "1.12",
	"minecraft:recipe_brewing_mix" : {
		"description" : {
			"identifier" : "splash_ender_warp_alt"
		},
		"tags" : [ "brewing_stand" ],
		"input" : "btr:potion_bottle_ender_warp",
		"reagent" : "minecraft:gunpowder",
		"output" : "btr:potion_splash_ender_warp"
	}
}
