{
	"file_path": "C:\\Users\\plant\\AppData\\Local\\Packages\\Microsoft.MinecraftUWP_8wekyb3d8bbwe\\LocalState\\games\\com.mojang\\development_behavior_packs\\Village and Pillage+\\functions\\ore_item_deleter.mcfunction",
	"file_type": "function",
	"format_version": 0,
	"file_uuid": "531cdf3f_7c34_4d2a_a2f7_04d69667fc60",
	"file_version": 12,
	"cache_content": "execute @e[type=item,name=youmom] ~~~ kill @e[type=item,name=\"Topaz Gem\",r=2,c=1]\r\nexecute @e[type=item,name=youmom] ~~~ kill @e[type=item,name=\"Kyanite Gem\",r=2,c=1]\r\nexecute @e[type=item,name=youmom] ~~~ kill @e[type=item,name=\"Garnet\",r=2,c=1]\r\nexecute @e[type=item,name=youmom] ~~~ kill @s"
}