{
	"file_path": "C:\\Users\\plant\\AppData\\Local\\Packages\\Microsoft.MinecraftUWP_8wekyb3d8bbwe\\LocalState\\games\\com.mojang\\development_behavior_packs\\Village and Pillage+\\functions\\unnamed.mcfunction",
	"file_type": "function",
	"format_version": 0,
	"file_uuid": "7bdc85eb_b9a4_49cc_8575_6020acdec511",
	"file_version": 3,
	"cache_content": "scoreboard objectives add gold_revive dummy\r\nscoreboard players set @s gold_revive 1\r\nplayanimation @s animation.evoker.v1.8.revive_table\r\n"
}