{
	"format_version": "1.12.0",
	"minecraft:geometry": [
		{
			"description": {
				"identifier": "geometry.block.nicothekid_jar_full",
				"texture_width": 64,
				"texture_height": 64,
				"visible_bounds_width": 3,
				"visible_bounds_height": 3,
				"visible_bounds_offset": [0, 0.5, 0]
			},
			"bones": [
				{
					"name": "cup",
					"pivot": [0, 1, 0],
					"cubes": [
						{"origin": [-3, 14, -3], "size": [6, 2, 6], "uv": [0, 36]}
					]
				},
				{
					"name": "mouth",
					"pivot": [0, 13, 0],
					"cubes": [
						{"origin": [-4, 13, -4], "size": [8, 2, 8], "uv": [30, 0]}
					]
				},
				{
					"name": "neck",
					"pivot": [0, 9, 0],
					"cubes": [
						{"origin": [-3, 10, -3], "size": [6, 3, 6], "uv": [34, 14]}
					]
				},
				{
					"name": "body",
					"pivot": [0, 0, 0],
					"cubes": [
						{"origin": [-5, 0, -5], "size": [10, 10, 10], "uv": [0, 0]}
					]
				},
				{
					"name": "full",
					"pivot": [0, 0, 0],
					"cubes": [
						{"origin": [-4, 1, -4], "size": [8, 8, 8], "uv": [0, 20]}
					]
				}
			]
		}
	]
}