{
  "format_version": "1.18.0",
  "minecraft:item": {
    "description": {
      "identifier": "btr:disarm_i_book",
      "category": "items"
    },
    "components": {
      "minecraft:icon": {
        "texture": "book"
      },
      "minecraft:display_name": {
        "value": "§eEnchanted Book\n§7Disarm I"
      },
      "minecraft:max_stack_size": 16,
      "minecraft:foil": true,
      "minecraft:creative_category": {
        "parent": "itemGroup.name.enchantedBook"
      }
    }
  }
}