{
	"format_version": 1.16,
	"minecraft:recipe_shaped": {
		"description": {
			"identifier": "v:garnet_block"
		},
		"tags": [
			"crafting_table"
		],
		"pattern": [
			"AA",
			"AA"
		],
		"key": {
			"A": {
				"item": "v:garnet"
			}
		},
		"result": [
			{
				"item": "v:garnet_block"
			}
		]
	}
}