{
	"format_version": 1.16,
	"minecraft:recipe_shaped": {
		"description": {
			"identifier": "v:topaz_from_block"
		},
		"tags": [
			"crafting_table"
		],
		"pattern": [
			"A"
		],
		"key": {
			"A": {
				"item": "v:topaz_block"
			}
		},
		"result": [
			{
				"count": 4,
				"item": "v:topaz"
			}
		]
	}
}