{
	"format_version": "1.17.0",
	"minecraft:recipe_shaped": {
		"description": {
			"identifier": "v:totem_of_jumping_craft"
		},
		"tags": [
			"revive_table"
		],
		"pattern": [
			" + ",
			"#*#",
			" #"
		],
		"key": {
			"#": {
				"item": "minecraft:rabbit_foot"
			},
			"+": {
				"item": "minecraft:emerald_block"
			},
			"*": {
				"item": "v:totem_heart"
			}
		},
		"result": [
			{
				"item": "v:totem_of_jumping"
			}
		]
	}
}