{
 "format_version": "1.10",
 "minecraft:item": {
  "description": {
   "identifier": "vatonage:jump_boost_ring",
   "category": "Nature"
  },
  "components": {
   "minecraft:icon": "jump_boost_ring",
   "minecraft:render_offsets": "jump_boost_ring"
  }
 }
}