{
 "format_version": "1.10",
 "minecraft:item": {
  "description": {
   "identifier": "vatonage:magic_amulet",
   "category": "Nature"
  },
  "components": {
   "minecraft:icon": "magic_amulet",
   "minecraft:render_offsets": "magic_amulet"
  }
 }
}