{
 "format_version": "1.10",
 "minecraft:item": {
  "description": {
   "identifier": "vatonage:power_charm",
   "category": "Nature"
  },
  "components": {
   "minecraft:icon": "power_charm",
   "minecraft:render_offsets": "power_charm"
  }
 }
}