{
	"format_version": "1.16.0",
	"minecraft:entity": {
		"description": {
			"identifier": "nicothekid:blazing_pearl",
			"is_spawnable": false,
			"is_summonable": false,
			"is_experimental": false,
			"runtime_identifier": "minecraft:snowball"
		},
		"components": {
      "minecraft:collision_box": {
        "height": 0.25,
        "width": 0.25
      },
      "minecraft:physics": {
        "has_collision": true,
        "has_gravity": true
      },
      "minecraft:projectile": {
				"anchor": 1,
				"angle_offset": 0.0,
				"gravity": 0.005,
				"power": 1.5,
				"offset": [ 0, -0.1, 0 ],
				"hit_sound": "mob.blaze.shoot",
				"particle": "nicothekid:fire_particle",
				"on_hit": {
					"impact_damage": {
						"filter": "blaze",
						"damage": 5,
						"catch_fire": false,
						"knockback": true
					},
					"particle_on_hit": {
            "particle_type": "fire_particle",
            "num_particles": 10,
            "on_entity_hit":true,
            "on_other_hit": true
          },
					"catch_fire": {
            "fire_affected_by_griefing": true
          },
          "remove_on_hit": { }
				}
			},
			"minecraft:pushable": {
        "is_pushable": true,
        "is_pushable_by_piston": true
      },
      "minecraft:conditional_bandwidth_optimization": {
        "default_values": {
          "max_optimized_distance": 100.0,
          "max_dropped_ticks": 10,
          "use_motion_prediction_hints": true
        }
      }
		}
	}
}