{
	"format_version": "1.17.0",
	"minecraft:block": {
		"description": {
			"identifier": "v:deepslate_kyanite_ore"
		},
		"components": {
			"minecraft:destroy_time": 1,
			"minecraft:material_instances": {
				"*": {
					"texture": "deepslate_kyanite_ore"
				}
			},
			"minecraft:entity_collision": {
				"origin": [
					-8,
					0,
					-8
				],
				"size": [
					16,
					16,
					16
				]
			},
			"minecraft:pick_collision": {
				"origin": [
					-8,
					0,
					-8
				],
				"size": [
					16,
					16,
					16
				]
			},
			"minecraft:loot": "empty",
			"minecraft:on_player_destroyed": {
				"condition": "query.get_equipped_item_name=='diamond_pickaxe'||query.get_equipped_item_name=='netherite_pickaxe'||query.get_equipped_item_name=='iron_pickaxe'||query.equipped_item_any_tag('slot.weapon.mainhand','is_pickaxe_costum')||query.get_equipped_item_name=='stone_pickaxe'",
				"event": "pick"
			},
			"minecraft:creative_category": {
				"group": "itemGroup.name.ore",
				"category": "nature"
			},
			"minecraft:unit_cube": {},
			"tag:fast_pickaxe_mineable": {}
		},
		"events": {
			"pick": {
				"spawn_loot": {
					"table": "loot_tables/kyanite_ore_loot.json"
				},
				"run_command": {
					"command": [
						"summon v:ore_item_deleter"
					]
				}
			}
		}
	}
}