{
	"format_version": "1.17.0",
	"minecraft:block": {
		"description": {
			"identifier": "v:garnet_block"
		},
		"components": {
			"minecraft:destroy_time": 1,
			"tag:fast_pickaxe_mineable": {},
			"minecraft:unit_cube": {},
			"minecraft:material_instances": {
				"*": {
					"texture": "garnet_block"
				}
			},
			"minecraft:creative_category": {
				"group": "itemGroup.name.block",
				"category": "construction"
			}
		},
		"events": {}
	}
}