{
  "format_version": "1.16.100",
  "minecraft:item": {
    "description": {

      "identifier": "tome:water_of_life_scroll",
      "category": "Items"
    },
    "components": {
      "minecraft:creative_category": {
        "parent": "itemGroup.name.scrolls_2"
      },
      "minecraft:max_stack_size": 16,
      "minecraft:foil": false,
      "minecraft:hand_equipped": false,
      "minecraft:icon":{
         "texture":"water_scroll"
      },
      "minecraft:display_name":{
         "value":"Scroll of §1Water Life§r"
      },

      "minecraft:cooldown":{
          "category":"water_life",
          "duration": 130
      },
      "minecraft:can_destroy_in_creative": false,
         "minecraft:on_use":{
            "on_use":{
               "event":"water_life"
            }
         }
      },
      "events":{
         "water_life":{
            "sequence": [
              {
            "condition": "query.scoreboard('block_magic') == 1 && query.remaining_durability >= 0",
        "run_command": {
            "command": [
            "tellraw @s {\"rawtext\":[{\"text\":\"§8The Scroll's power is being blocked by an unknown force.\"}]}"
            ],
            "target": "holder"
              }
            },
             {
               "condition":"query.scoreboard('block_magic') == 0 && query.player_level >= 16 && query.scoreboard('water') == 1 && query.relative_block_has_any_tag(0,-1,0,'water') == 1",
               "randomize": [
                 {
                   "weight": 965,
                  "swing":{
                  },
                  "run_command": {
                    "command": [
                      "effect @s regeneration 10 2 true",
                      "playsound random.splash @a[r=5] ~~~ 7"
                    ],
                    "target": "holder"
                   },
              		"decrement_stack": {}
                 },
                 {
                   "weight": 35,
                  "swing":{
                  },
                  "run_command": {
                    "command": [
                      "particle tome:water_burst ~ ~ ~",
                      "summon splash_potion ~ ~ ~",
                      "playsound random.splash @a[r=5] ~~~ 7",
                      "tellraw @s {\"rawtext\":[{\"text\":\"The Scroll backfired and you took 6 water damage!\"}]}"
                    ],
                    "target": "holder"
                  },
                  "damage": {
                		"type": "drowning",
                		"amount": 6,
                		"target": "holder"
              		},
              		"decrement_stack": {}
                 }
               ]
             },
            {
               "condition": "!query.scoreboard('water') == 1",
               "run_command": {
                 "command": ["tellraw @s {\"rawtext\":[{\"text\":\"You do not have the required Knowledge to use this Scroll.\"}]}"],
                 "target": "holder"
               }
            },
            {
               "condition": "query.scoreboard('block_magic') == 0 && query.player_level >= 16 && query.scoreboard('water') == 1 && !query.relative_block_has_any_tag(0,-1,0,'water') == 1",
               "run_command": {
                 "command": ["tellraw @s {\"rawtext\":[{\"text\":\"§bYou need to be in water to use this spell.\"}]}"],
                 "target": "holder"
               }
            },
            {
               "condition": "query.player_level < 16",
               "run_command": {
                 "command": ["tellraw @s {\"rawtext\":[{\"text\":\"Your Tier is too low to cast this Scroll.\"}]}"],
                 "target": "holder"
               }
            }
          ]
        }
      }
    }
  }