{
  "pools": [
    {
      "rolls": 1,
      "entries": [
        {
          "type": "item",
          "name": "minecraft:golden_apple",
          "weight": 40
        },
        {
          "type": "item",
          "name": "minecraft:appleEnchanted",
          "weight": 2
        },
        {
          "type": "item",
          "name": "minecraft:name_tag",
          "weight": 50
        },
        {
          "type": "item",
          "name": "minecraft:book",
          "weight": 20,
          "functions": [
            {
              "function": "enchant_randomly"
            }
          ]
        },
        {
          "type": "item",
          "name": "yes:ability_damage_book1",
          "weight": 3,
          "functions": [
            {
              "function": "enchant_random_gear",
              "chance": 0.6
            }
          ]
        },
        {
          "type": "item",
          "name": "yes:ability_damage_book2",
          "weight": 2,
          "functions": [
            {
              "function": "enchant_random_gear",
              "chance": 0.6
            }
          ]
        },
        {
          "type": "item",
          "name": "yes:ability_damage_book3",
          "weight": 1,
          "functions": [
            {
              "function": "enchant_random_gear",
              "chance": 0.6
            }
          ]
        },
        {
          "type": "item",
          "name": "minecraft:iron_pickaxe",
          "weight": 10
        },
        {
          "type": "empty",
          "weight": 8
        }
      ]
    },
    {
      "rolls": {
        "min": 1,
        "max": 2
      },
      "entries": [
        {
          "type": "item",
          "name": "yes:amethyst_pickaxe",
          "weight": 5
        },
        {
          "type": "item",
          "name": "yes:amethyst_helmet",
          "weight": 1
        },
        {
          "type": "item",
          "name": "yes:amethyst_chestplate",
          "weight": 1
        },
        {
          "type": "item",
          "name": "yes:amethyst_leggings",
          "weight": 1
        },
        {
          "type": "item",
          "name": "yes:amethyst_boots",
          "weight": 1
        },
        {
          "type": "item",
          "name": "yes:copper_pickaxe",
          "weight": 25
        },
        {
          "type": "item",
          "name": "yes:copper_helmet",
          "weight": 5
        },
        {
          "type": "item",
          "name": "yes:copper_chestplate",
          "weight": 5
        },
        {
          "type": "item",
          "name": "yes:copper_leggings",
          "weight": 5
        },
        {
          "type": "item",
          "name": "yes:copper_boots",
          "weight": 5
        },
        {
          "type": "item",
          "name": "yes:emerald_pickaxe",
          "weight": 10
        },
        {
          "type": "item",
          "name": "yes:emerald_helmet",
          "weight": 2
        },
        {
          "type": "item",
          "name": "yes:emerald_chestplate",
          "weight": 2
        },
        {
          "type": "item",
          "name": "yes:emerald_leggings",
          "weight": 2
        },
        {
          "type": "item",
          "name": "yes:emerald_boots",
          "weight": 2
        },
        {
          "type": "empty",
          "weight": 30
        }
      ]
    },
    {
      "rolls": {
        "min": 2,
        "max": 4
      },
      "entries": [
        {
          "type": "item",
          "name": "minecraft:iron_ingot",
          "functions": [
            {
              "function": "set_count",
              "count": {
                "min": 1,
                "max": 5
              }
            }
          ],
          "weight": 10
        },
        {
          "type": "item",
          "name": "minecraft:gold_ingot",
          "functions": [
            {
              "function": "set_count",
              "count": {
                "min": 1,
                "max": 3
              }
            }
          ],
          "weight": 5
        },
        {
          "type": "item",
          "name": "minecraft:amethyst_shard",
          "functions": [
            {
              "function": "set_count",
              "count": {
                "min": 1,
                "max": 2
              }
            }
          ],
          "weight": 3
        },
        {
          "type": "item",
          "name": "minecraft:copper_ingot",
          "functions": [
            {
              "function": "set_count",
              "count": {
                "min": 1,
                "max": 6
              }
            }
          ],
          "weight": 12
        },
        {
          "type": "item",
          "name": "minecraft:emerald",
          "functions": [
            {
              "function": "set_count",
              "count": {
                "min": 1,
                "max": 1
              }
            }
          ],
          "weight": 4
        },
        {
          "type": "item",
          "name": "minecraft:redstone",
          "functions": [
            {
              "function": "set_count",
              "count": {
                "min": 4,
                "max": 9
              }
            }
          ],
          "weight": 5
        },
        {
          "type": "item",
          "name": "minecraft:dye",
          "functions": [
            {
              "function": "set_data",
              "data": 4
            },
            {
              "function": "set_count",
              "count": {
                "min": 4,
                "max": 9
              }
            }
          ],
          "weight": 5
        },
        {
          "type": "item",
          "name": "minecraft:diamond",
          "functions": [
            {
              "function": "set_count",
              "count": {
                "min": 1,
                "max": 2
              }
            }
          ],
          "weight": 3
        },
        {
          "type": "item",
          "name": "minecraft:coal",
          "functions": [
            {
              "function": "set_count",
              "count": {
                "min": 3,
                "max": 8
              }
            }
          ],
          "weight": 10
        },
        {
          "type": "item",
          "name": "minecraft:bread",
          "functions": [
            {
              "function": "set_count",
              "count": {
                "min": 1,
                "max": 3
              }
            }
          ],
          "weight": 15
        },
        {
          "type": "item",
          "name": "minecraft:melon_seeds",
          "functions": [
            {
              "function": "set_count",
              "count": {
                "min": 2,
                "max": 4
              }
            }
          ],
          "weight": 10
        },
        {
          "type": "item",
          "name": "minecraft:pumpkin_seeds",
          "functions": [
            {
              "function": "set_count",
              "count": {
                "min": 2,
                "max": 4
              }
            }
          ],
          "weight": 10
        },
        {
          "type": "item",
          "name": "minecraft:beetroot_seeds",
          "functions": [
            {
              "function": "set_count",
              "count": {
                "min": 2,
                "max": 4
              }
            }
          ],
          "weight": 10
        },
        {
          "type": "item",
          "name": "minecraft:glow_berries",
          "functions": [
            {
              "function": "set_count",
              "count": {
                "min": 3,
                "max": 6
              }
            }
          ],
          "weight": 15
        }
      ]
    },
    {
      "rolls": 3,
      "entries": [
        {
          "type": "item",
          "name": "minecraft:rail",
          "functions": [
            {
              "function": "set_count",
              "count": {
                "min": 4,
                "max": 8
              }
            }
          ],
          "weight": 20
        },
        {
          "type": "item",
          "name": "minecraft:golden_rail",
          "functions": [
            {
              "function": "set_count",
              "count": {
                "min": 1,
                "max": 4
              }
            }
          ],
          "weight": 5
        },
        {
          "type": "item",
          "name": "minecraft:detector_rail",
          "functions": [
            {
              "function": "set_count",
              "count": {
                "min": 1,
                "max": 4
              }
            }
          ],
          "weight": 5
        },
        {
          "type": "item",
          "name": "minecraft:activator_rail",
          "functions": [
            {
              "function": "set_count",
              "count": {
                "min": 1,
                "max": 4
              }
            }
          ],
          "weight": 5
        },
        {
          "type": "item",
          "name": "minecraft:torch",
          "functions": [
            {
              "function": "set_count",
              "count": {
                "min": 1,
                "max": 16
              }
            }
          ],
          "weight": 15
        }
      ]
    }
  ]
}