{
  "format_version": "1.8.0",
  "animations": {
    "animation.hammerb": {
      "loop": true,
      "animation_length": 3,
      "timeline": {
		"0.0": [ 
			"/execute @a[c=1,tag=copper_hammer_chargingb,tag=using_copper_hammer,r=20] ~~~ playanimation @s animation.player.hammer1"
		],
		"0.75": [ 
			"/execute @a[c=1,tag=copper_hammer_chargingb,tag=using_copper_hammer,r=20] ~~~ tag @s add copper_hammer_attackingb",
			"/execute @a[c=1,tag=copper_hammer_chargingb,tag=copper_hammer_attackingb,tag=using_copper_hammer,r=20] ~~~ tag @s remove copper_hammer_chargingb",
			"/execute @a[c=1,tag=copper_hammer_attackingb,tag=using_copper_hammer,r=20] ~~~ summon yes:copper_hammer_attack_entityb ~~~"
		],
		"0.8": [ 
			"/scoreboard players random @s weapon_sound 1 5",
			"/execute @s[scores={weapon_sound=1}] ~~~ playsound weapon.hammer_weewee @a[r=20] ~~1~ 1 1 0.5",
			"/execute @s[scores={weapon_sound=2}] ~~~ playsound weapon.hammer_weewee @a[r=20] ~~1~ 1 1.1 0.5",
			"/execute @s[scores={weapon_sound=3}] ~~~ playsound weapon.hammer_weewee @a[r=20] ~~1~ 1 1.2 0.5",
			"/execute @s[scores={weapon_sound=4}] ~~~ playsound weapon.hammer_weewee @a[r=20] ~~1~ 1 1.4 0.5",
			"/execute @s[scores={weapon_sound=5}] ~~~ playsound weapon.hammer_weewee @a[r=20] ~~1~ 1 1.6 0.5"
		  ],
		"0.98": [
			"/execute @a[c=1,tag=copper_hammer_attackingb,tag=using_copper_hammer,r=20] ~~~ tag @s add copper_hammer_finishedb"
		  ],
		"1": [
			"/execute @a[c=1,tag=copper_hammer_finishedb,tag=using_copper_hammer,r=20] ~~~ scoreboard players set @s hammer 0",
			"/execute @a[c=1,tag=copper_hammer_finishedb,tag=using_copper_hammer,r=20] ~~~ scoreboard players set @s weakness 0"
		  ],
		"2.7": [
			"/execute @a[c=1,tag=using_copper_hammer,tag=copper_hammer_finishedb,r=20] ~~~ tag @s remove using_copper_hammer",
			"/execute @a[c=1,tag=copper_hammer_finishedb,r=20] ~~~ tag @s remove copper_hammer_finishedb"
		  ],
		"2.78": [
			"/execute @a[tag=!copper_hammer_charging,tag=!using_copper_hammer,tag=!copper_hammer_chargingb,tag=!using_copper_hammerb,r=20,scores={hammeranimation=!1}] ~~~ playanimation @s animation.player.move.legs.stationary",
			"/tag @s remove alive"
		  ]
      }
    }
  }
}			