{
	"format_version": 1.12,
	"minecraft:recipe_shapeless": {
		"description": {
			"identifier": "yes:copper_ad2_3"
		},
		"tags": [
			"crafting_table"
		],
		"ingredients": [
			{
				"item": "yes:oxidized_copper_hammer_ad2"
			},
			{
				"item": "yes:ability_damage_book3"
			}
		],
		"result": [
			{
				"item": "yes:oxidized_copper_hammer_ad3"
			}
		]
	}
}