{
  "format_version": "1.16.100",
  "minecraft:block": {
    "description": {
      "identifier": "nicothekid:stone_fossil",
      "category": "nature",
      "register_to_creative_menu": true,
      "is_experimental": false
    },
    "components": {
      "minecraft:creative_category": {
        "group": "itemGroup.name.ore",
        "category": "nature"
      },
      "minecraft:material_instances": {
        "*": {
          "texture": "nicothekid_stone_fossil",
          "render_method": "opaque",
          "ambient_occlusion": true,
					"face_dimming": true
        }
      },
      "minecraft:unit_cube": {},
      "minecraft:map_color": "#525252",
      "minecraft:breathability": "solid",
      "minecraft:block_light_absorption": 15.0,
      "minecraft:block_light_emission": 0.0,
      "minecraft:friction": 0.6,
      "minecraft:explosion_resistance": 50.0,
      "minecraft:destroy_time": 0.5,
      "minecraft:loot": "loot_tables/nicos_cave_expansion/blocks/nicothekid_stone_fossil_x_pickaxe.json",
      "minecraft:on_player_destroyed": {
        "event": "nicothekid:on_destroyed"
      },
      "tag:stone": {}
    },
    "events": {
      "nicothekid:on_destroyed": {
				"sequence": [
					{
						"run_command": {
							"command": [
								"summon xp_orb ~~~"
							]
						}
					}
				]
			}
    }
  }
}
