{
  "format_version": "1.16.100",
  "minecraft:block": {
    "description": {
      "identifier": "nicothekid:moss_sprouts_small_block",
			"category": "nature",
			"register_to_creative_menu": true,
      "is_experimental": false
    },
    "components": {
      "minecraft:material_instances": {
        "*": {
          "texture": "nicothekid_moss_sprouts_small_block",
          "render_method": "alpha_test",
          "ambient_occlusion": false,
          "face_dimming": true
        }
      },
      "minecraft:geometry": "geometry.block.nicothekid_cross",
      "minecraft:map_color": "#70922D",
      "minecraft:breathability": "air",
      "minecraft:placement_filter": {
        "conditions": [
          {
            "block_filter": [
              {
                "tags": "query.any_tag('mossed_wood', 'mossed_stone')"
              },
              "minecraft:moss_block"
            ],
            "allowed_faces": [
              "up"
            ]
          }
        ]
      },
      "minecraft:entity_collision": false,
      "minecraft:pick_collision": {
        "origin": [ -8, 0, -8 ],
        "size": [ 16, 5, 16 ]
      },
      "minecraft:block_light_absorption": 0.0,
      "minecraft:block_light_emission": 0.0,
      "minecraft:friction": 0.5,
      "minecraft:explosion_resistance": 1.0,
      "minecraft:destroy_time": 0.05,
      "minecraft:loot": "loot_tables/empty.json",
      "minecraft:on_interact": {
        "event": "nicothekid:moss_sprouts_small_block_interact"
      },
      "minecraft:on_player_destroyed": {
        "event": "nicothekid:moss_sprouts_small_block_destroyed_by_shears",
        "condition": "query.get_equipped_item_name('main_hand') == 'shears'"
      },
      "tag:plant": {},
      "tag:grass": {}
    },
    "events": {
      "nicothekid:moss_sprouts_small_block_interact": {
				"sequence": [
					{
						"condition": "query.get_equipped_item_name('main_hand') == 'bone_meal'",
						"trigger": {
							"event": "nicothekid:moss_sprouts_small_block_interact_bone_meal",
							"target": "self"
						}
					}
				]
			},
      "nicothekid:moss_sprouts_small_block_interact_bone_meal": {
				"sequence": [
					{
						"decrement_stack": {}
					},
					{
						"run_command": {
							"command": [
							  "playsound item.bone_meal.use @a[r=10]",
								"particle minecraft:crop_growth_emitter ~~~"
							]
						}
					},
					{
						"trigger": {
							"event": "nicothekid:moss_sprouts_small_block_growth"
						}
					}
				]
			},
      "nicothekid:moss_sprouts_small_block_growth": {
        "randomize": [
          {
            "weight": 5
          },
          {
            "set_block": {
              "block_type": "nicothekid:moss_sprouts_tall_block"
            },
            "weight": 75
          }
        ]
      },
      "nicothekid:moss_sprouts_small_block_destroyed_by_shears": {
				"sequence": [
					{
						"spawn_loot": {
							"table": "loot_tables/mythical_biomes/blocks/nicothekid_moss_sprouts_small.json"
						}
					}
				]
			}
    }
  }
}
