{
  "format_version": "1.16.100",
  "minecraft:block": {
    "description": {
      "identifier": "nicothekid:mosshroom_hyphae_stripped",
      "category": "nature",
			"register_to_creative_menu": true,
      "is_experimental": false,
			"properties": {
				"nicothekid:rotation": [
					0,
					1,
					2
				],
				"nicothekid:mosshroom_hyphae_back": [
				  0,
				  1
				]
			}
    },
    "components": {
      "minecraft:creative_category": {
        "group": "itemGroup.name.wood",
        "category": "nature"
      },
      "minecraft:material_instances": {
        "*": {
          "texture": "nicothekid_mosshroom_hyphae_stripped",
          "render_method": "opaque",
          "ambient_occlusion": false,
          "face_dimming": false
        },
        "up": {
          "texture": "nicothekid_mosshroom_hyphae_stripped",
          "render_method": "opaque",
          "ambient_occlusion": false,
          "face_dimming": false
        },
        "down": {
          "texture": "nicothekid_mosshroom_hyphae_stripped",
          "render_method": "opaque",
          "ambient_occlusion": false,
          "face_dimming": false
        }
      },
      "minecraft:map_color": "#70922D",
      "minecraft:breathability": "solid",
      "minecraft:unit_cube": {},
      "minecraft:block_light_absorption": 15.0,
      "minecraft:block_light_emission": 0.7,
      "minecraft:friction": 0.6,
      "minecraft:explosion_resistance": 30,
      "minecraft:destroy_time": 0.5,
      "minecraft:loot": "loot_tables/nicos_cave_expansion/blocks/nicothekid_mosshroom_hyphae_stripped.json",
      "minecraft:on_interact": {
        "event": "nicothekid:mosshroom_hyphae_stripped_interact_bone_meal",
        "condition": "query.get_equipped_item_name('main_hand') == 'bone_meal'"
	   },
      "minecraft:on_player_placing": {
				"event": "nicothekid:place_rotation"
			},
      "minecraft:rotation": [ 0, 0, 0 ],
      "tag:wood": {}
    },
    "permutations": [
      {
				"condition": "query.block_property('nicothekid:rotation') == 0",
				"components": {
					"minecraft:rotation": [ 0, 0, 0 ]
				}
			},
			{
				"condition": "query.block_property('nicothekid:rotation') == 1",
				"components": {
					"minecraft:rotation": [ 90, 0, 0 ]
				}
			},
			{
				"condition": "query.block_property('nicothekid:rotation') == 2",
				"components": {
					"minecraft:rotation": [ 0, 0, 90 ]
				}
			},
      {
				"condition": "query.block_property('nicothekid:mosshroom_hyphae_back') == 0",
				"components": {
					"minecraft:material_instances": {
						"*": {
							"texture": "nicothekid_mosshroom_hyphae_stripped",
							"render_method": "opaque",
							"ambient_occlusion": false,
							"face_dimming": false
						},
						"up": {
							"texture": "nicothekid_mosshroom_hyphae_stripped",
							"render_method": "opaque",
							"ambient_occlusion": false,
							"face_dimming": false
						},
						"down": {
							"texture": "nicothekid_mosshroom_hyphae_stripped",
							"render_method": "opaque",
							"ambient_occlusion": false,
							"face_dimming": false
						}
					},
					"minecraft:block_light_emission": 0.7,
					"minecraft:on_interact": {
					  "event": "nicothekid:mosshroom_hyphae_stripped_interact_bone_meal",
					  "condition": "query.get_equipped_item_name('main_hand') == 'bone_meal'"
					},
					"minecraft:loot": "loot_tables/nicos_cave_expansion/blocks/nicothekid_mosshroom_hyphae_stripped.json"
				}
			},
      {
				"condition": "query.block_property('nicothekid:mosshroom_hyphae_back') == 1",
				"components": {
					"minecraft:material_instances": {
						"*": {
							"texture": "nicothekid_mosshroom_hyphae",
							"render_method": "opaque",
							"ambient_occlusion": true,
							"face_dimming": true
						},
						"up": {
							"texture": "nicothekid_mosshroom_hyphae",
							"render_method": "opaque",
							"ambient_occlusion": true,
							"face_dimming": true
						},
						"down": {
							"texture": "nicothekid_mosshroom_hyphae",
							"render_method": "opaque",
							"ambient_occlusion": true,
							"face_dimming": true
						}
					},
					"minecraft:block_light_emission": 0.0,
					"minecraft:on_interact": {
					  "event": "nicothekid:mosshroom_hyphae_interact_axe",
					  "condition": "query.equipped_item_any_tag('slot.weapon.mainhand', 'minecraft:is_axe')",
					  "target": "self"
					},
					"minecraft:loot": "loot_tables/nicos_cave_expansion/blocks/nicothekid_mosshroom_hyphae.json"
				}
			}
    ],
    "events": {
      "nicothekid:mosshroom_hyphae_stripped_interact_bone_meal": {
        "sequence": [
					{
						"decrement_stack": {}
					},
					{
						"set_block_property": {
							"nicothekid:mosshroom_hyphae_back": 1
						}
					},
					{
						"run_command": {
							"command": [
							  "playsound item.bone_meal.use @a[r=10]",
								"particle minecraft:crop_growth_emitter ~~~"
							]
						}
					}
				]
      },
      "nicothekid:mosshroom_hyphae_interact_axe": {
        "sequence": [
          {
            "set_block_property": {
              "nicothekid:mosshroom_hyphae_back": 0
            }
          },
          {
            "damage": {
              "type": "durability",
              "target": "item",
              "amount": 1
            }
          }
        ]
      },
      "nicothekid:place_rotation": {
				"set_block_property": {
					"nicothekid:rotation": "math.floor(query.cardinal_block_face_placed_on/2)"
				}
			}
    }
  }
}
