{
  "format_version": "1.16.100",
  "minecraft:block": {
    "description": {
      "identifier": "nicothekid:mosshroom_block",
      "category": "nature",
      "register_to_creative_menu": true,
      "is_experimental": false
    },
    "components": {
      "minecraft:creative_category": {
        "group": "itemGroup.name.mushroom",
        "category": "nature"
      },
      "minecraft:material_instances": {
        "*": {
          "texture": "nicothekid_mosshroom_block_side",
          "render_method": "opaque",
          "ambient_occlusion": true,
					"face_dimming": true
        },
        "up": {
          "texture": "nicothekid_mosshroom_block_side",
          "render_method": "opaque",
          "ambient_occlusion": true,
					"face_dimming": true
        },
        "down": {
          "texture": "nicothekid_mosshroom_block_down",
          "render_method": "opaque",
          "ambient_occlusion": false,
					"face_dimming": false
        }
      },
      "minecraft:unit_cube": {},
      "minecraft:map_color": "#70922D",
      "minecraft:breathability": "solid",
      "minecraft:block_light_absorption": 15.0,
      "minecraft:block_light_emission": 0.0,
      "minecraft:friction": 0.6,
      "minecraft:explosion_resistance": 20.0,
      "minecraft:destroy_time": 0.3,
      "minecraft:loot": "loot_tables/nicos_cave_expansion/blocks/nicothekid_mosshroom_block.json",
      "tag:plant": {}
    },
    "events": {
    }
  }
}
