{
  "format_version": "1.16.100",
  "minecraft:block": {
    "description": {
      "identifier": "nicothekid:polished_marble",
      "category": "nature",
      "register_to_creative_menu": true,
      "is_experimental": false
    },
    "components": {
      "minecraft:creative_category": {
        "group": "itemGroup.name.stone",
        "category": "nature"
      },
      "minecraft:material_instances": {
        "*": {
          "texture": "nicothekid_polished_marble",
          "render_method": "opaque",
          "ambient_occlusion": true,
					"face_dimming": true
        }
      },
      "minecraft:unit_cube": {},
      "minecraft:map_color": "#E6E4DB",
      "minecraft:breathability": "solid",
      "minecraft:block_light_absorption": 15.0,
      "minecraft:block_light_emission": 0.0,
      "minecraft:friction": 0.6,
      "minecraft:explosion_resistance": 25.0,
      "minecraft:destroy_time": 0.3,
      "minecraft:loot": "loot_tables/nicos_cave_expansion/blocks/nicothekid_polished_marble.json",
      "tag:stone": {}
    },
    "events": {
      
    }
  }
}
