{
	"format_version": "1.12.0",
	"minecraft:geometry": [
		{
			"description": {
				"identifier": "geometry.gilded_netherite_chestplate",
				"texture_width": 64,
				"texture_height": 32,
				"visible_bounds_width": 3,
				"visible_bounds_height": 4,
				"visible_bounds_offset": [0, 1, 0]
			},
			"bones": [
				{
					"name": "waist",
					"pivot": [0, 10, 0]
				},
				{
					"name": "body",
					"parent": "waist",
					"pivot": [0, 21.52, 0],
					"cubes": [
						{
							"origin": [-5, 9.3, -3.25],
							"size": [10, 13, 6.5],
							"uv": {
								"north": {"uv": [20, 20], "uv_size": [8, 12]},
								"east": {"uv": [16, 20], "uv_size": [4, 12]},
								"south": {"uv": [32, 20], "uv_size": [8, 12]},
								"west": {"uv": [28, 20], "uv_size": [4, 12]},
								"up": {"uv": [20, 16], "uv_size": [8, 4]},
								"down": {"uv": [64, 0], "uv_size": [53, 0]}
							}
						},
						{
							"origin": [-4.375, 15.866, -4.215],
							"size": [8.75, 5.41, 1.386],
							"pivot": [-0.476, 12.2984, 0],
							"rotation": [2.5, 0, 0],
							"uv": {
								"north": {"uv": [20.5, 21], "uv_size": [7, 5]},
								"east": {"uv": [20, 21], "uv_size": [1, 5]},
								"south": {"uv": [16, 2.5], "uv_size": [7, 2.5]},
								"west": {"uv": [27, 21], "uv_size": [1, 5]},
								"up": {"uv": [20.5, 21], "uv_size": [7, 1]},
								"down": {"uv": [20.5, 26], "uv_size": [7, -1]}
							}
						},
						{
							"origin": [-4.375, 14.98, 2.7892],
							"size": [8.75, 6.5, 0.7895],
							"pivot": [-0.476, 12.2984, 0],
							"rotation": [-2.5, 0, 0],
							"uv": {
								"north": {"uv": [8, 6], "uv_size": [7, 3]},
								"east": {"uv": [39, 21], "uv_size": [1, 6]},
								"south": {"uv": [32.5, 21], "uv_size": [7, 6]},
								"west": {"uv": [32, 21], "uv_size": [1, 6]},
								"up": {"uv": [39.5, 22], "uv_size": [-7, -1]},
								"down": {"uv": [39.5, 27], "uv_size": [-7, -1]}
							}
						},
						{
							"origin": [-3.75, 13.151, -3.965],
							"size": [7.5, 2.16, 1.136],
							"uv": {
								"north": {"uv": [21, 26.5], "uv_size": [6, 2]},
								"east": {"uv": [21, 26.5], "uv_size": [1, 2]},
								"south": {"uv": [26, 5], "uv_size": [6, 1]},
								"west": {"uv": [26, 26.5], "uv_size": [1, 2]},
								"up": {"uv": [21, 27.5], "uv_size": [6, -1]},
								"down": {"uv": [21, 28.5], "uv_size": [6, -1]}
							}
						},
						{
							"origin": [-3.75, 10.336, -3.965],
							"size": [7.5, 2.16, 0.886],
							"uv": {
								"north": {"uv": [21, 29], "uv_size": [6, 2]},
								"east": {"uv": [21, 29], "uv_size": [1, 2]},
								"south": {"uv": [27, 0], "uv_size": [6, 1]},
								"west": {"uv": [26, 29], "uv_size": [1, 2]},
								"up": {"uv": [21, 30], "uv_size": [6, -1]},
								"down": {"uv": [21, 31], "uv_size": [6, -1]}
							}
						}
					]
				},
				{
					"name": "rightArm",
					"parent": "body",
					"pivot": [-5.75, 19, 0]
				},
				{
					"name": "bone",
					"parent": "rightArm",
					"pivot": [1.25, -2.16, 0],
					"cubes": [
						{
							"origin": [-9.838, 14.64, -3.022],
							"size": [6.544, 7.702, 6.044],
							"uv": {
								"north": {"uv": [44, 21], "uv_size": [4, 6]},
								"east": {"uv": [40, 21], "uv_size": [4, 6]},
								"south": {"uv": [52, 21], "uv_size": [4, 6]},
								"west": {"uv": [48, 21], "uv_size": [4, 6]},
								"up": {"uv": [44, 16], "uv_size": [4, 4]},
								"down": {"uv": [70, 0], "uv_size": [-6, 0]}
							}
						},
						{
							"origin": [-9.038, 8.94, -2.272],
							"size": [4.544, 6.702, 4.544],
							"uv": {
								"north": {"uv": [44, 27], "uv_size": [4, 5]},
								"east": {"uv": [40, 27], "uv_size": [4, 5]},
								"south": {"uv": [52, 27], "uv_size": [4, 5]},
								"west": {"uv": [48, 27], "uv_size": [4, 5]},
								"up": {"uv": [62, 3], "uv_size": [2, -3]},
								"down": {"uv": [70, 0], "uv_size": [-6, 0]}
							}
						},
						{
							"origin": [-9.649, 22.54, -2.279],
							"size": [6.644, 1.193, 4.558],
							"pivot": [1.25, 16.3384, 0],
							"rotation": [0, 0, -2.5],
							"uv": {
								"north": {"uv": [44, 19], "uv_size": [4, 1]},
								"east": {"uv": [40.5, 21], "uv_size": [3, 1]},
								"south": {"uv": [48, 16], "uv_size": [-4, 1]},
								"west": {"uv": [48.5, 21], "uv_size": [3, 1]},
								"up": {"uv": [44, 16.5], "uv_size": [4, 3]},
								"down": {"uv": [40, 14], "uv_size": [4, -2]}
							}
						}
					]
				},
				{
					"name": "leftArm",
					"parent": "body",
					"pivot": [5.75, 19, 0]
				},
				{
					"name": "bone2",
					"parent": "leftArm",
					"pivot": [-1.25, 13.3632, 0],
					"cubes": [
						{
							"origin": [3.294, 14.64, -3.022],
							"size": [6.544, 7.702, 6.044],
							"uv": {
								"north": {"uv": [48, 21], "uv_size": [-4, 6]},
								"east": {"uv": [48, 21], "uv_size": [4, 6]},
								"south": {"uv": [56, 21], "uv_size": [-4, 6]},
								"west": {"uv": [40, 21], "uv_size": [4, 6]},
								"up": {"uv": [44, 16], "uv_size": [4, 4]},
								"down": {"uv": [64, 0], "uv_size": [19, 0]}
							}
						},
						{
							"origin": [3.005, 22.34, -2.279],
							"size": [6.644, 1.393, 4.558],
							"pivot": [-1.25, 16.3384, 0],
							"rotation": [0, 0, 2.5],
							"uv": {
								"north": {"uv": [44, 19], "uv_size": [4, 1]},
								"east": {"uv": [48.5, 21], "uv_size": [3, 1]},
								"south": {"uv": [48, 16], "uv_size": [-4, 1]},
								"west": {"uv": [40.5, 21], "uv_size": [3, 1]},
								"up": {"uv": [48, 19.5], "uv_size": [-4, -3]},
								"down": {"uv": [27, 4], "uv_size": [4, -1.5]}
							}
						},
						{
							"origin": [4.462, 8.94, -2.272],
							"size": [4.544, 6.702, 4.544],
							"uv": {
								"north": {"uv": [44, 27], "uv_size": [4, 5]},
								"east": {"uv": [40, 27], "uv_size": [4, 5]},
								"south": {"uv": [52, 27], "uv_size": [4, 5]},
								"west": {"uv": [48, 27], "uv_size": [4, 5]},
								"up": {"uv": [62, 4], "uv_size": [2, -4]},
								"down": {"uv": [70, 0], "uv_size": [-6, 0]}
							}
						}
					]
				}
			]
		}
	]
}