{
	"format_version": "1.12.0",
	"minecraft:geometry": [
		{
			"description": {
				"identifier": "geometry.melted_gilded_blackstone",
				"texture_width": 26,
				"texture_height": 26,
				"visible_bounds_width": 3,
				"visible_bounds_height": 1.5,
				"visible_bounds_offset": [0, 0.25, 0]
			},
			"bones": [
				{
					"name": "rightArm",
					"pivot": [-3, 10, 8]
				},
				{
					"name": "bone",
					"parent": "rightArm",
					"pivot": [0, 0, 0],
					"cubes": [
						{
							"origin": [-4.30769, 0, 1.53846],
							"size": [1.23077, 0.55769, 4.30769],
							"uv": {
								"north": {"uv": [14, 5], "uv_size": [-2, 1]},
								"east": {"uv": [24, 15], "uv_size": [1, 1]},
								"south": {"uv": [14, 19], "uv_size": [1, 1]},
								"west": {"uv": [1, 17], "uv_size": [1, 1]},
								"up": {"uv": [14, 19], "uv_size": [-4, -14]},
								"down": {"uv": [14, 5], "uv_size": [-4, 14]}
							}
						},
						{
							"origin": [-3.07692, 0, 1.84615],
							"size": [1.84615, 0.55769, 3.69231],
							"uv": {
								"north": {"uv": [14, 5], "uv_size": [-2, 1]},
								"east": {"uv": [24, 15], "uv_size": [1, 1]},
								"south": {"uv": [14, 19], "uv_size": [1, 1]},
								"west": {"uv": [1, 17], "uv_size": [1, 1]},
								"up": {"uv": [10, 18], "uv_size": [-6, -12]},
								"down": {"uv": [10, 6], "uv_size": [-6, 12]}
							}
						},
						{
							"origin": [-6.76923, 0, 1.84615],
							"size": [2.46154, 0.55769, 3.69231],
							"uv": {
								"north": {"uv": [14, 5], "uv_size": [-2, 1]},
								"east": {"uv": [24, 15], "uv_size": [1, 1]},
								"south": {"uv": [14, 19], "uv_size": [1, 1]},
								"west": {"uv": [1, 17], "uv_size": [1, 1]},
								"up": {"uv": [22, 18], "uv_size": [-8, -12]},
								"down": {"uv": [22, 6], "uv_size": [-8, 12]}
							}
						},
						{
							"origin": [-1.23077, 0, 2.15385],
							"size": [0.30769, 0.55769, 3.38462],
							"uv": {
								"north": {"uv": [14, 5], "uv_size": [-2, 1]},
								"east": {"uv": [24, 15], "uv_size": [1, 1]},
								"south": {"uv": [14, 19], "uv_size": [1, 1]},
								"west": {"uv": [1, 17], "uv_size": [1, 1]},
								"up": {"uv": [4, 18], "uv_size": [-1, -11]},
								"down": {"uv": [4, 7], "uv_size": [-1, 11]}
							}
						},
						{
							"origin": [-7.07692, 0, 2.15385],
							"size": [0.30769, 0.55769, 3.38462],
							"uv": {
								"north": {"uv": [14, 5], "uv_size": [-2, 1]},
								"east": {"uv": [24, 15], "uv_size": [1, 1]},
								"south": {"uv": [14, 19], "uv_size": [1, 1]},
								"west": {"uv": [1, 17], "uv_size": [1, 1]},
								"up": {"uv": [23, 18], "uv_size": [-1, -11]},
								"down": {"uv": [23, 7], "uv_size": [-1, 11]}
							}
						},
						{
							"origin": [-7.69231, 0, 2.46154],
							"size": [0.61538, 0.55769, 2.46154],
							"uv": {
								"north": {"uv": [14, 5], "uv_size": [-2, 1]},
								"east": {"uv": [24, 15], "uv_size": [1, 1]},
								"south": {"uv": [14, 19], "uv_size": [1, 1]},
								"west": {"uv": [1, 17], "uv_size": [1, 1]},
								"up": {"uv": [25, 16], "uv_size": [-2, -8]},
								"down": {"uv": [25, 8], "uv_size": [-2, 8]}
							}
						},
						{
							"origin": [-0.92308, 0, 2.76923],
							"size": [0.30769, 0.55769, 2.76923],
							"uv": {
								"north": {"uv": [14, 5], "uv_size": [-2, 1]},
								"east": {"uv": [24, 15], "uv_size": [1, 1]},
								"south": {"uv": [14, 19], "uv_size": [1, 1]},
								"west": {"uv": [1, 17], "uv_size": [1, 1]},
								"up": {"uv": [3, 18], "uv_size": [-1, -9]},
								"down": {"uv": [3, 9], "uv_size": [-1, 9]}
							}
						},
						{
							"origin": [-8, 0, 2.76923],
							"size": [0.30769, 0.55769, 0.92308],
							"uv": {
								"north": {"uv": [14, 5], "uv_size": [-2, 1]},
								"east": {"uv": [24, 15], "uv_size": [1, 1]},
								"south": {"uv": [14, 19], "uv_size": [1, 1]},
								"west": {"uv": [1, 17], "uv_size": [1, 1]},
								"up": {"uv": [26, 12], "uv_size": [-1, -3]},
								"down": {"uv": [26, 9], "uv_size": [-1, 3]}
							}
						},
						{
							"origin": [-0.61538, 0, 3.07692],
							"size": [0.30769, 0.55769, 2.46154],
							"uv": {
								"north": {"uv": [14, 5], "uv_size": [-2, 1]},
								"east": {"uv": [24, 15], "uv_size": [1, 1]},
								"south": {"uv": [14, 19], "uv_size": [1, 1]},
								"west": {"uv": [1, 17], "uv_size": [1, 1]},
								"up": {"uv": [2, 18], "uv_size": [-1, -8]},
								"down": {"uv": [2, 10], "uv_size": [-1, 8]}
							}
						},
						{
							"origin": [-0.30769, 0, 3.69231],
							"size": [0.30769, 0.55769, 1.53846],
							"uv": {
								"north": {"uv": [14, 5], "uv_size": [-2, 1]},
								"east": {"uv": [24, 15], "uv_size": [1, 1]},
								"south": {"uv": [14, 19], "uv_size": [1, 1]},
								"west": {"uv": [1, 17], "uv_size": [1, 1]},
								"up": {"uv": [1, 17], "uv_size": [-1, -5]},
								"down": {"uv": [1, 12], "uv_size": [-1, 5]}
							}
						},
						{
							"origin": [-7.38462, 0, 4.92308],
							"size": [0.30769, 0.55769, 0.30769],
							"uv": {
								"north": {"uv": [14, 5], "uv_size": [-2, 1]},
								"east": {"uv": [24, 15], "uv_size": [1, 1]},
								"south": {"uv": [14, 19], "uv_size": [1, 1]},
								"west": {"uv": [1, 17], "uv_size": [1, 1]},
								"up": {"uv": [24, 17], "uv_size": [-1, -1]},
								"down": {"uv": [24, 16], "uv_size": [-1, 1]}
							}
						},
						{
							"origin": [-3.07692, 0, 5.53846],
							"size": [0.92308, 0.55769, 0.30769],
							"uv": {
								"north": {"uv": [14, 5], "uv_size": [-2, 1]},
								"east": {"uv": [24, 15], "uv_size": [1, 1]},
								"south": {"uv": [14, 19], "uv_size": [1, 1]},
								"west": {"uv": [1, 17], "uv_size": [1, 1]},
								"up": {"uv": [10, 19], "uv_size": [-3, -1]},
								"down": {"uv": [10, 18], "uv_size": [-3, 1]}
							}
						},
						{
							"origin": [-5.84615, 0, 5.53846],
							"size": [1.53846, 0.55769, 0.61538],
							"uv": {
								"north": {"uv": [14, 5], "uv_size": [-2, 1]},
								"east": {"uv": [24, 15], "uv_size": [1, 1]},
								"south": {"uv": [14, 19], "uv_size": [1, 1]},
								"west": {"uv": [1, 17], "uv_size": [1, 1]},
								"up": {"uv": [19, 20], "uv_size": [-5, -2]},
								"down": {"uv": [19, 18], "uv_size": [-5, 2]}
							}
						},
						{
							"origin": [-6.46154, 0, 5.53846],
							"size": [0.61538, 0.55769, 0.30769],
							"uv": {
								"north": {"uv": [14, 5], "uv_size": [-2, 1]},
								"east": {"uv": [24, 15], "uv_size": [1, 1]},
								"south": {"uv": [14, 19], "uv_size": [1, 1]},
								"west": {"uv": [1, 17], "uv_size": [1, 1]},
								"up": {"uv": [21, 19], "uv_size": [-2, -1]},
								"down": {"uv": [21, 18], "uv_size": [-2, 1]}
							}
						},
						{
							"origin": [-4.30769, 0, 5.84615],
							"size": [0.30769, 0.55769, 0.30769],
							"uv": {
								"north": {"uv": [14, 5], "uv_size": [-2, 1]},
								"east": {"uv": [24, 15], "uv_size": [1, 1]},
								"south": {"uv": [14, 19], "uv_size": [1, 1]},
								"west": {"uv": [1, 17], "uv_size": [1, 1]},
								"up": {"uv": [14, 20], "uv_size": [-1, -1]},
								"down": {"uv": [14, 19], "uv_size": [-1, 1]}
							}
						}
					]
				}
			]
		}
	]
}