{
	"format_version": "1.12.0",
	"minecraft:geometry": [
		{
			"description": {
				"identifier": "geometry.gilded_netherite_helmet",
				"texture_width": 64,
				"texture_height": 32,
				"visible_bounds_width": 2,
				"visible_bounds_height": 2.5,
				"visible_bounds_offset": [0, 0.75, 0]
			},
			"bones": [
				{
					"name": "body",
					"pivot": [0, 0, 0]
				},
				{
					"name": "head",
					"parent": "body",
					"pivot": [0, 0, 0],
					"cubes": [
						{
							"origin": [-4.73432, -0.92467, -4.73432],
							"size": [9.46864, 9.47, 9.46864],
							"uv": {
								"north": {"uv": [0, 0], "uv_size": [8, 8]},
								"east": {"uv": [0, 8], "uv_size": [8, 8]},
								"south": {"uv": [24, 8], "uv_size": [8, 8]},
								"west": {"uv": [16, 8], "uv_size": [8, 8]},
								"up": {"uv": [16, 8], "uv_size": [-8, -8]},
								"down": {"uv": [16, 16], "uv_size": [-8, 8]}
							}
						}
					]
				},
				{
					"name": "bone",
					"parent": "head",
					"pivot": [-2.95895, 5.32611, -4.61596],
					"cubes": [
						{
							"origin": [-5.36495, -0.92467, -5.20775],
							"size": [4.73432, 9.47, 0.88769],
							"pivot": [-2.96464, 6.50969, -9.62968],
							"rotation": [0, 7.5, 0],
							"uv": {
								"north": {"uv": [8, 8], "uv_size": [4, 8]},
								"east": {"uv": [7, 8], "uv_size": [1, 8]},
								"south": {"uv": [60, 5], "uv_size": [4, 7]},
								"west": {"uv": [64, 0], "uv_size": [5, 0]},
								"up": {"uv": [25.97, 1], "uv_size": [-4, -1]},
								"down": {"uv": [16, 16.75], "uv_size": [-4, -0.75]}
							}
						},
						{
							"origin": [0.62878, -0.92467, -5.20775],
							"size": [4.73432, 9.47, 0.88769],
							"pivot": [2.96464, 6.50969, -9.62968],
							"rotation": [0, -7.5, 0],
							"uv": {
								"north": {"uv": [12, 8], "uv_size": [4, 8]},
								"east": {"uv": [63, 1], "uv_size": [0.75, 8]},
								"south": {"uv": [48, 1], "uv_size": [4, 8]},
								"west": {"uv": [16, 8], "uv_size": [0.75, 8]},
								"up": {"uv": [20.03, 1], "uv_size": [-4, -1]},
								"down": {"uv": [12, 16.75], "uv_size": [-4, -0.75]}
							}
						},
						{
							"origin": [-0.07397, -0.92467, -5.54988],
							"size": [0.14795, 9.46864, 0.88769],
							"uv": {
								"north": {"uv": [11, 8], "uv_size": [2, 8]},
								"east": {"uv": [63, 0], "uv_size": [0.75, 8]},
								"south": {"uv": [63, 0], "uv_size": [1, 8]},
								"west": {"uv": [63, 0], "uv_size": [0.75, 8]},
								"up": {"uv": [13, 1], "uv_size": [-2, -1]},
								"down": {"uv": [12, 17], "uv_size": [2, -1]}
							}
						}
					]
				}
			]
		}
	]
}