{
  "format_version": "1.16.100",
  "minecraft:item": {
        "description": {
      "category": "equipment",
      "identifier": "yes:weathered_copper_chestplate"
    },
    "components": {
      "minecraft:creative_category": {
        "parent": "itemGroup.name.chestplate"
     },
            "minecraft:display_name": { "value": "Weathered Copper Chestplate\n§l§r"},
     "minecraft:icon": {
        "texture": "weathered_copper_chestplate"
     },
    "minecraft:render_offsets": "chestplates",
      "minecraft:max_stack_size": 1,
      "minecraft:durability": {
        "max_durability": 117
      },
      "minecraft:armor": {
        "protection": 5
      },
		"minecraft:knockback_resistance": {
			"protection": 0
		},
      "minecraft:wearable": {
        "slot": "slot.armor.chest"
      },
                  "minecraft:repairable": {
                "repair_items": [
                    {
                        "items": [
                            "yes:weathered_copper_chestplate",
                            "minecraft:copper_ingot"
                            ],
                            "repair_amount": 117
          }
        ]
      }
    }
  }
}