{
	"pools": [
		{
			"rolls": 1,
			"entries": [
				{
					"type": "item",
					"name": "minecraft:dirt",
					"functions": [
						{
							"function": "set_data",
							"data": 1
						}
					]
				}
			]
		}
	]
}