{
  "pools": [
    {
      "rolls": 1,
      "entries": [
        {
          "type": "item",
          "name": "minecraft:gravel",
          "functions": [
            {
              "function": "set_count",
              "count": 1
            }
          ],
          "weight": 90
        },
        {
          "type": "item",
          "name": "minecraft:flint",
          "functions": [
            {
              "function": "set_count",
              "count": 1
            }
          ],
          "weight": 10
        }
      ]
    }
  ]
}