{
	"file_path": "C:\\Users\\plant\\AppData\\Local\\Packages\\Microsoft.MinecraftUWP_8wekyb3d8bbwe\\LocalState\\games\\com.mojang\\development_behavior_packs\\Village and Pillage+\\entities\\dark_witch.json",
	"file_type": "entity",
	"format_version": 1,
	"file_uuid": "28010403_99c0_406c_89cf_a0b19e9a8e1d",
	"file_version": 31,
	"cache_content": {
		"children": [
			{
				"open": {
					"format_version": "1.17.0",
					"minecraft:entity": {
						"description": {
							"is_spawnable": true,
							"is_summonable": true,
							"is_experimental": false,
							"identifier": "v:dark_witch"
						},
						"component_groups": {
							"minecraft:celebrate": {
								"minecraft:behavior.celebrate": {
									"priority": 5,
									"celebration_sound": "celebrate",
									"sound_interval": {
										"range_min": 2,
										"range_max": 7
									},
									"jump_interval": {
										"range_min": 1,
										"range_max": 3.5
									},
									"duration": 30,
									"on_celebration_end_event": {
										"event": "minecraft:stop_celebrating",
										"target": "self"
									}
								}
							},
							"minecraft:raid_configuration": {
								"minecraft:dweller": {
									"dwelling_type": "village",
									"dweller_role": "hostile",
									"update_interval_base": 60,
									"update_interval_variant": 40,
									"can_find_poi": false,
									"can_migrate": false,
									"first_founding_reward": 0
								},
								"minecraft:behavior.move_to_village": {
									"priority": 3,
									"speed_multiplier": 1.2,
									"goal_radius": 2
								},
								"minecraft:ambient_sound_interval": {
									"value": 2,
									"range": 4,
									"event_name": "ambient.in.raid"
								}
							},
							"start_turning": {
								"minecraft:behavior.send_event": {
									"priority": 3,
									"event_choices": [
										{
											"min_activation_range": 0,
											"max_activation_range": 16,
											"cooldown_time": 5,
											"cast_duration": 3,
											"particle_color": "#FFB38033",
											"weight": 1,
											"filters": {
												"all_of": [
													{
														"test": "is_family",
														"subject": "other",
														"value": "villager"
													},
													{
														"test": "has_component",
														"subject": "other",
														"operator": "!=",
														"value": "minecraft:is_baby"
													}
												]
											},
											"start_sound_event": "cast.spell",
											"sequence": [
												{
													"base_delay": 2,
													"sound_event": "prepare.wololo",
													"event": "ravager"
												}
											],
											"look_at_target": true
										},
										{
											"min_activation_range": 0,
											"max_activation_range": 16,
											"cooldown_time": 5,
											"cast_duration": 3,
											"particle_color": "#FFB38033",
											"weight": 49,
											"filters": {
												"all_of": [
													{
														"test": "is_family",
														"subject": "other",
														"value": "villager"
													},
													{
														"test": "has_component",
														"subject": "other",
														"operator": "!=",
														"value": "minecraft:is_baby"
													}
												]
											},
											"start_sound_event": "cast.spell",
											"sequence": [
												{
													"base_delay": 2,
													"sound_event": "prepare.wololo",
													"event": "zombie"
												}
											],
											"look_at_target": true
										},
										{
											"min_activation_range": 0,
											"max_activation_range": 16,
											"cooldown_time": 5,
											"cast_duration": 3,
											"particle_color": "#FFB38033",
											"weight": 50,
											"filters": {
												"all_of": [
													{
														"test": "is_family",
														"subject": "other",
														"value": "villager"
													},
													{
														"test": "has_component",
														"subject": "other",
														"operator": "!=",
														"value": "minecraft:is_baby"
													}
												]
											},
											"start_sound_event": "cast.spell",
											"sequence": [
												{
													"base_delay": 2,
													"sound_event": "prepare.wololo",
													"event": "turn_into_pill"
												}
											],
											"look_at_target": true
										}
									]
								}
							}
						},
						"components": {
							"minecraft:is_hidden_when_invisible": {},
							"minecraft:experience_reward": {
								"on_death": "query.last_hit_by_player ? (query.is_baby ? 12 : 5) + (Math.die_roll(query.equipment_count,1,3)) : 0"
							},
							"minecraft:breathable": {
								"total_supply": 15,
								"suffocate_time": 0
							},
							"minecraft:nameable": {},
							"minecraft:loot": {
								"table": "loot_tables/entities/witch.json"
							},
							"minecraft:health": {
								"value": 40,
								"max": 40
							},
							"minecraft:hurt_on_condition": {
								"damage_conditions": [
									{
										"filters": {
											"test": "in_lava",
											"subject": "self",
											"operator": "==",
											"value": true
										},
										"cause": "lava",
										"damage_per_tick": 4
									}
								]
							},
							"minecraft:movement": {
								"value": 0.25
							},
							"minecraft:navigation.walk": {
								"can_path_over_water": true,
								"avoid_water": false
							},
							"minecraft:movement.basic": {},
							"minecraft:jump.static": {},
							"minecraft:can_climb": {},
							"minecraft:despawn": {
								"despawn_from_distance": {}
							},
							"minecraft:behavior.float": {
								"priority": 1
							},
							"minecraft:behavior.ranged_attack": {
								"priority": 2,
								"speed_multiplier": 1,
								"attack_interval_min": 3,
								"attack_interval_max": 3,
								"attack_radius": 10
							},
							"minecraft:behavior.random_stroll": {
								"priority": 4,
								"speed_multiplier": 1
							},
							"minecraft:behavior.look_at_player": {
								"priority": 5,
								"look_distance": 8
							},
							"minecraft:behavior.random_look_around": {
								"priority": 5,
								"look_distance": 8
							},
							"minecraft:behavior.hurt_by_target": {
								"priority": 1
							},
							"minecraft:behavior.nearest_attackable_target": {
								"priority": 2,
								"entity_types": [
									{
										"filters": {
											"any_of": [
												{
													"test": "is_family",
													"subject": "other",
													"value": "player"
												},
												{
													"test": "is_family",
													"subject": "other",
													"value": "snowgolem"
												},
												{
													"test": "is_family",
													"subject": "other",
													"value": "irongolem"
												}
											]
										},
										"max_dist": 10
									}
								],
								"must_reach": true
							},
							"minecraft:type_family": {
								"family": [
									"witch",
									"monster",
									"mob"
								]
							},
							"minecraft:collision_box": {
								"width": 0.6,
								"height": 1.9
							},
							"minecraft:physics": {},
							"minecraft:pushable": {
								"is_pushable": true,
								"is_pushable_by_piston": true
							},
							"minecraft:follow_range": {
								"value": 64
							},
							"minecraft:conditional_bandwidth_optimization": {},
							"minecraft:timer": {
								"looping": true,
								"time": [
									10,
									15
								],
								"time_down_event": {
									"event": "turning"
								}
							}
						},
						"events": {
							"minecraft:spawn_for_raid": {
								"add": {
									"component_groups": [
										"minecraft:raid_configuration"
									]
								}
							},
							"minecraft:start_celebrating": {
								"add": {
									"component_groups": [
										"minecraft:celebrate"
									]
								}
							},
							"minecraft:stop_celebrating": {
								"remove": {
									"component_groups": [
										"minecraft:celebrate"
									]
								}
							},
							"turning": {
								"add": {
									"component_groups": [
										"start_turning"
									]
								}
							}
						}
					}
				},
				"data": "1.17.0",
				"key": "format_version"
			},
			{
				"open": {
					"format_version": "1.17.0",
					"minecraft:entity": {
						"description": {
							"is_spawnable": true,
							"is_summonable": true,
							"is_experimental": false,
							"identifier": "v:dark_witch"
						},
						"component_groups": {
							"minecraft:celebrate": {
								"minecraft:behavior.celebrate": {
									"priority": 5,
									"celebration_sound": "celebrate",
									"sound_interval": {
										"range_min": 2,
										"range_max": 7
									},
									"jump_interval": {
										"range_min": 1,
										"range_max": 3.5
									},
									"duration": 30,
									"on_celebration_end_event": {
										"event": "minecraft:stop_celebrating",
										"target": "self"
									}
								}
							},
							"minecraft:raid_configuration": {
								"minecraft:dweller": {
									"dwelling_type": "village",
									"dweller_role": "hostile",
									"update_interval_base": 60,
									"update_interval_variant": 40,
									"can_find_poi": false,
									"can_migrate": false,
									"first_founding_reward": 0
								},
								"minecraft:behavior.move_to_village": {
									"priority": 3,
									"speed_multiplier": 1.2,
									"goal_radius": 2
								},
								"minecraft:ambient_sound_interval": {
									"value": 2,
									"range": 4,
									"event_name": "ambient.in.raid"
								}
							},
							"start_turning": {
								"minecraft:behavior.send_event": {
									"priority": 3,
									"event_choices": [
										{
											"min_activation_range": 0,
											"max_activation_range": 16,
											"cooldown_time": 5,
											"cast_duration": 3,
											"particle_color": "#FFB38033",
											"weight": 1,
											"filters": {
												"all_of": [
													{
														"test": "is_family",
														"subject": "other",
														"value": "villager"
													},
													{
														"test": "has_component",
														"subject": "other",
														"operator": "!=",
														"value": "minecraft:is_baby"
													}
												]
											},
											"start_sound_event": "cast.spell",
											"sequence": [
												{
													"base_delay": 2,
													"sound_event": "prepare.wololo",
													"event": "ravager"
												}
											],
											"look_at_target": true
										},
										{
											"min_activation_range": 0,
											"max_activation_range": 16,
											"cooldown_time": 5,
											"cast_duration": 3,
											"particle_color": "#FFB38033",
											"weight": 49,
											"filters": {
												"all_of": [
													{
														"test": "is_family",
														"subject": "other",
														"value": "villager"
													},
													{
														"test": "has_component",
														"subject": "other",
														"operator": "!=",
														"value": "minecraft:is_baby"
													}
												]
											},
											"start_sound_event": "cast.spell",
											"sequence": [
												{
													"base_delay": 2,
													"sound_event": "prepare.wololo",
													"event": "zombie"
												}
											],
											"look_at_target": true
										},
										{
											"min_activation_range": 0,
											"max_activation_range": 16,
											"cooldown_time": 5,
											"cast_duration": 3,
											"particle_color": "#FFB38033",
											"weight": 50,
											"filters": {
												"all_of": [
													{
														"test": "is_family",
														"subject": "other",
														"value": "villager"
													},
													{
														"test": "has_component",
														"subject": "other",
														"operator": "!=",
														"value": "minecraft:is_baby"
													}
												]
											},
											"start_sound_event": "cast.spell",
											"sequence": [
												{
													"base_delay": 2,
													"sound_event": "prepare.wololo",
													"event": "turn_into_pill"
												}
											],
											"look_at_target": true
										}
									]
								}
							}
						},
						"components": {
							"minecraft:is_hidden_when_invisible": {},
							"minecraft:experience_reward": {
								"on_death": "query.last_hit_by_player ? (query.is_baby ? 12 : 5) + (Math.die_roll(query.equipment_count,1,3)) : 0"
							},
							"minecraft:breathable": {
								"total_supply": 15,
								"suffocate_time": 0
							},
							"minecraft:nameable": {},
							"minecraft:loot": {
								"table": "loot_tables/entities/witch.json"
							},
							"minecraft:health": {
								"value": 40,
								"max": 40
							},
							"minecraft:hurt_on_condition": {
								"damage_conditions": [
									{
										"filters": {
											"test": "in_lava",
											"subject": "self",
											"operator": "==",
											"value": true
										},
										"cause": "lava",
										"damage_per_tick": 4
									}
								]
							},
							"minecraft:movement": {
								"value": 0.25
							},
							"minecraft:navigation.walk": {
								"can_path_over_water": true,
								"avoid_water": false
							},
							"minecraft:movement.basic": {},
							"minecraft:jump.static": {},
							"minecraft:can_climb": {},
							"minecraft:despawn": {
								"despawn_from_distance": {}
							},
							"minecraft:behavior.float": {
								"priority": 1
							},
							"minecraft:behavior.ranged_attack": {
								"priority": 2,
								"speed_multiplier": 1,
								"attack_interval_min": 3,
								"attack_interval_max": 3,
								"attack_radius": 10
							},
							"minecraft:behavior.random_stroll": {
								"priority": 4,
								"speed_multiplier": 1
							},
							"minecraft:behavior.look_at_player": {
								"priority": 5,
								"look_distance": 8
							},
							"minecraft:behavior.random_look_around": {
								"priority": 5,
								"look_distance": 8
							},
							"minecraft:behavior.hurt_by_target": {
								"priority": 1
							},
							"minecraft:behavior.nearest_attackable_target": {
								"priority": 2,
								"entity_types": [
									{
										"filters": {
											"any_of": [
												{
													"test": "is_family",
													"subject": "other",
													"value": "player"
												},
												{
													"test": "is_family",
													"subject": "other",
													"value": "snowgolem"
												},
												{
													"test": "is_family",
													"subject": "other",
													"value": "irongolem"
												}
											]
										},
										"max_dist": 10
									}
								],
								"must_reach": true
							},
							"minecraft:type_family": {
								"family": [
									"witch",
									"monster",
									"mob"
								]
							},
							"minecraft:collision_box": {
								"width": 0.6,
								"height": 1.9
							},
							"minecraft:physics": {},
							"minecraft:pushable": {
								"is_pushable": true,
								"is_pushable_by_piston": true
							},
							"minecraft:follow_range": {
								"value": 64
							},
							"minecraft:conditional_bandwidth_optimization": {},
							"minecraft:timer": {
								"looping": true,
								"time": [
									10,
									15
								],
								"time_down_event": {
									"event": "turning"
								}
							}
						},
						"events": {
							"minecraft:spawn_for_raid": {
								"add": {
									"component_groups": [
										"minecraft:raid_configuration"
									]
								}
							},
							"minecraft:start_celebrating": {
								"add": {
									"component_groups": [
										"minecraft:celebrate"
									]
								}
							},
							"minecraft:stop_celebrating": {
								"remove": {
									"component_groups": [
										"minecraft:celebrate"
									]
								}
							},
							"turning": {
								"add": {
									"component_groups": [
										"start_turning"
									]
								}
							}
						}
					}
				},
				"key": "minecraft:entity",
				"children": [
					{
						"key": "description",
						"is_minified": true,
						"children": {
							"is_spawnable": true,
							"is_summonable": true,
							"is_experimental": false,
							"identifier": "v:dark_witch"
						}
					},
					{
						"open": {
							"description": {
								"is_spawnable": true,
								"is_summonable": true,
								"is_experimental": false,
								"identifier": "v:dark_witch"
							},
							"component_groups": {
								"minecraft:celebrate": {
									"minecraft:behavior.celebrate": {
										"priority": 5,
										"celebration_sound": "celebrate",
										"sound_interval": {
											"range_min": 2,
											"range_max": 7
										},
										"jump_interval": {
											"range_min": 1,
											"range_max": 3.5
										},
										"duration": 30,
										"on_celebration_end_event": {
											"event": "minecraft:stop_celebrating",
											"target": "self"
										}
									}
								},
								"minecraft:raid_configuration": {
									"minecraft:dweller": {
										"dwelling_type": "village",
										"dweller_role": "hostile",
										"update_interval_base": 60,
										"update_interval_variant": 40,
										"can_find_poi": false,
										"can_migrate": false,
										"first_founding_reward": 0
									},
									"minecraft:behavior.move_to_village": {
										"priority": 3,
										"speed_multiplier": 1.2,
										"goal_radius": 2
									},
									"minecraft:ambient_sound_interval": {
										"value": 2,
										"range": 4,
										"event_name": "ambient.in.raid"
									}
								},
								"start_turning": {
									"minecraft:behavior.send_event": {
										"priority": 3,
										"event_choices": [
											{
												"min_activation_range": 0,
												"max_activation_range": 16,
												"cooldown_time": 5,
												"cast_duration": 3,
												"particle_color": "#FFB38033",
												"weight": 1,
												"filters": {
													"all_of": [
														{
															"test": "is_family",
															"subject": "other",
															"value": "villager"
														},
														{
															"test": "has_component",
															"subject": "other",
															"operator": "!=",
															"value": "minecraft:is_baby"
														}
													]
												},
												"start_sound_event": "cast.spell",
												"sequence": [
													{
														"base_delay": 2,
														"sound_event": "prepare.wololo",
														"event": "ravager"
													}
												],
												"look_at_target": true
											},
											{
												"min_activation_range": 0,
												"max_activation_range": 16,
												"cooldown_time": 5,
												"cast_duration": 3,
												"particle_color": "#FFB38033",
												"weight": 49,
												"filters": {
													"all_of": [
														{
															"test": "is_family",
															"subject": "other",
															"value": "villager"
														},
														{
															"test": "has_component",
															"subject": "other",
															"operator": "!=",
															"value": "minecraft:is_baby"
														}
													]
												},
												"start_sound_event": "cast.spell",
												"sequence": [
													{
														"base_delay": 2,
														"sound_event": "prepare.wololo",
														"event": "zombie"
													}
												],
												"look_at_target": true
											},
											{
												"min_activation_range": 0,
												"max_activation_range": 16,
												"cooldown_time": 5,
												"cast_duration": 3,
												"particle_color": "#FFB38033",
												"weight": 50,
												"filters": {
													"all_of": [
														{
															"test": "is_family",
															"subject": "other",
															"value": "villager"
														},
														{
															"test": "has_component",
															"subject": "other",
															"operator": "!=",
															"value": "minecraft:is_baby"
														}
													]
												},
												"start_sound_event": "cast.spell",
												"sequence": [
													{
														"base_delay": 2,
														"sound_event": "prepare.wololo",
														"event": "turn_into_pill"
													}
												],
												"look_at_target": true
											}
										]
									}
								}
							},
							"components": {
								"minecraft:is_hidden_when_invisible": {},
								"minecraft:experience_reward": {
									"on_death": "query.last_hit_by_player ? (query.is_baby ? 12 : 5) + (Math.die_roll(query.equipment_count,1,3)) : 0"
								},
								"minecraft:breathable": {
									"total_supply": 15,
									"suffocate_time": 0
								},
								"minecraft:nameable": {},
								"minecraft:loot": {
									"table": "loot_tables/entities/witch.json"
								},
								"minecraft:health": {
									"value": 40,
									"max": 40
								},
								"minecraft:hurt_on_condition": {
									"damage_conditions": [
										{
											"filters": {
												"test": "in_lava",
												"subject": "self",
												"operator": "==",
												"value": true
											},
											"cause": "lava",
											"damage_per_tick": 4
										}
									]
								},
								"minecraft:movement": {
									"value": 0.25
								},
								"minecraft:navigation.walk": {
									"can_path_over_water": true,
									"avoid_water": false
								},
								"minecraft:movement.basic": {},
								"minecraft:jump.static": {},
								"minecraft:can_climb": {},
								"minecraft:despawn": {
									"despawn_from_distance": {}
								},
								"minecraft:behavior.float": {
									"priority": 1
								},
								"minecraft:behavior.ranged_attack": {
									"priority": 2,
									"speed_multiplier": 1,
									"attack_interval_min": 3,
									"attack_interval_max": 3,
									"attack_radius": 10
								},
								"minecraft:behavior.random_stroll": {
									"priority": 4,
									"speed_multiplier": 1
								},
								"minecraft:behavior.look_at_player": {
									"priority": 5,
									"look_distance": 8
								},
								"minecraft:behavior.random_look_around": {
									"priority": 5,
									"look_distance": 8
								},
								"minecraft:behavior.hurt_by_target": {
									"priority": 1
								},
								"minecraft:behavior.nearest_attackable_target": {
									"priority": 2,
									"entity_types": [
										{
											"filters": {
												"any_of": [
													{
														"test": "is_family",
														"subject": "other",
														"value": "player"
													},
													{
														"test": "is_family",
														"subject": "other",
														"value": "snowgolem"
													},
													{
														"test": "is_family",
														"subject": "other",
														"value": "irongolem"
													}
												]
											},
											"max_dist": 10
										}
									],
									"must_reach": true
								},
								"minecraft:type_family": {
									"family": [
										"witch",
										"monster",
										"mob"
									]
								},
								"minecraft:collision_box": {
									"width": 0.6,
									"height": 1.9
								},
								"minecraft:physics": {},
								"minecraft:pushable": {
									"is_pushable": true,
									"is_pushable_by_piston": true
								},
								"minecraft:follow_range": {
									"value": 64
								},
								"minecraft:conditional_bandwidth_optimization": {},
								"minecraft:timer": {
									"looping": true,
									"time": [
										10,
										15
									],
									"time_down_event": {
										"event": "turning"
									}
								}
							},
							"events": {
								"minecraft:spawn_for_raid": {
									"add": {
										"component_groups": [
											"minecraft:raid_configuration"
										]
									}
								},
								"minecraft:start_celebrating": {
									"add": {
										"component_groups": [
											"minecraft:celebrate"
										]
									}
								},
								"minecraft:stop_celebrating": {
									"remove": {
										"component_groups": [
											"minecraft:celebrate"
										]
									}
								},
								"turning": {
									"add": {
										"component_groups": [
											"start_turning"
										]
									}
								}
							}
						},
						"key": "component_groups",
						"children": [
							{
								"key": "minecraft:celebrate",
								"is_minified": true,
								"children": {
									"minecraft:behavior.celebrate": {
										"priority": 5,
										"celebration_sound": "celebrate",
										"sound_interval": {
											"range_min": 2,
											"range_max": 7
										},
										"jump_interval": {
											"range_min": 1,
											"range_max": 3.5
										},
										"duration": 30,
										"on_celebration_end_event": {
											"event": "minecraft:stop_celebrating",
											"target": "self"
										}
									}
								}
							},
							{
								"key": "minecraft:raid_configuration",
								"is_minified": true,
								"children": {
									"minecraft:dweller": {
										"dwelling_type": "village",
										"dweller_role": "hostile",
										"update_interval_base": 60,
										"update_interval_variant": 40,
										"can_find_poi": false,
										"can_migrate": false,
										"first_founding_reward": 0
									},
									"minecraft:behavior.move_to_village": {
										"priority": 3,
										"speed_multiplier": 1.2,
										"goal_radius": 2
									},
									"minecraft:ambient_sound_interval": {
										"value": 2,
										"range": 4,
										"event_name": "ambient.in.raid"
									}
								}
							},
							{
								"open": {
									"minecraft:celebrate": {
										"minecraft:behavior.celebrate": {
											"priority": 5,
											"celebration_sound": "celebrate",
											"sound_interval": {
												"range_min": 2,
												"range_max": 7
											},
											"jump_interval": {
												"range_min": 1,
												"range_max": 3.5
											},
											"duration": 30,
											"on_celebration_end_event": {
												"event": "minecraft:stop_celebrating",
												"target": "self"
											}
										}
									},
									"minecraft:raid_configuration": {
										"minecraft:dweller": {
											"dwelling_type": "village",
											"dweller_role": "hostile",
											"update_interval_base": 60,
											"update_interval_variant": 40,
											"can_find_poi": false,
											"can_migrate": false,
											"first_founding_reward": 0
										},
										"minecraft:behavior.move_to_village": {
											"priority": 3,
											"speed_multiplier": 1.2,
											"goal_radius": 2
										},
										"minecraft:ambient_sound_interval": {
											"value": 2,
											"range": 4,
											"event_name": "ambient.in.raid"
										}
									},
									"start_turning": {
										"minecraft:behavior.send_event": {
											"priority": 3,
											"event_choices": [
												{
													"min_activation_range": 0,
													"max_activation_range": 16,
													"cooldown_time": 5,
													"cast_duration": 3,
													"particle_color": "#FFB38033",
													"weight": 1,
													"filters": {
														"all_of": [
															{
																"test": "is_family",
																"subject": "other",
																"value": "villager"
															},
															{
																"test": "has_component",
																"subject": "other",
																"operator": "!=",
																"value": "minecraft:is_baby"
															}
														]
													},
													"start_sound_event": "cast.spell",
													"sequence": [
														{
															"base_delay": 2,
															"sound_event": "prepare.wololo",
															"event": "ravager"
														}
													],
													"look_at_target": true
												},
												{
													"min_activation_range": 0,
													"max_activation_range": 16,
													"cooldown_time": 5,
													"cast_duration": 3,
													"particle_color": "#FFB38033",
													"weight": 49,
													"filters": {
														"all_of": [
															{
																"test": "is_family",
																"subject": "other",
																"value": "villager"
															},
															{
																"test": "has_component",
																"subject": "other",
																"operator": "!=",
																"value": "minecraft:is_baby"
															}
														]
													},
													"start_sound_event": "cast.spell",
													"sequence": [
														{
															"base_delay": 2,
															"sound_event": "prepare.wololo",
															"event": "zombie"
														}
													],
													"look_at_target": true
												},
												{
													"min_activation_range": 0,
													"max_activation_range": 16,
													"cooldown_time": 5,
													"cast_duration": 3,
													"particle_color": "#FFB38033",
													"weight": 50,
													"filters": {
														"all_of": [
															{
																"test": "is_family",
																"subject": "other",
																"value": "villager"
															},
															{
																"test": "has_component",
																"subject": "other",
																"operator": "!=",
																"value": "minecraft:is_baby"
															}
														]
													},
													"start_sound_event": "cast.spell",
													"sequence": [
														{
															"base_delay": 2,
															"sound_event": "prepare.wololo",
															"event": "turn_into_pill"
														}
													],
													"look_at_target": true
												}
											]
										}
									}
								},
								"key": "start_turning",
								"children": [
									{
										"open": {
											"minecraft:behavior.send_event": {
												"priority": 3,
												"event_choices": [
													{
														"min_activation_range": 0,
														"max_activation_range": 16,
														"cooldown_time": 5,
														"cast_duration": 3,
														"particle_color": "#FFB38033",
														"weight": 1,
														"filters": {
															"all_of": [
																{
																	"test": "is_family",
																	"subject": "other",
																	"value": "villager"
																},
																{
																	"test": "has_component",
																	"subject": "other",
																	"operator": "!=",
																	"value": "minecraft:is_baby"
																}
															]
														},
														"start_sound_event": "cast.spell",
														"sequence": [
															{
																"base_delay": 2,
																"sound_event": "prepare.wololo",
																"event": "ravager"
															}
														],
														"look_at_target": true
													},
													{
														"min_activation_range": 0,
														"max_activation_range": 16,
														"cooldown_time": 5,
														"cast_duration": 3,
														"particle_color": "#FFB38033",
														"weight": 49,
														"filters": {
															"all_of": [
																{
																	"test": "is_family",
																	"subject": "other",
																	"value": "villager"
																},
																{
																	"test": "has_component",
																	"subject": "other",
																	"operator": "!=",
																	"value": "minecraft:is_baby"
																}
															]
														},
														"start_sound_event": "cast.spell",
														"sequence": [
															{
																"base_delay": 2,
																"sound_event": "prepare.wololo",
																"event": "zombie"
															}
														],
														"look_at_target": true
													},
													{
														"min_activation_range": 0,
														"max_activation_range": 16,
														"cooldown_time": 5,
														"cast_duration": 3,
														"particle_color": "#FFB38033",
														"weight": 50,
														"filters": {
															"all_of": [
																{
																	"test": "is_family",
																	"subject": "other",
																	"value": "villager"
																},
																{
																	"test": "has_component",
																	"subject": "other",
																	"operator": "!=",
																	"value": "minecraft:is_baby"
																}
															]
														},
														"start_sound_event": "cast.spell",
														"sequence": [
															{
																"base_delay": 2,
																"sound_event": "prepare.wololo",
																"event": "turn_into_pill"
															}
														],
														"look_at_target": true
													}
												]
											}
										},
										"key": "minecraft:behavior.send_event",
										"children": [
											{
												"data": "3",
												"key": "priority"
											},
											{
												"open": {
													"priority": 3,
													"event_choices": [
														{
															"min_activation_range": 0,
															"max_activation_range": 16,
															"cooldown_time": 5,
															"cast_duration": 3,
															"particle_color": "#FFB38033",
															"weight": 1,
															"filters": {
																"all_of": [
																	{
																		"test": "is_family",
																		"subject": "other",
																		"value": "villager"
																	},
																	{
																		"test": "has_component",
																		"subject": "other",
																		"operator": "!=",
																		"value": "minecraft:is_baby"
																	}
																]
															},
															"start_sound_event": "cast.spell",
															"sequence": [
																{
																	"base_delay": 2,
																	"sound_event": "prepare.wololo",
																	"event": "ravager"
																}
															],
															"look_at_target": true
														},
														{
															"min_activation_range": 0,
															"max_activation_range": 16,
															"cooldown_time": 5,
															"cast_duration": 3,
															"particle_color": "#FFB38033",
															"weight": 49,
															"filters": {
																"all_of": [
																	{
																		"test": "is_family",
																		"subject": "other",
																		"value": "villager"
																	},
																	{
																		"test": "has_component",
																		"subject": "other",
																		"operator": "!=",
																		"value": "minecraft:is_baby"
																	}
																]
															},
															"start_sound_event": "cast.spell",
															"sequence": [
																{
																	"base_delay": 2,
																	"sound_event": "prepare.wololo",
																	"event": "zombie"
																}
															],
															"look_at_target": true
														},
														{
															"min_activation_range": 0,
															"max_activation_range": 16,
															"cooldown_time": 5,
															"cast_duration": 3,
															"particle_color": "#FFB38033",
															"weight": 50,
															"filters": {
																"all_of": [
																	{
																		"test": "is_family",
																		"subject": "other",
																		"value": "villager"
																	},
																	{
																		"test": "has_component",
																		"subject": "other",
																		"operator": "!=",
																		"value": "minecraft:is_baby"
																	}
																]
															},
															"start_sound_event": "cast.spell",
															"sequence": [
																{
																	"base_delay": 2,
																	"sound_event": "prepare.wololo",
																	"event": "turn_into_pill"
																}
															],
															"look_at_target": true
														}
													]
												},
												"key": "event_choices",
												"children": [
													{
														"open": [
															{
																"min_activation_range": 0,
																"max_activation_range": 16,
																"cooldown_time": 5,
																"cast_duration": 3,
																"particle_color": "#FFB38033",
																"weight": 1,
																"filters": {
																	"all_of": [
																		{
																			"test": "is_family",
																			"subject": "other",
																			"value": "villager"
																		},
																		{
																			"test": "has_component",
																			"subject": "other",
																			"operator": "!=",
																			"value": "minecraft:is_baby"
																		}
																	]
																},
																"start_sound_event": "cast.spell",
																"sequence": [
																	{
																		"base_delay": 2,
																		"sound_event": "prepare.wololo",
																		"event": "ravager"
																	}
																],
																"look_at_target": true
															},
															{
																"min_activation_range": 0,
																"max_activation_range": 16,
																"cooldown_time": 5,
																"cast_duration": 3,
																"particle_color": "#FFB38033",
																"weight": 49,
																"filters": {
																	"all_of": [
																		{
																			"test": "is_family",
																			"subject": "other",
																			"value": "villager"
																		},
																		{
																			"test": "has_component",
																			"subject": "other",
																			"operator": "!=",
																			"value": "minecraft:is_baby"
																		}
																	]
																},
																"start_sound_event": "cast.spell",
																"sequence": [
																	{
																		"base_delay": 2,
																		"sound_event": "prepare.wololo",
																		"event": "zombie"
																	}
																],
																"look_at_target": true
															},
															{
																"min_activation_range": 0,
																"max_activation_range": 16,
																"cooldown_time": 5,
																"cast_duration": 3,
																"particle_color": "#FFB38033",
																"weight": 50,
																"filters": {
																	"all_of": [
																		{
																			"test": "is_family",
																			"subject": "other",
																			"value": "villager"
																		},
																		{
																			"test": "has_component",
																			"subject": "other",
																			"operator": "!=",
																			"value": "minecraft:is_baby"
																		}
																	]
																},
																"start_sound_event": "cast.spell",
																"sequence": [
																	{
																		"base_delay": 2,
																		"sound_event": "prepare.wololo",
																		"event": "turn_into_pill"
																	}
																],
																"look_at_target": true
															}
														],
														"children": [
															{
																"data": "0",
																"key": "min_activation_range"
															},
															{
																"data": "16",
																"key": "max_activation_range"
															},
															{
																"data": "5",
																"key": "cooldown_time"
															},
															{
																"data": "3",
																"key": "cast_duration"
															},
															{
																"data": "#FFB38033",
																"key": "particle_color"
															},
															{
																"data": "1",
																"key": "weight"
															},
															{
																"key": "filters",
																"children": [
																	{
																		"key": "all_of",
																		"children": [
																			{
																				"open": [
																					{
																						"test": "is_family",
																						"subject": "other",
																						"value": "villager"
																					},
																					{
																						"test": "has_component",
																						"subject": "other",
																						"operator": "!=",
																						"value": "minecraft:is_baby"
																					}
																				],
																				"is_minified": true,
																				"children": {
																					"test": "is_family",
																					"subject": "other",
																					"value": "villager"
																				}
																			},
																			{
																				"open": [
																					{
																						"test": "is_family",
																						"subject": "other",
																						"value": "villager"
																					},
																					{
																						"test": "has_component",
																						"subject": "other",
																						"operator": "!=",
																						"value": "minecraft:is_baby"
																					}
																				],
																				"is_minified": true,
																				"children": {
																					"test": "has_component",
																					"subject": "other",
																					"operator": "!=",
																					"value": "minecraft:is_baby"
																				}
																			}
																		]
																	}
																]
															},
															{
																"data": "cast.spell",
																"key": "start_sound_event"
															},
															{
																"key": "sequence",
																"children": [
																	{
																		"open": [
																			{
																				"base_delay": 2,
																				"sound_event": "prepare.wololo",
																				"event": "ravager"
																			}
																		],
																		"is_minified": true,
																		"children": {
																			"base_delay": 2,
																			"sound_event": "prepare.wololo",
																			"event": "ravager"
																		}
																	}
																]
															},
															{
																"data": "true",
																"key": "look_at_target"
															}
														]
													},
													{
														"open": [
															{
																"min_activation_range": 0,
																"max_activation_range": 16,
																"cooldown_time": 5,
																"cast_duration": 3,
																"particle_color": "#FFB38033",
																"weight": 1,
																"filters": {
																	"all_of": [
																		{
																			"test": "is_family",
																			"subject": "other",
																			"value": "villager"
																		},
																		{
																			"test": "has_component",
																			"subject": "other",
																			"operator": "!=",
																			"value": "minecraft:is_baby"
																		}
																	]
																},
																"start_sound_event": "cast.spell",
																"sequence": [
																	{
																		"base_delay": 2,
																		"sound_event": "prepare.wololo",
																		"event": "ravager"
																	}
																],
																"look_at_target": true
															},
															{
																"min_activation_range": 0,
																"max_activation_range": 16,
																"cooldown_time": 5,
																"cast_duration": 3,
																"particle_color": "#FFB38033",
																"weight": 49,
																"filters": {
																	"all_of": [
																		{
																			"test": "is_family",
																			"subject": "other",
																			"value": "villager"
																		},
																		{
																			"test": "has_component",
																			"subject": "other",
																			"operator": "!=",
																			"value": "minecraft:is_baby"
																		}
																	]
																},
																"start_sound_event": "cast.spell",
																"sequence": [
																	{
																		"base_delay": 2,
																		"sound_event": "prepare.wololo",
																		"event": "zombie"
																	}
																],
																"look_at_target": true
															},
															{
																"min_activation_range": 0,
																"max_activation_range": 16,
																"cooldown_time": 5,
																"cast_duration": 3,
																"particle_color": "#FFB38033",
																"weight": 50,
																"filters": {
																	"all_of": [
																		{
																			"test": "is_family",
																			"subject": "other",
																			"value": "villager"
																		},
																		{
																			"test": "has_component",
																			"subject": "other",
																			"operator": "!=",
																			"value": "minecraft:is_baby"
																		}
																	]
																},
																"start_sound_event": "cast.spell",
																"sequence": [
																	{
																		"base_delay": 2,
																		"sound_event": "prepare.wololo",
																		"event": "turn_into_pill"
																	}
																],
																"look_at_target": true
															}
														],
														"children": [
															{
																"data": "0",
																"key": "min_activation_range"
															},
															{
																"data": "16",
																"key": "max_activation_range"
															},
															{
																"data": "5",
																"key": "cooldown_time"
															},
															{
																"data": "3",
																"key": "cast_duration"
															},
															{
																"data": "#FFB38033",
																"key": "particle_color"
															},
															{
																"data": "49",
																"key": "weight"
															},
															{
																"key": "filters",
																"is_minified": true,
																"children": {
																	"all_of": [
																		{
																			"test": "is_family",
																			"subject": "other",
																			"value": "villager"
																		},
																		{
																			"test": "has_component",
																			"subject": "other",
																			"operator": "!=",
																			"value": "minecraft:is_baby"
																		}
																	]
																}
															},
															{
																"data": "cast.spell",
																"key": "start_sound_event"
															},
															{
																"key": "sequence",
																"children": [
																	{
																		"open": [
																			{
																				"base_delay": 2,
																				"sound_event": "prepare.wololo",
																				"event": "zombie"
																			}
																		],
																		"is_minified": true,
																		"children": {
																			"base_delay": 2,
																			"sound_event": "prepare.wololo",
																			"event": "zombie"
																		}
																	}
																]
															},
															{
																"data": "true",
																"key": "look_at_target"
															}
														]
													},
													{
														"open": [
															{
																"min_activation_range": 0,
																"max_activation_range": 16,
																"cooldown_time": 5,
																"cast_duration": 3,
																"particle_color": "#FFB38033",
																"weight": 1,
																"filters": {
																	"all_of": [
																		{
																			"test": "is_family",
																			"subject": "other",
																			"value": "villager"
																		},
																		{
																			"test": "has_component",
																			"subject": "other",
																			"operator": "!=",
																			"value": "minecraft:is_baby"
																		}
																	]
																},
																"start_sound_event": "cast.spell",
																"sequence": [
																	{
																		"base_delay": 2,
																		"sound_event": "prepare.wololo",
																		"event": "ravager"
																	}
																],
																"look_at_target": true
															},
															{
																"min_activation_range": 0,
																"max_activation_range": 16,
																"cooldown_time": 5,
																"cast_duration": 3,
																"particle_color": "#FFB38033",
																"weight": 49,
																"filters": {
																	"all_of": [
																		{
																			"test": "is_family",
																			"subject": "other",
																			"value": "villager"
																		},
																		{
																			"test": "has_component",
																			"subject": "other",
																			"operator": "!=",
																			"value": "minecraft:is_baby"
																		}
																	]
																},
																"start_sound_event": "cast.spell",
																"sequence": [
																	{
																		"base_delay": 2,
																		"sound_event": "prepare.wololo",
																		"event": "zombie"
																	}
																],
																"look_at_target": true
															},
															{
																"min_activation_range": 0,
																"max_activation_range": 16,
																"cooldown_time": 5,
																"cast_duration": 3,
																"particle_color": "#FFB38033",
																"weight": 50,
																"filters": {
																	"all_of": [
																		{
																			"test": "is_family",
																			"subject": "other",
																			"value": "villager"
																		},
																		{
																			"test": "has_component",
																			"subject": "other",
																			"operator": "!=",
																			"value": "minecraft:is_baby"
																		}
																	]
																},
																"start_sound_event": "cast.spell",
																"sequence": [
																	{
																		"base_delay": 2,
																		"sound_event": "prepare.wololo",
																		"event": "turn_into_pill"
																	}
																],
																"look_at_target": true
															}
														],
														"children": [
															{
																"data": "0",
																"key": "min_activation_range"
															},
															{
																"data": "16",
																"key": "max_activation_range"
															},
															{
																"data": "5",
																"key": "cooldown_time"
															},
															{
																"data": "3",
																"key": "cast_duration"
															},
															{
																"data": "#FFB38033",
																"key": "particle_color"
															},
															{
																"data": "50",
																"key": "weight"
															},
															{
																"key": "filters",
																"is_minified": true,
																"children": {
																	"all_of": [
																		{
																			"test": "is_family",
																			"subject": "other",
																			"value": "villager"
																		},
																		{
																			"test": "has_component",
																			"subject": "other",
																			"operator": "!=",
																			"value": "minecraft:is_baby"
																		}
																	]
																}
															},
															{
																"data": "cast.spell",
																"key": "start_sound_event"
															},
															{
																"key": "sequence",
																"children": [
																	{
																		"open": [
																			{
																				"base_delay": 2,
																				"sound_event": "prepare.wololo",
																				"event": "turn_into_pill"
																			}
																		],
																		"is_minified": true,
																		"children": {
																			"base_delay": 2,
																			"sound_event": "prepare.wololo",
																			"event": "turn_into_pill"
																		}
																	}
																]
															},
															{
																"data": "true",
																"key": "look_at_target"
															}
														]
													}
												]
											}
										]
									}
								]
							}
						]
					},
					{
						"key": "components",
						"children": [
							{
								"key": "minecraft:is_hidden_when_invisible",
								"is_minified": true,
								"children": {}
							},
							{
								"key": "minecraft:experience_reward",
								"is_minified": true,
								"children": {
									"on_death": "query.last_hit_by_player ? (query.is_baby ? 12 : 5) + (Math.die_roll(query.equipment_count,1,3)) : 0"
								}
							},
							{
								"key": "minecraft:breathable",
								"is_minified": true,
								"children": {
									"total_supply": 15,
									"suffocate_time": 0
								}
							},
							{
								"key": "minecraft:nameable",
								"is_minified": true,
								"children": {}
							},
							{
								"key": "minecraft:loot",
								"is_minified": true,
								"children": {
									"table": "loot_tables/entities/witch.json"
								}
							},
							{
								"key": "minecraft:health",
								"is_minified": true,
								"children": {
									"value": 40,
									"max": 40
								}
							},
							{
								"key": "minecraft:hurt_on_condition",
								"is_minified": true,
								"children": {
									"damage_conditions": [
										{
											"filters": {
												"test": "in_lava",
												"subject": "self",
												"operator": "==",
												"value": true
											},
											"cause": "lava",
											"damage_per_tick": 4
										}
									]
								}
							},
							{
								"key": "minecraft:movement",
								"is_minified": true,
								"children": {
									"value": 0.25
								}
							},
							{
								"key": "minecraft:navigation.walk",
								"is_minified": true,
								"children": {
									"can_path_over_water": true,
									"avoid_water": false
								}
							},
							{
								"key": "minecraft:movement.basic",
								"is_minified": true,
								"children": {}
							},
							{
								"key": "minecraft:jump.static",
								"is_minified": true,
								"children": {}
							},
							{
								"key": "minecraft:can_climb",
								"is_minified": true,
								"children": {}
							},
							{
								"key": "minecraft:despawn",
								"is_minified": true,
								"children": {
									"despawn_from_distance": {}
								}
							},
							{
								"key": "minecraft:behavior.float",
								"is_minified": true,
								"children": {
									"priority": 1
								}
							},
							{
								"key": "minecraft:behavior.ranged_attack",
								"is_minified": true,
								"children": {
									"priority": 2,
									"speed_multiplier": 1,
									"attack_interval_min": 3,
									"attack_interval_max": 3,
									"attack_radius": 10
								}
							},
							{
								"key": "minecraft:behavior.random_stroll",
								"is_minified": true,
								"children": {
									"priority": 4,
									"speed_multiplier": 1
								}
							},
							{
								"key": "minecraft:behavior.look_at_player",
								"is_minified": true,
								"children": {
									"priority": 5,
									"look_distance": 8
								}
							},
							{
								"key": "minecraft:behavior.random_look_around",
								"is_minified": true,
								"children": {
									"priority": 5,
									"look_distance": 8
								}
							},
							{
								"key": "minecraft:behavior.hurt_by_target",
								"is_minified": true,
								"children": {
									"priority": 1
								}
							},
							{
								"key": "minecraft:behavior.nearest_attackable_target",
								"is_minified": true,
								"children": {
									"priority": 2,
									"entity_types": [
										{
											"filters": {
												"any_of": [
													{
														"test": "is_family",
														"subject": "other",
														"value": "player"
													},
													{
														"test": "is_family",
														"subject": "other",
														"value": "snowgolem"
													},
													{
														"test": "is_family",
														"subject": "other",
														"value": "irongolem"
													}
												]
											},
											"max_dist": 10
										}
									],
									"must_reach": true
								}
							},
							{
								"key": "minecraft:type_family",
								"is_minified": true,
								"children": {
									"family": [
										"witch",
										"monster",
										"mob"
									]
								}
							},
							{
								"key": "minecraft:collision_box",
								"is_minified": true,
								"children": {
									"width": 0.6,
									"height": 1.9
								}
							},
							{
								"key": "minecraft:physics",
								"is_minified": true,
								"children": {}
							},
							{
								"key": "minecraft:pushable",
								"is_minified": true,
								"children": {
									"is_pushable": true,
									"is_pushable_by_piston": true
								}
							},
							{
								"key": "minecraft:follow_range",
								"is_minified": true,
								"children": {
									"value": 64
								}
							},
							{
								"key": "minecraft:conditional_bandwidth_optimization",
								"is_minified": true,
								"children": {}
							},
							{
								"key": "minecraft:timer",
								"children": [
									{
										"data": "true",
										"key": "looping"
									},
									{
										"open": {
											"looping": true,
											"time": [
												10,
												15
											],
											"time_down_event": {
												"event": "turning"
											}
										},
										"key": "time",
										"is_minified": true,
										"children": [
											10,
											15
										]
									},
									{
										"open": {
											"looping": true,
											"time": [
												10,
												15
											],
											"time_down_event": {
												"event": "turning"
											}
										},
										"key": "time_down_event",
										"is_minified": true,
										"children": {
											"event": "turning"
										}
									}
								]
							}
						]
					},
					{
						"open": {
							"description": {
								"is_spawnable": true,
								"is_summonable": true,
								"is_experimental": false,
								"identifier": "v:dark_witch"
							},
							"component_groups": {
								"minecraft:celebrate": {
									"minecraft:behavior.celebrate": {
										"priority": 5,
										"celebration_sound": "celebrate",
										"sound_interval": {
											"range_min": 2,
											"range_max": 7
										},
										"jump_interval": {
											"range_min": 1,
											"range_max": 3.5
										},
										"duration": 30,
										"on_celebration_end_event": {
											"event": "minecraft:stop_celebrating",
											"target": "self"
										}
									}
								},
								"minecraft:raid_configuration": {
									"minecraft:dweller": {
										"dwelling_type": "village",
										"dweller_role": "hostile",
										"update_interval_base": 60,
										"update_interval_variant": 40,
										"can_find_poi": false,
										"can_migrate": false,
										"first_founding_reward": 0
									},
									"minecraft:behavior.move_to_village": {
										"priority": 3,
										"speed_multiplier": 1.2,
										"goal_radius": 2
									},
									"minecraft:ambient_sound_interval": {
										"value": 2,
										"range": 4,
										"event_name": "ambient.in.raid"
									}
								},
								"start_turning": {
									"minecraft:behavior.send_event": {
										"priority": 3,
										"event_choices": [
											{
												"min_activation_range": 0,
												"max_activation_range": 16,
												"cooldown_time": 5,
												"cast_duration": 3,
												"particle_color": "#FFB38033",
												"weight": 1,
												"filters": {
													"all_of": [
														{
															"test": "is_family",
															"subject": "other",
															"value": "villager"
														},
														{
															"test": "has_component",
															"subject": "other",
															"operator": "!=",
															"value": "minecraft:is_baby"
														}
													]
												},
												"start_sound_event": "cast.spell",
												"sequence": [
													{
														"base_delay": 2,
														"sound_event": "prepare.wololo",
														"event": "ravager"
													}
												],
												"look_at_target": true
											},
											{
												"min_activation_range": 0,
												"max_activation_range": 16,
												"cooldown_time": 5,
												"cast_duration": 3,
												"particle_color": "#FFB38033",
												"weight": 49,
												"filters": {
													"all_of": [
														{
															"test": "is_family",
															"subject": "other",
															"value": "villager"
														},
														{
															"test": "has_component",
															"subject": "other",
															"operator": "!=",
															"value": "minecraft:is_baby"
														}
													]
												},
												"start_sound_event": "cast.spell",
												"sequence": [
													{
														"base_delay": 2,
														"sound_event": "prepare.wololo",
														"event": "zombie"
													}
												],
												"look_at_target": true
											},
											{
												"min_activation_range": 0,
												"max_activation_range": 16,
												"cooldown_time": 5,
												"cast_duration": 3,
												"particle_color": "#FFB38033",
												"weight": 50,
												"filters": {
													"all_of": [
														{
															"test": "is_family",
															"subject": "other",
															"value": "villager"
														},
														{
															"test": "has_component",
															"subject": "other",
															"operator": "!=",
															"value": "minecraft:is_baby"
														}
													]
												},
												"start_sound_event": "cast.spell",
												"sequence": [
													{
														"base_delay": 2,
														"sound_event": "prepare.wololo",
														"event": "turn_into_pill"
													}
												],
												"look_at_target": true
											}
										]
									}
								}
							},
							"components": {
								"minecraft:is_hidden_when_invisible": {},
								"minecraft:experience_reward": {
									"on_death": "query.last_hit_by_player ? (query.is_baby ? 12 : 5) + (Math.die_roll(query.equipment_count,1,3)) : 0"
								},
								"minecraft:breathable": {
									"total_supply": 15,
									"suffocate_time": 0
								},
								"minecraft:nameable": {},
								"minecraft:loot": {
									"table": "loot_tables/entities/witch.json"
								},
								"minecraft:health": {
									"value": 40,
									"max": 40
								},
								"minecraft:hurt_on_condition": {
									"damage_conditions": [
										{
											"filters": {
												"test": "in_lava",
												"subject": "self",
												"operator": "==",
												"value": true
											},
											"cause": "lava",
											"damage_per_tick": 4
										}
									]
								},
								"minecraft:movement": {
									"value": 0.25
								},
								"minecraft:navigation.walk": {
									"can_path_over_water": true,
									"avoid_water": false
								},
								"minecraft:movement.basic": {},
								"minecraft:jump.static": {},
								"minecraft:can_climb": {},
								"minecraft:despawn": {
									"despawn_from_distance": {}
								},
								"minecraft:behavior.float": {
									"priority": 1
								},
								"minecraft:behavior.ranged_attack": {
									"priority": 2,
									"speed_multiplier": 1,
									"attack_interval_min": 3,
									"attack_interval_max": 3,
									"attack_radius": 10
								},
								"minecraft:behavior.random_stroll": {
									"priority": 4,
									"speed_multiplier": 1
								},
								"minecraft:behavior.look_at_player": {
									"priority": 5,
									"look_distance": 8
								},
								"minecraft:behavior.random_look_around": {
									"priority": 5,
									"look_distance": 8
								},
								"minecraft:behavior.hurt_by_target": {
									"priority": 1
								},
								"minecraft:behavior.nearest_attackable_target": {
									"priority": 2,
									"entity_types": [
										{
											"filters": {
												"any_of": [
													{
														"test": "is_family",
														"subject": "other",
														"value": "player"
													},
													{
														"test": "is_family",
														"subject": "other",
														"value": "snowgolem"
													},
													{
														"test": "is_family",
														"subject": "other",
														"value": "irongolem"
													}
												]
											},
											"max_dist": 10
										}
									],
									"must_reach": true
								},
								"minecraft:type_family": {
									"family": [
										"witch",
										"monster",
										"mob"
									]
								},
								"minecraft:collision_box": {
									"width": 0.6,
									"height": 1.9
								},
								"minecraft:physics": {},
								"minecraft:pushable": {
									"is_pushable": true,
									"is_pushable_by_piston": true
								},
								"minecraft:follow_range": {
									"value": 64
								},
								"minecraft:conditional_bandwidth_optimization": {},
								"minecraft:timer": {
									"looping": true,
									"time": [
										10,
										15
									],
									"time_down_event": {
										"event": "turning"
									}
								}
							},
							"events": {
								"minecraft:spawn_for_raid": {
									"add": {
										"component_groups": [
											"minecraft:raid_configuration"
										]
									}
								},
								"minecraft:start_celebrating": {
									"add": {
										"component_groups": [
											"minecraft:celebrate"
										]
									}
								},
								"minecraft:stop_celebrating": {
									"remove": {
										"component_groups": [
											"minecraft:celebrate"
										]
									}
								},
								"turning": {
									"add": {
										"component_groups": [
											"start_turning"
										]
									}
								}
							}
						},
						"key": "events",
						"children": [
							{
								"key": "minecraft:spawn_for_raid",
								"is_minified": true,
								"children": {
									"add": {
										"component_groups": [
											"minecraft:raid_configuration"
										]
									}
								}
							},
							{
								"key": "minecraft:start_celebrating",
								"is_minified": true,
								"children": {
									"add": {
										"component_groups": [
											"minecraft:celebrate"
										]
									}
								}
							},
							{
								"key": "minecraft:stop_celebrating",
								"is_minified": true,
								"children": {
									"remove": {
										"component_groups": [
											"minecraft:celebrate"
										]
									}
								}
							},
							{
								"key": "turning",
								"children": [
									{
										"open": {
											"add": {
												"component_groups": [
													"start_turning"
												]
											}
										},
										"key": "add",
										"children": [
											{
												"open": {
													"component_groups": [
														"start_turning"
													]
												},
												"key": "component_groups",
												"is_minified": true,
												"children": [
													"start_turning"
												]
											}
										]
									}
								]
							}
						]
					}
				]
			}
		]
	}
}