{
  "format_version": "1.12",
  "minecraft:recipe_shaped": {
    "description": {
    "identifier": "vatonage:crushing_wheel"
    },

    
    "tags": [ "crafting_table" ],
    "pattern": [
      "BBB",
      "BAB",
      "BBB"
    ],
    "key": {
      "A": {
        "item": "vatonage:cogwheel"
      },
      "B": {
        "item": "minecraft:cobblestone"
      }
    },
    "result": {
      "item": "vatonage:crushing_wheel"
    }
  }
}
