{
  "pools": [
    {
      "rolls": 1,
      "entries": [
        {
          "type": "item",
          "weight": 7,
          "name": "btr:vampirism_i_book"
        },
        {
          "type": "item",
          "weight": 6,
          "name": "btr:vampirism_ii_book"
        },
        {
          "type": "item",
          "weight": 7,
          "name": "btr:education_i_book"
        },
        {
          "type": "item",
          "weight": 6,
          "name": "btr:education_ii_book"
        },
        {
          "type": "item",
          "weight": 5,
          "name": "btr:education_iii_book"
        },
        {
          "type": "item",
          "weight": 7,
          "name": "btr:fling_i_book"
        },
        {
          "type": "item",
          "weight": 6,
          "name": "btr:fling_ii_book"
        },
        {
          "type": "item",
          "weight": 7,
          "name": "btr:assasinate_i_book"
        },
        {
          "type": "item",
          "weight": 6,
          "name": "btr:assasinate_ii_book"
        },
        {
          "type": "item",
          "weight": 5,
          "name": "btr:assasinate_iii_book"
        },
        {
          "type": "item",
          "weight": 7,
          "name": "btr:bash_i_book"
        },
        {
          "type": "item",
          "weight": 6,
          "name": "btr:bash_ii_book"
        },
        {
          "type": "item",
          "weight": 5,
          "name": "btr:bash_iii_book"
        },
        {
          "type": "item",
          "weight": 7,
          "name": "btr:combo_i_book"
        },
        {
          "type": "item",
          "weight": 6,
          "name": "btr:combo_ii_book"
        },
        {
          "type": "item",
          "weight": 5,
          "name": "btr:combo_iii_book"
        },
        {
          "type": "item",
          "weight": 7,
          "name": "btr:disarm_i_book"
        },
        {
          "type": "item",
          "weight": 6,
          "name": "btr:disarm_ii_book"
        },
        {
          "type": "item",
          "weight": 5,
          "name": "btr:disarm_iii_book"
        },
        {
          "type": "item",
          "weight": 5,
          "name": "btr:smelting_book"
        },
        {
          "type": "item",
          "weight": 7,
          "name": "btr:tunneling_i_book"
        },
        {
          "type": "item",
          "weight": 6,
          "name": "btr:tunneling_ii_book"
        },
        {
          "type": "item",
          "weight": 5,
          "name": "btr:diamonds_everywhere_book"
        },
        {
          "type": "item",
          "weight": 5,
          "name": "btr:versatility_book"
        },
        {
          "type": "item",
          "weight": 7,
          "name": "btr:agility_i_book"
        },
        {
          "type": "item",
          "weight": 6,
          "name": "btr:agility_ii_book"
        },
        {
          "type": "item",
          "weight": 5,
          "name": "btr:vitality_book"
        },
        {
          "type": "item",
          "weight": 7,
          "name": "btr:high_jump_i_book"
        },
        {
          "type": "item",
          "weight": 6,
          "name": "btr:high_jump_ii_book"
        },
        {
          "type": "item",
          "name": "minecraft:book",
          "weight": 8,
          "functions": [
            {
              "function": "enchant_with_levels",
              "levels": 24,
              "treasure": true
            }
          ]
        }
      ]
    }
  ]
}