{
  "format_version": "1.12",
  "minecraft:recipe_shapeless": {
    "description": {
      "identifier": "versatility_diamond_axe"
    },
    "tags": [
      "crafting_table"
    ],
    "ingredients": [
      {
        "item": "minecraft:diamond_axe"
      },
      {
        "item": "btr:versatility_book"
      }
    ],
    "result": {
      "item": "btr:versatility_diamond_axe"
    }
  }
}