{
	"format_version": "1.16.100",
	"minecraft:item": {
		"description": {
			"identifier": "nicothekid:copper_boots",
			"category": "equipment"
		},
		"components": {
			"minecraft:icon": {
				"texture": "nicothekid_copper_boots"
			},
			"minecraft:display_name": {
				"value": "item.nicothekid:copper_boots.name"
			},
			"minecraft:creative_category": {
				"parent": "itemGroup.name.boots"
			},
			"minecraft:render_offsets": "boots",
			"minecraft:max_stack_size": 1,
			"minecraft:durability": {
				"max_durability": 147,
				"damage_chance": {
					"min": 60,
					"max": 100
				}
			},
			"minecraft:armor": {
				"protection": 2
			},
			"minecraft:enchantable": {
				"value": 14,
				"slot": "armor_feet"
			},
			"minecraft:repairable": {
				"repair_items": [
					{
						"items": [
							"nicothekid:copper_boots"
						],
						"repair_amount": "query.max_durability"
					},
					{
						"items": [
							"minecraft:copper_ingot"
						],
						"repair_amount": 36
					},
					{
						"items": [
							"nicothekid:copper_scrap"
						],
						"repair_amount": 9
					}
				]
			},
			"minecraft:wearable": {
				"slot": "slot.armor.feet"
			}
		},
		"events": {}
	}
}