{
  "format_version": "1.16.100",
  "minecraft:item": {
    "description": {
      "identifier": "nicothekid:jar_honey_half",
      "category": "equipment"
    },
    "components": {
      "minecraft:icon": {
				"texture": "nicothekid_jar_honey_half"
			},
			"minecraft:display_name": {
				"value": "item.nicothekid:jar_honey_half.name"
			},
			"minecraft:creative_category": {
				"parent": "itemGroup.name.equipment"
			},
      "minecraft:max_stack_size": 16,
      "minecraft:foil": false,
      "minecraft:hand_equipped": false,
      "minecraft:food": {
        "nutrition": 5,
        "saturation_modifier": "poor",
        "can_always_eat": true,
        "using_converts_to": "nicothekid:jar_empty",
        "on_consume": {
					"target": "self",
					"event": "drinking_effect"
				}
      },
      "minecraft:use_duration": 1.6,
      "minecraft:use_animation": "drink",
      "minecraft:block_placer": {
				"block": "nicothekid:block_jar_honey_half",
				"use_block_description": true
			}
    },
    "events": {
      "drinking_effect": {
				"sequence": [
					{
						"remove_mob_effect": {
							"target": "holder",
							"effect": "poison"
						}
					},
					{
						"remove_mob_effect": {
							"target": "holder",
							"effect": "fatal_poison"
						}
					}
				]
			}
		}
  }
}
