{
  "format_version": "1.16.100",
  "minecraft:item": {
    "description": {
      "identifier": "nicothekid:copper_axe",
      "category": "equipment"
    },
    "components": {
      "minecraft:icon": {
				"texture": "nicothekid_copper_axe"
			},
			"minecraft:display_name": {
				"value": "item.nicothekid:copper_axe.name"
			},
			"minecraft:creative_category": {
				"parent": "itemGroup.name.axe"
			},
      "minecraft:max_stack_size": 1,
      "minecraft:foil": false,
      "minecraft:hand_equipped": true,
      "minecraft:can_destroy_in_creative": false,
      "minecraft:durability": {
				"max_durability": 160,
				"damage_chance": {
					"min": 60,
					"max": 100
				}
			},
			"minecraft:damage": 4,
			"minecraft:mining_speed": 5,
			"minecraft:digger": {
				"use_efficiency": true,
				"on_dig": {
					"event": "on_digging",
					"target": "self"
				},
				"destroy_speeds": [
					{
						"block": {
							"tags": "query.any_tag('wood', 'pumpkin')"
						},
						"speed": 5,
						"on_dig": {
							"event": "on_digging"
						}
					},
					
					{
						"block": "minecraft:bamboo",
						"speed": 5,
						"on_dig": {
							"event": "on_digging"
						}
					},
					{
						"block": "minecraft:bamboo_sapling",
						"speed": 5,
						"on_dig": {
							"event": "on_digging"
						}
					},
					{
						"block": "minecraft:cactus",
						"speed": 5,
						"on_dig": {
							"event": "on_digging"
						}
					},
					{
						"block": "minecraft:chorus_flower",
						"speed": 5,
						"on_dig": {
							"event": "on_digging"
						}
					},
					{
						"block": "minecraft:chorus_plant",
						"speed": 5,
						"on_dig": {
							"event": "on_digging"
						}
					},
					{
						"block": "minecraft:cocoa",
						"speed": 5,
						"on_dig": {
							"event": "on_digging"
						}
					},
					{
						"block": "minecraft:small_dripleaf_block",
						"speed": 5,
						"on_dig": {
							"event": "on_digging"
						}
					},
					{
						"block": "minecraft:big_dripleaf",
						"speed": 5,
						"on_dig": {
							"event": "on_digging"
						}
					},
					{
						"block": "minecraft:melon_block",
						"speed": 5,
						"on_dig": {
							"event": "on_digging"
						}
					},
					{
						"block": "minecraft:brown_mushroom_block",
						"speed": 5,
						"on_dig": {
							"event": "on_digging"
						}
					},
					{
						"block": "minecraft:red_mushroom_block",
						"speed": 5,
						"on_dig": {
							"event": "on_digging"
						}
					},
					{
						"block": "minecraft:pumpkin",
						"speed": 5,
						"on_dig": {
							"event": "on_digging"
						}
					},
					{
						"block": "minecraft:vine",
						"speed": 5,
						"on_dig": {
							"event": "on_digging"
						}
					},
					
					{
						"block": "minecraft:log",
						"speed": 5,
						"on_dig": {
							"event": "on_digging"
						}
					},
					{
						"block": "minecraft:log2",
						"speed": 5,
						"on_dig": {
							"event": "on_digging"
						}
					},
					{
						"block": "minecraft:mangrove_log",
						"speed": 5,
						"on_dig": {
							"event": "on_digging"
						}
					},
					{
						"block": "minecraft:crimson_stem",
						"speed": 5,
						"on_dig": {
							"event": "on_digging"
						}
					},
					{
						"block": "minecraft:warped_stem",
						"speed": 5,
						"on_dig": {
							"event": "on_digging"
						}
					},
					{
						"block": "minecraft:stripped_oak_log",
						"speed": 5,
						"on_dig": {
							"event": "on_digging"
						}
					},
					{
						"block": "minecraft:stripped_spruce_log",
						"speed": 5,
						"on_dig": {
							"event": "on_digging"
						}
					},
					{
						"block": "minecraft:stripped_birch_log",
						"speed": 5,
						"on_dig": {
							"event": "on_digging"
						}
					},
					{
						"block": "minecraft:stripped_jungle_log",
						"speed": 5,
						"on_dig": {
							"event": "on_digging"
						}
					},
					{
						"block": "minecraft:stripped_acacia_log",
						"speed": 5,
						"on_dig": {
							"event": "on_digging"
						}
					},
					{
						"block": "minecraft:stripped_dark_oak_log",
						"speed": 5,
						"on_dig": {
							"event": "on_digging"
						}
					},
					{
						"block": "minecraft:stripped_mangrove_log",
						"speed": 5,
						"on_dig": {
							"event": "on_digging"
						}
					},
					{
						"block": "minecraft:stripped_crimson_stem",
						"speed": 5,
						"on_dig": {
							"event": "on_digging"
						}
					},
					{
						"block": "minecraft:stripped_warped_stem",
						"speed": 5,
						"on_dig": {
							"event": "on_digging"
						}
					},
					{
						"block": "minecraft:wood",
						"speed": 5,
						"on_dig": {
							"event": "on_digging"
						}
					},
					{
						"block": "minecraft:mangrove_wood",
						"speed": 5,
						"on_dig": {
							"event": "on_digging"
						}
					},
					{
						"block": "minecraft:crimson_hyphae",
						"speed": 5,
						"on_dig": {
							"event": "on_digging"
						}
					},
					{
						"block": "minecraft:warped_hyphae",
						"speed": 5,
						"on_dig": {
							"event": "on_digging"
						}
					},
					{
						"block": "minecraft:stripped_mangrove_wood",
						"speed": 5,
						"on_dig": {
							"event": "on_digging"
						}
					},
					{
						"block": "minecraft:stripped_crimson_hyphae",
						"speed": 5,
						"on_dig": {
							"event": "on_digging"
						}
					},
					{
						"block": "minecraft:stripped_warped_hyphae",
						"speed": 5,
						"on_dig": {
							"event": "on_digging"
						}
					},
					{
						"block": "minecraft:mangrove_roots",
						"speed": 5,
						"on_dig": {
							"event": "on_digging"
						}
					},
					
					{
						"block": "minecraft:planks",
						"speed": 5,
						"on_dig": {
							"event": "on_digging"
						}
					},
					{
						"block": "minecraft:mangrove_planks",
						"speed": 5,
						"on_dig": {
							"event": "on_digging"
						}
					},
					{
						"block": "minecraft:crimson_planks",
						"speed": 5,
						"on_dig": {
							"event": "on_digging"
						}
					},
					{
						"block": "minecraft:warped_planks",
						"speed": 5,
						"on_dig": {
							"event": "on_digging"
						}
					},
					{
						"block": "minecraft:oak_stairs",
						"speed": 5,
						"on_dig": {
							"event": "on_digging"
						}
					},
					{
						"block": "minecraft:spruce_stairs",
						"speed": 5,
						"on_dig": {
							"event": "on_digging"
						}
					},
					{
						"block": "minecraft:birch_stairs",
						"speed": 5,
						"on_dig": {
							"event": "on_digging"
						}
					},
					{
						"block": "minecraft:jungle_stairs",
						"speed": 5,
						"on_dig": {
							"event": "on_digging"
						}
					},
					{
						"block": "minecraft:acacia_stairs",
						"speed": 5,
						"on_dig": {
							"event": "on_digging"
						}
					},
					{
						"block": "minecraft:dark_oak_stairs",
						"speed": 5,
						"on_dig": {
							"event": "on_digging"
						}
					},
					{
						"block": "minecraft:mangrove_stairs",
						"speed": 5,
						"on_dig": {
							"event": "on_digging"
						}
					},
					{
						"block": "minecraft:crimson_stairs",
						"speed": 5,
						"on_dig": {
							"event": "on_digging"
						}
					},
					{
						"block": "minecraft:warped_stairs",
						"speed": 5,
						"on_dig": {
							"event": "on_digging"
						}
					},
					{
						"block": "minecraft:wooden_slab",
						"speed": 5,
						"on_dig": {
							"event": "on_digging"
						}
					},
					{
						"block": "minecraft:double_wooden_slab",
						"speed": 5,
						"on_dig": {
							"event": "on_digging"
						}
					},
					{
						"block": "minecraft:mangrove_slab",
						"speed": 5,
						"on_dig": {
							"event": "on_digging"
						}
					},
					{
						"block": "minecraft:mangrove_double_slab",
						"speed": 5,
						"on_dig": {
							"event": "on_digging"
						}
					},
					{
						"block": "minecraft:crimson_slab",
						"speed": 5,
						"on_dig": {
							"event": "on_digging"
						}
					},
					{
						"block": "minecraft:crimson_double_slab",
						"speed": 5,
						"on_dig": {
							"event": "on_digging"
						}
					},
					{
						"block": "minecraft:warped_slab",
						"speed": 5,
						"on_dig": {
							"event": "on_digging"
						}
					},
					{
						"block": "minecraft:warped_double_slab",
						"speed": 5,
						"on_dig": {
							"event": "on_digging"
						}
					},
					
					{
						"block": "minecraft:wooden_door",
						"speed": 5,
						"on_dig": {
							"event": "on_digging"
						}
					},
					{
						"block": "minecraft:spruce_door",
						"speed": 5,
						"on_dig": {
							"event": "on_digging"
						}
					},
					{
						"block": "minecraft:birch_door",
						"speed": 5,
						"on_dig": {
							"event": "on_digging"
						}
					},
					{
						"block": "minecraft:jungle_door",
						"speed": 5,
						"on_dig": {
							"event": "on_digging"
						}
					},
					{
						"block": "minecraft:acacia_door",
						"speed": 5,
						"on_dig": {
							"event": "on_digging"
						}
					},
					{
						"block": "minecraft:dark_oak_door",
						"speed": 5,
						"on_dig": {
							"event": "on_digging"
						}
					},
					{
						"block": "minecraft:mangrove_door",
						"speed": 5,
						"on_dig": {
							"event": "on_digging"
						}
					},
					{
						"block": "minecraft:crimson_door",
						"speed": 5,
						"on_dig": {
							"event": "on_digging"
						}
					},
					{
						"block": "minecraft:warped_door",
						"speed": 5,
						"on_dig": {
							"event": "on_digging"
						}
					},
					
					{
						"block": "minecraft:trapdoor",
						"speed": 5,
						"on_dig": {
							"event": "on_digging"
						}
					},
					{
						"block": "minecraft:spruce_trapdoor",
						"speed": 5,
						"on_dig": {
							"event": "on_digging"
						}
					},
					{
						"block": "minecraft:birch_trapdoor",
						"speed": 5,
						"on_dig": {
							"event": "on_digging"
						}
					},
					{
						"block": "minecraft:jungle_trapdoor",
						"speed": 5,
						"on_dig": {
							"event": "on_digging"
						}
					},
					{
						"block": "minecraft:acacia_trapdoor",
						"speed": 5,
						"on_dig": {
							"event": "on_digging"
						}
					},
					{
						"block": "minecraft:dark_oak_trapdoor",
						"speed": 5,
						"on_dig": {
							"event": "on_digging"
						}
					},
					{
						"block": "minecraft:mangrove_trapdoor",
						"speed": 5,
						"on_dig": {
							"event": "on_digging"
						}
					},
					{
						"block": "minecraft:crimson_trapdoor",
						"speed": 5,
						"on_dig": {
							"event": "on_digging"
						}
					},
					{
						"block": "minecraft:warped_trapdoor",
						"speed": 5,
						"on_dig": {
							"event": "on_digging"
						}
					},
					
					{
						"block": "minecraft:fence",
						"speed": 5,
						"on_dig": {
							"event": "on_digging"
						}
					},
					{
						"block": "minecraft:mangrove_fence",
						"speed": 5,
						"on_dig": {
							"event": "on_digging"
						}
					},
					{
						"block": "minecraft:crimson_fence",
						"speed": 5,
						"on_dig": {
							"event": "on_digging"
						}
					},
					{
						"block": "minecraft:warped_fence",
						"speed": 5,
						"on_dig": {
							"event": "on_digging"
						}
					},
					{
						"block": "minecraft:fence_gate",
						"speed": 5,
						"on_dig": {
							"event": "on_digging"
						}
					},
					{
						"block": "minecraft:spruce_fence_gate",
						"speed": 5,
						"on_dig": {
							"event": "on_digging"
						}
					},
					{
						"block": "minecraft:birch_fence_gate",
						"speed": 5,
						"on_dig": {
							"event": "on_digging"
						}
					},
					{
						"block": "minecraft:jungle_fence_gate",
						"speed": 5,
						"on_dig": {
							"event": "on_digging"
						}
					},
					{
						"block": "minecraft:acacia_fence_gate",
						"speed": 5,
						"on_dig": {
							"event": "on_digging"
						}
					},
					{
						"block": "minecraft:dark_oak_fence_gate",
						"speed": 5,
						"on_dig": {
							"event": "on_digging"
						}
					},
					{
						"block": "minecraft:mangrove_fence_gate",
						"speed": 5,
						"on_dig": {
							"event": "on_digging"
						}
					},
					{
						"block": "minecraft:crimson_fence_gate",
						"speed": 5,
						"on_dig": {
							"event": "on_digging"
						}
					},
					{
						"block": "minecraft:warped_fence_gate",
						"speed": 5,
						"on_dig": {
							"event": "on_digging"
						}
					},
					
					{
						"block": "minecraft:standing_sign",
						"speed": 5,
						"on_dig": {
							"event": "on_digging"
						}
					},
					{
						"block": "minecraft:spruce_standing_sign",
						"speed": 5,
						"on_dig": {
							"event": "on_digging"
						}
					},
					{
						"block": "minecraft:birch_standing_sign",
						"speed": 5,
						"on_dig": {
							"event": "on_digging"
						}
					},
					{
						"block": "minecraft:jungle_standing_sign",
						"speed": 5,
						"on_dig": {
							"event": "on_digging"
						}
					},
					{
						"block": "minecraft:acacia_standing_sign",
						"speed": 5,
						"on_dig": {
							"event": "on_digging"
						}
					},
					{
						"block": "minecraft:darkoak_standing_sign",
						"speed": 5,
						"on_dig": {
							"event": "on_digging"
						}
					},
					{
						"block": "minecraft:mangrove_standing_sign",
						"speed": 5,
						"on_dig": {
							"event": "on_digging"
						}
					},
					{
						"block": "minecraft:crimson_standing_sign",
						"speed": 5,
						"on_dig": {
							"event": "on_digging"
						}
					},
					{
						"block": "minecraft:warped_standing_sign",
						"speed": 5,
						"on_dig": {
							"event": "on_digging"
						}
					},
					{
						"block": "minecraft:wall_sign",
						"speed": 5,
						"on_dig": {
							"event": "on_digging"
						}
					},
					{
						"block": "minecraft:spruce_wall_sign",
						"speed": 5,
						"on_dig": {
							"event": "on_digging"
						}
					},
					{
						"block": "minecraft:birch_wall_sign",
						"speed": 5,
						"on_dig": {
							"event": "on_digging"
						}
					},
					{
						"block": "minecraft:jungle_wall_sign",
						"speed": 5,
						"on_dig": {
							"event": "on_digging"
						}
					},
					{
						"block": "minecraft:acacia_wall_sign",
						"speed": 5,
						"on_dig": {
							"event": "on_digging"
						}
					},
					{
						"block": "minecraft:darkoak_wall_sign",
						"speed": 5,
						"on_dig": {
							"event": "on_digging"
						}
					},
					{
						"block": "minecraft:mangrove_wall_sign",
						"speed": 5,
						"on_dig": {
							"event": "on_digging"
						}
					},
					{
						"block": "minecraft:crimson_wall_sign",
						"speed": 5,
						"on_dig": {
							"event": "on_digging"
						}
					},
					{
						"block": "minecraft:warped_wall_sign",
						"speed": 5,
						"on_dig": {
							"event": "on_digging"
						}
					},
					
					{
						"block": "minecraft:wooden_pressure_plate",
						"speed": 5,
						"on_dig": {
							"event": "on_digging"
						}
					},
					{
						"block": "minecraft:spruce_pressure_plate",
						"speed": 5,
						"on_dig": {
							"event": "on_digging"
						}
					},
					{
						"block": "minecraft:birch_pressure_plate",
						"speed": 5,
						"on_dig": {
							"event": "on_digging"
						}
					},
					{
						"block": "minecraft:jungle_pressure_plate",
						"speed": 5,
						"on_dig": {
							"event": "on_digging"
						}
					},
					{
						"block": "minecraft:acacia_pressure_plate",
						"speed": 5,
						"on_dig": {
							"event": "on_digging"
						}
					},
					{
						"block": "minecraft:dark_oak_pressure_plate",
						"speed": 5,
						"on_dig": {
							"event": "on_digging"
						}
					},
					{
						"block": "minecraft:mangrove_pressure_plate",
						"speed": 5,
						"on_dig": {
							"event": "on_digging"
						}
					},
					{
						"block": "minecraft:crimson_pressure_plate",
						"speed": 5,
						"on_dig": {
							"event": "on_digging"
						}
					},
					{
						"block": "minecraft:warped_pressure_plate",
						"speed": 5,
						"on_dig": {
							"event": "on_digging"
						}
					},
					
					{
						"block": "minecraft:standing_banner",
						"speed": 5,
						"on_dig": {
							"event": "on_digging"
						}
					},
					{
						"block": "minecraft:wall_banner",
						"speed": 5,
						"on_dig": {
							"event": "on_digging"
						}
					},
					{
						"block": "minecraft:barrel",
						"speed": 5,
						"on_dig": {
							"event": "on_digging"
						}
					},
					{
						"block": "minecraft:bed",
						"speed": 5,
						"on_dig": {
							"event": "on_digging"
						}
					},
					{
						"block": "minecraft:bee_nest",
						"speed": 5,
						"on_dig": {
							"event": "on_digging"
						}
					},
					{
						"block": "minecraft:beehive",
						"speed": 5,
						"on_dig": {
							"event": "on_digging"
						}
					},
					{
						"block": "minecraft:bookshelf",
						"speed": 5,
						"on_dig": {
							"event": "on_digging"
						}
					},
					{
						"block": "minecraft:cartography_table",
						"speed": 5,
						"on_dig": {
							"event": "on_digging"
						}
					},
					{
						"block": "minecraft:carved_pumpkin",
						"speed": 5,
						"on_dig": {
							"event": "on_digging"
						}
					},
					{
						"block": "minecraft:crafting_table",
						"speed": 5,
						"on_dig": {
							"event": "on_digging"
						}
					},
					{
						"block": "minecraft:campfire",
						"speed": 5,
						"on_dig": {
							"event": "on_digging"
						}
					},
					{
						"block": "minecraft:soul_campfire",
						"speed": 5,
						"on_dig": {
							"event": "on_digging"
						}
					},
					{
						"block": "minecraft:chest",
						"speed": 5,
						"on_dig": {
							"event": "on_digging"
						}
					},
					{
						"block": "minecraft:trapped_chest",
						"speed": 5,
						"on_dig": {
							"event": "on_digging"
						}
					},
					{
						"block": "minecraft:composter",
						"speed": 5,
						"on_dig": {
							"event": "on_digging"
						}
					},
					{
						"block": "minecraft:daylight_detector",
						"speed": 5,
						"on_dig": {
							"event": "on_digging"
						}
					},
					{
						"block": "minecraft:daylight_detector_inverted",
						"speed": 5,
						"on_dig": {
							"event": "on_digging"
						}
					},
					{
						"block": "minecraft:fletching_table",
						"speed": 5,
						"on_dig": {
							"event": "on_digging"
						}
					},
					{
						"block": "minecraft:jukebox",
						"speed": 5,
						"on_dig": {
							"event": "on_digging"
						}
					},
					{
						"block": "minecraft:ladder",
						"speed": 5,
						"on_dig": {
							"event": "on_digging"
						}
					},
					{
						"block": "minecraft:lectern",
						"speed": 5,
						"on_dig": {
							"event": "on_digging"
						}
					},
					{
						"block": "minecraft:lit_pumpkin",
						"speed": 5,
						"on_dig": {
							"event": "on_digging"
						}
					},
					{
						"block": "minecraft:loom",
						"speed": 5,
						"on_dig": {
							"event": "on_digging"
						}
					},
					{
						"block": "minecraft:noteblock",
						"speed": 5,
						"on_dig": {
							"event": "on_digging"
						}
					},
					{
						"block": "minecraft:smithing_table",
						"speed": 5,
						"on_dig": {
							"event": "on_digging"
						}
					},
					{
						"block": "minecraft:scaffolding",
						"speed": 5,
						"on_dig": {
							"event": "on_digging"
						}
					}
				]
			},
			"minecraft:enchantable": {
				"value": 10,
				"slot": "axe"
			},
			"minecraft:repairable": {
				"repair_items": [
					{
						"items": [
							"nicothekid:copper_axe"
						],
						"repair_amount": "query.max_durability"
					},
					{
						"items": [
							"minecraft:copper_ingot"
						],
						"repair_amount": 60
					},
					{
						"items": [
							"nicothekid:copper_scrap"
						],
						"repair_amount": 15
					}
				]
			},
			"minecraft:weapon": {
				"on_hurt_entity": {
					"event": "on_digging"
				}
			},
			"tag:minecraft:is_axe": {}
    },
    "events": {
			"on_digging": {
				"damage": {
					"target": "self",
					"type": "durability",
					"amount": 1
				}
			},
			"on_tool_used": {
				"damage": {
					"target": "self",
					"type": "durability",
					"amount": 1
				}
			}
		}
  }
}
