{
  "format_version": "1.16.100",
  "minecraft:item": {
    "description": {
      "identifier": "nicothekid:magma_club",
      "category": "equipment"
    },
    "components": {
      "minecraft:icon": {
				"texture": "nicothekid_magma_club"
			},
			"minecraft:display_name": {
				"value": "item.nicothekid:magma_club.name"
			},
			"minecraft:creative_category": {
				"parent": "Equipment"
			},
      "minecraft:max_stack_size": 1,
      "minecraft:foil": false,
      "minecraft:hand_equipped": true,
			"minecraft:allow_off_hand": false,
      "minecraft:can_destroy_in_creative": false,
      "minecraft:durability": {
				"max_durability": 189,
				"damage_chance": {
					"min": 60,
					"max": 100
				}
			},
			"minecraft:damage": 6.0,
			"minecraft:repairable": {
				"repair_items": [
					{
						"items": [
							"minecraft:magma"
						],
						"repair_amount": 50
					}
				]
			},
			"minecraft:weapon": {
				"on_hurt_entity": {
					"event": "on_tool_used"
				}
			}
    },
    "events": {
			"on_tool_used": {
				"damage": {
					"target": "self",
					"type": "durability",
					"amount": 1
				}
			}
		}
  }
}
