{
  "format_version": "1.16.100",
  "minecraft:item": {
    "description": {
      "identifier": "nicothekid:chorus_stew",
      "category": "equipment"
    },
    "components": {
      "minecraft:icon": {
				"texture": "nicothekid_chorus_stew"
			},
			"minecraft:display_name": {
				"value": "item.nicothekid:chorus_stew.name"
			},
			"minecraft:creative_category": {
				"parent": "itemGroup.name.miscFood"
			},
      "minecraft:max_stack_size": 16,
      "minecraft:foil": false,
      "minecraft:hand_equipped": false,
      "minecraft:food": {
        "nutrition": 7,
        "saturation_modifier": "normal",
        "can_always_eat": false,
        "using_converts_to": "bowl"
      },
      "minecraft:use_duration": 1.6,
      "minecraft:use_animation": "eat"
    },
    "events": {
		}
  }
}
