{
  "format_version": "1.16.100",
  "minecraft:item": {
    "description": {
      "identifier": "nicothekid:amethyst_apple",
      "category": "nature"
    },
    "components": {
      "minecraft:icon": {
				"texture": "nicothekid_amethyst_apple"
			},
			"minecraft:display_name": {
				"value": "item.nicothekid:amethyst_apple.name"
			},
			"minecraft:creative_category": {
				"parent": "itemGroup.name.crop"
			},
      "minecraft:max_stack_size": 64,
      "minecraft:foil": false,
      "minecraft:hand_equipped": false,
      "minecraft:allow_off_hand": false,
      "minecraft:liquid_clipped": true,
      "minecraft:food": {
        "nutrition": 4,
        "saturation_modifier": "supernatural",
        "can_always_eat": true,
        "on_consume": {
					"target": "self",
					"event": "eating_effect"
				}
      },
      "minecraft:use_duration": 1.6,
      "minecraft:use_animation": "eat"
    },
    "events": {
			"eating_effect": {
				"sequence": [
					{
						"add_mob_effect": {
							"target": "holder",
							"effect": "regeneration",
							"duration": 5,
							"amplifier": 1
						}
					},
					{
						"add_mob_effect": {
							"target": "holder",
							"effect": "night_vision",
							"duration": 60,
							"amplifier": 0
						}
					}
				]
			}
		}
  }
}
