{
  "resource_pack_name": "vanilla",
  "texture_name": "atlas.items",
  "texture_data": {
	 "scythe": {
      "textures": "textures/items/test/scythe"
    },
	 "infused_netherite_chestplate": {
      "textures": "textures/items/test/infused_netherite_chestplate"
    },
	 "infused_netherite_leggings": {
      "textures": "textures/items/test/infused_netherite_leggings"
    },
	  
	 "copper_boots": {
      "textures": "textures/items/copper/wearables/copper_boots"
    },
    "exposed_copper_boots": {
      "textures": "textures/items/copper/wearables/exposed_copper_boots"
    },
    "weathered_copper_boots": {
      "textures": "textures/items/copper/wearables/weathered_copper_boots"
    },
    "oxidized_copper_boots": {
      "textures": "textures/items/copper/wearables/oxidized_copper_boots"
    },
	 
	 
    "copper_chestplate": {
      "textures": "textures/items/copper/wearables/copper_chestplate"
    },
    "exposed_copper_chestplate": {
      "textures": "textures/items/copper/wearables/exposed_copper_chestplate"
    },
    "weathered_copper_chestplate": {
      "textures": "textures/items/copper/wearables/weathered_copper_chestplate"
    },
    "oxidized_copper_chestplate": {
      "textures": "textures/items/copper/wearables/oxidized_copper_chestplate"
    },
	 
	 
    "copper_helmet": {
      "textures": "textures/items/copper/wearables/copper_helmet"
    },
    "exposed_copper_helmet": {
      "textures": "textures/items/copper/wearables/exposed_copper_helmet"
    },
    "weathered_copper_helmet": {
      "textures": "textures/items/copper/wearables/weathered_copper_helmet"
    },
    "oxidized_copper_helmet": {
      "textures": "textures/items/copper/wearables/oxidized_copper_helmet"
    },
	 
	 
    "copper_leggings": {
      "textures": "textures/items/copper/wearables/copper_leggings"
    },
    "exposed_copper_leggings": {
      "textures": "textures/items/copper/wearables/exposed_copper_leggings"
    },
    "weathered_copper_leggings": {
      "textures": "textures/items/copper/wearables/weathered_copper_leggings"
    },
    "oxidized_copper_leggings": {
      "textures": "textures/items/copper/wearables/oxidized_copper_leggings"
    },
	 
	 
    "copper_sword": {
      "textures": "textures/items/copper/copper_sword"
    },
    "exposed_copper_sword": {
      "textures": "textures/items/copper/exposed_copper_sword"
    },
    "weathered_copper_sword": {
      "textures": "textures/items/copper/weathered_copper_sword"
    },
    "oxidized_copper_sword": {
      "textures": "textures/items/copper/oxidized_copper_sword"
    },
	 
	
    "copper_pickaxe": {
      "textures": "textures/items/copper/copper_pickaxe"
    },
    "exposed_copper_pickaxe": {
      "textures": "textures/items/copper/exposed_copper_pickaxe"
    },
    "weathered_copper_pickaxe": {
      "textures": "textures/items/copper/weathered_copper_pickaxe"
    },
    "oxidized_copper_pickaxe": {
      "textures": "textures/items/copper/oxidized_copper_pickaxe"
    },
	 
	 
    "copper_shovel": {
      "textures": "textures/items/copper/copper_shovel"
    },
    "exposed_copper_shovel": {
      "textures": "textures/items/copper/exposed_copper_shovel"
    },
    "weathered_copper_shovel": {
      "textures": "textures/items/copper/weathered_copper_shovel"
    },
    "oxidized_copper_shovel": {
      "textures": "textures/items/copper/oxidized_copper_shovel"
    },
	 
	 
    "copper_axe": {
      "textures": "textures/items/copper/copper_axe"
    },
    "exposed_copper_axe": {
      "textures": "textures/items/copper/exposed_copper_axe"
    },
    "weathered_copper_axe": {
      "textures": "textures/items/copper/weathered_copper_axe"
    },
    "oxidized_copper_axe": {
      "textures": "textures/items/copper/oxidized_copper_axe"
    },
	 
	 
    "copper_hoe": {
      "textures": "textures/items/copper/copper_hoe"
    },
    "exposed_copper_hoe": {
      "textures": "textures/items/copper/exposed_copper_hoe"
    },
    "weathered_copper_hoe": {
      "textures": "textures/items/copper/weathered_copper_hoe"
    },
    "oxidized_copper_hoe": {
      "textures": "textures/items/copper/oxidized_copper_hoe"
    },
	 
	 
    "copper_hammer": {
      "textures": "textures/items/copper/copper_hammer"
    },
    "exposed_copper_hammer": {
      "textures": "textures/items/copper/exposed_copper_hammer"
    },
    "weathered_copper_hammer": {
      "textures": "textures/items/copper/weathered_copper_hammer"
    },
    "oxidized_copper_hammer": {
      "textures": "textures/items/copper/oxidized_copper_hammer"
    },
	 
	 
	 
	 
	 
	 
	 
    "amethyst_boots": {
      "textures": "textures/items/amethyst/wearables/amethyst_boots"
    },
    "amethyst_chestplate": {
      "textures": "textures/items/amethyst/wearables/amethyst_chestplate"
    },
    "amethyst_helmet": {
      "textures": "textures/items/amethyst/wearables/amethyst_helmet"
    },
    "amethyst_leggings": {
      "textures": "textures/items/amethyst/wearables/amethyst_leggings"
    },
    "amethyst_sword": {
      "textures": "textures/items/amethyst/amethyst_sword"
    },
    "amethyst_pickaxe": {
      "textures": "textures/items/amethyst/amethyst_pickaxe"
    },
	 "amethyst_shovel": {
      "textures": "textures/items/amethyst/amethyst_shovel"
    },
    "amethyst_axe": {
      "textures": "textures/items/amethyst/amethyst_axe"
    },
    "amethyst_hoe": {
      "textures": "textures/items/amethyst/amethyst_hoe"
    },
    "amethyst_spear": {
      "textures": "textures/items/amethyst/amethyst_spear"
    },
	 
	 
	 
	 
	 
	 
	 
    "gilded_netherite_boots": {
      "textures": "textures/items/gilded_netherite/wearables/gilded_netherite_boots"
    },
    "gilded_netherite_chestplate": {
      "textures": "textures/items/gilded_netherite/wearables/gilded_netherite_chestplate"
    },
    "gilded_netherite_helmet": {
      "textures": "textures/items/gilded_netherite/wearables/gilded_netherite_helmet"
    },
    "gilded_netherite_leggings": {
      "textures": "textures/items/gilded_netherite/wearables/gilded_netherite_leggings"
    },
    "gilded_netherite_sword": {
      "textures": "textures/items/gilded_netherite/gilded_netherite_sword"
    },
    "gilded_netherite_pickaxe": {
      "textures": "textures/items/gilded_netherite/gilded_netherite_pickaxe"
    },
	 "gilded_netherite_shovel": {
      "textures": "textures/items/gilded_netherite/gilded_netherite_shovel"
    },
    "gilded_netherite_axe": {
      "textures": "textures/items/gilded_netherite/gilded_netherite_axe"
    },
    "gilded_netherite_hoe": {
      "textures": "textures/items/gilded_netherite/gilded_netherite_hoe"
    },
    "gilded_netherite_mace": {
      "textures": "textures/items/gilded_netherite/gilded_netherite_mace"
    },
    "diamond_mace": {
      "textures": "textures/items/gilded_netherite/diamond_mace"
    },
    "netherite_mace": {
      "textures": "textures/items/gilded_netherite/netherite_mace"
    },
    "gilded_netherite_ingot": {
      "textures": "textures/items/gilded_netherite/gilded_netherite_ingot"
    },
    "melted_gilded_blackstone": {
      "textures": "textures/items/gilded_netherite/melted_gilded_blackstone"
    },
	 
	 
	 
	 

	 
    "emerald_boots": {
      "textures": "textures/items/emerald/wearables/emerald_boots"
    },
    "emerald_chestplate": {
      "textures": "textures/items/emerald/wearables/emerald_chestplate"
    },
    "emerald_helmet": {
      "textures": "textures/items/emerald/wearables/emerald_helmet"
    },
    "emerald_leggings": {
      "textures": "textures/items/emerald/wearables/emerald_leggings"
    },
    "emerald_sword": {
      "textures": "textures/items/emerald/emerald_sword"
    },
    "emerald_pickaxe": {
      "textures": "textures/items/emerald/emerald_pickaxe"
    },
	 "emerald_shovel": {
      "textures": "textures/items/emerald/emerald_shovel"
    },
    "emerald_axe": {
      "textures": "textures/items/emerald/emerald_axe"
    },
    "emerald_hoe": {
      "textures": "textures/items/emerald/emerald_hoe"
    },
    "emerald_dagger": {
      "textures": "textures/items/emerald/emerald_dagger"
    },

	 
	 
	 
	 
    "glowing_obsidian_boots": {
      "textures": "textures/items/glowing_obsidian/wearables/glowing_obsidian_boots"
    },
    "glowing_obsidian_chestplate": {
      "textures": "textures/items/glowing_obsidian/wearables/glowing_obsidian_chestplate"
    },
    "glowing_obsidian_helmet": {
      "textures": "textures/items/glowing_obsidian/wearables/glowing_obsidian_helmet"
    },
    "glowing_obsidian_leggings": {
      "textures": "textures/items/glowing_obsidian/wearables/glowing_obsidian_leggings"
    },
    "glowing_obsidian_sword": {
      "textures": "textures/items/glowing_obsidian/glowing_obsidian_sword"
    },
    "glowing_obsidian_pickaxe": {
      "textures": "textures/items/glowing_obsidian/glowing_obsidian_pickaxe"
    },
	 "glowing_obsidian_shovel": {
      "textures": "textures/items/glowing_obsidian/glowing_obsidian_shovel"
    },
    "glowing_obsidian_axe": {
      "textures": "textures/items/glowing_obsidian/glowing_obsidian_axe"
    },
    "glowing_obsidian_hoe": {
      "textures": "textures/items/glowing_obsidian/glowing_obsidian_hoe"
    },
    "glowing_obsidian_battleaxe": {
      "textures": "textures/items/glowing_obsidian/glowing_obsidian_battleaxe"
    },
    "glowing_obsidian_shard": {
      "textures": "textures/items/glowing_obsidian/glowing_obsidian_shard"
    },

	 
	 
	 
	 
	 
    "phantom_boots": {
      "textures": "textures/items/phantom/wearables/phantom_boots2"
    },
    "phantom_chestplate": {
      "textures": "textures/items/phantom/wearables/phantom_chestplate2"
    },
    "phantom_helmet": {
      "textures": "textures/items/phantom/wearables/phantom_helmet2"
    },
    "phantom_leggings": {
      "textures": "textures/items/phantom/wearables/phantom_leggings2"
    },
    "phantom_sword": {
      "textures": "textures/items/phantom/phantom_sword"
    },
    "phantom_pickaxe": {
      "textures": "textures/items/phantom/phantom_pickaxe"
    },
	 "phantom_shovel": {
      "textures": "textures/items/phantom/phantom_shovel"
    },
    "phantom_axe": {
      "textures": "textures/items/phantom/phantom_axe"
    },
    "phantom_hoe": {
      "textures": "textures/items/phantom/phantom_hoe"
    },
    "phantom_whip": {
      "textures": "textures/items/phantom/phantom_whip"
    },
    "phantom_cloth": {
      "textures": "textures/items/phantom/phantom_cloth"
    },
	 
	 
	 
	 
	 
	 
    "warden_boots": {
      "textures": "textures/items/warden/wearables/warden_boots"
    },
    "warden_chestplate": {
      "textures": "textures/items/warden/wearables/warden_chestplate"
    },
    "warden_helmet": {
      "textures": "textures/items/warden/wearables/warden_helmet"
    },
    "warden_leggings": {
      "textures": "textures/items/warden/wearables/warden_leggings"
    },
    "warden_heart": {
      "textures": "textures/items/warden/warden_heart"
    },
    "warden_tendril": {
      "textures": "textures/items/warden/warden_tendril"
    },
    "echo_sword": {
      "textures": "textures/items/warden/echo_sword"
    },
    "echo_pickaxe": {
      "textures": "textures/items/warden/echo_pickaxe"
    },
	 "echo_shovel": {
      "textures": "textures/items/warden/echo_shovel"
    },
    "echo_axe": {
      "textures": "textures/items/warden/echo_axe"
    },
    "echo_hoe": {
      "textures": "textures/items/warden/echo_hoe"
    },
    "echo_staff": {
      "textures": "textures/items/warden/echo_staff"
	 },
	 
	 
	 
	 
    "aetherite_boots": {
      "textures": "textures/items/aetherite/wearables/aetherite_boots"
    },
    "aetherite_chestplate": {
      "textures": "textures/items/aetherite/wearables/aetherite_chestplate"
    },
    "aetherite_helmet": {
      "textures": "textures/items/aetherite/wearables/aetherite_helmet"
    },
    "aetherite_leggings": {
      "textures": "textures/items/aetherite/wearables/aetherite_leggings"
    },
    "aetherite_ingot": {
      "textures": "textures/items/aetherite/aetherite_ingot"
    },
    "aetherium_crystal": {
      "textures": "textures/items/aetherite/aetherium_crystal"
    },
    "aetherite_sword": {
      "textures": "textures/items/aetherite/aetherite_sword"
    },
    "aetherite_pickaxe": {
      "textures": "textures/items/aetherite/aetherite_pickaxe"
    },
    "aetherite_shovel": {
      "textures": "textures/items/aetherite/aetherite_shovel"
    },
    "aetherite_axe": {
      "textures": "textures/items/aetherite/aetherite_axe"
    },
    "aetherite_hoe": {
      "textures": "textures/items/aetherite/aetherite_hoe"
    },
    "emerald_greatsword": {
      "textures": "textures/items/aetherite/emerald_greatsword"
    },
    "aetherite_greatsword": {
      "textures": "textures/items/aetherite/aetherite_greatsword"
    },
    "aetherite_crafting": {
      "textures": "textures/items/aetherite/aetherite_crafting"
    }
  }
}