{
	"format_version": 1.12,
	"minecraft:recipe_shapeless": {
		"description": {
			"identifier": "yes:gilded1_ad1_2"
		},
		"tags": [
			"crafting_table"
		],
		"ingredients": [
			{
				"item": "yes:diamond_mace_ad1"
			},
			{
				"item": "yes:ability_damage_book2"
			}
		],
		"result": [
			{
				"item": "yes:diamond_mace_ad3"
			}
		]
	}
}