{
	"file_path": "C:\\Users\\plant\\AppData\\Local\\Packages\\Microsoft.MinecraftUWP_8wekyb3d8bbwe\\LocalState\\games\\com.mojang\\development_resource_packs\\Village and Pillage+ RP\\subpacks\\ui\\revive_table.json",
	"file_type": "unknown",
	"format_version": 1,
	"file_uuid": "696d3b61_0fe0_4434_90b1_4cc82f6c6fce",
	"file_version": 292,
	"cache_content": {
		"is_minified": true,
		"children": {
			"namespace": "e_fusion_table",
			"input_grid_panel": {
				"type": "panel",
				"grid_position": [
					0,
					0
				],
				"ignored": true
			},
			"crafting_arrow_large": {
				"type": "image",
				"layer": 3,
				"texture": "textures/ui/arrow_large",
				"anchor_from": "top_left",
				"anchor_to": "top_left",
				"size": [
					22,
					15
				]
			},
			"custom_crafting_grid_3x3": {
				"type": "grid",
				"size": [
					54,
					54
				],
				"anchor_from": "top_left",
				"anchor_to": "top_left",
				"grid_dimensions": [
					3,
					4
				],
				"collection_name": "crafting_input_items",
				"controls": [
					{
						"top_left@input_grid_panel": {
							"grid_position": [
								1,
								1
							],
							"ignored": false,
							"controls": [
								{
									"left_top@crafting.crafting_input_grid_item": {
										"offset": [
											0,
											-2
										]
									}
								}
							]
						}
					},
					{
						"top_middle@input_grid_panel": {
							"grid_position": [
								1,
								0
							],
							"ignored": true,
							"controls": [
								{
									"top_middle@crafting.crafting_input_grid_item": {
										"offset": [
											0,
											0
										]
									}
								}
							]
						}
					},
					{
						"top_right@input_grid_panel": {
							"grid_position": [
								2,
								0
							],
							"ignored": true,
							"controls": [
								{
									"top_right@crafting.crafting_input_grid_item": {
										"offset": [
											-22,
											-10
										]
									}
								}
							]
						}
					},
					{
						"middle@input_grid_panel": {
							"grid_position": [
								1,
								1
							],
							"ignored": true,
							"controls": [
								{
									"middle@crafting.crafting_input_grid_item": {
										"offset": [
											0,
											0
										]
									}
								}
							]
						}
					},
					{
						"middle_right@input_grid_panel": {
							"grid_position": [
								2,
								1
							],
							"ignored": true,
							"controls": [
								{
									"middle_right@crafting.crafting_input_grid_item": {
										"offset": [
											0,
											0
										]
									}
								}
							]
						}
					},
					{
						"bottom_left@input_grid_panel": {
							"grid_position": [
								0,
								2
							],
							"ignored": true,
							"controls": [
								{
									"bottom_left@crafting.crafting_input_grid_item": {
										"offset": [
											0,
											0
										]
									}
								}
							]
						}
					},
					{
						"bottom_middle@input_grid_panel": {
							"grid_position": [
								1,
								2
							],
							"ignored": true,
							"controls": [
								{
									"bottom_middle@crafting.crafting_input_grid_item": {
										"offset": [
											-20,
											0
										]
									}
								}
							]
						}
					},
					{
						"bottom_right@input_grid_panel": {
							"grid_position": [
								0,
								0
							],
							"ignored": false,
							"controls": [
								{
									"bottom_right@crafting.crafting_input_grid_item": {
										"offset": [
											-24,
											11.5
										]
									}
								}
							]
						}
					}
				]
			},
			"custom_work_bench_panel_3x3": {
				"type": "panel",
				"anchor_to": "top_left",
				"controls": [
					{
						"crafting_label_0@crafting.crafting_label": {
							"offset": [
								28,
								6
							]
						}
					},
					{
						"crafting_arrow_large@crafting_arrow_large": {
							"offset": [
								90,
								49
							]
						}
					},
					{
						"plus_empty_image@plus_full_image": {
							"offset": [
								49,
								50
							]
						}
					},
					{
						"crafting_grid_3x3@custom_crafting_grid_3x3": {
							"offset": [
								49,
								40
							]
						}
					},
					{
						"work_bench_output_grid@crafting.output_grid_3x3": {
							"offset": [
								118,
								44
							]
						}
					},
					{
						"hammer_empty_image@hammer_full_image": {
							"offset": [
								5,
								5
							]
						}
					},
					{
						"ingot_empty_image@ingot_full_image": {
							"offset": [
								70,
								50
							]
						}
					},
					{
						"background_empty_image@background_full_image": {
							"offset": [
								1,
								-23
							]
						}
					}
				],
				"anchor_from": "top_left"
			},
			"custom_crafting_panel_top_half": {
				"type": "panel",
				"size": [
					"100%",
					"50%"
				],
				"anchor_from": "top_left",
				"anchor_to": "top_left",
				"controls": [
					{
						"crafting_panel@custom_work_bench_panel_3x3": {
							"offset": [
								0,
								0
							]
						}
					}
				]
			},
			"item_control": {
				"type": "panel",
				"controls": [
					{
						"inventory_take_progress_icon_button@common.inventory_take_progress_icon_button": {}
					},
					{
						"inventory_selected_icon_button@common.inventory_selected_icon_button": {}
					},
					{
						"hold_icon@common.inventory_take_progress_icon_button": {}
					},
					{
						"controller_gamepad_helpers_stack_panel": {
							"type": "stack_panel",
							"anchor_from": "bottom_middle",
							"anchor_to": "bottom_middle",
							"controls": [
								{
									"container_gamepad_helpers_second_row@crafting.container_gamepad_helpers_second_row": {}
								},
								{
									"container_gamepad_helpers@common.container_gamepad_helpers": {
										"$helper_x_control": "crafting.inventory_x_gamepad_helper",
										"$helper_y_control": "crafting.inventory_y_gamepad_helper",
										"$helper_a_control": "crafting.inventory_a_gamepad_helper"
									}
								}
							],
							"bindings": [
								{
									"binding_name": "#gamepad_helper_visible",
									"binding_name_override": "#visible"
								}
							]
						}
					},
					{
						"flying_item_renderer@common.flying_item_renderer": {
							"layer": 13
						}
					},
					{
						"game_tip@game_tip.game_tip_panel": {
							"layer": 100,
							"$offset|default": [
								0,
								110
							],
							"variables": [
								{
									"requires": "$game_pad",
									"$offset": [
										0,
										"38%"
									]
								}
							],
							"offset": "$offset"
						}
					},
					{
						"selected_item_details_factory@common.selected_item_details_factory": {}
					},
					{
						"item_lock_notification_factory@common.item_lock_notification_factory": {}
					}
				]
			},
			"final_panel": {
				"type": "panel",
				"$top_half_variant": "custom_crafting_panel_top_half",
				"controls": [
					{
						"cpi@custom_player_inventory": {}
					},
					{
						"icontrol@item_control": {}
					}
				],
				"bindings": [
					{
						"binding_name": "#crafting_label_text"
					},
					{
						"binding_type": "view",
						"source_property_name": "(#crafting_label_text = 'Fusion Table')",
						"target_property_name": "#visible"
					}
				]
			},
			"custom_player_inventory@common.root_panel": {
				"layer": 1,
				"size": [
					180,
					180
				],
				"controls": [
					{
						"common_panel@common.common_panel": {
							"offset": [
								0,
								0
							],
							"$show_close_button": true
						}
					},
					{
						"inventory_panel_top_half@$top_half_variant": {
							"layer": 2
						}
					},
					{
						"inventory_panel_bottom_half@common.inventory_panel_bottom_half": {
							"layer": 2,
							"$button_ref": "crafting.inventory_container_slot_button",
							"$background_images": "crafting.container_cell_images"
						}
					},
					{
						"hotbar_grid@common.hotbar_grid_template": {
							"layer": 2,
							"$button_ref": "crafting.inventory_container_slot_button",
							"$background_images": "crafting.container_cell_images"
						}
					}
				]
			}
		}
	}
}