{
	"format_version": 1.12,
	"minecraft:recipe_shapeless": {
		"description": {
			"identifier": "yes:emerald_ad2"
		},
		"tags": [
			"crafting_table"
		],
		"ingredients": [
			{
				"item": "yes:emerald_dagger"
			},
			{
				"item": "yes:ability_damage_book2"
			}
		],
		"result": [
			{
				"item": "yes:emerald_dagger_ad2"
			}
		]
	}
}