{
  "format_version": "1.12",
  "minecraft:recipe_shaped": {
    "description": {
    "identifier": "yes:phantom_leggings"
    },
    "tags": [ "crafting_table" ],
    "pattern": [
      "YZY",
      "Y Y",
      "Y Y"
    ],
    "key": {
      "Z": {
        "item": "yes:phantom_cloth"
      },
      "Y": {
        "item": "minecraft:phantom_membrane"
      }
    },
    "result": {
      "item": "yes:phantom_leggings"
    }
  }
}