{
    "format_version": "1.16.100",
    "minecraft:item": {
        "description": {
            "identifier": "yes:gilded_netherite_mace_ad3",
            "category": "equipment"
        },
        "components": {
			"minecraft:foil": true,
            "minecraft:damage": 6,
            "minecraft:icon": {
                "texture": "gilded_netherite_mace"
            },
            "minecraft:display_name": {
				"value": "§bGilded Netherite Mace\n§l§r\n\n§6Normal Attack:   §6Special Attack:\n§e[§9+6 atk§e]       §e[§9+65 atk§e]\n§e[§90.35 secs§e]    §e[§90.0 secs§e]\n§e[§90.65 secs§e]   §e[§90.5 secs§e]\n§7Ability Damage III"
			},
            "minecraft:creative_category": {
                "parent": "itemGroup.name.sword"
            },
 	 		  "minecraft:on_use": {
        	 	   "on_use": {
            	    "event": "yes:mace_event",
            	    "target": "self",
					"condition": "!query.scoreboard('weakness') == 1"
    	                }
	              },
	         "minecraft:cooldown": {
                "category": "gilded_netherite_mace",
                "duration": 0.5
            },
            "minecraft:hand_equipped": true,
            "minecraft:max_stack_size": 1,
            "minecraft:allow_off_hand": true,
            "minecraft:render_offsets": "tools",
            "minecraft:enchantable": {
                "value": 20,
                "slot": "sword"
            },
            "minecraft:durability": {
                "max_durability": 2539,
                "damage_chance": {
                    "min": 60,
                    "max": 100
                }
            },
            "minecraft:repairable": {
                "repair_items": [
                    {
                        "items": [
                            "yes:gilded_netherite_mace",
                            "gilded_netherite_ingot:netherite_ingot"
                        ],
                        "repair_amount": 2539
                    }
                ]
            },
            "minecraft:weapon": {
                "on_hurt_entity": {
                    "event": "yes:stun_event",
                    "target": "self"
                },
                "on_not_hurt_entity": {
                    "event": "yes:cooldown_event",
                    "target": "self"
                }
            },
            "minecraft:mining_speed": 1,
            "minecraft:can_destroy_in_creative": false,
            "minecraft:digger": {
                "on_dig": {
                    "event": "yes:damage_event",
                    "target": "self"
                },
                "use_efficiency": true,
                "destroy_speeds": [
                    {
                        "block": "minecraft:web",
                        "speed": 10,
                        "on_dig": {
                            "event": "yes:damage_event",
                            "target": "self"
                        }
                    },
                    {
                        "block": "minecraft:bamboo",
                        "speed": 10,
                        "on_dig": {
                            "event": "yes:damage_event",
                            "target": "self"
                        }
                    }
                ]
            },
     		 "minecraft:render_offsets": {
       		 "main_hand": {
         	 "first_person": {
          	  "position": [ 
      		        0.8, //x
            		  0.075, //y
          		    -1.44 //z
            ],
				  "scale": [
              0.05,
              0.05,
              0.05
            ]
          },
          "third_person": {
            "position": [ 
         		     0.41, //x
         		     1.3, //z
          		    -0.69 //y
          			  ]
       		  	  }
      		  }
    		  }
        },
        "events": {
            "yes:damage_event": {
                "damage": {
                    "type": "durability",
                    "amount": 1
                }
            },
            "yes:cooldown_event": {
					"sequence": [
						{
						"add_mob_effect": {
							"effect": "weakness",
							"target": "holder",
							"duration": 0.9,
							"amplifier": 255
						},
					"run_command": {
               "command": [
						"effect @s mining_fatigue 2 9 true"
								],
                    "target": "self"
							}
						}
					]
				},
            "yes:stun_event": {
					"sequence": [
						{
						  "damage": {
                    "type": "none",
                    "amount": 1,
                    "target": "self"
              		   },
						"add_mob_effect": {
							"effect": "weakness",
							"target": "holder",
							"duration": 0.65,
							"amplifier": 255
						},
					"run_command": {
               "command": [
					  "gamerule sendcommandfeedback false",
					   "tp @s ~~~ ~ 40",
						"gamerule sendcommandfeedback true",
				     "summon yes:stun_entity3 ~~~",
						"tag @s add stunned",
						"scoreboard players set @s weakness 1",
						"execute @a[rm=0.4,r=5,c=1,hasitem={item=yes:gilded_netherite_mace,location=slot.weapon.mainhand}] ~~~ effect @s mining_fatigue 1 8 true"
								],
                    "target": "other"
							}
						}
					]
				},
            "yes:mace_event": {
					"sequence": [
						{
						  "damage": {
                    "type": "none",
                    "amount": 5,
                    "target": "self"
              		   },
					"run_command": {
               "command": [
						"tag @s add gilded_netherite_mace_attacking",
					   "playanimation @s animation.player.mace"
								]
							},
                "shoot": {
                    "projectile": "yes:gilded_netherite_mace_projectile_ad3",
                    "launch_power": 1,
                    "angle_offset": "query.cardinal_facing"
                		}
						}
					]
				}
		  }
	 }
}