{
  "format_version": "1.18.0",
  "minecraft:item": {
    "description": {
      "category": "commands",
      "identifier": "btr:tunneling_ii_netherite_pickaxe"
    },
    "components": {
      "minecraft:max_stack_size": 1,
      "minecraft:hand_equipped": true,
      "minecraft:damage": 6,
      "minecraft:icon": {
        "texture": "netherite_pickaxe"
      },
      "minecraft:display_name": {
        "value": "§bNetherite Pickaxe\n§7Tunneling II"
      },
      "minecraft:durability": {
        "max_durability": 2031,
        "damage_chance": {
          "min": 60,
          "max": 100
        }
      },
      "minecraft:repairable": {
        "repair_items": [
          {
            "items": [
              "minecraft:netherite_pickaxe"
            ],
            "repair_amount": "query.max_durability"
          },
          {
            "items": [
              "minecraft:netherite_ingot"
            ],
            "repair_amount": 15
          }
        ]
      },
      "minecraft:render_offsets": "tools",
      "minecraft:enchantable": {
        "slot": "pickaxe",
        "value": 15
      },
      "tag:minecraft:is_pickaxe": {},
      "minecraft:weapon": {
        "on_hurt_entity": {
          "event": "dmg"
        }
      },
      "minecraft:mining_speed": 1,
      "minecraft:digger": {
        "use_efficiency": true,
        "on_dig": {
          "event": "dmg"
        },
        "destroy_speeds": [
          {
            "block": "minecraft:redstone_block",
            "speed": 8,
            "on_dig": {
              "event": "dmg"
            }
          },
          {
            "block": "minecraft:redstone_ore",
            "speed": 8,
            "on_dig": {
              "event": "tunnel"
            }
          },
          {
            "block": "minecraft:lit_redstone_ore",
            "speed": 8,
            "on_dig": {
              "event": "tunnel"
            }
          },
          {
            "block": "minecraft:anvil",
            "speed": 8,
            "on_dig": {
              "event": "dmg"
            }
          },
          {
            "block": "minecraft:beacon",
            "speed": 8,
            "on_dig": {
              "event": "dmg"
            }
          },
          {
            "block": "minecraft:bell",
            "speed": 8,
            "on_dig": {
              "event": "dmg"
            }
          },
          {
            "block": "minecraft:conduit",
            "speed": 8,
            "on_dig": {
              "event": "dmg"
            }
          },
          {
            "block": "minecraft:blast_furnace",
            "speed": 8,
            "on_dig": {
              "event": "dmg"
            }
          },
          {
            "block": "minecraft:bone_block",
            "speed": 8,
            "on_dig": {
              "event": "tunnel"
            }
          },
          {
            "block": "minecraft:coal_block",
            "speed": 8,
            "on_dig": {
              "event": "dmg"
            }
          },
          {
            "block": "minecraft:diamond_block",
            "speed": 8,
            "on_dig": {
              "event": "dmg"
            }
          },
          {
            "block": "minecraft:emerald_block",
            "speed": 8,
            "on_dig": {
              "event": "dmg"
            }
          },
          {
            "block": "minecraft:gold_block",
            "speed": 8,
            "on_dig": {
              "event": "dmg"
            }
          },
          {
            "block": "minecraft:iron_block",
            "speed": 8,
            "on_dig": {
              "event": "dmg"
            }
          },
          {
            "block": "minecraft:lapis_block",
            "speed": 8,
            "on_dig": {
              "event": "dmg"
            }
          },
          {
            "block": "minecraft:brick_block",
            "speed": 8,
            "on_dig": {
              "event": "tunnel"
            }
          },
          {
            "block": "minecraft:respawn_anchor",
            "speed": 8,
            "on_dig": {
              "event": "dmg"
            }
          },
          {
            "block": "minecraft:stone_button",
            "speed": 8,
            "on_dig": {
              "event": "dmg"
            }
          },
          {
            "block": "minecraft:cake",
            "speed": 8,
            "on_dig": {
              "event": "dmg"
            }
          },
          {
            "block": "minecraft:cauldron",
            "speed": 8,
            "on_dig": {
              "event": "dmg"
            }
          },
          {
            "block": "minecraft:ender_chest",
            "speed": 8,
            "on_dig": {
              "event": "dmg"
            }
          },
          {
            "block": "minecraft:honey_block",
            "speed": 8,
            "on_dig": {
              "event": "dmg"
            }
          },
          {
            "block": "minecraft:lodestone",
            "speed": 8,
            "on_dig": {
              "event": "dmg"
            }
          },
          {
            "block": "minecraft:crimson_nylium",
            "speed": 8,
            "on_dig": {
              "event": "tunnel"
            }
          },
          {
            "block": "minecraft:warped_nylium",
            "speed": 8,
            "on_dig": {
              "event": "tunnel"
            }
          },
          {
            "block": "minecraft:basalt",
            "speed": 8,
            "on_dig": {
              "event": "tunnel"
            }
          },
          {
            "block": "minecraft:polished_basalt",
            "speed": 8,
            "on_dig": {
              "event": "dmg"
            }
          },
          {
            "block": "minecraft:blackstone",
            "speed": 8,
            "on_dig": {
              "event": "tunnel"
            }
          },
          {
            "block": "minecraft:polished_blackstone_bricks",
            "speed": 8,
            "on_dig": {
              "event": "dmg"
            }
          },
          {
            "block": "minecraft:cracked_polished_blackstone_bricks",
            "speed": 8,
            "on_dig": {
              "event": "dmg"
            }
          },
          {
            "block": "minecraft:polished_blackstone_brick_stairs",
            "speed": 8,
            "on_dig": {
              "event": "dmg"
            }
          },
          {
            "block": "minecraft:blackstone_stairs",
            "speed": 8,
            "on_dig": {
              "event": "dmg"
            }
          },
          {
            "block": "minecraft:blackstone_wall",
            "speed": 8,
            "on_dig": {
              "event": "dmg"
            }
          },
          {
            "block": "minecraft:polished_blackstone_brick_wall",
            "speed": 8,
            "on_dig": {
              "event": "dmg"
            }
          },
          {
            "block": "minecraft:chiseled_polished_blackstone",
            "speed": 8,
            "on_dig": {
              "event": "dmg"
            }
          },
          {
            "block": "minecraft:gilded_blackstone",
            "speed": 8,
            "on_dig": {
              "event": "dmg"
            }
          },
          {
            "block": "minecraft:blackstone_slab",
            "speed": 8,
            "on_dig": {
              "event": "dmg"
            }
          },
          {
            "block": "minecraft:polished_blackstone_brick_slab",
            "speed": 8,
            "on_dig": {
              "event": "dmg"
            }
          },
          {
            "block": "minecraft:chain",
            "speed": 8,
            "on_dig": {
              "event": "dmg"
            }
          },
          {
            "block": "minecraft:polished_blackstone",
            "speed": 8,
            "on_dig": {
              "event": "dmg"
            }
          },
          {
            "block": "minecraft:polished_blackstone_stairs",
            "speed": 8,
            "on_dig": {
              "event": "dmg"
            }
          },
          {
            "block": "minecraft:polished_blackstone_slab",
            "speed": 8,
            "on_dig": {
              "event": "dmg"
            }
          },
          {
            "block": "minecraft:polished_blackstone_pressure_plate",
            "speed": 8,
            "on_dig": {
              "event": "dmg"
            }
          },
          {
            "block": "minecraft:polished_blackstone_button",
            "speed": 8,
            "on_dig": {
              "event": "dmg"
            }
          },
          {
            "block": "minecraft:polished_blackstone_wall",
            "speed": 8,
            "on_dig": {
              "event": "dmg"
            }
          },
          {
            "block": "minecraft:chiseled_nether_bricks",
            "speed": 8,
            "on_dig": {
              "event": "dmg"
            }
          },
          {
            "block": "minecraft:cracked_nether_bricks",
            "speed": 8,
            "on_dig": {
              "event": "dmg"
            }
          },
          {
            "block": "minecraft:quartz_bricks",
            "speed": 8,
            "on_dig": {
              "event": "dmg"
            }
          },
          {
            "block": "minecraft:undyed_shulker_box",
            "speed": 8,
            "on_dig": {
              "event": "dmg"
            }
          },
          {
            "block": "minecraft:stained_glass",
            "speed": 8,
            "on_dig": {
              "event": "tunnel"
            }
          },
          {
            "block": "minecraft:stained_glass_pane",
            "speed": 8,
            "on_dig": {
              "event": "tunnel"
            }
          },
          {
            "block": "minecraft:hardened_clay",
            "speed": 8,
            "on_dig": {
              "event": "tunnel"
            }
          },
          {
            "block": "minecraft:stained_hardened_clay",
            "speed": 8,
            "on_dig": {
              "event": "dmg"
            }
          },
          {
            "block": "minecraft:cobblestone_wall",
            "speed": 8,
            "on_dig": {
              "event": "dmg"
            }
          },
          {
            "block": "minecraft:detector_rail",
            "speed": 8,
            "on_dig": {
              "event": "dmg"
            }
          },
          {
            "block": "minecraft:purpur_block",
            "speed": 8,
            "on_dig": {
              "event": "dmg"
            }
          },
          {
            "block": "minecraft:dispenser",
            "speed": 8,
            "on_dig": {
              "event": "dmg"
            }
          },
          {
            "block": "minecraft:iron_door",
            "speed": 8,
            "on_dig": {
              "event": "dmg"
            }
          },
          {
            "block": "minecraft:dropper",
            "speed": 8,
            "on_dig": {
              "event": "dmg"
            }
          },
          {
            "block": "minecraft:enchanting_table",
            "speed": 8,
            "on_dig": {
              "event": "dmg"
            }
          },
          {
            "block": "minecraft:iron_bars",
            "speed": 8,
            "on_dig": {
              "event": "dmg"
            }
          },
          {
            "block": "minecraft:furnace",
            "speed": 8,
            "on_dig": {
              "event": "dmg"
            }
          },
          {
            "block": "minecraft:glass",
            "speed": 8,
            "on_dig": {
              "event": "tunnel"
            }
          },
          {
            "block": "minecraft:golden_rail",
            "speed": 8,
            "on_dig": {
              "event": "dmg"
            }
          },
          {
            "block": "minecraft:netherrack",
            "speed": 8,
            "on_dig": {
              "event": "tunnel"
            }
          },
          {
            "block": "minecraft:hopper",
            "speed": 8,
            "on_dig": {
              "event": "dmg"
            }
          },
          {
            "block": "minecraft:ice",
            "speed": 8,
            "on_dig": {
              "event": "tunnel"
            }
          },
          {
            "block": "minecraft:packed_ice",
            "speed": 8,
            "on_dig": {
              "event": "tunnel"
            }
          },
          {
            "block": "minecraft:blue_ice",
            "speed": 8,
            "on_dig": {
              "event": "tunnel"
            }
          },
          {
            "block": "minecraft:iron_trapdoor",
            "speed": 8,
            "on_dig": {
              "event": "dmg"
            }
          },
          {
            "block": "minecraft:glowstone",
            "speed": 8,
            "on_dig": {
              "event": "tunnel"
            }
          },
          {
            "block": "minecraft:magma",
            "speed": 8,
            "on_dig": {
              "event": "tunnel"
            }
          },
          {
            "block": "minecraft:mob_spawner",
            "speed": 8,
            "on_dig": {
              "event": "dmg"
            }
          },
          {
            "block": "minecraft:monster_egg",
            "speed": 8,
            "on_dig": {
              "event": "tunnel"
            }
          },
          {
            "block": "minecraft:nether_brick",
            "speed": 8,
            "on_dig": {
              "event": "dmg"
            }
          },
          {
            "block": "minecraft:red_nether_brick",
            "speed": 8,
            "on_dig": {
              "event": "dmg"
            }
          },
          {
            "block": "minecraft:nether_brick_fence",
            "speed": 8,
            "on_dig": {
              "event": "dmg"
            }
          },
          {
            "block": "minecraft:quartz_ore",
            "speed": 8,
            "on_dig": {
              "event": "tunnel"
            }
          },
          {
            "block": "minecraft:netherreactor",
            "speed": 8,
            "on_dig": {
              "event": "dmg"
            }
          },
          {
            "block": "minecraft:obsidian",
            "speed": 8,
            "on_dig": {
              "event": "tunnel"
            }
          },
          {
            "block": "minecraft:coal_ore",
            "speed": 8,
            "on_dig": {
              "event": "tunnel"
            }
          },
          {
            "block": "minecraft:diamond_ore",
            "speed": 8,
            "on_dig": {
              "event": "tunnel"
            }
          },
          {
            "block": "minecraft:emerald_ore",
            "speed": 8,
            "on_dig": {
              "event": "tunnel"
            }
          },
          {
            "block": "minecraft:gold_ore",
            "speed": 8,
            "on_dig": {
              "event": "tunnel"
            }
          },
          {
            "block": "minecraft:iron_ore",
            "speed": 8,
            "on_dig": {
              "event": "tunnel"
            }
          },
          {
            "block": "minecraft:lapis_ore",
            "speed": 8,
            "on_dig": {
              "event": "tunnel"
            }
          },
          {
            "block": "minecraft:observer",
            "speed": 8,
            "on_dig": {
              "event": "dmg"
            }
          },
          {
            "block": "minecraft:piston",
            "speed": 8,
            "on_dig": {
              "event": "dmg"
            }
          },
          {
            "block": "minecraft:sticky_piston",
            "speed": 8,
            "on_dig": {
              "event": "dmg"
            }
          },
          {
            "block": "minecraft:portal",
            "speed": 8,
            "on_dig": {
              "event": "dmg"
            }
          },
          {
            "block": "minecraft:stone_pressure_plate",
            "speed": 8,
            "on_dig": {
              "event": "dmg"
            }
          },
          {
            "block": "minecraft:prismarine",
            "speed": 8,
            "on_dig": {
              "event": "dmg"
            }
          },
          {
            "block": "minecraft:quartz_block",
            "speed": 8,
            "on_dig": {
              "event": "dmg"
            }
          },
          {
            "block": "minecraft:rail",
            "speed": 8,
            "on_dig": {
              "event": "dmg"
            }
          },
          {
            "block": "minecraft:red_sandstone",
            "speed": 8,
            "on_dig": {
              "event": "tunnel"
            }
          },
          {
            "block": "minecraft:redstone_lamp",
            "speed": 8,
            "on_dig": {
              "event": "dmg"
            }
          },
          {
            "block": "minecraft:sandstone",
            "speed": 8,
            "on_dig": {
              "event": "tunnel"
            }
          },
          {
            "block": "minecraft:seaLantern",
            "speed": 8,
            "on_dig": {
              "event": "dmg"
            }
          },
          {
            "block": "minecraft:slime",
            "speed": 8,
            "on_dig": {
              "event": "dmg"
            }
          },
          {
            "block": "minecraft:brick_stairs",
            "speed": 8,
            "on_dig": {
              "event": "dmg"
            }
          },
          {
            "block": "minecraft:nether_brick_stairs",
            "speed": 8,
            "on_dig": {
              "event": "dmg"
            }
          },
          {
            "block": "minecraft:quartz_stairs",
            "speed": 8,
            "on_dig": {
              "event": "dmg"
            }
          },
          {
            "block": "minecraft:smooth_quartz_stairs",
            "speed": 8,
            "on_dig": {
              "event": "dmg"
            }
          },
          {
            "block": "minecraft:red_sandstone_stairs",
            "speed": 8,
            "on_dig": {
              "event": "dmg"
            }
          },
          {
            "block": "minecraft:sandstone_stairs",
            "speed": 8,
            "on_dig": {
              "event": "dmg"
            }
          },
          {
            "block": "minecraft:stone_stairs",
            "speed": 8,
            "on_dig": {
              "event": "dmg"
            }
          },
          {
            "block": "minecraft:normal_stone_stairs",
            "speed": 8,
            "on_dig": {
              "event": "dmg"
            }
          },
          {
            "block": "minecraft:stone_brick_stairs",
            "speed": 8,
            "on_dig": {
              "event": "dmg"
            }
          },
          {
            "block": "minecraft:purpur_stairs",
            "speed": 8,
            "on_dig": {
              "event": "dmg"
            }
          },
          {
            "block": "minecraft:prismarine_stairs",
            "speed": 8,
            "on_dig": {
              "event": "dmg"
            }
          },
          {
            "block": "minecraft:dark_prismarine_stairs",
            "speed": 8,
            "on_dig": {
              "event": "dmg"
            }
          },
          {
            "block": "minecraft:prismarine_bricks_stairs",
            "speed": 8,
            "on_dig": {
              "event": "dmg"
            }
          },
          {
            "block": "minecraft:granite_stairs",
            "speed": 8,
            "on_dig": {
              "event": "dmg"
            }
          },
          {
            "block": "minecraft:diorite_stairs",
            "speed": 8,
            "on_dig": {
              "event": "dmg"
            }
          },
          {
            "block": "minecraft:andesite_stairs",
            "speed": 8,
            "on_dig": {
              "event": "dmg"
            }
          },
          {
            "block": "minecraft:polished_granite_stairs",
            "speed": 8,
            "on_dig": {
              "event": "dmg"
            }
          },
          {
            "block": "minecraft:polished_diorite_stairs",
            "speed": 8,
            "on_dig": {
              "event": "dmg"
            }
          },
          {
            "block": "minecraft:polished_andesite_stairs",
            "speed": 8,
            "on_dig": {
              "event": "dmg"
            }
          },
          {
            "block": "minecraft:mossy_stone_brick_stairs",
            "speed": 8,
            "on_dig": {
              "event": "dmg"
            }
          },
          {
            "block": "minecraft:smooth_red_sandstone_stairs",
            "speed": 8,
            "on_dig": {
              "event": "dmg"
            }
          },
          {
            "block": "minecraft:smooth_sandstone_stairs",
            "speed": 8,
            "on_dig": {
              "event": "dmg"
            }
          },
          {
            "block": "minecraft:end_brick_stairs",
            "speed": 8,
            "on_dig": {
              "event": "dmg"
            }
          },
          {
            "block": "minecraft:mossy_cobblestone_stairs",
            "speed": 8,
            "on_dig": {
              "event": "dmg"
            }
          },
          {
            "block": "minecraft:red_nether_brick_stairs",
            "speed": 8,
            "on_dig": {
              "event": "dmg"
            }
          },
          {
            "block": "minecraft:smooth_stone",
            "speed": 8,
            "on_dig": {
              "event": "dmg"
            }
          },
          {
            "block": "minecraft:cobblestone",
            "speed": 8,
            "on_dig": {
              "event": "tunnel"
            }
          },
          {
            "block": "minecraft:stonebrick",
            "speed": 8,
            "on_dig": {
              "event": "tunnel"
            }
          },
          {
            "block": "minecraft:stonecutter",
            "speed": 8,
            "on_dig": {
              "event": "dmg"
            }
          },
          {
            "block": "minecraft:stonecutter_block",
            "speed": 8,
            "on_dig": {
              "event": "dmg"
            }
          },
          {
            "block": "minecraft:mossy_cobblestone",
            "speed": 8,
            "on_dig": {
              "event": "dmg"
            }
          },
          {
            "block": "minecraft:double_stone_slab",
            "speed": 8,
            "on_dig": {
              "event": "dmg"
            }
          },
          {
            "block": "minecraft:stone_slab",
            "speed": 8,
            "on_dig": {
              "event": "dmg"
            }
          },
          {
            "block": "minecraft:double_stone_slab3",
            "speed": 8,
            "on_dig": {
              "event": "dmg"
            }
          },
          {
            "block": "minecraft:stone_slab3",
            "speed": 8,
            "on_dig": {
              "event": "dmg"
            }
          },
          {
            "block": "minecraft:double_stone_slab4",
            "speed": 8,
            "on_dig": {
              "event": "dmg"
            }
          },
          {
            "block": "minecraft:stone_slab4",
            "speed": 8,
            "on_dig": {
              "event": "dmg"
            }
          },
          {
            "block": "minecraft:coral_block",
            "speed": 8,
            "on_dig": {
              "event": "dmg"
            }
          },
          {
            "block": "minecraft:turtle_egg",
            "speed": 8,
            "on_dig": {
              "event": "dmg"
            }
          },
          {
            "block": "minecraft:coral",
            "speed": 8,
            "on_dig": {
              "event": "dmg"
            }
          },
          {
            "block": "minecraft:glass_pane",
            "speed": 8,
            "on_dig": {
              "event": "tunnel"
            }
          },
          {
            "block": "minecraft:tnt",
            "speed": 8,
            "on_dig": {
              "event": "dmg"
            }
          },
          {
            "block": "minecraft:heavy_weighted_pressure_plate",
            "speed": 8,
            "on_dig": {
              "event": "dmg"
            }
          },
          {
            "block": "minecraft:light_weighted_pressure_plate",
            "speed": 8,
            "on_dig": {
              "event": "dmg"
            }
          },
          {
            "block": "minecraft:end_stone",
            "speed": 8,
            "on_dig": {
              "event": "tunnel"
            }
          },
          {
            "block": "minecraft:end_bricks",
            "speed": 8,
            "on_dig": {
              "event": "dmg"
            }
          },
          {
            "block": "minecraft:concrete",
            "speed": 8,
            "on_dig": {
              "event": "tunnel"
            }
          },
          {
            "block": "minecraft:grindstone",
            "speed": 8,
            "on_dig": {
              "event": "dmg"
            }
          },
          {
            "block": "minecraft:lantern",
            "speed": 8,
            "on_dig": {
              "event": "dmg"
            }
          },
          {
            "block": "minecraft:soul_lantern",
            "speed": 8,
            "on_dig": {
              "event": "dmg"
            }
          },
          {
            "block": "minecraft:smoker",
            "speed": 8,
            "on_dig": {
              "event": "dmg"
            }
          },
          {
            "block": "minecraft:smithing_table",
            "speed": 8,
            "on_dig": {
              "event": "dmg"
            }
          },
          {
            "block": "minecraft:netherite_block",
            "speed": 8,
            "on_dig": {
              "event": "dmg"
            }
          },
          {
            "block": "minecraft:ancient_debris",
            "speed": 8,
            "on_dig": {
              "event": "tunnel"
            }
          },
          {
            "block": "minecraft:nether_gold_ore",
            "speed": 8,
            "on_dig": {
              "event": "tunnel"
            }
          },
          {
            "block": "minecraft:respawn_anchor",
            "speed": 8,
            "on_dig": {
              "event": "dmg"
            }
          },
          {
            "block": "minecraft:crying_obsidian",
            "speed": 8,
            "on_dig": {
              "event": "tunnel"
            }
          },
          {
            "block": "minecraft:small_amethyst_bud",
            "speed": 8,
            "on_dig": {
              "event": "dmg"
            }
          },
          {
            "block": "minecraft:medium_amethyst_bud",
            "speed": 8,
            "on_dig": {
              "event": "dmg"
            }
          },
          {
            "block": "minecraft:large_amethyst_bud",
            "speed": 8,
            "on_dig": {
              "event": "dmg"
            }
          },
          {
            "block": "minecraft:amethyst_cluster",
            "speed": 8,
            "on_dig": {
              "event": "dmg"
            }
          },
          {
            "block": "minecraft:amethyst_block",
            "speed": 8,
            "on_dig": {
              "event": "tunnel"
            }
          },
          {
            "block": "minecraft:copper_block",
            "speed": 8,
            "on_dig": {
              "event": "dmg"
            }
          },
          {
            "block": "minecraft:exposed_copper",
            "speed": 8,
            "on_dig": {
              "event": "dmg"
            }
          },
          {
            "block": "minecraft:weathered_copper",
            "speed": 8,
            "on_dig": {
              "event": "dmg"
            }
          },
          {
            "block": "minecraft:oxidized_copper",
            "speed": 8,
            "on_dig": {
              "event": "dmg"
            }
          },
          {
            "block": "minecraft:waxed_copper",
            "speed": 8,
            "on_dig": {
              "event": "dmg"
            }
          },
          {
            "block": "minecraft:waxed_exposed_copper",
            "speed": 8,
            "on_dig": {
              "event": "dmg"
            }
          },
          {
            "block": "minecraft:waxed_weathered_copper",
            "speed": 8,
            "on_dig": {
              "event": "dmg"
            }
          },
          {
            "block": "minecraft:waxed_oxidized_copper",
            "speed": 8,
            "on_dig": {
              "event": "dmg"
            }
          },
          {
            "block": "minecraft:cut_copper",
            "speed": 8,
            "on_dig": {
              "event": "dmg"
            }
          },
          {
            "block": "minecraft:exposed_cut_copper",
            "speed": 8,
            "on_dig": {
              "event": "dmg"
            }
          },
          {
            "block": "minecraft:weathered_cut_copper",
            "speed": 8,
            "on_dig": {
              "event": "dmg"
            }
          },
          {
            "block": "minecraft:oxidized_cut_copper",
            "speed": 8,
            "on_dig": {
              "event": "dmg"
            }
          },
          {
            "block": "minecraft:waxed_cut_copper",
            "speed": 8,
            "on_dig": {
              "event": "dmg"
            }
          },
          {
            "block": "minecraft:waxed_exposed_cut_copper",
            "speed": 8,
            "on_dig": {
              "event": "dmg"
            }
          },
          {
            "block": "minecraft:waxed_weathered_cut_copper",
            "speed": 8,
            "on_dig": {
              "event": "dmg"
            }
          },
          {
            "block": "minecraft:waxed_oxidized_cut_copper",
            "speed": 8,
            "on_dig": {
              "event": "dmg"
            }
          },
          {
            "block": "minecraft:raw_copper_block",
            "speed": 8,
            "on_dig": {
              "event": "tunnel"
            }
          },
          {
            "block": "minecraft:raw_gold_block",
            "speed": 8,
            "on_dig": {
              "event": "tunnel"
            }
          },
          {
            "block": "minecraft:raw_iron_block",
            "speed": 8,
            "on_dig": {
              "event": "tunnel"
            }
          },
          {
            "block": "minecraft:budding_amethyst",
            "speed": 8,
            "on_dig": {
              "event": "dmg"
            }
          },
          {
            "block": "minecraft:calcite",
            "speed": 8,
            "on_dig": {
              "event": "tunnel"
            }
          },
          {
            "block": "minecraft:copper_ore",
            "speed": 8,
            "on_dig": {
              "event": "tunnel"
            }
          },
          {
            "block": "minecraft:deepslate_copper_ore",
            "speed": 8,
            "on_dig": {
              "event": "tunnel"
            }
          },
          {
            "block": "minecraft:double_cut_copper_slab",
            "speed": 8,
            "on_dig": {
              "event": "dmg"
            }
          },
          {
            "block": "minecraft:cut_copper_slab",
            "speed": 8,
            "on_dig": {
              "event": "dmg"
            }
          },
          {
            "block": "minecraft:exposed_double_cut_copper_slab",
            "speed": 8,
            "on_dig": {
              "event": "dmg"
            }
          },
          {
            "block": "minecraft:exposed_cut_copper_slab",
            "speed": 8,
            "on_dig": {
              "event": "dmg"
            }
          },
          {
            "block": "minecraft:weathered_double_cut_copper_slab",
            "speed": 8,
            "on_dig": {
              "event": "dmg"
            }
          },
          {
            "block": "minecraft:weathered_cut_copper_slab",
            "speed": 8,
            "on_dig": {
              "event": "dmg"
            }
          },
          {
            "block": "minecraft:oxidized_double_cut_copper_slab",
            "speed": 8,
            "on_dig": {
              "event": "dmg"
            }
          },
          {
            "block": "minecraft:oxidized_cut_copper_slab",
            "speed": 8,
            "on_dig": {
              "event": "dmg"
            }
          },
          {
            "block": "minecraft:waxed_double_cut_copper_slab",
            "speed": 8,
            "on_dig": {
              "event": "dmg"
            }
          },
          {
            "block": "minecraft:waxed_cut_copper_slab",
            "speed": 8,
            "on_dig": {
              "event": "dmg"
            }
          },
          {
            "block": "minecraft:waxed_exposed_double_cut_copper_slab",
            "speed": 8,
            "on_dig": {
              "event": "dmg"
            }
          },
          {
            "block": "minecraft:waxed_exposed_cut_copper_slab",
            "speed": 8,
            "on_dig": {
              "event": "dmg"
            }
          },
          {
            "block": "minecraft:waxed_weathered_double_cut_copper_slab",
            "speed": 8,
            "on_dig": {
              "event": "dmg"
            }
          },
          {
            "block": "minecraft:waxed_weathered_cut_copper_slab",
            "speed": 8,
            "on_dig": {
              "event": "dmg"
            }
          },
          {
            "block": "minecraft:waxed_oxidized_double_cut_copper_slab",
            "speed": 8,
            "on_dig": {
              "event": "dmg"
            }
          },
          {
            "block": "minecraft:waxed_oxidized_cut_copper_slab",
            "speed": 8,
            "on_dig": {
              "event": "dmg"
            }
          },
          {
            "block": "minecraft:cut_copper_stairs",
            "speed": 8,
            "on_dig": {
              "event": "dmg"
            }
          },
          {
            "block": "minecraft:exposed_cut_copper_stairs",
            "speed": 8,
            "on_dig": {
              "event": "dmg"
            }
          },
          {
            "block": "minecraft:weathered_cut_copper_stairs",
            "speed": 8,
            "on_dig": {
              "event": "dmg"
            }
          },
          {
            "block": "minecraft:oxidized_cut_copper_stairs",
            "speed": 8,
            "on_dig": {
              "event": "dmg"
            }
          },
          {
            "block": "minecraft:waxed_cut_copper_stairs",
            "speed": 8,
            "on_dig": {
              "event": "dmg"
            }
          },
          {
            "block": "minecraft:waxed_exposed_cut_copper_stairs",
            "speed": 8,
            "on_dig": {
              "event": "dmg"
            }
          },
          {
            "block": "minecraft:waxed_weathered_cut_copper_stairs",
            "speed": 8,
            "on_dig": {
              "event": "dmg"
            }
          },
          {
            "block": "minecraft:waxed_oxidized_cut_copper_stairs",
            "speed": 8,
            "on_dig": {
              "event": "dmg"
            }
          },
          {
            "block": "minecraft:deepslate",
            "speed": 8,
            "on_dig": {
              "event": "tunnel"
            }
          },
          {
            "block": "minecraft:infested_deepslate",
            "speed": 8,
            "on_dig": {
              "event": "tunnel"
            }
          },
          {
            "block": "minecraft:deepslate_gold_ore",
            "speed": 8,
            "on_dig": {
              "event": "tunnel"
            }
          },
          {
            "block": "minecraft:deepslate_iron_ore",
            "speed": 8,
            "on_dig": {
              "event": "tunnel"
            }
          },
          {
            "block": "minecraft:deepslate_coal_ore",
            "speed": 8,
            "on_dig": {
              "event": "tunnel"
            }
          },
          {
            "block": "minecraft:deepslate_diamond_ore",
            "speed": 8,
            "on_dig": {
              "event": "tunnel"
            }
          },
          {
            "block": "minecraft:deepslate_redstone_ore",
            "speed": 8,
            "on_dig": {
              "event": "tunnel"
            }
          },
          {
            "block": "minecraft:lit_deepslate_redstone_ore",
            "speed": 8,
            "on_dig": {
              "event": "tunnel"
            }
          },
          {
            "block": "minecraft:deepslate_lapis_ore",
            "speed": 8,
            "on_dig": {
              "event": "tunnel"
            }
          },
          {
            "block": "minecraft:deepslate_emerald_ore",
            "speed": 8,
            "on_dig": {
              "event": "tunnel"
            }
          },
          {
            "block": "minecraft:cobbled_deepslate",
            "speed": 8,
            "on_dig": {
              "event": "tunnel"
            }
          },
          {
            "block": "minecraft:cobbled_deepslate_double_slab",
            "speed": 8,
            "on_dig": {
              "event": "dmg"
            }
          },
          {
            "block": "minecraft:cobbled_deepslate_slab",
            "speed": 8,
            "on_dig": {
              "event": "dmg"
            }
          },
          {
            "block": "minecraft:polished_deepslate_double_slab",
            "speed": 8,
            "on_dig": {
              "event": "dmg"
            }
          },
          {
            "block": "minecraft:polished_deepslate_slab",
            "speed": 8,
            "on_dig": {
              "event": "dmg"
            }
          },
          {
            "block": "minecraft:deepslate_brick_double_slab",
            "speed": 8,
            "on_dig": {
              "event": "dmg"
            }
          },
          {
            "block": "minecraft:deepslate_brick_slab",
            "speed": 8,
            "on_dig": {
              "event": "dmg"
            }
          },
          {
            "block": "minecraft:deepslate_tile_double_slab",
            "speed": 8,
            "on_dig": {
              "event": "dmg"
            }
          },
          {
            "block": "minecraft:deepslate_tile_slab",
            "speed": 8,
            "on_dig": {
              "event": "dmg"
            }
          },
          {
            "block": "minecraft:cobbled_deepslate_stairs",
            "speed": 8,
            "on_dig": {
              "event": "dmg"
            }
          },
          {
            "block": "minecraft:polished_deepslate_stairs",
            "speed": 8,
            "on_dig": {
              "event": "dmg"
            }
          },
          {
            "block": "minecraft:deepslate_brick_stairs",
            "speed": 8,
            "on_dig": {
              "event": "dmg"
            }
          },
          {
            "block": "minecraft:deepslate_tile_stairs",
            "speed": 8,
            "on_dig": {
              "event": "dmg"
            }
          },
          {
            "block": "minecraft:cobbled_deepslate_wall",
            "speed": 8,
            "on_dig": {
              "event": "dmg"
            }
          },
          {
            "block": "minecraft:polished_deepslate_wall",
            "speed": 8,
            "on_dig": {
              "event": "dmg"
            }
          },
          {
            "block": "minecraft:deepslate_brick_wall",
            "speed": 8,
            "on_dig": {
              "event": "dmg"
            }
          },
          {
            "block": "minecraft:deepslate_tile_wall",
            "speed": 8,
            "on_dig": {
              "event": "dmg"
            }
          },
          {
            "block": "minecraft:polished_deepslate",
            "speed": 8,
            "on_dig": {
              "event": "dmg"
            }
          },
          {
            "block": "minecraft:deepslate_bricks",
            "speed": 8,
            "on_dig": {
              "event": "dmg"
            }
          },
          {
            "block": "minecraft:cracked_deepslate_bricks",
            "speed": 8,
            "on_dig": {
              "event": "dmg"
            }
          },
          {
            "block": "minecraft:deepslate_tiles",
            "speed": 8,
            "on_dig": {
              "event": "dmg"
            }
          },
          {
            "block": "minecraft:cracked_deepslate_tiles",
            "speed": 8,
            "on_dig": {
              "event": "dmg"
            }
          },
          {
            "block": "minecraft:chiseled_deepslate",
            "speed": 8,
            "on_dig": {
              "event": "dmg"
            }
          },
          {
            "block": "minecraft:dripstone_block",
            "speed": 8,
            "on_dig": {
              "event": "tunnel"
            }
          },
          {
            "block": "minecraft:lightning_rod",
            "speed": 8,
            "on_dig": {
              "event": "dmg"
            }
          },
          {
            "block": "minecraft:pointed_dripstone",
            "speed": 8,
            "on_dig": {
              "event": "dmg"
            }
          },
          {
            "block": "minecraft:sculk_sensor",
            "speed": 8,
            "on_dig": {
              "event": "dmg"
            }
          },
          {
            "block": "minecraft:smooth_basalt",
            "speed": 8,
            "on_dig": {
              "event": "dmg"
            }
          },
          {
            "block": "minecraft:tinted_glass",
            "speed": 8,
            "on_dig": {
              "event": "tunnel"
            }
          },
          {
            "block": "minecraft:tuff",
            "speed": 8,
            "on_dig": {
              "event": "tunnel"
            }
          },
          {
            "block": "minecraft:stone",
            "speed": 8,
            "on_dig": {
              "event": "tunnel"
            }
          },
          {
            "block": "minecraft:pearlescent_froglight",
            "speed": 8,
            "on_dig": {
              "event": "dmg"
            }
          },
          {
            "block": "minecraft:verdant_froglight",
            "speed": 8,
            "on_dig": {
              "event": "dmg"
            }
          },
          {
            "block": "minecraft:ochre_froglight",
            "speed": 8,
            "on_dig": {
              "event": "dmg"
            }
          },
          {
            "block": "minecraft:packed_mud",
            "speed": 8,
            "on_dig": {
              "event": "dmg"
            }
          },
          {
            "block": "minecraft:mud_bricks",
            "speed": 8,
            "on_dig": {
              "event": "dmg"
            }
          },
          {
            "block": "minecraft:mud_brick_slab",
            "speed": 8,
            "on_dig": {
              "event": "dmg"
            }
          },
          {
            "block": "minecraft:mud_brick_double_slab",
            "speed": 8,
            "on_dig": {
              "event": "dmg"
            }
          },
          {
            "block": "minecraft:mud_brick_stairs",
            "speed": 8,
            "on_dig": {
              "event": "dmg"
            }
          },
          {
            "block": "minecraft:mud_brick_wall",
            "speed": 8,
            "on_dig": {
              "event": "dmg"
            }
          }
        ]
      },
      "minecraft:foil": true
    },
    "events": {
      "dmg": {
        "damage": {
          "type": "durability",
          "amount": 1,
          "target": "self"
        }
      },
      "tunnel": {
        "sequence": [
          {
            "condition": "query.cardinal_player_facing == 0.0 || query.cardinal_player_facing == 1.0",
            "run_command": {
              "command": [
                "fill ~-1 ~ ~+1 ~+1 ~ ~-1 btr:tunneling_cobble 0 replace stone 0",
                "fill ~-1 ~ ~+1 ~+1 ~ ~-1 btr:tunneling_granite 0 replace stone 1",
                "fill ~-1 ~ ~+1 ~+1 ~ ~-1 btr:tunneling_diorite 0 replace stone 3",
                "fill ~-1 ~ ~+1 ~+1 ~ ~-1 btr:tunneling_andesite 0 replace stone 5",
                "fill ~-1 ~ ~+1 ~+1 ~ ~-1 btr:tunneling_cobble 0 replace cobblestone",
                "fill ~-1 ~ ~+1 ~+1 ~ ~-1 btr:tunneling_tuff 0 replace tuff",
                "fill ~-1 ~ ~+1 ~+1 ~ ~-1 btr:tunneling_deepslate 0 replace deepslate",
                "fill ~-1 ~ ~+1 ~+1 ~ ~-1 btr:tunneling_deepslate 0 replace cobbled_deepslate",
                "fill ~-1 ~ ~+1 ~+1 ~ ~-1 btr:tunneling_netherrack 0 replace netherrack",
                "fill ~-1 ~ ~+1 ~+1 ~ ~-1 btr:tunneling_netherrack 0 replace crimson_nylium",
                "fill ~-1 ~ ~+1 ~+1 ~ ~-1 btr:tunneling_netherrack 0 replace warped_nylium",
                "fill ~-1 ~ ~+1 ~+1 ~ ~-1 btr:tunneling_end_stone 0 replace end_stone"
              ],
              "target": "block"
            }
          },
          {
            "condition": "query.cardinal_player_facing == 2.0",
            "run_command": {
              "command": [
                "fill ~+1 ~-1 ~ ~-1 ~+1 ~ btr:tunneling_cobble 0 replace stone 0",
                "fill ~+1 ~-1 ~ ~-1 ~+1 ~ btr:tunneling_granite 0 replace stone 1",
                "fill ~+1 ~-1 ~ ~-1 ~+1 ~ btr:tunneling_diorite 0 replace stone 3",
                "fill ~+1 ~-1 ~ ~-1 ~+1 ~ btr:tunneling_andesite 0 replace stone 5",
                "fill ~+1 ~-1 ~ ~-1 ~+1 ~ btr:tunneling_cobble 0 replace cobblestone",
                "fill ~+1 ~-1 ~ ~-1 ~+1 ~ btr:tunneling_tuff 0 replace tuff",
                "fill ~+1 ~-1 ~ ~-1 ~+1 ~ btr:tunneling_deepslate 0 replace deepslate",
                "fill ~+1 ~-1 ~ ~-1 ~+1 ~ btr:tunneling_deepslate 0 replace cobbled_deepslate",
                "fill ~+1 ~-1 ~ ~-1 ~+1 ~ btr:tunneling_netherrack 0 replace netherrack",
                "fill ~+1 ~-1 ~ ~-1 ~+1 ~ btr:tunneling_netherrack 0 replace crimson_nylium",
                "fill ~+1 ~-1 ~ ~-1 ~+1 ~ btr:tunneling_netherrack 0 replace warped_nylium",
                "fill ~+1 ~-1 ~ ~-1 ~+1 ~ btr:tunneling_end_stone 0 replace end_stone"
              ],
              "target": "block"
            }
          },
          {
            "condition": "query.cardinal_player_facing == 3.0",
            "run_command": {
              "command": [
                "fill ~-1 ~-1 ~ ~+1 ~+1 ~ btr:tunneling_cobble 0 replace stone 0",
                "fill ~-1 ~-1 ~ ~+1 ~+1 ~ btr:tunneling_granite 0 replace stone 1",
                "fill ~-1 ~-1 ~ ~+1 ~+1 ~ btr:tunneling_diorite 0 replace stone 3",
                "fill ~-1 ~-1 ~ ~+1 ~+1 ~ btr:tunneling_andesite 0 replace stone 5",
                "fill ~-1 ~-1 ~ ~+1 ~+1 ~ btr:tunneling_cobble 0 replace cobblestone",
                "fill ~-1 ~-1 ~ ~+1 ~+1 ~ btr:tunneling_tuff 0 replace tuff",
                "fill ~-1 ~-1 ~ ~+1 ~+1 ~ btr:tunneling_deepslate 0 replace deepslate",
                "fill ~-1 ~-1 ~ ~+1 ~+1 ~ btr:tunneling_deepslate 0 replace cobbled_deepslate",
                "fill ~-1 ~-1 ~ ~+1 ~+1 ~ btr:tunneling_netherrack 0 replace netherrack",
                "fill ~-1 ~-1 ~ ~+1 ~+1 ~ btr:tunneling_netherrack 0 replace crimson_nylium",
                "fill ~-1 ~-1 ~ ~+1 ~+1 ~ btr:tunneling_netherrack 0 replace warped_nylium",
                "fill ~-1 ~-1 ~ ~+1 ~+1 ~ btr:tunneling_end_stone 0 replace end_stone"
              ],
              "target": "block"
            }
          },
          {
            "condition": "query.cardinal_player_facing == 4.0 || query.cardinal_player_facing == 5.0",
            "run_command": {
              "command": [
                "fill ~ ~-1 ~-1 ~ ~+1 ~+1 btr:tunneling_cobble 0 replace stone 0",
                "fill ~ ~-1 ~-1 ~ ~+1 ~+1 btr:tunneling_granite 0 replace stone 1",
                "fill ~ ~-1 ~-1 ~ ~+1 ~+1 btr:tunneling_diorite 0 replace stone 3",
                "fill ~ ~-1 ~-1 ~ ~+1 ~+1 btr:tunneling_andesite 0 replace stone 5",
                "fill ~ ~-1 ~-1 ~ ~+1 ~+1 btr:tunneling_cobble 0 replace cobblestone",
                "fill ~ ~-1 ~-1 ~ ~+1 ~+1 btr:tunneling_tuff 0 replace tuff",
                "fill ~ ~-1 ~-1 ~ ~+1 ~+1 btr:tunneling_deepslate 0 replace deepslate",
                "fill ~ ~-1 ~-1 ~ ~+1 ~+1 btr:tunneling_deepslate 0 replace cobbled_deepslate",
                "fill ~ ~-1 ~-1 ~ ~+1 ~+1 btr:tunneling_netherrack 0 replace netherrack",
                "fill ~ ~-1 ~-1 ~ ~+1 ~+1 btr:tunneling_netherrack 0 replace crimson_nylium",
                "fill ~ ~-1 ~-1 ~ ~+1 ~+1 btr:tunneling_netherrack 0 replace warped_nylium",
                "fill ~ ~-1 ~-1 ~ ~+1 ~+1 btr:tunneling_end_stone 0 replace end_stone"
              ],
              "target": "block"
            }
          },
          {
            "damage": {
              "type": "durability",
              "amount": 9,
              "target": "self"
            }
          }
        ]
      }
    }
  }
}