{
  "format_version": "1.12",
  "minecraft:recipe_shapeless": {
    "description": {
      "identifier": "assasinate_iii_netherite_dagger"
    },
    "tags": [
      "crafting_table"
    ],
    "ingredients": [
      {
        "item": "btr:netherite_dagger"
      },
      {
        "item": "btr:assasinate_iii_book"
      }
    ],
    "result": {
      "item": "btr:assasinate_iii_netherite_dagger"
    }
  }
}