{
  "format_version": "1.10.0",
  "minecraft:attachable": {
    "description": {
      "identifier": "yes:glowing_obsidian_helmet",
      "item": { "yes:glowing_obsidian_helmet": "query.owner_identifier == 'minecraft:player'" },
      "materials": {
        "default": "armor",
        "enchanted": "armor_enchanted"
      },
      "textures": {
        "default": "textures/models/glowing_obsidian/armor/glowing_obsidian_helmet",
        "enchanted": "textures/misc/enchanted_item_glint"
      },
      "geometry": {
        "default": "geometry.glowing_obsidian_helmet"
      },
      "scripts": {
        "parent_setup": "variable.helmet_layer_visible = 0.0;"
      },
      "render_controllers": [ "controller.render.armor" ]
    }
  }
}
