{
  "format_version": "1.16.100",
  "minecraft:entity": {
    "description": {
      "identifier": "yes:battleaxe_hit_entity_ad1",
      "is_spawnable": false,
      "is_summonable": true,
      "is_experimental": false,
	  "scripts": {
	    "animate": [ 
			"teleport4"
		]
	  },
	  "animations": {
		"teleport4": "controller.animation.battleaxe_teleport4_ad1"
	  }
    },
    "component_groups": {
      "yes:despawn": {
        "minecraft:instant_despawn": {}
      },
		"yes:start": {
	      "minecraft:environment_sensor": {
	        "triggers": [
			      {
	            "filters": {
	              "all_of": [
							{ 
								"test": "is_game_rule", 
								"subject": "self", 
								"domain": "pvp", 
								"operator": "==", 
								"value": true
							}
	              ]
	            },
	            "event": "yes:pvp_true"
	          },
			      {
	            "filters": {
	              "all_of": [
							{ 
								"test": "is_game_rule", 
								"subject": "self", 
								"domain": "pvp", 
								"operator": "==", 
								"value": false
							}
	              ]
	            },
	            "event": "yes:pvp_false"
	          }
			  ]
			}
		},
		"yes:pvp_true": {
        "minecraft:timer": {
          "looping": false,
          "time": 0.01,
          "time_down_event": {
            "event": "yes:pvp_true_sound_event"
          }
        },
	      "minecraft:behavior.knockback_roar": {
	        "priority": 0,
	        "attack_time": 0.1,
	        "cooldown_time": 0.0,
	        "duration": 0.1,
	        "knockback_damage": 16,
	        "knockback_strength": 0,
	        "knockback_range": 4.5,
	        "knockback_filters": {
	          "all_of": [
	            { "test": "has_tag", "subject": "other", "operator": "==", "value": "battleaxe_target" },
	            { "test": "is_family", "subject": "other", "operator": "!=", "value": "armor_stand" },
					{ "test": "is_family", "subject": "other", "operator": "!=", "value": "weeweejuice" },
					{ "test": "has_component", "subject": "other", "operator": "!=", "value": "minecraft:is_tamed" },
					{ "test": "is_family", "subject": "other", "operator": "!=", "value": "inanimate" }
	          ]
	        },
	        "damage_filters": {
	          "any_of": [
	            { "test": "has_tag", "subject": "other", "operator": "==", "value": "battleaxe_target" },
	            { "test": "is_family", "subject": "other", "operator": "!=", "value": "armor_stand" },
					{ "test": "is_family", "subject": "other", "operator": "!=", "value": "weeweejuice" },
					{ "test": "has_component", "subject": "other", "operator": "!=", "value": "minecraft:is_tamed" },
					{ "test": "is_family", "subject": "other", "operator": "!=", "value": "inanimate" }
	          ]
	        },
	        "on_roar_end": {
	          "event": "yes:despawn"
	        }
	      }
		 },
		"yes:pvp_false": {
        "minecraft:timer": {
          "looping": false,
          "time": 0.01,
          "time_down_event": {
            "event": "yes:pvp_false_sound_event"
          }
        },
	      "minecraft:behavior.knockback_roar": {
	        "priority": 0,
	        "attack_time": 0.1,
	        "cooldown_time": 0.0,
	        "duration": 0.1,
	        "knockback_damage": 16,
	        "knockback_strength": 0,
	        "knockback_range": 4.5,
	        "knockback_filters": {
	          "all_of": [
	            { "test": "has_tag", "subject": "other", "operator": "==", "value": "battleaxe_target" },
	            { "test": "is_family", "subject": "other", "operator": "!=", "value": "armor_stand" },
					{ "test": "is_family", "subject": "other", "operator": "!=", "value": "weeweejuice" },
					{ "test": "has_component", "subject": "other", "operator": "!=", "value": "minecraft:is_tamed" },
					{ "test": "is_family", "subject": "other", "operator": "!=", "value": "inanimate" },
					{ "test": "is_family", "subject": "other", "operator": "!=", "value": "player" }
	          ]
	        },
	        "damage_filters": {
	          "any_of": [
	            { "test": "has_tag", "subject": "other", "operator": "==", "value": "battleaxe_target" },
	            { "test": "is_family", "subject": "other", "operator": "!=", "value": "armor_stand" },
					{ "test": "is_family", "subject": "other", "operator": "!=", "value": "weeweejuice" },
					{ "test": "has_component", "subject": "other", "operator": "!=", "value": "minecraft:is_tamed" },
					{ "test": "is_family", "subject": "other", "operator": "!=", "value": "inanimate" },
					{ "test": "is_family", "subject": "other", "operator": "!=", "value": "player" }
	          ]
	        },
	        "on_roar_end": {
	          "event": "yes:despawn"
	        }
	      }
		 }
    },
    "components": {
        "minecraft:timer": {
          "looping": false,
          "time": 0.01,
          "time_down_event": {
            "event": "yes:start_event"
          }
        },
			"minecraft:conditional_bandwidth_optimization": {},
      "minecraft:navigation.walk": {
        "is_amphibious": false,
        "can_pass_doors": false,
        "can_walk": false,
        "can_break_doors": false
      },
      "minecraft:physics": {
      },
      "minecraft:type_family": {
        "family": [
          "despawn",
			 "weeweejuice"
        ]
      },
      "minecraft:damage_sensor": {
        "triggers": [
          {
            "cause": "all",
            "deals_damage": false
          }
        ]
      },
      "minecraft:fire_immune": {
      },
            "minecraft:custom_hit_test": {
                "hitboxes": [
                    {
                        "pivot": [ 0, 100, 0 ],
                        "width": 0,
                        "height": 0
                    }
                ]
            },
            "minecraft:damage_sensor": {
                "triggers": {
                    "deals_damage": false
                }
            },
            "minecraft:pushable": {
                "is_pushable": false,
                "is_pushable_by_piston": false
            },
            "minecraft:collision_box": {
                "width": 0.0001,
                "height": 0.0001
            }
	 },
    "events": {
      "yes:despawn": {
        "add": {
          "component_groups": [
            "yes:despawn"
          ]
        }
      },
      "yes:start_event": {
        "add": {
          "component_groups": [
            "yes:start"
          ]
        }
      },
		
		
		
      "yes:pvp_true": {
        "add": {
          "component_groups": [
            "yes:pvp_true"
          ]
        },
        "remove": {
          "component_groups": [
            "yes:start"
          ]
        }
      },
      "yes:pvp_true_sound_event": {
				  "run_command": {
   				 "command": [
						 "scoreboard players random @s weapon_sound 1 3",
						 "execute @e[family=!inanimate,family=!weeweejuice,type=!armor_stand,tag=battleaxe_target,c=1,r=4.5] ~~~ tag @e[type=yes:battleaxe_hit_entity_ad1,c=1,r=4.5] add hitting_mob",
						 "execute @s[tag=hitting_mob,scores={weapon_sound=1}] ~~~ playsound weapon.battleaxe_hit_weewee @a[r=20] ~~1~ 1 0.65 0.5",
						 "execute @s[tag=hitting_mob,scores={weapon_sound=2}] ~~~ playsound weapon.battleaxe_hit_weewee @a[r=20] ~~1~ 1 0.75 0.5",
						 "execute @s[tag=hitting_mob,scores={weapon_sound=3}] ~~~ playsound weapon.battleaxe_hit_weewee @a[r=20] ~~1~ 1 0.9 0.5"
					 ]
				  }
		},
		
		
		
      "yes:pvp_false": {
        "add": {
          "component_groups": [
            "yes:pvp_false"
          ]
        },
        "remove": {
          "component_groups": [
            "yes:start"
          ]
        }
      },
      "yes:pvp_false_sound_event": {
				  "run_command": {
   				 "command": [
						 "scoreboard players random @s weapon_sound 1 3",
						 "execute @e[family=!inanimate,family=!weeweejuice,type=!armor_stand,type=!player,tag=battleaxe_target,c=1,r=4.5] ~~~ tag @e[type=yes:battleaxe_hit_entity_ad1,c=1,r=4.5] add hitting_mob",
						 "execute @s[tag=hitting_mob,scores={weapon_sound=1}] ~~~ playsound weapon.battleaxe_hit_weewee @a[r=20] ~~1~ 1 0.65 0.5",
						 "execute @s[tag=hitting_mob,scores={weapon_sound=2}] ~~~ playsound weapon.battleaxe_hit_weewee @a[r=20] ~~1~ 1 0.75 0.5",
						 "execute @s[tag=hitting_mob,scores={weapon_sound=3}] ~~~ playsound weapon.battleaxe_hit_weewee @a[r=20] ~~1~ 1 0.9 0.5"
					 ]
				  }
		}
    }
  }
}