{
  "format_version": "1.8.0",
  "minecraft:entity": {
    "description": {
      "identifier": "yes:battleaxe_entity2_ad2",
      "is_spawnable": false,
      "is_summonable": true,
      "is_experimental": false,
	  "scripts": {
	    "animate": [ 
			"teleport2", 
			"battleaxe2"
		]
	  },
	  "animations": {
		"teleport2": "controller.animation.battleaxe_teleport2_ad2",
		"battleaxe2": "animation.battleaxe2_ad2"
	  }
   },
    "component_groups": {
      "yes:despawn": {
        "minecraft:instant_despawn": {}
      }
    },
        "components": {
      "minecraft:type_family": {
        "family": [
          "despawn",
			 "weeweejuice"
        ]
      },
            "minecraft:custom_hit_test": {
                "hitboxes": [
                    {
                        "pivot": [ 0, 100, 0 ],
                        "width": 0,
                        "height": 0
                    }
                ]
            },
            "minecraft:damage_sensor": {
                "triggers": {
                    "deals_damage": false
                }
            },
            "minecraft:pushable": {
                "is_pushable": false,
                "is_pushable_by_piston": false
            },
            "minecraft:collision_box": {
                "width": 0.0001,
                "height": 0.0001
            }
        },
    "events": {
      "yes:despawn": {
        "add": {
          "component_groups": [
            "yes:despawn"
       		 	  ]
      		  }
    		  }
	 	  }
    }
}