{
  "resource_pack_name": "Addon Maker Resource",
  "texture_name": "atlas.items",
  "texture_data": {
    "backpack": {
 "textures": [
   "textures/items/true_backpack"
 ]
    },
    "glove": {
      "textures": [
        "textures/items/glove"
      ]
         },
         "ender_bag": {
          "textures": [
            "textures/items/ender_bag"
          ]
             }
   }
 }