{
	"file_path": "C:\\Users\\plant\\AppData\\Local\\Packages\\Microsoft.MinecraftUWP_8wekyb3d8bbwe\\LocalState\\games\\com.mojang\\development_behavior_packs\\Village and Pillage+\\items\\raw_human_meat.json",
	"file_type": "item",
	"format_version": 1,
	"file_uuid": "86021090_a5d3_4c3b_a240_c92027e0ff8b",
	"file_version": 5,
	"cache_content": {
		"children": [
			{
				"open": {
					"format_version": "1.17.0",
					"minecraft:item": {
						"description": {
							"identifier": "v:raw_human_meat",
							"category": "nature"
						},
						"components": {
							"minecraft:use_duration": 1.6,
							"minecraft:food": {
								"nutrition": 3,
								"saturation_modifier": "low"
							},
							"minecraft:use_animation": "eat",
							"minecraft:icon": {
								"texture": "raw_human_meat"
							},
							"minecraft:display_name": {
								"value": "Raw Human Meat"
							},
							"minecraft:creative_category": {
								"parent": "itemGroup.name.rawFood"
							}
						}
					}
				},
				"data": "1.17.0",
				"key": "format_version"
			},
			{
				"open": {
					"format_version": "1.17.0",
					"minecraft:item": {
						"description": {
							"identifier": "v:raw_human_meat",
							"category": "nature"
						},
						"components": {
							"minecraft:use_duration": 1.6,
							"minecraft:food": {
								"nutrition": 3,
								"saturation_modifier": "low"
							},
							"minecraft:use_animation": "eat",
							"minecraft:icon": {
								"texture": "raw_human_meat"
							},
							"minecraft:display_name": {
								"value": "Raw Human Meat"
							},
							"minecraft:creative_category": {
								"parent": "itemGroup.name.rawFood"
							}
						}
					}
				},
				"key": "minecraft:item",
				"children": [
					{
						"open": {
							"description": {
								"identifier": "v:raw_human_meat",
								"category": "nature"
							},
							"components": {
								"minecraft:use_duration": 1.6,
								"minecraft:food": {
									"nutrition": 3,
									"saturation_modifier": "low"
								},
								"minecraft:use_animation": "eat",
								"minecraft:icon": {
									"texture": "raw_human_meat"
								},
								"minecraft:display_name": {
									"value": "Raw Human Meat"
								},
								"minecraft:creative_category": {
									"parent": "itemGroup.name.rawFood"
								}
							}
						},
						"key": "description",
						"is_minified": true,
						"children": {
							"identifier": "v:raw_human_meat",
							"category": "nature"
						}
					},
					{
						"open": {
							"description": {
								"identifier": "v:raw_human_meat",
								"category": "nature"
							},
							"components": {
								"minecraft:use_duration": 1.6,
								"minecraft:food": {
									"nutrition": 3,
									"saturation_modifier": "low"
								},
								"minecraft:use_animation": "eat",
								"minecraft:icon": {
									"texture": "raw_human_meat"
								},
								"minecraft:display_name": {
									"value": "Raw Human Meat"
								},
								"minecraft:creative_category": {
									"parent": "itemGroup.name.rawFood"
								}
							}
						},
						"key": "components",
						"children": [
							{
								"data": "1.6",
								"key": "minecraft:use_duration"
							},
							{
								"key": "minecraft:food",
								"is_minified": true,
								"children": {
									"nutrition": 3,
									"saturation_modifier": "low"
								}
							},
							{
								"data": "eat",
								"key": "minecraft:use_animation"
							},
							{
								"open": {
									"minecraft:use_duration": 1.6,
									"minecraft:food": {
										"nutrition": 3,
										"saturation_modifier": "low"
									},
									"minecraft:use_animation": "eat",
									"minecraft:icon": {
										"texture": "raw_human_meat"
									},
									"minecraft:display_name": {
										"value": "Raw Human Meat"
									},
									"minecraft:creative_category": {
										"parent": "itemGroup.name.rawFood"
									}
								},
								"key": "minecraft:icon",
								"is_minified": true,
								"children": {
									"texture": "raw_human_meat"
								}
							},
							{
								"open": {
									"minecraft:use_duration": 1.6,
									"minecraft:food": {
										"nutrition": 3,
										"saturation_modifier": "low"
									},
									"minecraft:use_animation": "eat",
									"minecraft:icon": {
										"texture": "raw_human_meat"
									},
									"minecraft:display_name": {
										"value": "Raw Human Meat"
									},
									"minecraft:creative_category": {
										"parent": "itemGroup.name.rawFood"
									}
								},
								"key": "minecraft:display_name",
								"is_minified": true,
								"children": {
									"value": "Raw Human Meat"
								}
							},
							{
								"open": {
									"minecraft:use_duration": 1.6,
									"minecraft:food": {
										"nutrition": 3,
										"saturation_modifier": "low"
									},
									"minecraft:use_animation": "eat",
									"minecraft:icon": {
										"texture": "raw_human_meat"
									},
									"minecraft:display_name": {
										"value": "Raw Human Meat"
									},
									"minecraft:creative_category": {
										"parent": "itemGroup.name.rawFood"
									}
								},
								"key": "minecraft:creative_category",
								"is_minified": true,
								"children": {
									"parent": "itemGroup.name.rawFood"
								}
							}
						]
					}
				]
			}
		]
	}
}