{
	"file_path": "C:\\Users\\plant\\AppData\\Local\\Packages\\Microsoft.MinecraftUWP_8wekyb3d8bbwe\\LocalState\\games\\com.mojang\\development_behavior_packs\\Village and Pillage+\\items\\totem_of_jumping.json",
	"file_type": "item",
	"format_version": 1,
	"file_uuid": "031713d0_5251_4ea0_9512_52461ffa3e9e",
	"file_version": 46,
	"cache_content": {
		"children": [
			{
				"open": {
					"format_version": "1.17.0",
					"minecraft:item": {
						"description": {
							"category": "equipment",
							"identifier": "v:totem_of_jumping"
						},
						"components": {
							"minecraft:display_name": {
								"value": "§eTotem of Jumping"
							},
							"minecraft:icon": {
								"texture": "totem_of_jumping"
							},
							"minecraft:creative_category": {
								"parent": "itemGroup.name.totem"
							},
							"minecraft:on_use": {
								"on_use": {
									"event": "totem"
								}
							},
							"minecraft:max_stack_size": 1,
							"minecraft:durability": {
								"max_durability": 20
							},
							"minecraft:cooldown": {
								"category": "totem_lmfaoa",
								"duration": 200
							}
						},
						"events": {
							"totem": {
								"sequence": [
									{
										"damage": {
											"type": "durability",
											"amount": 1,
											"target": "self"
										}
									},
									{
										"add_mob_effect": {
											"target": "holder",
											"duration": 200,
											"amplifier": 4,
											"effect": "jump_boost"
										}
									},
									{
										"add_mob_effect": {
											"target": "holder",
											"duration": 20,
											"amplifier": 3,
											"effect": "hunger"
										}
									},
									{
										"add_mob_effect": {
											"target": "holder",
											"duration": 20,
											"amplifier": 1,
											"effect": "slow_falling"
										}
									}
								]
							}
						}
					}
				},
				"data": "1.17.0",
				"key": "format_version"
			},
			{
				"open": {
					"format_version": "1.17.0",
					"minecraft:item": {
						"description": {
							"category": "equipment",
							"identifier": "v:totem_of_jumping"
						},
						"components": {
							"minecraft:display_name": {
								"value": "§eTotem of Jumping"
							},
							"minecraft:icon": {
								"texture": "totem_of_jumping"
							},
							"minecraft:creative_category": {
								"parent": "itemGroup.name.totem"
							},
							"minecraft:on_use": {
								"on_use": {
									"event": "totem"
								}
							},
							"minecraft:max_stack_size": 1,
							"minecraft:durability": {
								"max_durability": 20
							},
							"minecraft:cooldown": {
								"category": "totem_lmfaoa",
								"duration": 200
							}
						},
						"events": {
							"totem": {
								"sequence": [
									{
										"damage": {
											"type": "durability",
											"amount": 1,
											"target": "self"
										}
									},
									{
										"add_mob_effect": {
											"target": "holder",
											"duration": 200,
											"amplifier": 4,
											"effect": "jump_boost"
										}
									},
									{
										"add_mob_effect": {
											"target": "holder",
											"duration": 20,
											"amplifier": 3,
											"effect": "hunger"
										}
									},
									{
										"add_mob_effect": {
											"target": "holder",
											"duration": 20,
											"amplifier": 1,
											"effect": "slow_falling"
										}
									}
								]
							}
						}
					}
				},
				"key": "minecraft:item",
				"children": [
					{
						"open": {
							"description": {
								"category": "equipment",
								"identifier": "v:totem_of_jumping"
							},
							"components": {
								"minecraft:display_name": {
									"value": "§eTotem of Jumping"
								},
								"minecraft:icon": {
									"texture": "totem_of_jumping"
								},
								"minecraft:creative_category": {
									"parent": "itemGroup.name.totem"
								},
								"minecraft:on_use": {
									"on_use": {
										"event": "totem"
									}
								},
								"minecraft:max_stack_size": 1,
								"minecraft:durability": {
									"max_durability": 20
								},
								"minecraft:cooldown": {
									"category": "totem_lmfaoa",
									"duration": 200
								}
							},
							"events": {
								"totem": {
									"sequence": [
										{
											"damage": {
												"type": "durability",
												"amount": 1,
												"target": "self"
											}
										},
										{
											"add_mob_effect": {
												"target": "holder",
												"duration": 200,
												"amplifier": 4,
												"effect": "jump_boost"
											}
										},
										{
											"add_mob_effect": {
												"target": "holder",
												"duration": 20,
												"amplifier": 3,
												"effect": "hunger"
											}
										},
										{
											"add_mob_effect": {
												"target": "holder",
												"duration": 20,
												"amplifier": 1,
												"effect": "slow_falling"
											}
										}
									]
								}
							}
						},
						"key": "description",
						"is_minified": true,
						"children": {
							"category": "equipment",
							"identifier": "v:totem_of_jumping"
						}
					},
					{
						"open": {
							"description": {
								"category": "equipment",
								"identifier": "v:totem_of_jumping"
							},
							"components": {
								"minecraft:display_name": {
									"value": "§eTotem of Jumping"
								},
								"minecraft:icon": {
									"texture": "totem_of_jumping"
								},
								"minecraft:creative_category": {
									"parent": "itemGroup.name.totem"
								},
								"minecraft:on_use": {
									"on_use": {
										"event": "totem"
									}
								},
								"minecraft:max_stack_size": 1,
								"minecraft:durability": {
									"max_durability": 20
								},
								"minecraft:cooldown": {
									"category": "totem_lmfaoa",
									"duration": 200
								}
							},
							"events": {
								"totem": {
									"sequence": [
										{
											"damage": {
												"type": "durability",
												"amount": 1,
												"target": "self"
											}
										},
										{
											"add_mob_effect": {
												"target": "holder",
												"duration": 200,
												"amplifier": 4,
												"effect": "jump_boost"
											}
										},
										{
											"add_mob_effect": {
												"target": "holder",
												"duration": 20,
												"amplifier": 3,
												"effect": "hunger"
											}
										},
										{
											"add_mob_effect": {
												"target": "holder",
												"duration": 20,
												"amplifier": 1,
												"effect": "slow_falling"
											}
										}
									]
								}
							}
						},
						"key": "components",
						"children": [
							{
								"key": "minecraft:display_name",
								"is_minified": true,
								"children": {
									"value": "§eTotem of Jumping"
								}
							},
							{
								"open": {
									"minecraft:display_name": {
										"value": "§eTotem of Jumping"
									},
									"minecraft:icon": {
										"texture": "totem_of_jumping"
									},
									"minecraft:creative_category": {
										"parent": "itemGroup.name.totem"
									},
									"minecraft:on_use": {
										"on_use": {
											"event": "totem"
										}
									},
									"minecraft:max_stack_size": 1,
									"minecraft:durability": {
										"max_durability": 20
									},
									"minecraft:cooldown": {
										"category": "totem_lmfaoa",
										"duration": 200
									}
								},
								"key": "minecraft:icon",
								"is_minified": true,
								"children": {
									"texture": "totem_of_jumping"
								}
							},
							{
								"key": "minecraft:creative_category",
								"is_minified": true,
								"children": {
									"parent": "itemGroup.name.totem"
								}
							},
							{
								"key": "minecraft:on_use",
								"children": [
									{
										"open": {
											"on_use": {
												"event": "totem"
											}
										},
										"key": "on_use",
										"is_minified": true,
										"children": {
											"event": "totem"
										}
									}
								]
							},
							{
								"data": "1",
								"key": "minecraft:max_stack_size"
							},
							{
								"open": {
									"minecraft:display_name": {
										"value": "§eTotem of Jumping"
									},
									"minecraft:icon": {
										"texture": "totem_of_jumping"
									},
									"minecraft:creative_category": {
										"parent": "itemGroup.name.totem"
									},
									"minecraft:on_use": {
										"on_use": {
											"event": "totem"
										}
									},
									"minecraft:max_stack_size": 1,
									"minecraft:durability": {
										"max_durability": 20
									},
									"minecraft:cooldown": {
										"category": "totem_lmfaoa",
										"duration": 200
									}
								},
								"key": "minecraft:durability",
								"is_minified": true,
								"children": {
									"max_durability": 20
								}
							},
							{
								"open": {
									"minecraft:display_name": {
										"value": "§eTotem of Jumping"
									},
									"minecraft:icon": {
										"texture": "totem_of_jumping"
									},
									"minecraft:creative_category": {
										"parent": "itemGroup.name.totem"
									},
									"minecraft:on_use": {
										"on_use": {
											"event": "totem"
										}
									},
									"minecraft:max_stack_size": 1,
									"minecraft:durability": {
										"max_durability": 20
									},
									"minecraft:cooldown": {
										"category": "totem_lmfaoa",
										"duration": 200
									}
								},
								"key": "minecraft:cooldown",
								"is_minified": true,
								"children": {
									"category": "totem_lmfaoa",
									"duration": 200
								}
							}
						]
					},
					{
						"open": {
							"description": {
								"category": "equipment",
								"identifier": "v:totem_of_jumping"
							},
							"components": {
								"minecraft:display_name": {
									"value": "§eTotem of Jumping"
								},
								"minecraft:icon": {
									"texture": "totem_of_jumping"
								},
								"minecraft:creative_category": {
									"parent": "itemGroup.name.totem"
								},
								"minecraft:on_use": {
									"on_use": {
										"event": "totem"
									}
								},
								"minecraft:max_stack_size": 1,
								"minecraft:durability": {
									"max_durability": 20
								},
								"minecraft:cooldown": {
									"category": "totem_lmfaoa",
									"duration": 200
								}
							},
							"events": {
								"totem": {
									"sequence": [
										{
											"damage": {
												"type": "durability",
												"amount": 1,
												"target": "self"
											}
										},
										{
											"add_mob_effect": {
												"target": "holder",
												"duration": 200,
												"amplifier": 4,
												"effect": "jump_boost"
											}
										},
										{
											"add_mob_effect": {
												"target": "holder",
												"duration": 20,
												"amplifier": 3,
												"effect": "hunger"
											}
										},
										{
											"add_mob_effect": {
												"target": "holder",
												"duration": 20,
												"amplifier": 1,
												"effect": "slow_falling"
											}
										}
									]
								}
							}
						},
						"key": "events",
						"children": [
							{
								"open": {
									"totem": {
										"sequence": [
											{
												"damage": {
													"type": "durability",
													"amount": 1,
													"target": "self"
												}
											},
											{
												"add_mob_effect": {
													"target": "holder",
													"duration": 200,
													"amplifier": 4,
													"effect": "jump_boost"
												}
											},
											{
												"add_mob_effect": {
													"target": "holder",
													"duration": 20,
													"amplifier": 3,
													"effect": "hunger"
												}
											},
											{
												"add_mob_effect": {
													"target": "holder",
													"duration": 20,
													"amplifier": 1,
													"effect": "slow_falling"
												}
											}
										]
									}
								},
								"key": "totem",
								"children": [
									{
										"open": {
											"sequence": [
												{
													"damage": {
														"type": "durability",
														"amount": 1,
														"target": "self"
													}
												},
												{
													"add_mob_effect": {
														"target": "holder",
														"duration": 200,
														"amplifier": 4,
														"effect": "jump_boost"
													}
												},
												{
													"add_mob_effect": {
														"target": "holder",
														"duration": 20,
														"amplifier": 3,
														"effect": "hunger"
													}
												},
												{
													"add_mob_effect": {
														"target": "holder",
														"duration": 20,
														"amplifier": 1,
														"effect": "slow_falling"
													}
												}
											]
										},
										"key": "sequence",
										"children": [
											{
												"is_minified": true,
												"children": {
													"damage": {
														"type": "durability",
														"amount": 1,
														"target": "self"
													}
												}
											},
											{
												"open": [
													{
														"damage": {
															"type": "durability",
															"amount": 1,
															"target": "self"
														}
													},
													{
														"add_mob_effect": {
															"target": "holder",
															"duration": 200,
															"amplifier": 4,
															"effect": "jump_boost"
														}
													},
													{
														"add_mob_effect": {
															"target": "holder",
															"duration": 20,
															"amplifier": 3,
															"effect": "hunger"
														}
													},
													{
														"add_mob_effect": {
															"target": "holder",
															"duration": 20,
															"amplifier": 1,
															"effect": "slow_falling"
														}
													}
												],
												"children": [
													{
														"open": {
															"add_mob_effect": {
																"target": "holder",
																"duration": 200,
																"amplifier": 4,
																"effect": "jump_boost"
															}
														},
														"key": "add_mob_effect",
														"is_minified": true,
														"children": {
															"target": "holder",
															"duration": 200,
															"amplifier": 4,
															"effect": "jump_boost"
														}
													}
												]
											},
											{
												"children": [
													{
														"open": {
															"add_mob_effect": {
																"target": "holder",
																"duration": 20,
																"amplifier": 3,
																"effect": "hunger"
															}
														},
														"key": "add_mob_effect",
														"is_minified": true,
														"children": {
															"target": "holder",
															"duration": 20,
															"amplifier": 3,
															"effect": "hunger"
														}
													}
												]
											},
											{
												"is_minified": true,
												"children": {
													"add_mob_effect": {
														"target": "holder",
														"duration": 20,
														"amplifier": 1,
														"effect": "slow_falling"
													}
												}
											}
										]
									}
								]
							}
						]
					}
				]
			}
		]
	}
}