{
	"format_version": "1.8.0",
	"animations": {
		"animation.player.mace": {
			"animation_length": 0.84,
			"bones": {
				"head": {
					"rotation": {
						"0.08": [0, 0, 0],
						"0.2": [-12.5, 0, 0],
						"0.28": [-12.5, 0, 0],
						"0.36": [2.5, 0, 0],
						"0.4": [-2.5, 0, 0],
						"0.6": [0, 0, 0]
					},
					"position": {
						"0.08": [0, 0, 0],
						"0.2": [0, 0, 0],
						"0.28": [0, 0, 0],
						"0.36": [0, 0, 0],
						"0.4": [0, 0, 0],
						"0.6": [0, 0, 0]
					}
				},
				"body": {
					"rotation": {
						"0.08": [0, 0, 0],
						"0.2": [-12.5, 0, 0],
						"0.28": [-17.5, -5, 0],
						"0.36": [27.5, 5, 0],
						"0.4": [7.5, 0, 0],
						"0.6": [0, 0, 0]
					},
					"position": {
						"0.08": [0, 0, 0],
						"0.2": [0, 0, 3],
						"0.28": [0, 0, 4],
						"0.36": [0, 0, -6],
						"0.4": [0, 0, -1.75],
						"0.6": [0, 0, 0]
					}
				},
				"rightArm": {
					"rotation": {
						"0.0": [0, 0, 0],
						"0.16": [
							"-(-((math.cos(query.modified_distance_moved * 38.17) * query.modified_move_speed / variable.gliding_speed_value) * 57.3) + (variable.is_holding_right ? (-this * 0.5 - 18.0) : 0.0)) - 87.5",
							-2.5,
							"-((math.cos(query.life_time * 103.2) * 2.865) + 2.865) + 20"
						],
						"0.28": [
							"-(-((math.cos(query.modified_distance_moved * 38.17) * query.modified_move_speed / variable.gliding_speed_value) * 57.3) + (variable.is_holding_right ? (-this * 0.5 - 18.0) : 0.0)) - 102.5",
							-2.5,
							"-((math.cos(query.life_time * 103.2) * 2.865) + 2.865) + 20"
						],
						"0.32": [
							"-(-((math.cos(query.modified_distance_moved * 38.17) * query.modified_move_speed / variable.gliding_speed_value) * 57.3) + (variable.is_holding_right ? (-this * 0.5 - 18.0) : 0.0)) - 77.5",
							-13.75,
							"-((math.cos(query.life_time * 103.2) * 2.865) + 2.865) + 5"
						],
						"0.36": [
							"-(-((math.cos(query.modified_distance_moved * 38.17) * query.modified_move_speed / variable.gliding_speed_value) * 57.3) + (variable.is_holding_right ? (-this * 0.5 - 18.0) : 0.0)) - 7.5",
							-2.5,
							"-((math.cos(query.life_time * 103.2) * 2.865) + 2.865) - 5"
						],
						"0.44": [
							"-(-((math.cos(query.modified_distance_moved * 38.17) * query.modified_move_speed / variable.gliding_speed_value) * 57.3) + (variable.is_holding_right ? (-this * 0.5 - 18.0) : 0.0)) - 12.5",
							-12.5,
							"-((math.cos(query.life_time * 103.2) * 2.865) + 2.865) - 7.5"
						],
						"0.52": [
							"-(-((math.cos(query.modified_distance_moved * 38.17) * query.modified_move_speed / variable.gliding_speed_value) * 57.3) + (variable.is_holding_right ? (-this * 0.5 - 18.0) : 0.0)) - 22.5",
							-12.5,
							"-((math.cos(query.life_time * 103.2) * 2.865) + 2.865) - 7.5"
						],
						"0.68": [0, 0, 0]
					},
					"position": {
						"0.0": [0, 0, 0],
						"0.16": [1.5, 0, 0],
						"0.28": [1.75, 0, 2],
						"0.32": [2, 0, -0.5],
						"0.36": [2, 0, -3],
						"0.44": [1.75, 0, -1],
						"0.52": [0.75, 0, -1],
						"0.68": [0, 0, 0]
					}
				},
				"leftArm": {
					"rotation": {
						"0.0": [0, 0, 0],
						"0.16": [
							"-(((math.cos(query.modified_distance_moved * 38.17) * query.modified_move_speed / variable.gliding_speed_value) * 57.3) + (variable.is_holding_left ? (-this * 0.5 - 18.0) : 0.0) + ((query.get_equipped_item_name('off_hand') == 'shield' && query.is_sneaking) ? -20 : 0)) - 90",
							"-((query.get_equipped_item_name('off_hand') == 'shield' && query.is_sneaking) ? 20 : 0) + 42.5",
							"-(-((math.cos(query.life_time * 103.2) * 2.865) + 2.865) + ((query.get_equipped_item_name('off_hand') == 'shield' && query.is_sneaking) ? 20 : 0))"
						],
						"0.28": [
							"-(((math.cos(query.modified_distance_moved * 38.17) * query.modified_move_speed / variable.gliding_speed_value) * 57.3) + (variable.is_holding_left ? (-this * 0.5 - 18.0) : 0.0) + ((query.get_equipped_item_name('off_hand') == 'shield' && query.is_sneaking) ? -20 : 0)) - 102.5",
							"-((query.get_equipped_item_name('off_hand') == 'shield' && query.is_sneaking) ? 20 : 0) + 30",
							"-(-((math.cos(query.life_time * 103.2) * 2.865) + 2.865) + ((query.get_equipped_item_name('off_hand') == 'shield' && query.is_sneaking) ? 20 : 0))"
						],
						"0.32": [
							"-(((math.cos(query.modified_distance_moved * 38.17) * query.modified_move_speed / variable.gliding_speed_value) * 57.3) + (variable.is_holding_left ? (-this * 0.5 - 18.0) : 0.0) + ((query.get_equipped_item_name('off_hand') == 'shield' && query.is_sneaking) ? -20 : 0)) - 87.5",
							"-((query.get_equipped_item_name('off_hand') == 'shield' && query.is_sneaking) ? 20 : 0) + 37.5",
							"-(-((math.cos(query.life_time * 103.2) * 2.865) + 2.865) + ((query.get_equipped_item_name('off_hand') == 'shield' && query.is_sneaking) ? 20 : 0))"
						],
						"0.36": [
							"-(((math.cos(query.modified_distance_moved * 38.17) * query.modified_move_speed / variable.gliding_speed_value) * 57.3) + (variable.is_holding_left ? (-this * 0.5 - 18.0) : 0.0) + ((query.get_equipped_item_name('off_hand') == 'shield' && query.is_sneaking) ? -20 : 0)) - 42.5",
							"-((query.get_equipped_item_name('off_hand') == 'shield' && query.is_sneaking) ? 20 : 0) + 45",
							"-(-((math.cos(query.life_time * 103.2) * 2.865) + 2.865) + ((query.get_equipped_item_name('off_hand') == 'shield' && query.is_sneaking) ? 20 : 0))"
						],
						"0.44": [
							"-(((math.cos(query.modified_distance_moved * 38.17) * query.modified_move_speed / variable.gliding_speed_value) * 57.3) + (variable.is_holding_left ? (-this * 0.5 - 18.0) : 0.0) + ((query.get_equipped_item_name('off_hand') == 'shield' && query.is_sneaking) ? -20 : 0)) - 42.5",
							"-((query.get_equipped_item_name('off_hand') == 'shield' && query.is_sneaking) ? 20 : 0) + 45",
							"-(-((math.cos(query.life_time * 103.2) * 2.865) + 2.865) + ((query.get_equipped_item_name('off_hand') == 'shield' && query.is_sneaking) ? 20 : 0))"
						],
						"0.52": [
							"-(((math.cos(query.modified_distance_moved * 38.17) * query.modified_move_speed / variable.gliding_speed_value) * 57.3) + (variable.is_holding_left ? (-this * 0.5 - 18.0) : 0.0) + ((query.get_equipped_item_name('off_hand') == 'shield' && query.is_sneaking) ? -20 : 0)) - 69.5337",
							"-((query.get_equipped_item_name('off_hand') == 'shield' && query.is_sneaking) ? 20 : 0) + 26.0379",
							"-(-((math.cos(query.life_time * 103.2) * 2.865) + 2.865) + ((query.get_equipped_item_name('off_hand') == 'shield' && query.is_sneaking) ? 20 : 0)) - 20.2907"
						],
						"0.68": [0, 0, 0]
					},
					"position": {
						"0.0": [0, 0, 0],
						"0.16": [-1.5, 0, 0],
						"0.28": [-1.75, 0, 2],
						"0.36": [-3, -2, -2],
						"0.44": [-1.75, -1, -2],
						"0.52": [-0.75, -1, -2],
						"0.68": [0, 0, 0]
					}
				},
				"rightItem": {
					"rotation": {
						"0.32": [0, 0, 0],
						"0.36": [12.5, 0, 0],
						"0.44": [0, 0, 0]
					},
					"position": {
						"0.32": [0, 0, 0],
						"0.36": [0, 0, 0],
						"0.44": [0, 0, 0]
					}
				}
			}
		}
	}
}