{
	"format_version": 1.16,
	"minecraft:recipe_shaped": {
		"description": {
			"identifier": "nether:loom_from_psilocybe_planks"
		},
		"tags": [
			"crafting_table"
		],
		"pattern": [
			"AA",
			"BB"
		],
		"key": {
			"A": {
				"item": "string"
			},
			"B": {
				"item": "nether:psilocybe_planks"
			}
		},
		"result": {
			"item": "loom",
			"count": 1
		}
	}
}