{
	"format_version": "1.12",
	"minecraft:recipe_shaped": {
		"description": {
			"identifier": "nether:soul_campfire_from_soul_sand_and_stripped_psilocybe_log"
		},
		"tags": [
			"crafting_table"
		],
		"pattern": [
			" A ",
			"ABA",
			"CCC"
		],
		"key": {
			"A": {
				"item": "minecraft:stick"
			},
			"B": {
				"item": "minecraft:soul_sand"
			},
			"C": {
				"item": "nether:stripped_psilocybe_stem"
			}
		},
		"result": {
			"item": "minecraft:soul_campfire"
		},
		"priority": 2
	}
}