{
	"format_version": 1.12,
	"minecraft:recipe_shaped": {
		"description": {
			"identifier": "nether:smithing_table_from_psilocybe_planks"
		},
		"tags": [
			"crafting_table"
		],
		"pattern": [
			"++",
			"##",
			"##"
		],
		"key": {
			"+": {
				"item": "minecraft:iron_ingot"
			},
			"#": {
				"item": "nether:psilocybe_planks"
			}
		},
		"result": [
			{
				"item": "minecraft:smithing_table"
			}
		]
	}
}