{
	"format_version": "1.17.0",
	"minecraft:recipe_shaped": {
		"description": {
			"identifier": "nether:wooden_hoe_with_psilocybe_wood"
		},
		"tags": [
			"crafting_table"
		],
		"pattern": [
			"##",
			".",
			"."
		],
		"key": {
			"#": {
				"item": "nether:psilocybe_planks"
			},
			".": {
				"item": "minecraft:stick"
			}
		},
		"result": [
			{
				"item": "minecraft:wooden_hoe"
			}
		]
	}
}