{
  "format_version": "1.8.0",
  "render_controllers": {
    "controller.render.grave": {
	"arrays": {
		"geometries":{
			"array.geos":[
				"geometry.grave1",
				"geometry.grave2",
				"geometry.grave3"
			]
		},
        "textures": {
          "Array.skins": [
            "Texture.grave1",
            "Texture.grave2",
            "Texture.grave3"
          ]
        }
      },
      "geometry": "Array.geos[query.variant]",
      "materials": [ { "*": "Material.default" } ],
      "textures": [ "Array.skins[query.variant]" ]
    }
  }
}
