{
	"format_version": "1.16.100",
	"minecraft:entity": {
		"description": {
			"identifier": "yes:staff_random_entity",
			"is_summonable": true,
			"is_spawnable": false,
			"is_experimental": false
   },
    "component_groups": {
      "yes:despawn": {
        "minecraft:instant_despawn": {}
      }
	 },
		"components": {
      "minecraft:health": {
        "value": 5000,
        "max": 5000
      },
			"minecraft:conditional_bandwidth_optimization": {},
        "minecraft:timer": {
          "looping": false,
          "time": 3.64,
          "time_down_event": {
            "event": "yes:despawn"
          }
        },
        "minecraft:environment_sensor": {
          "triggers": [
			  {
            "filters": {
                  "test": "is_family",
                  "subject": "self",
						"operator": "==",
                  "value": "staff_random_entity"
            },
            "event": "yes:random_teleport"
            }
			 ]
        },
	  "minecraft:type_family": {
	    "family": [ "inanimate", "weeweejuice", "staff_random_entity" ]
	  },
			"minecraft:custom_hit_test": {
				"hitboxes": [
					{
						"pivot": [0, 100, 0],
						"width": 0,
						"height": 0
					}
				]
			},
			"minecraft:damage_sensor": {
				"triggers": {
					"deals_damage": false
				}
			},
      "minecraft:knockback_resistance": {
        "value": 1.0
      },
			"minecraft:pushable": {
				"is_pushable": false,
				"is_pushable_by_piston": false
			},
			"minecraft:collision_box": {
				"width": 0.0001,
				"height": 0.0001
			}
		},
    "events": {
    	  "yes:despawn": {
        "add": {
          "component_groups": [
            "yes:despawn"
        		 	  ]
       	 	  }
		     },
    	  "yes:random_teleport": {
			      "randomize":[
       {
            "weight":1,
					"run_command": {
               "command": [
                "execute @a[c=1,r=15,tag=using_staff,hasitem={location=slot.weapon.mainhand,item=yes:echo_staff}] ~~~ tp @e[type=yes:staff_random_entity,c=1] ~7~~"
								]
							}
        },
        {
            "weight":1,
					"run_command": {
               "command": [
                "execute @a[c=1,r=15,tag=using_staff,hasitem={location=slot.weapon.mainhand,item=yes:echo_staff}] ~~~ tp @e[type=yes:staff_random_entity,c=1] ~-7~~"
								]
							}
        },
		  {
            "weight":1,
					"run_command": {
               "command": [
                "execute @a[c=1,r=15,tag=using_staff,hasitem={location=slot.weapon.mainhand,item=yes:echo_staff}] ~~~ tp @e[type=yes:staff_random_entity,c=1] ~~~7"
								]
							}
        },
		  {
            "weight":1,
					"run_command": {
               "command": [
                "execute @a[c=1,r=15,tag=using_staff,hasitem={location=slot.weapon.mainhand,item=yes:echo_staff}] ~~~ tp @e[type=yes:staff_random_entity,c=1] ~~~-7"
								]
							}
        },
		  {
            "weight":1,
					"run_command": {
               "command": [
                "execute @a[c=1,r=15,tag=using_staff,hasitem={location=slot.weapon.mainhand,item=yes:echo_staff}] ~~~ tp @e[type=yes:staff_random_entity,c=1] ~7~~7"
								]
							}
        },
		  {
            "weight":1,
					"run_command": {
               "command": [
                "execute @a[c=1,r=15,tag=using_staff,hasitem={location=slot.weapon.mainhand,item=yes:echo_staff}] ~~~ tp @e[type=yes:staff_random_entity,c=1] ~7~~-7"
								]
							}
        },
		  {
            "weight":1,
					"run_command": {
               "command": [
                "execute @a[c=1,r=15,tag=using_staff,hasitem={location=slot.weapon.mainhand,item=yes:echo_staff}] ~~~ tp @e[type=yes:staff_random_entity,c=1] ~-7~~7"
								]
							}
        },
		  {
            "weight":1,
					"run_command": {
               "command": [
                "execute @a[c=1,r=15,tag=using_staff,hasitem={location=slot.weapon.mainhand,item=yes:echo_staff}] ~~~ tp @e[type=yes:staff_random_entity,c=1] ~-7~~-7"
								]
							}
        },
       {
            "weight":1,
					"run_command": {
               "command": [
                "execute @a[c=1,r=15,tag=using_staff,hasitem={location=slot.weapon.mainhand,item=yes:echo_staff}] ~~~ tp @e[type=yes:staff_random_entity,c=1] ~3~~"
								]
							}
        },
        {
            "weight":1,
					"run_command": {
               "command": [
                "execute @a[c=1,r=15,tag=using_staff,hasitem={location=slot.weapon.mainhand,item=yes:echo_staff}] ~~~ tp @e[type=yes:staff_random_entity,c=1] ~-3~~"
								]
							}
        },
		  {
            "weight":1,
					"run_command": {
               "command": [
                "execute @a[c=1,r=15,tag=using_staff,hasitem={location=slot.weapon.mainhand,item=yes:echo_staff}] ~~~ tp @e[type=yes:staff_random_entity,c=1] ~~~3"
								]
							}
        },
		  {
            "weight":1,
					"run_command": {
               "command": [
                "execute @a[c=1,r=15,tag=using_staff,hasitem={location=slot.weapon.mainhand,item=yes:echo_staff}] ~~~ tp @e[type=yes:staff_random_entity,c=1] ~~~-3"
								]
							}
        },
		  {
            "weight":1,
					"run_command": {
               "command": [
                "execute @a[c=1,r=15,tag=using_staff,hasitem={location=slot.weapon.mainhand,item=yes:echo_staff}] ~~~ tp @e[type=yes:staff_random_entity,c=1] ~3~~3"
								]
							}
        },
		  {
            "weight":1,
					"run_command": {
               "command": [
                "execute @a[c=1,r=15,tag=using_staff,hasitem={location=slot.weapon.mainhand,item=yes:echo_staff}] ~~~ tp @e[type=yes:staff_random_entity,c=1] ~3~~-3"
								]
							}
        },
		  {
            "weight":1,
					"run_command": {
               "command": [
                "execute @a[c=1,r=15,tag=using_staff,hasitem={location=slot.weapon.mainhand,item=yes:echo_staff}] ~~~ tp @e[type=yes:staff_random_entity,c=1] ~-3~~3"
								]
							}
        },
		  {
            "weight":1,
					"run_command": {
               "command": [
                "execute @a[c=1,r=15,tag=using_staff,hasitem={location=slot.weapon.mainhand,item=yes:echo_staff}] ~~~ tp @e[type=yes:staff_random_entity,c=1] ~-3~~-3"
								]
							}
        }
		  
    			]
		   }
	   }
	}
}