{
	"format_version": 1.12,
	"minecraft:recipe_shapeless": {
		"description": {
			"identifier": "yes:gilded3_ad1_1"
		},
		"tags": [
			"crafting_table"
		],
		"ingredients": [
			{
				"item": "yes:gilded_netherite_mace_ad1"
			},
			{
				"item": "yes:ability_damage_book1"
			}
		],
		"result": [
			{
				"item": "yes:gilded_netherite_mace_ad2"
			}
		]
	}
}