{
	"format_version": "1.16.100",
	"minecraft:block": {
		"description": {
			"identifier": "nether:burmastone"
		},
		"components": {
			"tag:fence-connectable": {},
			"tag:fence_connectable": {},
			"minecraft:unit_cube": {},
			"minecraft:material_instances": {
				"*": {
					"texture": "burmastone",
					"render_method": "opaque"
				}
			},
			"minecraft:destroy_time": 1,
			"minecraft:explosion_resistance": 3,
			"minecraft:creative_category": {
				"category": "nature",
				"group": "itemGroup.name.stone"
			},
			"tag:fast_pickaxe_mineable": {}
		}
	}
}