{
  "format_version": "1.12",
  "minecraft:recipe_shaped": {
    "description": {
    "identifier": "yes:echo_pickaxe"
    },  
    "tags": [ "crafting_table" ],
    "pattern": [
      "YYY",
      " X ",
      " X "
    ],
    "key": {
      "Y": {
        "item": "minecraft:echo_shard"
      },
      "X": {
        "item": "minecraft:stick"
      }
    },
    "result": {
      "item": "yes:echo_pickaxe"
    }
  }
}
