{
  "format_version": "1.13.0",
  "minecraft:entity": {
    "description": {
      "identifier": "grave:grave_container",
      "is_spawnable": true,
      "is_summonable": true,
      "is_experimental": false
    },
	"component_groups":{
		"hopper":{
			"minecraft:item_hopper":{}
		},
		"despawn":{
			"minecraft:timer":{
	"time": [0.1,0.1],
	"looping": true,
	"time_down_event":{
	"event": "despawn",
	"target": "self"
	}
	}
		}
	},
	
    "components": {
	"minecraft:damage_sensor": {
		"triggers": {
			"cause": "all",
			"deals_damage": false
		}
	},
	"minecraft:persistent":{},
	"minecraft:timer":{
		"time": [5,5],
		"looping": true,
			"time_down_event":{
			"event": "syphon",
			"target": "self"
			}
	},
	"minecraft:fire_immune": true,
	"minecraft:health": {
        "value": 1000,
        "max": 1000
      },
	  "minecraft:collision_box":{
	  "height": 0.9,
	  "width": 0.9
	  },
	  "minecraft:nameable":{
	  "allow_name_tag_renaming": false,
	  "always_show": true
	  },
	  "minecraft:knockback_resistance": {
        "value": 1
      },
	  "minecraft:physics": {
		"has_collision": false,
	    "has_gravity": false
      }
    },
	"events":{
		"minecraft:entity_spawned":{
			"add":{"component_groups":["hopper"]}
		},
		"syphon":{
			"remove":{"component_groups":["hopper"]},
			"add":{"component_groups":["despawn"]},
			"run_command":{
				"command": "event entity @e[r=1] unsyphon"
			}
		},
		"despawn":{
			"run_command":{
				"command": ["execute @s ~ ~ ~ detect ~ ~ ~ air 0 kill @s","execute @s ~ ~ ~ detect ~ ~ ~ water -1 kill @s","execute @s ~ ~ ~ detect ~ ~ ~ lava -1 kill @s"]
			}
		}
	}
  }
}
