{
  "format_version": "1.13.0",
  "minecraft:entity": {
    "description": {
      "identifier": "grave:grave_large_cross",
      "is_spawnable": true,
      "is_summonable": true,
      "is_experimental": false
    },
	"component_groups":{
	
	"remove_grave":{
	"minecraft:health":{
		"value": 0,
        "max": 0
	}
	},
	
	"syphon":{
	"minecraft:timer":{
	"time": [3.0,3.0],
	"looping": false,
	"time_down_event":{
	"event": "stop_syphon",
	"target": "self"
	}
	},
	  "minecraft:collision_box":{
	  "height": 15,
	  "width": 15
	  },
	  	"minecraft:item_hopper":{
	}

	},
	
	"stop_syphon":{
	"minecraft:physics": {
		"has_collision": true,
	    "has_gravity": false
      },
	"minecraft:collision_box":{
	  "height": 1,
	  "width": 1
	  },
	"minecraft:interact":{
	"interactions":{
	"on_interact":{
		"filters" : {
			"all_of":[
			{
			"test": "has_equipment","domain":"hand","subject": "other","value": "wooden_shovel"
			}
		]
		},
		"event": "remove_grave",
		"target": "self"
	},
		"use_item": false,
		"interact_text": "Remove Grave"
	}
	}
	
	}

	},
	
    "components": {
	"minecraft:fire_immune": true,
	"minecraft:health": {
        "value": 1000,
        "max": 1000
      },
	  "minecraft:inventory":{
	  "container_type": "inventory",
	  "inventory_size": 27,
	  "private": false
	  },
	  "minecraft:nameable":{
	  "allow_name_tag_renaming": false,
	  "always_show": true
	  },
	  "minecraft:knockback_resistance": {
        "value": 1
      },
	  "minecraft:behavior.pickup_items": {
        "priority": 1,
        "max_dist": 15,
        "goal_radius": 15,
        "speed_multiplier": 0.5
      },
	  		"minecraft:physics": {
		"has_collision": false,
	    "has_gravity": false
      }
    },
	"events":{
	"minecraft:entity_spawned":{
	"add": {
          "component_groups": [
            "syphon"
          ]
        }
	},
		"stop_syphon": {
        "add": {
          "component_groups": [
            "stop_syphon"
          ]
        },
		"remove":{
			"component_groups":[
			"syphon"
			]
		}
      },
		"remove_grave":{
		"add":{
			"component_groups":[
				"remove_grave"
			]
		}
		}
	
	}
  }
}
