{
	"format_version" : "1.17.0",
	"minecraft:item" : {
		"description" : {
			"category" : "equipment",
			"identifier" : "btr:potion_splash_dispel"
		},
		"components" : {
			"minecraft:creative_category" : {
				"parent" : "itemGroup.name.splashPotion"
			},
			"minecraft:icon" : {
				"texture" : "potion_splash_dispel"
			},
			"minecraft:max_stack_size" : 16,
			"minecraft:hand_equipped" : false,
			"minecraft:foil" : true,
			"minecraft:display_name" : {},
			"minecraft:on_use" : {
				"on_use" : {
					"event" : "throw"
				}
			}
		},
		"events" : {
			"throw" : {
				"swing" : {},
				"decrement_stack" : {},
				"run_command" : {
					"command" : [ "playsound random.bow @a [r=10] ~~~ 0.5" ]
				},
				"shoot" : {
					"projectile" : "btr:splash_dispel",
					"launch_power" : 0.5,
					"angle_offset" : "query.cardinal_facing"
				}
			}
		}
	}
}
