{
	"format_version" : "1.10",
	"minecraft:item" : {
		"description" : {
			"identifier" : "btr:potion_bottle_dispel",
			"category" : "equipment"
		},
		"components" : {
			"minecraft:hand_equipped" : false,
			"minecraft:max_stack_size" : 16,
			"minecraft:foil" : true,
			"minecraft:stack_by_data" : true,
			"minecraft:food" : {
				"saturation_modifier" : "none",
				"nutrition" : 0,
				"can_always_eat" : true,
				"remove_effects" : [
					"absorption",
					"conduit_power",
					"fire_resistance",
					"haste",
					"health_boost",
					"instant_health",
					"jump_boost",
					"night_vision",
					"regeneration",
					"resistance",
					"saturation",
					"slow_falling",
					"speed",
					"strength",
					"village_hero",
					"water_breathing"
				],
				"using_converts_to" : "minecraft:glass_bottle"
			},
			"minecraft:use_duration" : 32
		}
	}
}
