{
  "format_version": "1.8.0",
  "minecraft:spawn_rules": {
    "description": {
      "identifier": "nicothekid:mossy_skeleton",
      "population_control": "monster"
    },
    "conditions": [
      {
        "minecraft:spawns_on_surface": {},
        "minecraft:spawns_on_block_filter": [
          "minecraft:grass",
          "minecraft:mud",
          "minecraft:muddy_mangrove_roots",
          "minecraft:moss_block"
        ],
        "minecraft:biome_filter": [
          {
            "all_of": [
              {
                "any_of": [
                  {
                    "test": "has_biome_tag",
                    "operator": "==",
                    "value": "mossy_forest"
                  },
                  {
                    "test": "has_biome_tag",
                    "operator": "==",
                    "value": "overgrown_jungle"
                  },
                  {
                    "test": "has_biome_tag",
                    "operator": "==",
                    "value": "swamp"
                  },
                  {
                    "test": "has_biome_tag",
                    "operator": "==",
                    "value": "swampland"
                  },
                  {
                    "test": "has_biome_tag",
                    "operator": "==",
                    "value": "mangrove_swamp"
                  },
                  {
                    "test": "has_biome_tag",
                    "operator": "==",
                    "value": "jungle"
                  }
                ]
              }
            ]
          }
        ],
        "minecraft:brightness_filter": {
          "min": 0.0,
          "max": 3.0,
          "adjust_for_weather": false
        },
        "minecraft:weight": {
          "default": 15
        },
        "minecraft:herd": {
          "min_size": 1,
          "max_size": 2
        }
      },
      {
        "minecraft:spawns_underground": {},
        "minecraft:spawns_on_block_filter": [
          "minecraft:grass",
          "minecraft:moss_block",
          "minecraft:clay"
        ],
        "minecraft:biome_filter": [
          {
            "all_of": [
              {
                "any_of": [
                  {
                    "test": "has_biome_tag",
                    "operator": "==",
                    "value": "mossy_forest"
                  },
                  {
                    "test": "has_biome_tag",
                    "operator": "==",
                    "value": "swamp"
                  },
                  {
                    "test": "has_biome_tag",
                    "operator": "==",
                    "value": "swampland"
                  },
                  {
                    "test": "has_biome_tag",
                    "operator": "==",
                    "value": "mangrove_swamp"
                  },
                  {
                    "test": "has_biome_tag",
                    "operator": "==",
                    "value": "lush_cave"
                  }
                ]
              }
            ]
          }
        ],
        "minecraft:brightness_filter": {
          "min": 0.0,
          "max": 2.0,
          "adjust_for_weather": true
        },
        "minecraft:height_filter": {
          "min": -54,
          "max": 0
        },
        "minecraft:weight": {
          "default": 35
        },
        "minecraft:herd": {
          "min_size": 1,
          "max_size": 2
        }
      }
    ]
  }
}