{
  "format_version": "1.8.0",
  "animations": {
    "animation.mace_sound": {
      "loop": false,
      "animation_length": 0.4,
      "timeline": {
		"0.1": [ 
						"/scoreboard players random @s weapon_sound 1 4",
						"/execute @s[scores={weapon_sound=1}] ~~~ playsound weapon.mace_weewee @a[r=20] ~~1~ 1 0.7 0.5",
						"/execute @s[scores={weapon_sound=2}] ~~~ playsound weapon.mace_weewee @a[r=20] ~~1~ 1 0.8 0.5",
						"/execute @s[scores={weapon_sound=3}] ~~~ playsound weapon.mace_weewee @a[r=20] ~~1~ 1 0.9 0.5",
						"/execute @s[scores={weapon_sound=4}] ~~~ playsound weapon.mace_weewee @a[r=20] ~~1~ 1 1.1 0.5"
			]
      }
    }
  }
}