{
	"format_version": "1.8.0",
	"minecraft:client_entity": {
		"description": {
			"min_engine_version": "1.8.0",
			"materials": {
				"default": "witch"
			},
			"textures": {
				"default": "textures/entity/dark_witch"
			},
			"geometry": {
				"default": "geometry.villager.witch.v1.8"
			},
			"scripts": {
				"scale": 0.9375
			},
			"animations": {
				"villager_general": "animation.villager.general",
				"look_at_target": "animation.common.look_at_target",
				"move": "animation.villager.move",
				"general": "animation.witch.general",
				"casting": "animation.evoker.casting"
			},
			"animation_controllers": [
				{
					"general": "controller.animation.witch.general"
				},
				{
					"move": "controller.animation.villager.move"
				}
			],
			"render_controllers": [
				"controller.render.witch"
			],
			"spawn_egg": {
				"base_color": "#2C0438",
				"overlay_color": "#0C1824"
			},
			"identifier": "v:dark_witch",
			"particle_effects": {
				"spell": "minecraft:evoker_spell"
			}
		}
	}
}