{
	"format_version": "1.17.0",
	"minecraft:item": {
		"description": {
			"identifier": "v:cooked_human_meat",
			"category": "equipment"
		},
		"components": {
			"minecraft:use_duration": 1.6,
			"minecraft:food": {
				"nutrition": 8,
				"saturation_modifier": "good"
			},
			"minecraft:creative_category": {
				"parent": "itemGroup.name.cookedFood"
			},
			"minecraft:display_name": {
				"value": "Cooked Human Meat"
			},
			"minecraft:icon": {
				"texture": "cooked_human_meat"
			},
			"minecraft:use_animation": "eat"
		},
		"events": {}
	}
}