{
  "format_version": "1.16.0",
  "minecraft:growing_plant_feature": {
    "description": {
      "identifier": "nicothekid:block_x_moss_block_x_ceiling_x_growing"
    },
    "growth_direction": "DOWN",
    "body_blocks": [
      [
        "minecraft:moss_block", 1
      ]
    ],
    "head_blocks": [
      [
        "minecraft:cave_vines_head_with_berries", 3
      ],
      [
        "minecraft:cave_vines", 25
      ],
      [
        "minecraft:moss_block", 100
      ]
    ],
    "height_distribution": [
      [ { "range_min": 1, "range_max": 3 }, 2 ],
      [ { "range_min": 2, "range_max": 6 }, 1 ]
    ]
  }
}
