{
  "format_version": "1.13.0",
  "minecraft:single_block_feature": {
    "description": {
      "identifier": "nicothekid:block_x_mosshroom_block_x_singleblock"
    },
    "places_block": "nicothekid:mosshroom_block",
    "enforce_survivability_rules": true,
    "enforce_placement_rules": false,
    "may_replace": [
      "nicothekid:moss_sprouts_small_block",
      "nicothekid:moss_sprouts_tall_block",
      "minecraft:air",
      "minecraft:water",
      "minecraft:flowing_water",
      "minecraft:azalea",
      "minecraft:flowering_azalea",
      "minecraft:moss_carpet",
      "minecraft:double_plant",
      "minecraft:tallgrass",
      "minecraft:brown_mushroom",
      "minecraft:red_mushroom",
      "minecraft:glow_lichen",
      "minecraft:sculk_vein",
      "minecraft:vine",
      "minecraft:web"
    ],
    "may_attach_to": {
			"bottom": [
				"minecraft:dirt",
				"minecraft:dirt_with_roots",
				"minecraft:grass",
				"minecraft:moss_block",
				"minecraft:mycelium"
			]
		}
  }
}