{
  "format_version": "1.16.0",
  "minecraft:weighted_random_feature": {
    "description": {
      "identifier": "nicothekid:cave_x_mosshroom_floor_x_01_x_weight"
    },
    "features": [
      [ "nicothekid:plant_x_moss_sprouts_tall_x_02_x_scatter", 35 ],
      [ "nicothekid:plant_x_moss_sprouts_small_x_02_x_scatter", 50 ] ,
      [ "nicothekid:plant_x_tallgrass_x_cave_x_02_x_scatter", 25 ],
      [ "nicothekid:plant_x_fern_x_cave_x_02_x_scatter", 25 ],
      [ "nicothekid:plant_x_mosshroom_x_singleblock", 10 ],
      [ "nicothekid:block_x_mosshroom_block_x_singleblock", 10 ],
      [ "nicothekid:block_x_mosshroom_light_x_singleblock", 5 ],
      [ "nicothekid:plant_x_spore_blossom_x_mosshroom_x_02_x_snap", 5 ],
      [ "nicothekid:bush_x_mosshroom_x_tree", 5 ],
      [ "nicothekid:tree_x_huge_mosshroom_x_tiny_tree", 5 ]
    ]
  }
}