{
  "format_version": "1.13.0",
  "minecraft:single_block_feature": {
    "description": {
      "identifier": "nicothekid:plant_x_mosshroom_x_singleblock"
    },
    "places_block": "nicothekid:mosshroom",
    "enforce_survivability_rules": false,
    "enforce_placement_rules": false,
    "may_replace": [
      "minecraft:air"
    ],
    "may_attach_to": {
			"bottom": [
			  "nicothekid:mosshroom_block",
			  "nicothekid:mosshroom_light",
			  "nicothekid:mosshroom_planks",
			  "nicothekid:mosshroom_stem",
			  "nicothekid:mosshroom_stem_stripped",
			  "nicothekid:mycelium_deepslate",
			  "minecraft:dirt",
			  "minecraft:dirt_with_roots",
			  "minecraft:grass",
			  "minecraft:moss_block",
			  "minecraft:mossy_cobblestone",
			  "minecraft:mycelium",
			  "minecraft:podzol"
			]
		}
  }
}