{
  "format_version": "1.16.0",
  "minecraft:weighted_random_feature": {
    "description": {
      "identifier": "nicothekid:plant_x_mycelium_sprouts_x_01_x_weight"
    },
    "features": [
      [ "nicothekid:plant_x_mycelium_sprouts_small_x_singleblock", 50 ],
      [ "nicothekid:plant_x_mycelium_sprouts_tall_x_singleblock", 50 ]
    ]
  }
}