{
  "format_version": "1.16.0",
  "minecraft:weighted_random_feature": {
    "description": {
      "identifier": "nicothekid:structure_weight_x_huge_mushroom"
    },
    "features": [
      [ "nicothekid:structure_x_huge_mushroom_brown_01", 10 ],
      [ "nicothekid:structure_x_huge_mushroom_brown_02", 10 ],
      [ "nicothekid:structure_x_huge_mushroom_brown_03", 10 ],
      [ "nicothekid:structure_x_huge_mushroom_brown_04", 10 ],
      [ "nicothekid:structure_x_huge_mushroom_brown_05", 20 ],
      [ "nicothekid:structure_x_huge_mushroom_brown_06", 50 ],
      [ "nicothekid:structure_x_huge_mushroom_brown_07", 90 ],
      [ "nicothekid:structure_x_huge_mushroom_brown_08", 100 ],
      [ "nicothekid:structure_x_huge_mushroom_red_01", 10 ],
      [ "nicothekid:structure_x_huge_mushroom_red_02", 10 ],
      [ "nicothekid:structure_x_huge_mushroom_red_03", 10 ],
      [ "nicothekid:structure_x_huge_mushroom_red_04", 10 ],
      [ "nicothekid:structure_x_huge_mushroom_red_05", 10 ],
      [ "nicothekid:structure_x_huge_mushroom_red_06", 10 ],
      [ "nicothekid:structure_x_huge_mushroom_red_07", 20 ],
      [ "nicothekid:structure_x_huge_mushroom_red_08", 50 ],
      [ "nicothekid:structure_x_huge_mushroom_red_09", 80 ],
      [ "nicothekid:structure_x_huge_mushroom_red_10", 100 ]
    ]
  }
}