{
  "format_version": "1.13.0",
  "minecraft:structure_template_feature": {
    "description": {
      "identifier": "nicothekid:structure_x_huge_mushroom_red_06"
    },
    "structure_name": "mystructure:huge_mushroom_red_06",
    "adjustment_radius": 8,
    "facing_direction": "south",
    "constraints": {
      "grounded": {},
      "block_intersection": {
        "block_allowlist": [
          "nicothekid:mycelium_sprouts_small_block",
          "nicothekid:mycelium_sprouts_tall_block",
          "minecraft:air",
          "minecraft:brown_mushroom",
          "minecraft:red_mushroom",
          "minecraft:glow_lichen",
          "minecraft:sculk_vein",
          "minecraft:vine",
          "minecraft:web"
        ]
      }
    }
  }
}