{
  "format_version": "1.16.0",
  "minecraft:snap_to_surface_feature": {
    "description": {
      "identifier": "nicothekid:structure_snap_x_huge_mushroom_x_snap"
    },
    "feature_to_snap": "nicothekid:structure_weight_x_huge_mushroom",
    "vertical_search_range": 16,
    "surface": "floor"
  }
}