{
  "format_version": "1.13.0",
  "minecraft:tree_feature": {
    "description": {
      "identifier": "nicothekid:tree_x_huge_mosshroom_x_tiny_tree"
    },
    "acacia_trunk": {
      "trunk_width": 1,
      "trunk_height": {
        "base": 5,
        "intervals": [
          2,
          1
        ]
      },
      "trunk_block": "nicothekid:mosshroom_stem",
      "trunk_lean": {
        "allow_diagonal_growth": true,
        "lean_height": {
          "range_min": 2,
          "range_max": 4
        },
        "lean_steps": {
          "range_min": 0,
          "range_max": 3
        }
      }
    },
    "pine_canopy": {
      "base_radius": 1,
      "canopy_height": {
        "range_min": 1,
        "range_max": 3
      },
      "leaf_block": "nicothekid:mosshroom_block"
    },
    "base_block": [
      "minecraft:moss_block"
    ],
    "may_grow_on": [
      "nicothekid:mycelium_deepslate",
      "minecraft:dirt",
      "minecraft:dirt_with_roots",
      "minecraft:grass",
      "minecraft:moss_block",
      "minecraft:mycelium",
      "minecraft:podzol"
    ],
    "may_replace": [
      "nicothekid:moss_sprouts_small_block",
      "nicothekid:moss_sprouts_tall_block",
      "nicothekid:mosshroom",
      "nicothekid:mycelium_sprouts_small_block",
      "nicothekid:mycelium_sprouts_tall_block",
      "minecraft:air",
      "minecraft:water",
      "minecraft:flowing_water",
      "minecraft:leaves",
      "minecraft:leaves2",
      "minecraft:mangrove_leaves",
      "minecraft:azalea_leaves",
      "minecraft:azalea_leaves_flowered",
      "minecraft:azalea",
      "minecraft:flowering_azalea",
      "minecraft:moss_carpet",
      "minecraft:small_dripleaf_block",
      "minecraft:big_dripleaf",
      "minecraft:double_plant",
      "minecraft:tallgrass",
      "minecraft:brown_mushroom",
      "minecraft:red_mushroom",
      "minecraft:glow_lichen",
      "minecraft:sculk_vein",
      "minecraft:vine",
      "minecraft:web"
    ],
    "may_grow_through": [
      "minecraft:dirt",
      "minecraft:dirt_with_roots",
      "minecraft:grass",
      "minecraft:moss_block",
      "minecraft:podzol"
    ]
  }
}