{
	"format_version": "1.16.100",
	"minecraft:block": {
		"description": {
			"identifier": "nether:chaga_wart_block"
		},
		"components": {
			"tag:wood": {},
			"tag:planks": {},
			"tag:fence-connectable": {},
			"tag:fence_connectable": {},
			"minecraft:unit_cube": {},
			"minecraft:material_instances": {
				"*": {
					"texture": "chaga_wart_block",
					"render_method": "opaque"
				}
			},
			"minecraft:creative_category": {
				"category": "nature",
				"group": "nature"
			},
			"minecraft:destroy_time": 0.2,
			"minecraft:explosion_resistance": 300,
			"minecraft:loot": "loot_tables/vstem/chaga_wart_loot_table_loot.json"
		}
	}
}