{
	"format_version": "1.16.100",
	"minecraft:block": {
		"description": {
			"identifier": "nether:chaga_fence",
			"properties": {
				"bridge:north_neighbor": [
					false,
					true
				],
				"bridge:south_neighbor": [
					false,
					true
				],
				"bridge:east_neighbor": [
					false,
					true
				],
				"bridge:west_neighbor": [
					false,
					true
				],
				"bridge:in_world": [
					false,
					true
				]
			}
		},
		"components": {
			"tag:fence-connectable": {},
			"tag:wood": {},
			"minecraft:geometry": "geometry.custom_fence",
			"minecraft:block_light_absorption": 0,
			"minecraft:creative_category": {
				"category": "construction",
				"group": "itemGroup.name.fence"
			},
			"minecraft:material_instances": {
				"*": {
					"texture": "chaga_planks",
					"render_method": "alpha_test"
				}
			},
			"minecraft:pick_collision": {
				"origin": [
					-2,
					0,
					-2
				],
				"size": [
					4,
					16,
					4
				]
			},
			"minecraft:entity_collision": {
				"origin": [
					-2,
					0,
					-2
				],
				"size": [
					4,
					16,
					4
				]
			},
			"minecraft:part_visibility": {
				"rules": {
					"pole": "query.block_property('bridge:in_world')",
					"inventory": "!query.block_property('bridge:in_world')",
					"north": "query.block_property('bridge:north_neighbor')",
					"south": "query.block_property('bridge:south_neighbor')",
					"east": "query.block_property('bridge:east_neighbor')",
					"west": "query.block_property('bridge:west_neighbor')"
				}
			},
			"minecraft:ticking": {
				"looping": true,
				"range": [
					0,
					0
				],
				"on_tick": {
					"event": "e:update.neighbors"
				}
			},
			"minecraft:on_player_placing": {
				"event": "bridge:create_fence"
			},
			"minecraft:destroy_time": 1,
			"minecraft:explosion_resistance": 300,
			"tag:fast_axe_mineable": {}
		},
		"permutations": [
			{
				"condition": "query.block_property('bridge:north_neighbor')",
				"components": {
					"minecraft:pick_collision": {
						"origin": [
							-2,
							0,
							-8
						],
						"size": [
							4,
							16,
							10
						]
					},
					"minecraft:entity_collision": {
						"origin": [
							-2,
							0,
							-8
						],
						"size": [
							4,
							16,
							10
						]
					}
				}
			},
			{
				"condition": "query.block_property('bridge:south_neighbor')",
				"components": {
					"minecraft:pick_collision": {
						"origin": [
							-2,
							0,
							-2
						],
						"size": [
							4,
							16,
							10
						]
					},
					"minecraft:entity_collision": {
						"origin": [
							-2,
							0,
							-2
						],
						"size": [
							4,
							16,
							10
						]
					}
				}
			},
			{
				"condition": "query.block_property('bridge:east_neighbor')",
				"components": {
					"minecraft:pick_collision": {
						"origin": [
							-8,
							0,
							-2
						],
						"size": [
							10,
							16,
							4
						]
					},
					"minecraft:entity_collision": {
						"origin": [
							-8,
							0,
							-2
						],
						"size": [
							10,
							16,
							4
						]
					}
				}
			},
			{
				"condition": "query.block_property('bridge:west_neighbor')",
				"components": {
					"minecraft:pick_collision": {
						"origin": [
							-2,
							0,
							-2
						],
						"size": [
							10,
							16,
							4
						]
					},
					"minecraft:entity_collision": {
						"origin": [
							-2,
							0,
							-2
						],
						"size": [
							10,
							16,
							4
						]
					}
				}
			},
			{
				"condition": "query.block_property('bridge:north_neighbor') && query.block_property('bridge:south_neighbor')",
				"components": {
					"minecraft:pick_collision": {
						"origin": [
							-2,
							0,
							-8
						],
						"size": [
							4,
							16,
							16
						]
					},
					"minecraft:entity_collision": {
						"origin": [
							-2,
							0,
							-8
						],
						"size": [
							4,
							16,
							16
						]
					}
				}
			},
			{
				"condition": "query.block_property('bridge:east_neighbor') && query.block_property('bridge:west_neighbor')",
				"components": {
					"minecraft:pick_collision": {
						"origin": [
							-8,
							0,
							-2
						],
						"size": [
							16,
							16,
							4
						]
					},
					"minecraft:entity_collision": {
						"origin": [
							-8,
							0,
							-2
						],
						"size": [
							16,
							16,
							4
						]
					}
				}
			},
			{
				"condition": "query.block_property('bridge:north_neighbor') && query.block_property('bridge:east_neighbor')",
				"components": {
					"minecraft:pick_collision": {
						"origin": [
							-8,
							0,
							-8
						],
						"size": [
							10,
							16,
							10
						]
					},
					"minecraft:entity_collision": {
						"origin": [
							-8,
							0,
							-8
						],
						"size": [
							10,
							16,
							10
						]
					}
				}
			},
			{
				"condition": "query.block_property('bridge:north_neighbor') && query.block_property('bridge:west_neighbor')",
				"components": {
					"minecraft:pick_collision": {
						"origin": [
							-2,
							0,
							-8
						],
						"size": [
							10,
							16,
							10
						]
					},
					"minecraft:entity_collision": {
						"origin": [
							-2,
							0,
							-8
						],
						"size": [
							10,
							16,
							10
						]
					}
				}
			},
			{
				"condition": "query.block_property('bridge:south_neighbor') && query.block_property('bridge:east_neighbor')",
				"components": {
					"minecraft:pick_collision": {
						"origin": [
							-8,
							0,
							-2
						],
						"size": [
							10,
							16,
							10
						]
					},
					"minecraft:entity_collision": {
						"origin": [
							-8,
							0,
							-2
						],
						"size": [
							10,
							16,
							10
						]
					}
				}
			},
			{
				"condition": "query.block_property('bridge:south_neighbor') && query.block_property('bridge:west_neighbor')",
				"components": {
					"minecraft:pick_collision": {
						"origin": [
							-2,
							0,
							-2
						],
						"size": [
							10,
							16,
							10
						]
					},
					"minecraft:entity_collision": {
						"origin": [
							-2,
							0,
							-2
						],
						"size": [
							10,
							16,
							10
						]
					}
				}
			},
			{
				"condition": "query.block_property('bridge:north_neighbor') && query.block_property('bridge:south_neighbor') && query.block_property('bridge:east_neighbor')",
				"components": {
					"minecraft:pick_collision": {
						"origin": [
							-8,
							0,
							-8
						],
						"size": [
							10,
							16,
							16
						]
					},
					"minecraft:entity_collision": {
						"origin": [
							-8,
							0,
							-8
						],
						"size": [
							10,
							16,
							16
						]
					}
				}
			},
			{
				"condition": "query.block_property('bridge:north_neighbor') && query.block_property('bridge:south_neighbor') && query.block_property('bridge:west_neighbor')",
				"components": {
					"minecraft:pick_collision": {
						"origin": [
							-2,
							0,
							-8
						],
						"size": [
							10,
							16,
							16
						]
					},
					"minecraft:entity_collision": {
						"origin": [
							-2,
							0,
							-8
						],
						"size": [
							10,
							16,
							16
						]
					}
				}
			},
			{
				"condition": "query.block_property('bridge:east_neighbor') && query.block_property('bridge:west_neighbor') && query.block_property('bridge:north_neighbor')",
				"components": {
					"minecraft:pick_collision": {
						"origin": [
							-8,
							0,
							-8
						],
						"size": [
							16,
							16,
							10
						]
					},
					"minecraft:entity_collision": {
						"origin": [
							-8,
							0,
							-8
						],
						"size": [
							16,
							16,
							10
						]
					}
				}
			},
			{
				"condition": "query.block_property('bridge:east_neighbor') && query.block_property('bridge:west_neighbor') && query.block_property('bridge:south_neighbor')",
				"components": {
					"minecraft:pick_collision": {
						"origin": [
							-8,
							0,
							-2
						],
						"size": [
							16,
							16,
							10
						]
					},
					"minecraft:entity_collision": {
						"origin": [
							-8,
							0,
							-2
						],
						"size": [
							16,
							16,
							10
						]
					}
				}
			},
			{
				"condition": "query.block_property('bridge:north_neighbor') && query.block_property('bridge:south_neighbor') && query.block_property('bridge:east_neighbor') && query.block_property('bridge:west_neighbor')",
				"components": {
					"minecraft:pick_collision": {
						"origin": [
							-8,
							0,
							-8
						],
						"size": [
							16,
							16,
							16
						]
					},
					"minecraft:entity_collision": {
						"origin": [
							-8,
							0,
							-8
						],
						"size": [
							16,
							16,
							16
						]
					}
				}
			}
		],
		"events": {
			"e:update.neighbors": {
				"set_block_property": {
					"bridge:north_neighbor": "query.block_neighbor_has_any_tag(0,0,-1,'fence-connectable','fence-connectable-south')?true:false",
					"bridge:south_neighbor": "query.block_neighbor_has_any_tag(0,0,1,'fence-connectable','fence-connectable-north')?true:false",
					"bridge:east_neighbor": "query.block_neighbor_has_any_tag(1,0,0,'fence-connectable','fence-connectable-west')?true:false",
					"bridge:west_neighbor": "query.block_neighbor_has_any_tag(-1,0,0,'fence-connectable','fence-connectable-east')?true:false"
				}
			},
			"bridge:create_fence": {
				"set_block_property": {
					"bridge:in_world": true
				}
			}
		}
	}
}