{
	"format_version": "1.16.100",
	"minecraft:block": {
		"description": {
			"identifier": "nether:stripped_chaga_stem",
			"properties": {
				"bridge:block_rotation": [
					0,
					1,
					2
				]
			}
		},
		"components": {
			"tag:wood": {},
			"tag:stem": {},
			"tag:stripped_stem": {},
			"tag:fence-connectable": {},
			"minecraft:unit_cube": {},
			"minecraft:material_instances": {
				"*": {
					"texture": "stripped_side_chaga_stem",
					"render_method": "opaque"
				},
				"up": {
					"texture": "stripped_chaga_stem_top",
					"render_method": "opaque"
				},
				"down": {
					"texture": "stripped_chaga_stem_top",
					"render_method": "opaque"
				}
			},
			"minecraft:creative_category": {
				"category": "nature",
				"group": "itemGroup.name.stem"
			},
			"minecraft:destroy_time": 1,
			"minecraft:explosion_resistance": 300,
			"minecraft:on_player_placing": {
				"event": "bridge:update_rotation"
			},
			"tag:fast_axe_mineable": {}
		},
		"events": {
			"bridge:update_rotation": {
				"set_block_property": {
					"bridge:block_rotation": "math.floor(query.block_face/2)"
				}
			}
		},
		"permutations": [
			{
				"condition": "query.block_property('bridge:block_rotation') == 0",
				"components": {
					"minecraft:rotation": [
						0,
						0,
						0
					]
				}
			},
			{
				"condition": "query.block_property('bridge:block_rotation') == 1",
				"components": {
					"minecraft:rotation": [
						90,
						0,
						0
					]
				}
			},
			{
				"condition": "query.block_property('bridge:block_rotation') == 2",
				"components": {
					"minecraft:rotation": [
						0,
						0,
						90
					]
				}
			}
		]
	}
}