{
  "format_version": "1.12",
  "minecraft:recipe_furnace": {
    "description": {
    "identifier": "nicothekid:blast_x_brass_boots"
    },
    "tags": [
      "blast_furnace"
    ],
    "input": {
      "item": "nicothekid:brass_boots"
    },
    "output": {
      "item": "nicothekid:brass_nugget",
      "count": 1
    }
  }
}
