{
  "format_version": "1.12",
  "minecraft:recipe_furnace": {
    "description": {
    "identifier": "nicothekid:blast_x_copper_zinc_ingot"
    },
    "tags": [
      "blast_furnace"
    ],
    "input": {
      "item": "nicothekid:copper_zinc_ingot"
    },
    "output": {
      "item": "nicothekid:brass_ingot",
      "count": 2
    }
  }
}
