{
  "format_version": "1.12",
  "minecraft:recipe_furnace": {
    "description": {
    "identifier": "nicothekid:blast_x_tin_chestplate"
    },
    "tags": [
      "blast_furnace"
    ],
    "input": {
      "item": "nicothekid:tin_chestplate"
    },
    "output": {
      "item": "nicothekid:tin_nugget",
      "count": 1
    }
  }
}
