{
  "format_version": "1.12",
  "minecraft:recipe_furnace": {
    "description": {
    "identifier": "nicothekid:blast_x_deepslate_prismarine_ore"
    },
    "tags": [
      "blast_furnace"
    ],
    "input": {
      "item": "nicothekid:deepslate_prismarine_ore"
    },
    "output": {
      "item": "minecraft:prismarine_shard",
      "count": 2
    }
  }
}
