{
  "format_version": "1.12",
  "minecraft:recipe_furnace": {
    "description": {
    "identifier": "nicothekid:blast_x_bronze_hoe"
    },
    "tags": [
      "blast_furnace"
    ],
    "input": {
      "item": "nicothekid:bronze_hoe"
    },
    "output": {
      "item": "nicothekid:bronze_nugget",
      "count": 1
    }
  }
}
