{
  "format_version": "1.12",
  "minecraft:recipe_shaped": {
    "description": {
      "identifier": "nicothekid:craft_x_tin_pickaxe"
    },
    "tags": [
      "crafting_table"
    ],
    "pattern": [
      "TTT",
      " S ",
      " S "
    ],
    "key": {
      "T": {
        "item": "nicothekid:tin_ingot"
      },
      "S": {
        "item": "minecraft:stick"
      }
    },
    "result": {
      "item": "nicothekid:tin_pickaxe",
      "count": 1
    }
  }
}
