{
  "format_version": "1.12",
  "minecraft:recipe_shaped": {
    "description": {
    "identifier": "nicothekid:craft_x_mosshroom_planks_x_mosshroom_stem_stripped"
    },
    "tags": [ "crafting_table" ],
    "pattern": [
      "L"
    ],
    "key": {
      "L": {
        "item": "nicothekid:mosshroom_stem_stripped"
      }
    },
    "result": {
      "item": "nicothekid:mosshroom_planks",
      "count": 4
    }
  }
}
