{
  "format_version": "1.12",
  "minecraft:recipe_shaped": {
    "description": {
    "identifier": "nicothekid:craft_x_campfire_coal_x_mosshroom_stem"
    },
    "tags": [ "crafting_table" ],
    "pattern": [
      " S ",
      "SCS",
      "LLL"
    ],
    "key": {
      "S": {
        "item": "minecraft:stick"
      },
      "C": {
        "item": "minecraft:coal"
      },
      "L": {
        "item": "nicothekid:mosshroom_stem"
      }
    },
    "result": {
      "item": "minecraft:campfire"
    },
    "priority": 2
  }
}
