{
  "format_version": "1.16",
  "minecraft:recipe_shaped": {
    "description": {
      "identifier": "nicothekid:craft_x_bowl_x_mosshroom_planks"
    },
    "tags": [
      "crafting_table"
    ],
    "pattern": [
      "P P",
      " P "
    ],
    "key": {
      "P": {
        "item": "nicothekid:mosshroom_planks"
      }
    },
    "result": {
      "item": "minecraft:bowl",
      "count": 4
    },
    "priority": 2
  }
}