{
  "format_version": "1.12",
  "minecraft:recipe_shapeless": {
    "description": {
      "identifier": "nicothekid:craft_x_raw_tin_x_raw_tin_block"
    },
    "priority": 2,
    "tags": [
      "crafting_table"
    ],
    "ingredients": [
      {
        "item": "nicothekid:raw_tin_block"
      }
    ],
    "result": {
      "item": "nicothekid:raw_tin",
      "count": 9
    }
  }
}
