{
  "format_version": "1.12",
  "minecraft:recipe_shaped": {
    "description": {
      "identifier": "nicothekid:craft_x_bronze_hoe"
    },
    "tags": [
      "crafting_table"
    ],
    "pattern": [
      "ZZ ",
      " S ",
      " S "
    ],
    "key": {
      "Z": {
        "item": "nicothekid:bronze_ingot"
      },
      "S": {
        "item": "minecraft:stick"
      }
    },
    "result": {
      "item": "nicothekid:bronze_hoe",
      "count": 1
    }
  }
}
