{
  "format_version": "1.12",
  "minecraft:recipe_shaped": {
    "description": {
      "identifier": "nicothekid:craft_x_copper_ingot_x_copper_zinc_ingot"
    },
    "tags": [
      "crafting_table"
    ],
    "pattern": [
      "I"
    ],
    "key": {
      "I": {
        "item": "nicothekid:copper_zinc_ingot"
      }
    },
    "result": [
      {
        "item": "nicothekid:zinc_ingot",
        "count": 1
      },
      {
        "item": "minecraft:copper_ingot",
        "count": 1
      }
    ]
  }
}
