{
  "format_version": "1.16",
  "minecraft:recipe_shaped": {
    "description": {
      "identifier": "nicothekid:craft_x_noteblock_x_mosshroom_planks"
    },
    "tags": [
      "crafting_table"
    ],
    "pattern": [
      "PPP",
      "PRP",
      "PPP"
    ],
    "key": {
      "R": {
        "item": "minecraft:redstone"
      },
      "P": {
        "item": "nicothekid:mosshroom_planks"
      }
    },
    "result": {
      "item": "minecraft:noteblock",
      "count": 1
    },
    "priority": 2
  }
}