{
  "format_version": "1.12",
  "minecraft:recipe_shaped": {
    "description": {
      "identifier": "nicothekid:craft_x_mosshroom_stew"
    },
    "tags": [
      "crafting_table"
    ],
    "pattern": [
      "MMM",
      " B "
    ],
    "key": {
      "M": {
        "item": "nicothekid:mosshroom_fungus"
      },
      "B": {
        "item": "minecraft:bowl"
      }
    },
    "result": {
      "item": "nicothekid:mosshroom_stew",
      "count": 1
    }
  }
}
