{
  "format_version": "1.12",
  "minecraft:recipe_shapeless": {
    "description": {
      "identifier": "nicothekid:craft_x_brass_nugget_x_brass_ingot"
    },
    "priority": 2,
    "tags": [
      "crafting_table"
    ],
    "ingredients": [
      {
        "item": "nicothekid:brass_ingot"
      }
    ],
    "result": {
      "item": "nicothekid:brass_nugget",
      "count": 9
    }
  }
}
