{
  "format_version": "1.12",
  "minecraft:recipe_shaped": {
    "description": {
      "identifier": "nicothekid:craft_x_brass_block"
    },
    "priority": 2,
    "tags": [
      "crafting_table"
    ],
    "pattern": [
      "ZZZ",
      "ZZZ",
      "ZZZ"
    ],
    "key": {
      "Z": {
        "item": "nicothekid:brass_ingot"
      }
    },
    "result": {
      "item": "nicothekid:brass_block",
      "count": 1
    }
  }
}
