{
  "format_version": "1.12",
  "minecraft:recipe_shaped": {
    "description": {
      "identifier": "nicothekid:craft_x_bronze_helmet"
    },
    "tags": [
      "crafting_table"
    ],
    "pattern": [
      "ZZZ",
      "Z Z"
    ],
    "key": {
      "Z": {
        "item": "nicothekid:bronze_ingot"
      }
    },
    "result": {
      "item": "nicothekid:bronze_helmet",
      "count": 1
    }
  }
}
