{
  "format_version": "1.12",
  "minecraft:recipe_furnace": {
    "description": {
    "identifier": "nicothekid:furnace_x_zinc_leggings"
    },
    "tags": [
      "furnace"
    ],
    "input": {
      "item": "nicothekid:zinc_leggings"
    },
    "output": {
      "item": "nicothekid:zinc_nugget",
      "count": 1
    }
  }
}
