{
  "format_version": "1.12",
  "minecraft:recipe_furnace": {
    "description": {
    "identifier": "nicothekid:furnace_x_copper_tin_ingot"
    },
    "tags": [
      "furnace"
    ],
    "input": {
      "item": "nicothekid:copper_tin_ingot"
    },
    "output": {
      "item": "nicothekid:bronze_ingot",
      "count": 2
    }
  }
}
