{
  "format_version": "1.12",
  "minecraft:recipe_furnace": {
    "description": {
    "identifier": "nicothekid:furnace_x_mosshroom_hyphae_stripped"
    },
    "tags": [
      "furnace"
    ],
    "input": {
      "item": "nicothekid:mosshroom_hyphae_stripped"
    },
    "output": {
      "item": "minecraft:charcoal",
      "count": 1
    }
  }
}
