{
	"format_version": "1.8.0",
	"render_controllers": {
	  "controller.render.fishing_rod_back": {
		"geometry": "geometry.fishing_rod_back",
		"materials": [ 
		  { 
			"*": "Material.default" 
		  } 
		],
		"textures": [ 
            "texture.fishing_rod" 
		]
	  }
	}
  }