{
	"format_version": "1.8.0",
	"render_controllers": {
	  "controller.render.tool_pickaxe_netherite_back": {
		"geometry": "geometry.tool_base_pickaxe_back",
		"materials": [ 
		  { 
			"*": "Material.default" 
		  } 
		],
		"textures": [ 
            "texture.tool_pickaxe_netherite" 
		]
	  }
	}
  }