{
	"format_version": "1.8.0",
	"render_controllers": {
	  "controller.render.tool_hoe_diamond": {
		"geometry": "geometry.tool_base_hoe",
		"materials": [ 
		  { 
			"*": "Material.default" 
		  } 
		],
		"textures": [ 
            "texture.tool_hoe_diamond" 
		]
	  }
	}
  }