{
	"format_version": "1.8.0",
	"render_controllers": {
	  "controller.render.tool_shovel_wood": {
		"geometry": "geometry.tool_base_shovel",
		"materials": [ 
		  { 
			"*": "Material.default" 
		  } 
		],
		"textures": [ 
            "texture.tool_shovel_wood" 
		]
	  }
	}
  }