{
	"format_version": "1.10.0",
	"render_controllers": {
		"controller.render.ore_item_deleter": {
			"geometry": "geometry.default",
			"textures": [
				"texture.default"
			],
			"materials": [
				{
					"*": "material.default"
				}
			]
		}
	}
}