{
	"file_path": "C:\\Users\\plant\\AppData\\Local\\Packages\\Microsoft.MinecraftUWP_8wekyb3d8bbwe\\LocalState\\games\\com.mojang\\development_behavior_packs\\Village and Pillage+\\loot_tables\\kyanite_ore_loot.json",
	"file_type": "loot_table",
	"format_version": 1,
	"file_uuid": "432168b2_1d1d_4f6d_9c0f_ecf45acd5fe9",
	"file_version": 2,
	"cache_content": {
		"children": [
			{
				"open": {
					"pools": [
						{
							"rolls": 1,
							"entries": [
								{
									"weight": 1,
									"type": "item",
									"name": "v:kyanite"
								}
							]
						},
						{
							"rolls": {
								"min": 1,
								"max": 4
							},
							"conditions": [
								{
									"condition": "match_tool",
									"count": 1,
									"enchantments": [
										{
											"enchantment": "fortune",
											"level": {
												"min": 1,
												"max": 3
											}
										}
									]
								}
							],
							"entries": [
								{
									"weight": 1,
									"type": "item",
									"name": "v:kyanite"
								}
							]
						},
						{
							"rolls": {
								"min": 1,
								"max": 1
							},
							"conditions": [
								{
									"condition": "match_tool",
									"count": 1,
									"enchantments": [
										{
											"enchantment": "silk_touch",
											"level": {
												"min": 1,
												"max": 1
											}
										}
									]
								}
							],
							"entries": [
								{
									"weight": 1,
									"type": "item",
									"name": "v:test_ore_deleter"
								}
							]
						}
					]
				},
				"key": "pools",
				"children": [
					{
						"open": [
							{
								"rolls": 1,
								"entries": [
									{
										"weight": 1,
										"type": "item",
										"name": "v:kyanite"
									}
								]
							},
							{
								"rolls": {
									"min": 1,
									"max": 4
								},
								"conditions": [
									{
										"condition": "match_tool",
										"count": 1,
										"enchantments": [
											{
												"enchantment": "fortune",
												"level": {
													"min": 1,
													"max": 3
												}
											}
										]
									}
								],
								"entries": [
									{
										"weight": 1,
										"type": "item",
										"name": "v:kyanite"
									}
								]
							},
							{
								"rolls": {
									"min": 1,
									"max": 1
								},
								"conditions": [
									{
										"condition": "match_tool",
										"count": 1,
										"enchantments": [
											{
												"enchantment": "silk_touch",
												"level": {
													"min": 1,
													"max": 1
												}
											}
										]
									}
								],
								"entries": [
									{
										"weight": 1,
										"type": "item",
										"name": "v:test_ore_deleter"
									}
								]
							}
						],
						"children": [
							{
								"data": "1",
								"key": "rolls"
							},
							{
								"open": {
									"rolls": 1,
									"entries": [
										{
											"weight": 1,
											"type": "item",
											"name": "v:kyanite"
										}
									]
								},
								"key": "entries",
								"children": [
									{
										"open": [
											{
												"weight": 1,
												"type": "item",
												"name": "v:kyanite"
											}
										],
										"is_minified": true,
										"children": {
											"weight": 1,
											"type": "item",
											"name": "v:kyanite"
										}
									}
								]
							}
						]
					},
					{
						"open": [
							{
								"rolls": 1,
								"entries": [
									{
										"weight": 1,
										"type": "item",
										"name": "v:kyanite"
									}
								]
							},
							{
								"rolls": {
									"min": 1,
									"max": 4
								},
								"conditions": [
									{
										"condition": "match_tool",
										"count": 1,
										"enchantments": [
											{
												"enchantment": "fortune",
												"level": {
													"min": 1,
													"max": 3
												}
											}
										]
									}
								],
								"entries": [
									{
										"weight": 1,
										"type": "item",
										"name": "v:kyanite"
									}
								]
							},
							{
								"rolls": {
									"min": 1,
									"max": 1
								},
								"conditions": [
									{
										"condition": "match_tool",
										"count": 1,
										"enchantments": [
											{
												"enchantment": "silk_touch",
												"level": {
													"min": 1,
													"max": 1
												}
											}
										]
									}
								],
								"entries": [
									{
										"weight": 1,
										"type": "item",
										"name": "v:test_ore_deleter"
									}
								]
							}
						],
						"children": [
							{
								"key": "rolls",
								"is_minified": true,
								"children": {
									"min": 1,
									"max": 4
								}
							},
							{
								"key": "conditions",
								"is_minified": true,
								"children": [
									{
										"condition": "match_tool",
										"count": 1,
										"enchantments": [
											{
												"enchantment": "fortune",
												"level": {
													"min": 1,
													"max": 3
												}
											}
										]
									}
								]
							},
							{
								"open": {
									"rolls": {
										"min": 1,
										"max": 4
									},
									"conditions": [
										{
											"condition": "match_tool",
											"count": 1,
											"enchantments": [
												{
													"enchantment": "fortune",
													"level": {
														"min": 1,
														"max": 3
													}
												}
											]
										}
									],
									"entries": [
										{
											"weight": 1,
											"type": "item",
											"name": "v:kyanite"
										}
									]
								},
								"key": "entries",
								"children": [
									{
										"open": [
											{
												"weight": 1,
												"type": "item",
												"name": "v:kyanite"
											}
										],
										"is_minified": true,
										"children": {
											"weight": 1,
											"type": "item",
											"name": "v:kyanite"
										}
									}
								]
							}
						]
					},
					{
						"open": [
							{
								"rolls": 1,
								"entries": [
									{
										"weight": 1,
										"type": "item",
										"name": "v:kyanite"
									}
								]
							},
							{
								"rolls": {
									"min": 1,
									"max": 4
								},
								"conditions": [
									{
										"condition": "match_tool",
										"count": 1,
										"enchantments": [
											{
												"enchantment": "fortune",
												"level": {
													"min": 1,
													"max": 3
												}
											}
										]
									}
								],
								"entries": [
									{
										"weight": 1,
										"type": "item",
										"name": "v:kyanite"
									}
								]
							},
							{
								"rolls": {
									"min": 1,
									"max": 1
								},
								"conditions": [
									{
										"condition": "match_tool",
										"count": 1,
										"enchantments": [
											{
												"enchantment": "silk_touch",
												"level": {
													"min": 1,
													"max": 1
												}
											}
										]
									}
								],
								"entries": [
									{
										"weight": 1,
										"type": "item",
										"name": "v:test_ore_deleter"
									}
								]
							}
						],
						"children": [
							{
								"key": "rolls",
								"is_minified": true,
								"children": {
									"min": 1,
									"max": 1
								}
							},
							{
								"key": "conditions",
								"is_minified": true,
								"children": [
									{
										"condition": "match_tool",
										"count": 1,
										"enchantments": [
											{
												"enchantment": "silk_touch",
												"level": {
													"min": 1,
													"max": 1
												}
											}
										]
									}
								]
							},
							{
								"open": {
									"rolls": {
										"min": 1,
										"max": 1
									},
									"conditions": [
										{
											"condition": "match_tool",
											"count": 1,
											"enchantments": [
												{
													"enchantment": "silk_touch",
													"level": {
														"min": 1,
														"max": 1
													}
												}
											]
										}
									],
									"entries": [
										{
											"weight": 1,
											"type": "item",
											"name": "v:test_ore_deleter"
										}
									]
								},
								"key": "entries",
								"children": [
									{
										"open": [
											{
												"weight": 1,
												"type": "item",
												"name": "v:test_ore_deleter"
											}
										],
										"is_minified": true,
										"children": {
											"weight": 1,
											"type": "item",
											"name": "v:test_ore_deleter"
										}
									}
								]
							}
						]
					}
				]
			}
		]
	}
}