{
	"file_path": "C:\\Users\\plant\\AppData\\Local\\Packages\\Microsoft.MinecraftUWP_8wekyb3d8bbwe\\LocalState\\games\\com.mojang\\development_behavior_packs\\Village and Pillage+\\loot_tables\\villager_warrior_armor_diamond.json",
	"file_type": "loot_table",
	"format_version": 1,
	"file_uuid": "fb98fa74_3956_42fc_a7ed_2d4d720a4901",
	"file_version": 19,
	"cache_content": {
		"children": [
			{
				"open": {
					"pools": [
						{
							"rolls": 1,
							"entries": [
								{
									"type": "item",
									"name": "minecraft:diamond_chestplate",
									"weight": 15,
									"functions": [
										{
											"function": "enchant_random_gear",
											"chance": 0.25
										}
									]
								},
								{
									"type": "item",
									"name": "minecraft:diamond_leggings",
									"weight": 20,
									"functions": [
										{
											"function": "enchant_random_gear",
											"chance": 0.25
										}
									]
								},
								{
									"type": "item",
									"name": "minecraft:diamond_boots",
									"weight": 20,
									"functions": [
										{
											"function": "enchant_random_gear",
											"chance": 0.25
										}
									]
								}
							]
						}
					]
				},
				"key": "pools",
				"children": [
					{
						"open": [
							{
								"rolls": 1,
								"entries": [
									{
										"type": "item",
										"name": "minecraft:diamond_chestplate",
										"weight": 15,
										"functions": [
											{
												"function": "enchant_random_gear",
												"chance": 0.25
											}
										]
									},
									{
										"type": "item",
										"name": "minecraft:diamond_leggings",
										"weight": 20,
										"functions": [
											{
												"function": "enchant_random_gear",
												"chance": 0.25
											}
										]
									},
									{
										"type": "item",
										"name": "minecraft:diamond_boots",
										"weight": 20,
										"functions": [
											{
												"function": "enchant_random_gear",
												"chance": 0.25
											}
										]
									}
								]
							}
						],
						"children": [
							{
								"data": "1",
								"key": "rolls"
							},
							{
								"open": {
									"rolls": 1,
									"entries": [
										{
											"type": "item",
											"name": "minecraft:diamond_chestplate",
											"weight": 15,
											"functions": [
												{
													"function": "enchant_random_gear",
													"chance": 0.25
												}
											]
										},
										{
											"type": "item",
											"name": "minecraft:diamond_leggings",
											"weight": 20,
											"functions": [
												{
													"function": "enchant_random_gear",
													"chance": 0.25
												}
											]
										},
										{
											"type": "item",
											"name": "minecraft:diamond_boots",
											"weight": 20,
											"functions": [
												{
													"function": "enchant_random_gear",
													"chance": 0.25
												}
											]
										}
									]
								},
								"key": "entries",
								"children": [
									{
										"open": [
											{
												"type": "item",
												"name": "minecraft:diamond_chestplate",
												"weight": 15,
												"functions": [
													{
														"function": "enchant_random_gear",
														"chance": 0.25
													}
												]
											},
											{
												"type": "item",
												"name": "minecraft:diamond_leggings",
												"weight": 20,
												"functions": [
													{
														"function": "enchant_random_gear",
														"chance": 0.25
													}
												]
											},
											{
												"type": "item",
												"name": "minecraft:diamond_boots",
												"weight": 20,
												"functions": [
													{
														"function": "enchant_random_gear",
														"chance": 0.25
													}
												]
											}
										],
										"is_minified": true,
										"children": {
											"type": "item",
											"name": "minecraft:diamond_chestplate",
											"weight": 15,
											"functions": [
												{
													"function": "enchant_random_gear",
													"chance": 0.25
												}
											]
										}
									},
									{
										"open": [
											{
												"type": "item",
												"name": "minecraft:diamond_chestplate",
												"weight": 15,
												"functions": [
													{
														"function": "enchant_random_gear",
														"chance": 0.25
													}
												]
											},
											{
												"type": "item",
												"name": "minecraft:diamond_leggings",
												"weight": 20,
												"functions": [
													{
														"function": "enchant_random_gear",
														"chance": 0.25
													}
												]
											},
											{
												"type": "item",
												"name": "minecraft:diamond_boots",
												"weight": 20,
												"functions": [
													{
														"function": "enchant_random_gear",
														"chance": 0.25
													}
												]
											}
										],
										"is_minified": true,
										"children": {
											"type": "item",
											"name": "minecraft:diamond_leggings",
											"weight": 20,
											"functions": [
												{
													"function": "enchant_random_gear",
													"chance": 0.25
												}
											]
										}
									},
									{
										"open": [
											{
												"type": "item",
												"name": "minecraft:diamond_chestplate",
												"weight": 15,
												"functions": [
													{
														"function": "enchant_random_gear",
														"chance": 0.25
													}
												]
											},
											{
												"type": "item",
												"name": "minecraft:diamond_leggings",
												"weight": 20,
												"functions": [
													{
														"function": "enchant_random_gear",
														"chance": 0.25
													}
												]
											},
											{
												"type": "item",
												"name": "minecraft:diamond_boots",
												"weight": 20,
												"functions": [
													{
														"function": "enchant_random_gear",
														"chance": 0.25
													}
												]
											}
										],
										"children": [
											{
												"open": {
													"type": "item",
													"name": "minecraft:diamond_boots",
													"weight": 20,
													"functions": [
														{
															"function": "enchant_random_gear",
															"chance": 0.25
														}
													]
												},
												"data": "item",
												"key": "type"
											},
											{
												"data": "minecraft:diamond_boots",
												"key": "name"
											},
											{
												"open": {
													"type": "item",
													"name": "minecraft:diamond_boots",
													"weight": 20,
													"functions": [
														{
															"function": "enchant_random_gear",
															"chance": 0.25
														}
													]
												},
												"data": "20",
												"key": "weight"
											},
											{
												"key": "functions",
												"children": [
													{
														"open": [
															{
																"function": "enchant_random_gear",
																"chance": 0.25
															}
														],
														"is_minified": true,
														"children": {
															"function": "enchant_random_gear",
															"chance": 0.25
														}
													}
												]
											}
										]
									}
								]
							}
						]
					}
				]
			}
		]
	}
}