{
  "format_version": "1.10",
  "minecraft:item": {
    "description": {
      "identifier": "nicothekid:brass_nugget",
      "category": "items"
    },
    "components": {
      "minecraft:icon": "nicothekid_brass_nugget",
      "minecraft:render_offsets": "miscellaneous"
    }
  }
}
