{
  "format_version": "1.10",
  "minecraft:item": {
    "description": {
      "identifier": "nicothekid:moss_sprouts_tall",
      "category": "nature"
    },
    "components": {
      "minecraft:icon": "nicothekid_moss_sprouts_tall",
      "minecraft:render_offsets": "miscellaneous"
    }
  }
}
