{
	"file_path": "C:\\Users\\plant\\AppData\\Local\\Packages\\Microsoft.MinecraftUWP_8wekyb3d8bbwe\\LocalState\\games\\com.mojang\\development_behavior_packs\\Village and Pillage+\\trading\\kyanite_trades\\cleric_trades.json",
	"file_type": "trade_table",
	"format_version": 1,
	"file_uuid": "32e4766c_f3bd_45b6_b807_a762a4f9f748",
	"file_version": 0,
	"cache_content": {
		"children": [
			{
				"open": {
					"tiers": [
						{
							"total_exp_required": 0,
							"groups": [
								{
									"num_to_select": 1,
									"trades": [
										{
											"wants": [
												{
													"item": "minecraft:rotten_flesh",
													"quantity": 32,
													"price_multiplier": 0.05
												}
											],
											"gives": [
												{
													"item": "v:kyanite",
													"quantity": 1
												}
											],
											"trader_exp": 2,
											"max_uses": 16,
											"reward_exp": true
										}
									]
								},
								{
									"num_to_select": 1,
									"trades": [
										{
											"wants": [
												{
													"item": "v:kyanite",
													"quantity": 1,
													"price_multiplier": 0.05
												}
											],
											"gives": [
												{
													"item": "minecraft:redstone",
													"quantity": 2
												}
											],
											"trader_exp": 1,
											"max_uses": 12,
											"reward_exp": true
										}
									]
								}
							]
						},
						{
							"total_exp_required": 10,
							"groups": [
								{
									"num_to_select": 1,
									"trades": [
										{
											"wants": [
												{
													"item": "minecraft:gold_ingot",
													"quantity": 3,
													"price_multiplier": 0.05
												}
											],
											"gives": [
												{
													"item": "v:kyanite",
													"quantity": 1
												}
											],
											"trader_exp": 10,
											"max_uses": 12,
											"reward_exp": true
										}
									]
								},
								{
									"num_to_select": 1,
									"trades": [
										{
											"wants": [
												{
													"item": "v:kyanite",
													"quantity": 1,
													"price_multiplier": 0.05
												}
											],
											"gives": [
												{
													"item": "minecraft:dye:4",
													"quantity": 1
												}
											],
											"trader_exp": 5,
											"max_uses": 12,
											"reward_exp": true
										}
									]
								}
							]
						},
						{
							"total_exp_required": 70,
							"groups": [
								{
									"num_to_select": 1,
									"trades": [
										{
											"wants": [
												{
													"item": "minecraft:rabbit_foot",
													"quantity": 2,
													"price_multiplier": 0.05
												}
											],
											"gives": [
												{
													"item": "v:kyanite",
													"quantity": 1
												}
											],
											"trader_exp": 20,
											"max_uses": 12,
											"reward_exp": true
										}
									]
								},
								{
									"num_to_select": 1,
									"trades": [
										{
											"wants": [
												{
													"item": "v:kyanite",
													"quantity": 4,
													"price_multiplier": 0.05
												}
											],
											"gives": [
												{
													"item": "minecraft:glowstone_dust",
													"quantity": 1
												}
											],
											"trader_exp": 10,
											"max_uses": 12,
											"reward_exp": true
										}
									]
								},
								{
									"num_to_select": 1,
									"trades": [
										{
											"wants": [
												{
													"quantity": 2,
													"price_multiplier": 0.05,
													"item": "v:kyanite"
												}
											],
											"gives": [
												{
													"quantity": 1,
													"item": "v:glowing_obsidian_new"
												}
											],
											"trader_exp": 10,
											"max_uses": 12,
											"reward_exp": true
										}
									]
								}
							]
						},
						{
							"total_exp_required": 150,
							"groups": [
								{
									"num_to_select": 1,
									"trades": [
										{
											"wants": [
												{
													"item": "minecraft:turtle_shell_piece",
													"quantity": 4,
													"price_multiplier": 0.05
												}
											],
											"gives": [
												{
													"item": "v:kyanite",
													"quantity": 1
												}
											],
											"trader_exp": 30,
											"max_uses": 12,
											"reward_exp": true
										},
										{
											"wants": [
												{
													"item": "minecraft:glass_bottle",
													"quantity": 9,
													"price_multiplier": 0.05
												}
											],
											"gives": [
												{
													"item": "v:kyanite",
													"quantity": 1
												}
											],
											"trader_exp": 30,
											"max_uses": 12,
											"reward_exp": true
										}
									]
								},
								{
									"num_to_select": 1,
									"trades": [
										{
											"wants": [
												{
													"item": "v:kyanite",
													"quantity": 5,
													"price_multiplier": 0.05
												}
											],
											"gives": [
												{
													"item": "minecraft:ender_pearl",
													"quantity": 1
												}
											],
											"trader_exp": 15,
											"max_uses": 12,
											"reward_exp": true
										}
									]
								}
							]
						},
						{
							"total_exp_required": 250,
							"groups": [
								{
									"num_to_select": 1,
									"trades": [
										{
											"wants": [
												{
													"item": "minecraft:nether_wart",
													"quantity": 22,
													"price_multiplier": 0.05
												}
											],
											"gives": [
												{
													"item": "v:kyanite",
													"quantity": 1
												}
											],
											"trader_exp": 30,
											"max_uses": 12,
											"reward_exp": true
										}
									]
								},
								{
									"num_to_select": 1,
									"trades": [
										{
											"wants": [
												{
													"item": "v:kyanite",
													"quantity": 3,
													"price_multiplier": 0.05
												}
											],
											"gives": [
												{
													"item": "minecraft:experience_bottle",
													"quantity": 1
												}
											],
											"trader_exp": 30,
											"max_uses": 12,
											"reward_exp": true
										}
									]
								}
							]
						}
					]
				},
				"key": "tiers",
				"children": [
					{
						"is_minified": true,
						"children": {
							"total_exp_required": 0,
							"groups": [
								{
									"num_to_select": 1,
									"trades": [
										{
											"wants": [
												{
													"item": "minecraft:rotten_flesh",
													"quantity": 32,
													"price_multiplier": 0.05
												}
											],
											"gives": [
												{
													"item": "v:kyanite",
													"quantity": 1
												}
											],
											"trader_exp": 2,
											"max_uses": 16,
											"reward_exp": true
										}
									]
								},
								{
									"num_to_select": 1,
									"trades": [
										{
											"wants": [
												{
													"item": "v:kyanite",
													"quantity": 1,
													"price_multiplier": 0.05
												}
											],
											"gives": [
												{
													"item": "minecraft:redstone",
													"quantity": 2
												}
											],
											"trader_exp": 1,
											"max_uses": 12,
											"reward_exp": true
										}
									]
								}
							]
						}
					},
					{
						"is_minified": true,
						"children": {
							"total_exp_required": 10,
							"groups": [
								{
									"num_to_select": 1,
									"trades": [
										{
											"wants": [
												{
													"item": "minecraft:gold_ingot",
													"quantity": 3,
													"price_multiplier": 0.05
												}
											],
											"gives": [
												{
													"item": "v:kyanite",
													"quantity": 1
												}
											],
											"trader_exp": 10,
											"max_uses": 12,
											"reward_exp": true
										}
									]
								},
								{
									"num_to_select": 1,
									"trades": [
										{
											"wants": [
												{
													"item": "v:kyanite",
													"quantity": 1,
													"price_multiplier": 0.05
												}
											],
											"gives": [
												{
													"item": "minecraft:dye:4",
													"quantity": 1
												}
											],
											"trader_exp": 5,
											"max_uses": 12,
											"reward_exp": true
										}
									]
								}
							]
						}
					},
					{
						"open": [
							{
								"total_exp_required": 0,
								"groups": [
									{
										"num_to_select": 1,
										"trades": [
											{
												"wants": [
													{
														"item": "minecraft:rotten_flesh",
														"quantity": 32,
														"price_multiplier": 0.05
													}
												],
												"gives": [
													{
														"item": "v:kyanite",
														"quantity": 1
													}
												],
												"trader_exp": 2,
												"max_uses": 16,
												"reward_exp": true
											}
										]
									},
									{
										"num_to_select": 1,
										"trades": [
											{
												"wants": [
													{
														"item": "v:kyanite",
														"quantity": 1,
														"price_multiplier": 0.05
													}
												],
												"gives": [
													{
														"item": "minecraft:redstone",
														"quantity": 2
													}
												],
												"trader_exp": 1,
												"max_uses": 12,
												"reward_exp": true
											}
										]
									}
								]
							},
							{
								"total_exp_required": 10,
								"groups": [
									{
										"num_to_select": 1,
										"trades": [
											{
												"wants": [
													{
														"item": "minecraft:gold_ingot",
														"quantity": 3,
														"price_multiplier": 0.05
													}
												],
												"gives": [
													{
														"item": "v:kyanite",
														"quantity": 1
													}
												],
												"trader_exp": 10,
												"max_uses": 12,
												"reward_exp": true
											}
										]
									},
									{
										"num_to_select": 1,
										"trades": [
											{
												"wants": [
													{
														"item": "v:kyanite",
														"quantity": 1,
														"price_multiplier": 0.05
													}
												],
												"gives": [
													{
														"item": "minecraft:dye:4",
														"quantity": 1
													}
												],
												"trader_exp": 5,
												"max_uses": 12,
												"reward_exp": true
											}
										]
									}
								]
							},
							{
								"total_exp_required": 70,
								"groups": [
									{
										"num_to_select": 1,
										"trades": [
											{
												"wants": [
													{
														"item": "minecraft:rabbit_foot",
														"quantity": 2,
														"price_multiplier": 0.05
													}
												],
												"gives": [
													{
														"item": "v:kyanite",
														"quantity": 1
													}
												],
												"trader_exp": 20,
												"max_uses": 12,
												"reward_exp": true
											}
										]
									},
									{
										"num_to_select": 1,
										"trades": [
											{
												"wants": [
													{
														"item": "v:kyanite",
														"quantity": 4,
														"price_multiplier": 0.05
													}
												],
												"gives": [
													{
														"item": "minecraft:glowstone_dust",
														"quantity": 1
													}
												],
												"trader_exp": 10,
												"max_uses": 12,
												"reward_exp": true
											}
										]
									},
									{
										"num_to_select": 1,
										"trades": [
											{
												"wants": [
													{
														"quantity": 2,
														"price_multiplier": 0.05,
														"item": "v:kyanite"
													}
												],
												"gives": [
													{
														"quantity": 1,
														"item": "v:glowing_obsidian_new"
													}
												],
												"trader_exp": 10,
												"max_uses": 12,
												"reward_exp": true
											}
										]
									}
								]
							},
							{
								"total_exp_required": 150,
								"groups": [
									{
										"num_to_select": 1,
										"trades": [
											{
												"wants": [
													{
														"item": "minecraft:turtle_shell_piece",
														"quantity": 4,
														"price_multiplier": 0.05
													}
												],
												"gives": [
													{
														"item": "v:kyanite",
														"quantity": 1
													}
												],
												"trader_exp": 30,
												"max_uses": 12,
												"reward_exp": true
											},
											{
												"wants": [
													{
														"item": "minecraft:glass_bottle",
														"quantity": 9,
														"price_multiplier": 0.05
													}
												],
												"gives": [
													{
														"item": "v:kyanite",
														"quantity": 1
													}
												],
												"trader_exp": 30,
												"max_uses": 12,
												"reward_exp": true
											}
										]
									},
									{
										"num_to_select": 1,
										"trades": [
											{
												"wants": [
													{
														"item": "v:kyanite",
														"quantity": 5,
														"price_multiplier": 0.05
													}
												],
												"gives": [
													{
														"item": "minecraft:ender_pearl",
														"quantity": 1
													}
												],
												"trader_exp": 15,
												"max_uses": 12,
												"reward_exp": true
											}
										]
									}
								]
							},
							{
								"total_exp_required": 250,
								"groups": [
									{
										"num_to_select": 1,
										"trades": [
											{
												"wants": [
													{
														"item": "minecraft:nether_wart",
														"quantity": 22,
														"price_multiplier": 0.05
													}
												],
												"gives": [
													{
														"item": "v:kyanite",
														"quantity": 1
													}
												],
												"trader_exp": 30,
												"max_uses": 12,
												"reward_exp": true
											}
										]
									},
									{
										"num_to_select": 1,
										"trades": [
											{
												"wants": [
													{
														"item": "v:kyanite",
														"quantity": 3,
														"price_multiplier": 0.05
													}
												],
												"gives": [
													{
														"item": "minecraft:experience_bottle",
														"quantity": 1
													}
												],
												"trader_exp": 30,
												"max_uses": 12,
												"reward_exp": true
											}
										]
									}
								]
							}
						],
						"children": [
							{
								"data": "70",
								"key": "total_exp_required"
							},
							{
								"open": {
									"total_exp_required": 70,
									"groups": [
										{
											"num_to_select": 1,
											"trades": [
												{
													"wants": [
														{
															"item": "minecraft:rabbit_foot",
															"quantity": 2,
															"price_multiplier": 0.05
														}
													],
													"gives": [
														{
															"item": "v:kyanite",
															"quantity": 1
														}
													],
													"trader_exp": 20,
													"max_uses": 12,
													"reward_exp": true
												}
											]
										},
										{
											"num_to_select": 1,
											"trades": [
												{
													"wants": [
														{
															"item": "v:kyanite",
															"quantity": 4,
															"price_multiplier": 0.05
														}
													],
													"gives": [
														{
															"item": "minecraft:glowstone_dust",
															"quantity": 1
														}
													],
													"trader_exp": 10,
													"max_uses": 12,
													"reward_exp": true
												}
											]
										},
										{
											"num_to_select": 1,
											"trades": [
												{
													"wants": [
														{
															"quantity": 2,
															"price_multiplier": 0.05,
															"item": "v:kyanite"
														}
													],
													"gives": [
														{
															"quantity": 1,
															"item": "v:glowing_obsidian_new"
														}
													],
													"trader_exp": 10,
													"max_uses": 12,
													"reward_exp": true
												}
											]
										}
									]
								},
								"key": "groups",
								"children": [
									{
										"open": [
											{
												"num_to_select": 1,
												"trades": [
													{
														"wants": [
															{
																"item": "minecraft:rabbit_foot",
																"quantity": 2,
																"price_multiplier": 0.05
															}
														],
														"gives": [
															{
																"item": "v:kyanite",
																"quantity": 1
															}
														],
														"trader_exp": 20,
														"max_uses": 12,
														"reward_exp": true
													}
												]
											},
											{
												"num_to_select": 1,
												"trades": [
													{
														"wants": [
															{
																"item": "v:kyanite",
																"quantity": 4,
																"price_multiplier": 0.05
															}
														],
														"gives": [
															{
																"item": "minecraft:glowstone_dust",
																"quantity": 1
															}
														],
														"trader_exp": 10,
														"max_uses": 12,
														"reward_exp": true
													}
												]
											},
											{
												"num_to_select": 1,
												"trades": [
													{
														"wants": [
															{
																"quantity": 2,
																"price_multiplier": 0.05,
																"item": "v:kyanite"
															}
														],
														"gives": [
															{
																"quantity": 1,
																"item": "v:glowing_obsidian_new"
															}
														],
														"trader_exp": 10,
														"max_uses": 12,
														"reward_exp": true
													}
												]
											}
										],
										"children": [
											{
												"data": "1",
												"key": "num_to_select"
											},
											{
												"open": {
													"num_to_select": 1,
													"trades": [
														{
															"wants": [
																{
																	"item": "minecraft:rabbit_foot",
																	"quantity": 2,
																	"price_multiplier": 0.05
																}
															],
															"gives": [
																{
																	"item": "v:kyanite",
																	"quantity": 1
																}
															],
															"trader_exp": 20,
															"max_uses": 12,
															"reward_exp": true
														}
													]
												},
												"key": "trades",
												"is_minified": true,
												"children": [
													{
														"wants": [
															{
																"item": "minecraft:rabbit_foot",
																"quantity": 2,
																"price_multiplier": 0.05
															}
														],
														"gives": [
															{
																"item": "v:kyanite",
																"quantity": 1
															}
														],
														"trader_exp": 20,
														"max_uses": 12,
														"reward_exp": true
													}
												]
											}
										]
									},
									{
										"open": [
											{
												"num_to_select": 1,
												"trades": [
													{
														"wants": [
															{
																"item": "minecraft:rabbit_foot",
																"quantity": 2,
																"price_multiplier": 0.05
															}
														],
														"gives": [
															{
																"item": "v:kyanite",
																"quantity": 1
															}
														],
														"trader_exp": 20,
														"max_uses": 12,
														"reward_exp": true
													}
												]
											},
											{
												"num_to_select": 1,
												"trades": [
													{
														"wants": [
															{
																"item": "v:kyanite",
																"quantity": 4,
																"price_multiplier": 0.05
															}
														],
														"gives": [
															{
																"item": "minecraft:glowstone_dust",
																"quantity": 1
															}
														],
														"trader_exp": 10,
														"max_uses": 12,
														"reward_exp": true
													}
												]
											},
											{
												"num_to_select": 1,
												"trades": [
													{
														"wants": [
															{
																"quantity": 2,
																"price_multiplier": 0.05,
																"item": "v:kyanite"
															}
														],
														"gives": [
															{
																"quantity": 1,
																"item": "v:glowing_obsidian_new"
															}
														],
														"trader_exp": 10,
														"max_uses": 12,
														"reward_exp": true
													}
												]
											}
										],
										"is_minified": true,
										"children": {
											"num_to_select": 1,
											"trades": [
												{
													"wants": [
														{
															"item": "v:kyanite",
															"quantity": 4,
															"price_multiplier": 0.05
														}
													],
													"gives": [
														{
															"item": "minecraft:glowstone_dust",
															"quantity": 1
														}
													],
													"trader_exp": 10,
													"max_uses": 12,
													"reward_exp": true
												}
											]
										}
									},
									{
										"open": [
											{
												"num_to_select": 1,
												"trades": [
													{
														"wants": [
															{
																"item": "minecraft:rabbit_foot",
																"quantity": 2,
																"price_multiplier": 0.05
															}
														],
														"gives": [
															{
																"item": "v:kyanite",
																"quantity": 1
															}
														],
														"trader_exp": 20,
														"max_uses": 12,
														"reward_exp": true
													}
												]
											},
											{
												"num_to_select": 1,
												"trades": [
													{
														"wants": [
															{
																"item": "v:kyanite",
																"quantity": 4,
																"price_multiplier": 0.05
															}
														],
														"gives": [
															{
																"item": "minecraft:glowstone_dust",
																"quantity": 1
															}
														],
														"trader_exp": 10,
														"max_uses": 12,
														"reward_exp": true
													}
												]
											},
											{
												"num_to_select": 1,
												"trades": [
													{
														"wants": [
															{
																"quantity": 2,
																"price_multiplier": 0.05,
																"item": "v:kyanite"
															}
														],
														"gives": [
															{
																"quantity": 1,
																"item": "v:glowing_obsidian_new"
															}
														],
														"trader_exp": 10,
														"max_uses": 12,
														"reward_exp": true
													}
												]
											}
										],
										"children": [
											{
												"data": "1",
												"key": "num_to_select"
											},
											{
												"open": {
													"num_to_select": 1,
													"trades": [
														{
															"wants": [
																{
																	"quantity": 2,
																	"price_multiplier": 0.05,
																	"item": "v:kyanite"
																}
															],
															"gives": [
																{
																	"quantity": 1,
																	"item": "v:glowing_obsidian_new"
																}
															],
															"trader_exp": 10,
															"max_uses": 12,
															"reward_exp": true
														}
													]
												},
												"key": "trades",
												"children": [
													{
														"open": [
															{
																"wants": [
																	{
																		"quantity": 2,
																		"price_multiplier": 0.05,
																		"item": "v:kyanite"
																	}
																],
																"gives": [
																	{
																		"quantity": 1,
																		"item": "v:glowing_obsidian_new"
																	}
																],
																"trader_exp": 10,
																"max_uses": 12,
																"reward_exp": true
															}
														],
														"children": [
															{
																"open": {
																	"wants": [
																		{
																			"quantity": 2,
																			"price_multiplier": 0.05,
																			"item": "v:kyanite"
																		}
																	],
																	"gives": [
																		{
																			"quantity": 1,
																			"item": "v:glowing_obsidian_new"
																		}
																	],
																	"trader_exp": 10,
																	"max_uses": 12,
																	"reward_exp": true
																},
																"key": "wants",
																"children": [
																	{
																		"open": [
																			{
																				"quantity": 2,
																				"price_multiplier": 0.05,
																				"item": "v:kyanite"
																			}
																		],
																		"is_minified": true,
																		"children": {
																			"quantity": 2,
																			"price_multiplier": 0.05,
																			"item": "v:kyanite"
																		}
																	}
																]
															},
															{
																"open": {
																	"wants": [
																		{
																			"quantity": 2,
																			"price_multiplier": 0.05,
																			"item": "v:kyanite"
																		}
																	],
																	"gives": [
																		{
																			"quantity": 1,
																			"item": "v:glowing_obsidian_new"
																		}
																	],
																	"trader_exp": 10,
																	"max_uses": 12,
																	"reward_exp": true
																},
																"key": "gives",
																"is_minified": true,
																"children": [
																	{
																		"quantity": 1,
																		"item": "v:glowing_obsidian_new"
																	}
																]
															},
															{
																"data": "10",
																"key": "trader_exp"
															},
															{
																"data": "12",
																"key": "max_uses"
															},
															{
																"data": "true",
																"key": "reward_exp"
															}
														]
													}
												]
											}
										]
									}
								]
							}
						]
					},
					{
						"is_minified": true,
						"children": {
							"total_exp_required": 150,
							"groups": [
								{
									"num_to_select": 1,
									"trades": [
										{
											"wants": [
												{
													"item": "minecraft:turtle_shell_piece",
													"quantity": 4,
													"price_multiplier": 0.05
												}
											],
											"gives": [
												{
													"item": "v:kyanite",
													"quantity": 1
												}
											],
											"trader_exp": 30,
											"max_uses": 12,
											"reward_exp": true
										},
										{
											"wants": [
												{
													"item": "minecraft:glass_bottle",
													"quantity": 9,
													"price_multiplier": 0.05
												}
											],
											"gives": [
												{
													"item": "v:kyanite",
													"quantity": 1
												}
											],
											"trader_exp": 30,
											"max_uses": 12,
											"reward_exp": true
										}
									]
								},
								{
									"num_to_select": 1,
									"trades": [
										{
											"wants": [
												{
													"item": "v:kyanite",
													"quantity": 5,
													"price_multiplier": 0.05
												}
											],
											"gives": [
												{
													"item": "minecraft:ender_pearl",
													"quantity": 1
												}
											],
											"trader_exp": 15,
											"max_uses": 12,
											"reward_exp": true
										}
									]
								}
							]
						}
					},
					{
						"is_minified": true,
						"children": {
							"total_exp_required": 250,
							"groups": [
								{
									"num_to_select": 1,
									"trades": [
										{
											"wants": [
												{
													"item": "minecraft:nether_wart",
													"quantity": 22,
													"price_multiplier": 0.05
												}
											],
											"gives": [
												{
													"item": "v:kyanite",
													"quantity": 1
												}
											],
											"trader_exp": 30,
											"max_uses": 12,
											"reward_exp": true
										}
									]
								},
								{
									"num_to_select": 1,
									"trades": [
										{
											"wants": [
												{
													"item": "v:kyanite",
													"quantity": 3,
													"price_multiplier": 0.05
												}
											],
											"gives": [
												{
													"item": "minecraft:experience_bottle",
													"quantity": 1
												}
											],
											"trader_exp": 30,
											"max_uses": 12,
											"reward_exp": true
										}
									]
								}
							]
						}
					}
				]
			}
		]
	}
}