{
  "format_version": "1.16.0",
  "minecraft:feature_rules": {
    "description": {
      "identifier": "nicothekid:cave_x_mosshroom_floor",
      "places_feature": "nicothekid:cave_x_mosshroom_floor_x_03_x_snap"
    },
    "conditions": {
      "placement_pass": "underground_pass",
      "minecraft:biome_filter": [
        {
          "all_of": [
            {
              "any_of": [
                {
                  "test": "has_biome_tag",
                  "operator": "==",
                  "value": "mossy_forest"
                },
                {
                  "test": "has_biome_tag",
                  "operator": "==",
                  "value": "swamp"
                },
                {
                  "test": "has_biome_tag",
                  "operator": "==",
                  "value": "swampland"
                },
                {
                  "test": "has_biome_tag",
                  "operator": "==",
                  "value": "mangrove_swamp"
                }
              ]
            }
          ]
        }
      ]
    },
    "distribution": {
      "iterations": 100,
      "scatter_chance": 100.0,
      "x": {
        "distribution": "uniform",
        "extent": [ -16, 16 ]
      },
      "y": {
        "distribution": "uniform",
        "extent": [ -56, 8 ]
      },
      "z": {
        "distribution": "uniform",
        "extent": [ -16, 16 ]
      }
    }
  }
}
