{
  "format_version": "1.13.0",
  "minecraft:feature_rules": {
    "description": {
      "identifier": "nicothekid:patch_underground_x_marble",
      "places_feature": "nicothekid:patch_underground_x_marble_x_ore"
    },
    "conditions": {
      "placement_pass": "underground_pass",
      "minecraft:biome_filter": [
        {
          "all_of": [
            {
              "any_of": [
                {
                  "test": "has_biome_tag",
                  "operator": "==",
                  "value": "overworld"
                },
                {
                  "test": "has_biome_tag",
                  "operator": "==",
                  "value": "overworld_generation"
                }
              ]
            }
          ]
        }
      ]
    },
    "distribution": {
      "iterations": 1,
      "scatter_chance": 20.0,
      "x": {
        "distribution": "uniform",
        "extent": [ -16, 16 ]
      },
      "y": {
        "distribution": "uniform",
        "extent": [ 0 , "query.heightmap(variable.worldx, variable.worldz) + -4" ]
      },
      "z": {
        "distribution": "uniform",
        "extent": [ -16, 16 ]
      }
    }
  }
}