{
  "format_version": "1.13.0",
  "minecraft:feature_rules": {
    "description": {
      "identifier": "nicothekid:plant_x_glow_lichen_x_cave_mushroom_floor",
      "places_feature": "nicothekid:plant_x_glow_lichen_x_cave_mushroom_x_floor_x_02_x_scatter"
    },
    "conditions": {
      "placement_pass": "after_underground_pass",
      "minecraft:biome_filter": [
        {
          "all_of": [
            {
              "any_of": [
                {
                  "test": "has_biome_tag",
                  "operator": "==",
                  "value": "roofed"
                },
                {
                  "test": "has_biome_tag",
                  "operator": "==",
                  "value": "mooshroom_island"
                }
              ]
            }
          ]
        }
      ]
    },
    "distribution": {
      "iterations": 50,
      "scatter_chance": 100.0,
      "x": {
        "distribution": "uniform",
        "extent": [ -16, 16 ]
      },
      "y": {
        "distribution": "uniform",
        "extent": [ -54, 8 ]
      },
      "z": {
        "distribution": "uniform",
        "extent": [ -16, 16 ]
      }
    }
  }
}