{
	"format_version": "1.16",
	"minecraft:recipe_shaped": {
		"description": {
			"identifier": "nether:death_cap_planks_bed5"
		},
		"tags": [
			"crafting_table"
		],
		"pattern": [
			"BBB",
			"AAA"
		],
		"key": {
			"A": {
				"item": "nether:death_cap_planks"
			},
			"B": {
				"item": "minecraft:wool",
				"data": 5
			}
		},
		"result": {
			"item": "minecraft:bed",
			"data": 5,
			"count": 1
		},
		"priority": 2
	}
}