{
	"format_version": "1.16",
	"minecraft:recipe_shaped": {
		"description": {
			"identifier": "nether:bookshelf_from_death_cap_planks"
		},
		"tags": [
			"crafting_table"
		],
		"pattern": [
			"AAA",
			"BBB",
			"AAA"
		],
		"key": {
			"A": {
				"item": "nether:death_cap_planks"
			},
			"B": {
				"item": "book"
			}
		},
		"result": [
			{
				"item": "minecraft:bookshelf"
			}
		]
	}
}