{
	"format_version": "1.12",
	"minecraft:recipe_shaped": {
		"description": {
			"identifier": "nether:campfire_from_stripped_death_cap_log"
		},
		"tags": [
			"crafting_table"
		],
		"pattern": [
			" | ",
			"|C|",
			"###"
		],
		"key": {
			"|": {
				"item": "minecraft:stick"
			},
			"#": {
				"item": "nether:stripped_death_cap_stem"
			},
			"C": {
				"item": "minecraft:coal"
			}
		},
		"result": {
			"item": "minecraft:campfire"
		},
		"priority": 2
	}
}