{
	"format_version": 1.16,
	"minecraft:recipe_shaped": {
		"description": {
			"identifier": "nether:piston_from_death_cap_planks"
		},
		"tags": [
			"crafting_table"
		],
		"pattern": [
			"AAA",
			"BCB",
			"BDB"
		],
		"key": {
			"A": {
				"item": "nether:death_cap_planks"
			},
			"B": {
				"item": "minecraft:cobblestone"
			},
			"C": {
				"item": "minecraft:iron_ingot"
			},
			"D": {
				"item": "minecraft:redstone"
			}
		},
		"result": {
			"item": "minecraft:piston",
			"count": 1,
			"data": 1
		}
	}
}