{
	"format_version": "1.12",
	"minecraft:recipe_shaped": {
		"description": {
			"identifier": "nether:death_cap_planks_from_stripped"
		},
		"tags": [
			"crafting_table"
		],
		"pattern": [
			"#"
		],
		"key": {
			"#": {
				"item": "nether:stripped_death_cap_hyphae"
			}
		},
		"result": {
			"item": "nether:death_cap_planks",
			"count": 4
		}
	}
}