{
	"format_version": 1.12,
	"minecraft:recipe_shaped": {
		"description": {
			"identifier": "nether:shield_from_death_cap_planks"
		},
		"tags": [
			"crafting_table"
		],
		"pattern": [
			"#I#",
			"###",
			" # "
		],
		"key": {
			"#": {
				"item": "nether:death_cap_planks"
			},
			"I": {
				"item": "minecraft:iron_ingot"
			}
		},
		"result": {
			"item": "minecraft:shield"
		}
	}
}