{
	"format_version": "1.12",
	"minecraft:recipe_shaped": {
		"description": {
			"identifier": "nether:smoker_from_death_cap_log"
		},
		"tags": [
			"crafting_table"
		],
		"pattern": [
			" # ",
			"#F#",
			" # "
		],
		"key": {
			"F": {
				"item": "minecraft:furnace"
			},
			"#": {
				"item": "vote:death_cap_stem"
			}
		},
		"result": {
			"item": "minecraft:smoker"
		}
	}
}