{
	"format_version": "1.12.0",
	"minecraft:geometry": [
		{
			"description": {
				"identifier": "geometry.true_backpack_back",
				"texture_width": 64,
				"texture_height": 64,
				"visible_bounds_width": 3,
				"visible_bounds_height": 3,
				"visible_bounds_offset": [0, 0.5, 0]
			},
			"bones": [
				{
					"name": "body",
					"pivot": [-7, -11, -2],
					"cubes": [
						{"origin": [-13.5, -11, 5], "size": [3, 5, 4], "inflate": -0.8, "pivot": [-9.5, -7, 7], "rotation": [0, -90, 0], "uv": [24, 22]},
						{"origin": [-9, -11, -14], "size": [10, 5, 4], "pivot": [-5, -3.66667, -5], "rotation": [-180, 0, 180], "uv": [0, 10]},
						{"origin": [-9, -7, -13.85], "size": [10, 6, 4], "inflate": -0.2, "pivot": [-5, -3.66667, -5], "rotation": [-180, 0, 180], "uv": [0, 0]},
						{"origin": [-11, -4, 0.2], "size": [10, 3, 4], "uv": [0, 19]}
					]
				}
			]
		}
	]
}