{
	"format_version": "1.12",
	"minecraft:recipe_shapeless": {
		"description": {
			"identifier": "bb:coin_stack_to_coin"
		},
		"tags": [
			"crafting_table"
		],
		"ingredients": [
			{
				"item": "bb:minecoin_stack",
				"count": 1
			}
		],
		"result": [
			{
				"item": "bb:minecoin",
				"count": 8
			}
		]
	}
}