{
	"format_version": "1.12",
	"minecraft:recipe_shapeless": {
		"description": {
			"identifier": "bb:mush_to_coin"
		},
		"tags": [
			"crafting_table"
		],
		"ingredients": [
			{
				"item": "bb:coin_berry_mush",
				"count": 4
			}
		],
		"result": {
			"item": "bb:minecoin",
			"count": 1
		}
	}
}