{
	"format_version": "1.12",
	"minecraft:recipe_shaped": {
		"description": {
			"identifier": "bb:prize_machine_recipe"
		},
		"tags": [
			"crafting_table"
		],
		"pattern": [
			"igi",
			"cec",
			"idi"
		],
		"key": {
			"i": {
				"item": "minecraft:iron_ingot"
			},
			"g": {
				"item": "minecraft:glass_pane"
			},
			"c": {
				"item": "bb:minecoin_stack"
			},
			"e": {
				"item": "bb:ticket_block"
			},
			"d": {
				"item": "minecraft:dropper"
			}
		},
		"result": [
			{
				"item": "bb:prize_machine",
				"count": 1
			}
		]
	}
}