{
	"format_version": "1.12",
	"minecraft:recipe_shapeless": {
		"description": {
			"identifier": "bb:tokens_to_tickets"
		},
		"tags": [
			"crafting_table"
		],
		"ingredients": [
			{
				"item": "bb:pstoken_stack",
				"count": 1
			},
			{
				"item": "red_dye",
				"count": 1
			},
			{
				"item": "minecraft:paper",
				"count": 1
			}
		],
		"result": [
			{
				"item": "bb:ticket",
				"count": 2
			}
		]
	}
}