{
  "format_version": "1.18.0",
  "minecraft:item": {
    "description": {
      "category": "items",
      "identifier": "btr:tome"
    },
    "components": {
      "minecraft:icon": {
        "texture": "tome"
      },
      "minecraft:creative_category": {
        "parent": "itemGroup.name.enchantedBook"
      },
      "minecraft:max_stack_size": 64,
      "minecraft:hand_equipped": false,
      "minecraft:foil": false,
      "minecraft:display_name": {},
      "minecraft:on_use": {
        "on_use": {
          "event": "open"
        }
      }
    },
    "events": {
      "open": {
        "randomize": [
          {
            "weight": 3,
            "run_command": {
              "command": [
                "give @s btr:vampirism_i_book",
                "playsound item.book.page_turn @a [r=10] ~~~ 0.5"
              ]
            },
            "decrement_stack": {}
          },
          {
            "weight": 2,
            "run_command": {
              "command": [
                "give @s btr:vampirism_ii_book",
                "playsound item.book.page_turn @a [r=10] ~~~ 0.5"
              ]
            },
            "decrement_stack": {}
          },
          {
            "weight": 3,
            "run_command": {
              "command": [
                "give @s btr:education_i_book",
                "playsound item.book.page_turn @a [r=10] ~~~ 0.5"
              ]
            },
            "decrement_stack": {}
          },
          {
            "weight": 2,
            "run_command": {
              "command": [
                "give @s btr:education_ii_book",
                "playsound item.book.page_turn @a [r=10] ~~~ 0.5"
              ]
            },
            "decrement_stack": {}
          },
          {
            "weight": 1,
            "run_command": {
              "command": [
                "give @s btr:education_iii_book",
                "playsound item.book.page_turn @a [r=10] ~~~ 0.5"
              ]
            },
            "decrement_stack": {}
          },
          {
            "weight": 3,
            "run_command": {
              "command": [
                "give @s btr:fling_i_book",
                "playsound item.book.page_turn @a [r=10] ~~~ 0.5"
              ]
            },
            "decrement_stack": {}
          },
          {
            "weight": 2,
            "run_command": {
              "command": [
                "give @s btr:fling_ii_book",
                "playsound item.book.page_turn @a [r=10] ~~~ 0.5"
              ]
            },
            "decrement_stack": {}
          },
          {
            "weight": 3,
            "run_command": {
              "command": [
                "give @s btr:assasinate_i_book",
                "playsound item.book.page_turn @a [r=10] ~~~ 0.5"
              ]
            },
            "decrement_stack": {}
          },
          {
            "weight": 2,
            "run_command": {
              "command": [
                "give @s btr:assasinate_ii_book",
                "playsound item.book.page_turn @a [r=10] ~~~ 0.5"
              ]
            },
            "decrement_stack": {}
          },
          {
            "weight": 1,
            "run_command": {
              "command": [
                "give @s btr:assasinate_iii_book",
                "playsound item.book.page_turn @a [r=10] ~~~ 0.5"
              ]
            },
            "decrement_stack": {}
          },
          {
            "weight": 3,
            "run_command": {
              "command": [
                "give @s btr:bash_i_book",
                "playsound item.book.page_turn @a [r=10] ~~~ 0.5"
              ]
            },
            "decrement_stack": {}
          },
          {
            "weight": 2,
            "run_command": {
              "command": [
                "give @s btr:bash_ii_book",
                "playsound item.book.page_turn @a [r=10] ~~~ 0.5"
              ]
            },
            "decrement_stack": {}
          },
          {
            "weight": 1,
            "run_command": {
              "command": [
                "give @s btr:bash_iii_book",
                "playsound item.book.page_turn @a [r=10] ~~~ 0.5"
              ]
            },
            "decrement_stack": {}
          },
          {
            "weight": 3,
            "run_command": {
              "command": [
                "give @s btr:combo_i_book",
                "playsound item.book.page_turn @a [r=10] ~~~ 0.5"
              ]
            },
            "decrement_stack": {}
          },
          {
            "weight": 2,
            "run_command": {
              "command": [
                "give @s btr:combo_ii_book",
                "playsound item.book.page_turn @a [r=10] ~~~ 0.5"
              ]
            },
            "decrement_stack": {}
          },
          {
            "weight": 1,
            "run_command": {
              "command": [
                "give @s btr:combo_iii_book",
                "playsound item.book.page_turn @a [r=10] ~~~ 0.5"
              ]
            },
            "decrement_stack": {}
          },
          {
            "weight": 3,
            "run_command": {
              "command": [
                "give @s btr:disarm_i_book",
                "playsound item.book.page_turn @a [r=10] ~~~ 0.5"
              ]
            },
            "decrement_stack": {}
          },
          {
            "weight": 2,
            "run_command": {
              "command": [
                "give @s btr:disarm_ii_book",
                "playsound item.book.page_turn @a [r=10] ~~~ 0.5"
              ]
            },
            "decrement_stack": {}
          },
          {
            "weight": 1,
            "run_command": {
              "command": [
                "give @s btr:disarm_iii_book",
                "playsound item.book.page_turn @a [r=10] ~~~ 0.5"
              ]
            },
            "decrement_stack": {}
          },
          {
            "weight": 1,
            "run_command": {
              "command": [
                "give @s btr:versatility_book",
                "playsound item.book.page_turn @a [r=10] ~~~ 0.5"
              ]
            },
            "decrement_stack": {}
          },
          {
            "weight": 3,
            "run_command": {
              "command": [
                "give @s btr:agility_i_book",
                "playsound item.book.page_turn @a [r=10] ~~~ 0.5"
              ]
            },
            "decrement_stack": {}
          },
          {
            "weight": 2,
            "run_command": {
              "command": [
                "give @s btr:agility_ii_book",
                "playsound item.book.page_turn @a [r=10] ~~~ 0.5"
              ]
            },
            "decrement_stack": {}
          },
          {
            "weight": 1,
            "run_command": {
              "command": [
                "give @s btr:vitality_book",
                "playsound item.book.page_turn @a [r=10] ~~~ 0.5"
              ]
            },
            "decrement_stack": {}
          },
          {
            "weight": 3,
            "run_command": {
              "command": [
                "give @s btr:high_jump_i_book",
                "playsound item.book.page_turn @a [r=10] ~~~ 0.5"
              ]
            },
            "decrement_stack": {}
          },
          {
            "weight": 2,
            "run_command": {
              "command": [
                "give @s btr:high_jump_ii_book",
                "playsound item.book.page_turn @a [r=10] ~~~ 0.5"
              ]
            },
            "decrement_stack": {}
          }
        ]
      }
    }
  }
}