{
	"format_version" : "1.8.0",
	"animations" : {
		"animation.projectile.blazing_pearl" : {
			"loop" : true,
      "bones": {
        "body": {
          "rotation": [ "query.camera_rotation(0)", "query.camera_rotation(1)", 0.0 ]
        }
      },
      "particle_effects": {
        "3.0": [
          {
            "effect": "fire_particle"
          },
          {
            "effect": "nicothekid:water_particle"
          }
        ]
      }
		}
	}
}
