{
	"file_path": "C:\\Users\\plant\\AppData\\Local\\Packages\\Microsoft.MinecraftUWP_8wekyb3d8bbwe\\LocalState\\games\\com.mojang\\development_behavior_packs\\Village and Pillage+\\recipes\\topaz_from_block.json",
	"file_type": "recipe",
	"format_version": 1,
	"file_uuid": "8f778a5e_fd62_4be6_9987_1138dbd4f52f",
	"file_version": 11,
	"cache_content": {
		"children": [
			{
				"data": "1.16",
				"key": "format_version"
			},
			{
				"open": {
					"format_version": 1.16,
					"minecraft:recipe_shaped": {
						"description": {
							"identifier": "v:topaz_from_block"
						},
						"tags": [
							"crafting_table"
						],
						"pattern": [
							"A"
						],
						"key": {
							"A": {
								"item": "v:topaz_block"
							}
						},
						"result": [
							{
								"count": 4,
								"item": "v:topaz"
							}
						]
					}
				},
				"key": "minecraft:recipe_shaped",
				"children": [
					{
						"open": {
							"description": {
								"identifier": "v:topaz_from_block"
							},
							"tags": [
								"crafting_table"
							],
							"pattern": [
								"A"
							],
							"key": {
								"A": {
									"item": "v:topaz_block"
								}
							},
							"result": [
								{
									"count": 4,
									"item": "v:topaz"
								}
							]
						},
						"key": "description",
						"is_minified": true,
						"children": {
							"identifier": "v:topaz_from_block"
						}
					},
					{
						"key": "tags",
						"is_minified": true,
						"children": [
							"crafting_table"
						]
					},
					{
						"open": {
							"description": {
								"identifier": "v:topaz_from_block"
							},
							"tags": [
								"crafting_table"
							],
							"pattern": [
								"A"
							],
							"key": {
								"A": {
									"item": "v:topaz_block"
								}
							},
							"result": [
								{
									"count": 4,
									"item": "v:topaz"
								}
							]
						},
						"key": "pattern",
						"is_minified": true,
						"children": [
							"A"
						]
					},
					{
						"open": {
							"description": {
								"identifier": "v:topaz_from_block"
							},
							"tags": [
								"crafting_table"
							],
							"pattern": [
								"A"
							],
							"key": {
								"A": {
									"item": "v:topaz_block"
								}
							},
							"result": [
								{
									"count": 4,
									"item": "v:topaz"
								}
							]
						},
						"key": "key",
						"children": [
							{
								"open": {
									"A": {
										"item": "v:topaz_block"
									}
								},
								"key": "A",
								"is_minified": true,
								"children": {
									"item": "v:topaz_block"
								}
							}
						]
					},
					{
						"open": {
							"description": {
								"identifier": "v:topaz_from_block"
							},
							"tags": [
								"crafting_table"
							],
							"pattern": [
								"A"
							],
							"key": {
								"A": {
									"item": "v:topaz_block"
								}
							},
							"result": [
								{
									"count": 4,
									"item": "v:topaz"
								}
							]
						},
						"key": "result",
						"children": [
							{
								"open": [
									{
										"count": 4,
										"item": "v:topaz"
									}
								],
								"is_minified": true,
								"children": {
									"count": 4,
									"item": "v:topaz"
								}
							}
						]
					}
				]
			}
		]
	}
}