{
	"file_path": "C:\\Users\\plant\\AppData\\Local\\Packages\\Microsoft.MinecraftUWP_8wekyb3d8bbwe\\LocalState\\games\\com.mojang\\development_behavior_packs\\Village and Pillage+\\recipes\\totem_craft_copy.json",
	"file_type": "recipe",
	"format_version": 1,
	"file_uuid": "d4d58709_4d03_4c9f_825e_66503f7d5e9a",
	"file_version": 19,
	"cache_content": {
		"children": [
			{
				"data": "1.17.0",
				"key": "format_version"
			},
			{
				"open": {
					"format_version": "1.17.0",
					"minecraft:recipe_shaped": {
						"description": {
							"identifier": "v:totem_craft_copy"
						},
						"tags": [
							"revive_table"
						],
						"pattern": [
							" + ",
							"#*#",
							" #"
						],
						"key": {
							"+": {
								"item": "minecraft:redstone_block"
							},
							"#": {
								"item": "minecraft:diamond_block"
							},
							"*": {
								"item": "v:totem_heart"
							}
						},
						"result": [
							{
								"item": "v:totem_of_copy"
							}
						]
					}
				},
				"key": "minecraft:recipe_shaped",
				"children": [
					{
						"open": {
							"description": {
								"identifier": "v:totem_craft_copy"
							},
							"tags": [
								"revive_table"
							],
							"pattern": [
								" + ",
								"#*#",
								" #"
							],
							"key": {
								"+": {
									"item": "minecraft:redstone_block"
								},
								"#": {
									"item": "minecraft:diamond_block"
								},
								"*": {
									"item": "v:totem_heart"
								}
							},
							"result": [
								{
									"item": "v:totem_of_copy"
								}
							]
						},
						"key": "description",
						"is_minified": true,
						"children": {
							"identifier": "v:totem_craft_copy"
						}
					},
					{
						"open": {
							"description": {
								"identifier": "v:totem_craft_copy"
							},
							"tags": [
								"revive_table"
							],
							"pattern": [
								" + ",
								"#*#",
								" #"
							],
							"key": {
								"+": {
									"item": "minecraft:redstone_block"
								},
								"#": {
									"item": "minecraft:diamond_block"
								},
								"*": {
									"item": "v:totem_heart"
								}
							},
							"result": [
								{
									"item": "v:totem_of_copy"
								}
							]
						},
						"key": "tags",
						"is_minified": true,
						"children": [
							"revive_table"
						]
					},
					{
						"open": {
							"description": {
								"identifier": "v:totem_craft_copy"
							},
							"tags": [
								"revive_table"
							],
							"pattern": [
								" + ",
								"#*#",
								" #"
							],
							"key": {
								"+": {
									"item": "minecraft:redstone_block"
								},
								"#": {
									"item": "minecraft:diamond_block"
								},
								"*": {
									"item": "v:totem_heart"
								}
							},
							"result": [
								{
									"item": "v:totem_of_copy"
								}
							]
						},
						"key": "pattern",
						"is_minified": true,
						"children": [
							" + ",
							"#*#",
							" #"
						]
					},
					{
						"open": {
							"description": {
								"identifier": "v:totem_craft_copy"
							},
							"tags": [
								"revive_table"
							],
							"pattern": [
								" + ",
								"#*#",
								" #"
							],
							"key": {
								"+": {
									"item": "minecraft:redstone_block"
								},
								"#": {
									"item": "minecraft:diamond_block"
								},
								"*": {
									"item": "v:totem_heart"
								}
							},
							"result": [
								{
									"item": "v:totem_of_copy"
								}
							]
						},
						"key": "key",
						"children": [
							{
								"open": {
									"+": {
										"item": "minecraft:redstone_block"
									},
									"#": {
										"item": "minecraft:diamond_block"
									},
									"*": {
										"item": "v:totem_heart"
									}
								},
								"key": "+",
								"is_minified": true,
								"children": {
									"item": "minecraft:redstone_block"
								}
							},
							{
								"open": {
									"+": {
										"item": "minecraft:redstone_block"
									},
									"#": {
										"item": "minecraft:diamond_block"
									},
									"*": {
										"item": "v:totem_heart"
									}
								},
								"key": "#",
								"is_minified": true,
								"children": {
									"item": "minecraft:diamond_block"
								}
							},
							{
								"open": {
									"+": {
										"item": "minecraft:redstone_block"
									},
									"#": {
										"item": "minecraft:diamond_block"
									},
									"*": {
										"item": "v:totem_heart"
									}
								},
								"key": "*",
								"is_minified": true,
								"children": {
									"item": "v:totem_heart"
								}
							}
						]
					},
					{
						"open": {
							"description": {
								"identifier": "v:totem_craft_copy"
							},
							"tags": [
								"revive_table"
							],
							"pattern": [
								" + ",
								"#*#",
								" #"
							],
							"key": {
								"+": {
									"item": "minecraft:redstone_block"
								},
								"#": {
									"item": "minecraft:diamond_block"
								},
								"*": {
									"item": "v:totem_heart"
								}
							},
							"result": [
								{
									"item": "v:totem_of_copy"
								}
							]
						},
						"key": "result",
						"children": [
							{
								"open": [
									{
										"item": "v:totem_of_copy"
									}
								],
								"is_minified": true,
								"children": {
									"item": "v:totem_of_copy"
								}
							}
						]
					}
				]
			}
		]
	}
}