{
	"format_version": "1.12.0",
	"minecraft:geometry": [
		{
			"description": {
				"identifier": "geometry.experience_storage_block",
				"texture_width": 32,
				"texture_height": 32,
				"visible_bounds_width": 2,
				"visible_bounds_height": 2.5,
				"visible_bounds_offset": [0, 0.75, 0]
			},
			"bones": [
				{
					"name": "bb_main",
					"pivot": [0, 0, 0],
					"cubes": [
						{
							"origin": [-8, 0, -8],
							"size": [16, 10, 16],
							"uv": {
								"north": {"uv": [0, 20], "uv_size": [16, 10]},
								"east": {"uv": [0, 20], "uv_size": [16, 10]},
								"south": {"uv": [0, 20], "uv_size": [16, 10]},
								"west": {"uv": [0, 20], "uv_size": [16, 10]},
								"up": {"uv": [16, 16], "uv_size": [-16, -16]},
								"down": {"uv": [32, 16], "uv_size": [-16, -16]}
							}
						}
					]
				}
			]
		}
	]
}