{
	"format_version": [
		1,
		1,
		0
	],
	"nether:death_cap_fence_gate": {
		"sound": "stem"
	},
	"nether:death_cap_fence": {
		"sound": "stem"
	},
	"nether:death_cap_hyphae": {
		"sound": "stem"
	},
	"nether:death_cap_planks": {
		"sound": "stem"
	},
	"nether:death_cap_slab": {
		"sound": "stem"
	},
	"nether:death_cap_stairs": {
		"sound": "stem"
	},
	"vote:death_cap_stem": {
		"sound": "stem"
	},
	"nether:stripped_death_cap_hyphae": {
		"sound": "stem"
	},
	"nether:stripped_death_cap_stem": {
		"sound": "stem"
	},
	"vote:death_wart_cap_block": {
		"sound": "nether_wart"
	},
	"nether:death_cap_fungus": {
		"sound": "fungus"
	},
	"nether:death_cap_nylium": {
		"sound": "nylium"
	},
	"nether:burmastone": {
		"sound": "netherrack"
	},
	"nether:death_cap_trapdoor": {
		"sound": "stem"
	},
	"nether:polished_burmastone": {
		"sound": "netherrack"
	},
	"nether:polished_burmastone_bricks": {
		"sound": "netherrack"
	},
	"nether:death_cap_bloom": {
		"sound": "fungus"
	},
	"nether:chaga_fence_gate": {
		"sound": "stem"
	},
	"nether:chaga_fence": {
		"sound": "stem"
	},
	"nether:chaga_hyphae": {
		"sound": "stem"
	},
	"nether:chaga_planks": {
		"sound": "stem"
	},
	"nether:chaga_slab": {
		"sound": "stem"
	},
	"nether:chaga_stem": {
		"sound": "stem"
	},
	"nether:stripped_chaga_hyphae": {
		"sound": "stem"
	},
	"nether:stripped_chaga_stem": {
		"sound": "stem"
	},
	"nether:chaga_wart_block": {
		"sound": "nether_wart"
	},
	"nether:chaga_trapdoor": {
		"sound": "stem"
	},
	"nether:chaga_leaf": {
		"sound": "nether_wart"
	},
	"nether:chagashroom": {
		"sound": "nether_wart"
	},
	"nether:paraibya_stone": {
		"sound": "nylium"
	},
	"nether:berly_shale_stone": {
		"sound": "deepslate_bricks"
	},
	"nether:polished_paraibya_stone": {
		"sound": "nylium"
	},
	"nether:polished_paraibya_stone_bricks": {
		"sound": "nylium"
	},
	"nether:polished_berly_shale_bricks": {
		"sound": "deepslate_bricks"
	},
	"nether:polished_berly_shale": {
		"sound": "deepslate_bricks"
	},
	"nether:psilocybe_fence_gate": {
		"sound": "stem"
	},
	"nether:psilocybe_fence": {
		"sound": "stem"
	},
	"nether:psilocybe_hyphae": {
		"sound": "stem"
	},
	"nether:psilocybe_planks": {
		"sound": "stem"
	},
	"nether:psilocybe_slab": {
		"sound": "stem"
	},
	"nether:psilocybe_stem": {
		"sound": "stem"
	},
	"nether:stripped_psilocybe_hyphae": {
		"sound": "stem"
	},
	"nether:stripped_psilocybe_stem": {
		"sound": "stem"
	},
	"nether:psilocybe_wart_block": {
		"sound": "nether_wart"
	},
	"nether:psilocybe_trapdoor": {
		"sound": "stem"
	},
	"nether:psilocybe_sapling": {
		"sound": "fungus"
	},
	"nether:mercury_interiored_netherrack": {
		"sound": "netherrack"
	},
	"nether:gallium_interiored_netherrack": {
		"sound": "netherrack"
	}
}