{
	"entity_sounds": {
		"entities": {
			"nether:warped_blaze": {
				"events": {
					"ambient": "mob.blaze.breathe",
					"death": "mob.blaze.death",
					"hurt": "mob.blaze.hit",
					"shoot": "mob.blaze.shoot"
				},
				"pitch": [
					0.8,
					1.2
				],
				"volume": 1
			},
			"nether:crimson_blaze": {
				"events": {
					"ambient": "mob.blaze.breathe",
					"death": "mob.blaze.death",
					"hurt": "mob.blaze.hit",
					"shoot": "mob.blaze.shoot"
				},
				"pitch": [
					0.8,
					1.2
				],
				"volume": 1
			},
			"nether:crimson_mooshroom": {
				"events": {
					"ambient": "mob.cow.say",
					"death": "mob.cow.hurt",
					"hurt": "mob.cow.hurt",
					"step": "mob.cow.step"
				},
				"volume": 1,
				"pitch": [
					0.8,
					1.2
				]
			},
			"nether:chaga_mooshroom": {
				"events": {
					"ambient": "mob.cow.say",
					"death": "mob.cow.hurt",
					"hurt": "mob.cow.hurt",
					"step": "mob.cow.step"
				},
				"volume": 1,
				"pitch": [
					0.8,
					1.2
				]
			},
			"nether:warped_mooshroom": {
				"events": {
					"ambient": "mob.cow.say",
					"death": "mob.cow.hurt",
					"hurt": "mob.cow.hurt",
					"step": "mob.cow.step"
				},
				"volume": 1,
				"pitch": [
					0.8,
					1.2
				]
			}
		}
	}
}