{
    "format_version": "1.10.0",
    "animation_controllers": {
        "controller.animation.amethyst_spear_teleport": {
            "states": {
                "default": {
                    "transitions": [
                        {
                            "alive": "query.is_alive"
						}
                    ]
                },
                "alive": {
					"on_entry": [
						"/execute @p[tag=spear_attacking] ~~~ tp @e[c=1,type=yes:amethyst_spear_entity] ~ ~ ~"
					],
                    "transitions": [
                        {
                            "default": "query.is_alive"
						}
                    ],
                    "on_exit": [
                        "/execute @p[tag=spear_attacking] ~~~ tp @e[c=1,type=yes:amethyst_spear_entity] ~ ~ ~"
                    ]
                }
            }
        }
    }
}