{
  "format_version": "1.12",
  "minecraft:recipe_shaped": {
    "description": {
      "identifier": "nicothekid:artif_x_netherite_scrap_x_netherite_powder"
    },
    "tags": [
      "artifacture_table"
    ],
    "pattern": [
      " N ",
      "NCN",
      " N "
    ],
    "key": {
      "N": {
        "item": "nicothekid:netherite_powder"
      },
      "C": {
        "item": "nicothekid:copper_scrap"
      }
    },
    "result": {
      "item": "minecraft:netherite_scrap",
      "count": 1
    }
  }
}
