{
  "format_version": "1.12",
  "minecraft:recipe_shaped": {
    "description": {
      "identifier": "nicothekid:artif_x_totem"
    },
    "tags": [
      "artifacture_table"
    ],
    "pattern": [
      "EGE",
      "GGG",
      " G "
    ],
    "key": {
      "E": {
        "item": "nicothekid:enchanted_emerald"
      },
      "G": {
        "item": "minecraft:gold_ingot"
      }
    },
    "result": {
      "item": "minecraft:totem",
      "count": 1
    }
  }
}
