{
  "format_version": "1.12",
  "minecraft:recipe_shaped": {
    "description": {
      "identifier": "nicothekid:artif_x_diamond_x_diamond_powder"
    },
    "tags": [
      "artifacture_table"
    ],
    "pattern": [
      " D ",
      "DQD",
      " D "
    ],
    "key": {
      "D": {
        "item": "nicothekid:diamond_powder"
      },
      "Q": {
        "item": "minecraft:quartz"
      }
    },
    "result": {
      "item": "minecraft:diamond",
      "count": 1
    }
  }
}
