{
  "format_version": "1.12",
  "minecraft:recipe_shapeless": {
    "description": {
      "identifier": "nicothekid:artif_x_amethyst_shard_x_amethyst_bud_medium"
    },
    "tags": [
      "artifacture_table"
    ],
    "ingredients": [
      {
        "item": "minecraft:medium_amethyst_bud"
      }
    ],
    "result": {
      "item": "minecraft:amethyst_shard",
      "count": 1
    }
  }
}
