{
  "format_version": "1.12",
  "minecraft:recipe_shapeless": {
    "description": {
      "identifier": "nicothekid:artif_x_copper_scrap_x_copper_ingot"
    },
    "tags": [
      "artifacture_table"
    ],
    "ingredients": [
      {
        "item": "minecraft:copper_ingot"
      }
    ],
    "result": {
      "item": "nicothekid:copper_scrap",
      "count": 2
    }
  }
}
