{
  "format_version": "1.12",
  "minecraft:recipe_shapeless": {
    "description": {
      "identifier": "nicothekid:artif_x_pearl"
    },
    "tags": [
      "artifacture_table"
    ],
    "ingredients": [
      {
        "item": "nicothekid:calcite_chunk"
      }
    ],
    "result": {
      "item": "nicothekid:pearl",
      "count": 1
    }
  }
}
