{
  "format_version": "1.12",
  "minecraft:recipe_shaped": {
    "description": {
      "identifier": "nicothekid:artif_x_enchanted_emerald"
    },
    "tags": [
      "artifacture_table"
    ],
    "pattern": [
      "D",
      "E"
    ],
    "key": {
      "D": {
        "item": "nicothekid:enchanted_dust"
      },
      "E": {
        "item": "minecraft:emerald"
      }
    },
    "result": {
      "item": "nicothekid:enchanted_emerald",
      "count": 1
    }
  }
}
