{
  "format_version": "1.12",
  "minecraft:recipe_shaped": {
    "description": {
      "identifier": "nicothekid:artif_x_elytra"
    },
    "tags": [
      "artifacture_table"
    ],
    "pattern": [
      "ENE",
      "ESE",
      "ESE"
    ],
    "key": {
      "E": {
        "item": "nicothekid:elytra_scrap"
      },
      "S": {
        "item": "minecraft:string"
      },
      "N": {
        "item": "minecraft:netherite_scrap"
      }
    },
    "result": {
      "item": "minecraft:elytra",
      "count": 1
    }
  }
}
