{
  "format_version": "1.12",
  "minecraft:recipe_shaped": {
    "description": {
      "identifier": "nicothekid:artif_x_amethyst_shard_x_amethyst_powder"
    },
    "tags": [
      "artifacture_table"
    ],
    "pattern": [
      " A ",
      "AQA",
      " A "
    ],
    "key": {
      "A": {
        "item": "nicothekid:amethyst_powder"
      },
      "Q": {
        "item": "minecraft:quartz"
      }
    },
    "result": {
      "item": "minecraft:amethyst_shard",
      "count": 1
    }
  }
}
