{
  "format_version": "1.12",
  "minecraft:recipe_shapeless": {
    "description": {
      "identifier": "nicothekid:artif_x_gold_powder_x_gold_nugget"
    },
    "tags": [
      "artifacture_table"
    ],
    "ingredients": [
      {
        "item": "minecraft:gold_nugget"
      }
    ],
    "result": {
      "item": "nicothekid:gold_powder",
      "count": 1
    }
  }
}
