{
  "format_version": "1.12",
  "minecraft:recipe_shaped": {
    "description": {
      "identifier": "nicothekid:artif_x_charcoal_x_charcoal_powder"
    },
    "tags": [
      "artifacture_table"
    ],
    "pattern": [
      "CCC",
      "CCC",
      "CCC"
    ],
    "key": {
      "C": {
        "item": "nicothekid:charcoal_powder"
      }
    },
    "result": {
      "item": "minecraft:charcoal",
      "count": 1
    }
  }
}
