{
  "format_version": "1.12",
  "minecraft:recipe_furnace": {
    "description": {
      "identifier": "nicothekid:blast_x_waxed_copper_weathered"
    },
    "tags": [
      "blast_furnace"
    ],
    "input": {
      "item": "minecraft:waxed_weathered_copper"
    },
    "output": {
      "item": "nicothekid:copper_scrap",
      "count": 8
    }
  }
}
