{
  "format_version": "1.12",
  "minecraft:recipe_furnace": {
    "description": {
      "identifier": "nicothekid:blast_x_golden_chain"
    },
    "tags": [
      "blast_furnace"
    ],
    "input": {
      "item": "nicothekid:golden_chain"
    },
    "output": {
      "item": "nicothekid:gold_powder",
      "count": 1
    }
  }
}