{
  "format_version": "1.12",
  "minecraft:recipe_furnace": {
    "description": {
      "identifier": "nicothekid:blast_x_horse_armor_diamond"
    },
    "tags": [
      "blast_furnace"
    ],
    "input": {
      "item": "minecraft:horsearmordiamond"
    },
    "output": {
      "item": "nicothekid:diamond_powder",
      "count": 1
    }
  }
}