{
  "format_version": "1.12",
  "minecraft:recipe_shaped": {
    "description": {
      "identifier": "nicothekid:craft_x_jar_milk_full_x_bamboo_tumbler_milk"
    },
    "tags": [
      "crafting_table"
    ],
    "pattern": [
      "JM"
    ],
    "key": {
      "J": {
        "item": "nicothekid:jar_milk_half"
      },
      "M": {
        "item": "nicothekid:bamboo_tumbler_milk"
      }
    },
    "result": [
      {
        "item": "nicothekid:jar_milk_full",
        "count": 1
      },
      {
        "item": "nicothekid:bamboo_tumbler_empty",
        "count": 1
      }
    ]
  }
}
