{
  "format_version": "1.12",
  "minecraft:recipe_shaped": {
    "description": {
      "identifier": "nicothekid:craft_x_bamboo_tumbler_water_x_bottle"
    },
    "tags": [
      "crafting_table"
    ],
    "pattern": [
      "BW"
    ],
    "key": {
      "B": {
        "item": "minecraft:potion"
      },
      "W": {
        "item": "nicothekid:bamboo_tumbler_empty"
      }
    },
    "result": [
      {
        "item": "nicothekid:bamboo_tumbler_water",
        "count": 1
      },
      {
        "item": "minecraft:glass_bottle",
        "count": 1,
        "data": 0
      }
    ]
  }
}
