{
  "format_version": "1.12",
  "minecraft:recipe_shaped": {
    "description": {
      "identifier": "nicothekid:craft_x_jar_water_full_x_jar_water_half"
    },
    "tags": [
      "crafting_table"
    ],
    "pattern": [
      "JJ"
    ],
    "key": {
      "J": {
        "item": "nicothekid:jar_water_half"
      }
    },
    "result": [
      {
        "item": "nicothekid:jar_water_full",
        "count": 1
      },
      {
        "item": "nicothekid:jar_empty",
        "count": 1
      }
    ]
  }
}
