{
  "format_version": "1.12",
  "minecraft:recipe_shaped": {
    "description": {
      "identifier": "nicothekid:craft_x_chain_links"
    },
    "tags": [
      "crafting_table"
    ],
    "pattern": [
      "II",
      "II"
    ],
    "key": {
      "I": {
        "item": "minecraft:iron_nugget"
      }
    },
    "result": {
      "item": "nicothekid:chain_links",
      "count": 1
    }
  }
}
