{
  "format_version": "1.12",
  "minecraft:recipe_shaped": {
    "description": {
      "identifier": "nicothekid:craft_x_bamboo_tumbler_chocolate"
    },
    "tags": [
      "crafting_table"
    ],
    "pattern": [
      "CS",
      "B "
    ],
    "key": {
      "C": {
        "item": "nicothekid:cocoa_powder"
      },
      "S": {
        "item": "minecraft:sugar"
      },
      "B": {
        "item": "nicothekid:bamboo_tumbler_water"
      }
    },
    "result": {
      "item": "nicothekid:bamboo_tumbler_chocolate",
      "count": 1
    }
  }
}
