{
  "format_version": "1.12",
  "minecraft:recipe_shaped": {
    "description": {
      "identifier": "nicothekid:craft_x_dripstone_club"
    },
    "tags": [
      "crafting_table"
    ],
    "pattern": [
      "DPD",
      "DPD",
      " P "
    ],
    "key": {
      "D": {
        "item": "minecraft:pointed_dripstone"
      },
      "P": {
        "item": "minecraft:planks"
      }
    },
    "result": {
      "item": "nicothekid:dripstone_club",
      "count": 1
    }
  }
}
