{
  "format_version": "1.12",
  "minecraft:recipe_shaped": {
    "description": {
      "identifier": "nicothekid:craft_x_evaporator_copper_empty"
    },
    "tags": [
      "crafting_table"
    ],
    "pattern": [
      "S S",
      "C C",
      "CCC"
    ],
    "key": {
      "S": {
        "item": "nicothekid:copper_scrap"
      },
      "C": {
        "item": "minecraft:copper_ingot"
      }
    },
    "result": {
      "item": "nicothekid:evaporator_copper_empty",
      "count": 1
    }
  }
}
