{
  "format_version": "1.12",
  "minecraft:recipe_shaped": {
    "description": {
      "identifier": "nicothekid:craft_x_jar_honey_half_x_honey_bottle"
    },
    "tags": [
      "crafting_table"
    ],
    "pattern": [
      "JH"
    ],
    "key": {
      "J": {
        "item": "nicothekid:jar_empty"
      },
      "H": {
        "item": "minecraft:honey_bottle"
      }
    },
    "result": [
      {
        "item": "nicothekid:jar_honey_half",
        "count": 1
      },
      {
        "item": "minecraft:glass_bottle",
        "count": 1,
        "data": 0
      }
    ]
  }
}
