{
  "format_version": "1.12",
  "minecraft:recipe_shaped": {
    "description": {
      "identifier": "nicothekid:craft_x_copper_axe"
    },
    "tags": [
      "crafting_table"
    ],
    "pattern": [
      "CC ",
      "CS ",
      " S "
    ],
    "key": {
      "C": {
        "item": "minecraft:copper_ingot"
      },
      "S": {
        "item": "minecraft:stick"
      }
    },
    "result": {
      "item": "nicothekid:copper_axe",
      "count": 1
    }
  }
}
