{
  "format_version": "1.12",
  "minecraft:recipe_shaped": {
    "description": {
      "identifier": "nicothekid:craft_x_jar_empty_x_planks_crimson"
    },
    "tags": [
      "crafting_table"
    ],
    "pattern": [
      "P",
      "G"
    ],
    "key": {
      "P": {
        "item": "minecraft:crimson_planks"
      },
      "G": {
        "item": "minecraft:glass"
      }
    },
    "result": {
      "item": "nicothekid:jar_empty",
      "count": 1
    }
  }
}
