{
  "format_version": "1.12",
  "minecraft:recipe_shaped": {
    "description": {
      "identifier": "nicothekid:craft_x_magma_club_x_warped_planks"
    },
    "tags": [
      "crafting_table"
    ],
    "pattern": [
      " M ",
      " M ",
      " P "
    ],
    "key": {
      "M": {
        "item": "minecraft:magma"
      },
      "P": {
        "item": "minecraft:warped_planks"
      }
    },
    "result": {
      "item": "nicothekid:magma_club",
      "count": 1
    }
  }
}
