{
  "format_version": "1.12",
  "minecraft:recipe_shaped": {
    "description": {
      "identifier": "nicothekid:craft_x_crimson_stew"
    },
    "tags": [
      "crafting_table"
    ],
    "pattern": [
      "CCC",
      " B "
    ],
    "key": {
      "C": {
        "item": "minecraft:crimson_fungus"
      },
      "B": {
        "item": "minecraft:bowl"
      }
    },
    "result": {
      "item": "nicothekid:crimson_stew",
      "count": 1
    }
  }
}
