{
  "format_version": "1.12",
  "minecraft:recipe_shaped": {
    "description": {
      "identifier": "nicothekid:craft_x_chainmail_leggings"
    },
    "tags": [
      "crafting_table"
    ],
    "pattern": [
      "CCC",
      "C C",
      "C C"
    ],
    "key": {
      "C": {
        "item": "nicothekid:chain_links"
      }
    },
    "result": {
      "item": "minecraft:chainmail_leggings",
      "count": 1
    }
  }
}
