{
  "format_version": "1.12",
  "minecraft:recipe_shaped": {
    "description": {
      "identifier": "nicothekid:craft_x_sweet_berry_cookie"
    },
    "tags": [
      "crafting_table"
    ],
    "pattern": [
      "SWS"
    ],
    "key": {
      "S": {
        "item": "minecraft:sweet_berries"
      },
      "W": {
        "item": "minecraft:wheat"
      }
    },
    "result": {
      "item": "nicothekid:sweet_berry_cookie",
      "count": 2
    }
  }
}
