{
  "format_version": "1.12",
  "minecraft:recipe_furnace": {
    "description": {
      "identifier": "nicothekid:furnace_x_golden_chain"
    },
    "tags": [
      "furnace"
    ],
    "input": {
      "item": "nicothekid:golden_chain"
    },
    "output": {
      "item": "minecraft:gold_nugget",
      "count": 1
    }
  }
}