{
  "format_version": "1.12",
  "minecraft:recipe_furnace": {
    "description": {
      "identifier": "nicothekid:furnace_x_book_n_quill"
    },
    "tags": [
      "furnace"
    ],
    "input": {
      "item": "minecraft:writable_book"
    },
    "output": {
      "item": "nicothekid:leather_scrap",
      "count": 1
    }
  }
}
