{
  "format_version": "1.12",
  "minecraft:recipe_furnace": {
    "description": {
      "identifier": "nicothekid:furnace_x_melon_seeds"
    },
    "tags": [
      "furnace"
    ],
    "input": {
      "item": "minecraft:melon_seeds"
    },
    "output": {
      "item": "nicothekid:roasted_melon_seeds",
      "count": 1
    }
  }
}