{
  "format_version": "1.12",
  "minecraft:recipe_shapeless": {
    "description": {
    "identifier": "vatonage:speed_ring2"
    },

    
    "tags": [ "crafting_table" ],
    "ingredients": [
      {
        "item": "vatonage:empty_ring"
      },
      {
        "item": "minecraft:potion",
        "data": 16
      }
    ],
    "result": {
      "item": "vatonage:speed_ring"
    }
  }
}
