{
	"file_path": "C:\\Users\\plant\\AppData\\Local\\Packages\\Microsoft.MinecraftUWP_8wekyb3d8bbwe\\LocalState\\games\\com.mojang\\development_behavior_packs\\Village and Pillage+\\feature_rules\\garnet_ore_feature_rule.json",
	"file_type": "feature_rule",
	"format_version": 1,
	"file_uuid": "8dcecb46_3317_4240_9e79_e5a96f3d1358",
	"file_version": 21,
	"cache_content": {
		"children": [
			{
				"data": "1.17.0",
				"key": "format_version"
			},
			{
				"open": {
					"format_version": "1.17.0",
					"minecraft:feature_rules": {
						"description": {
							"identifier": "v:garnet_ore_feature_rule",
							"places_feature": "v:garnet_ore_feature"
						},
						"conditions": {
							"placement_pass": "first_pass",
							"minecraft:biome_filter": {
								"test": "has_biome_tag",
								"operator": "==",
								"value": "overworld"
							}
						},
						"distribution": {
							"iterations": 9,
							"x": {
								"distribution": "uniform",
								"extent": [
									0,
									16
								]
							},
							"y": {
								"distribution": "uniform",
								"extent": [
									0,
									64
								]
							},
							"z": {
								"distribution": "uniform",
								"extent": [
									0,
									16
								]
							}
						}
					}
				},
				"key": "minecraft:feature_rules",
				"children": [
					{
						"open": {
							"description": {
								"identifier": "v:garnet_ore_feature_rule",
								"places_feature": "v:garnet_ore_feature"
							},
							"conditions": {
								"placement_pass": "first_pass",
								"minecraft:biome_filter": {
									"test": "has_biome_tag",
									"operator": "==",
									"value": "overworld"
								}
							},
							"distribution": {
								"iterations": 9,
								"x": {
									"distribution": "uniform",
									"extent": [
										0,
										16
									]
								},
								"y": {
									"distribution": "uniform",
									"extent": [
										0,
										64
									]
								},
								"z": {
									"distribution": "uniform",
									"extent": [
										0,
										16
									]
								}
							}
						},
						"key": "description",
						"is_minified": true,
						"children": {
							"identifier": "v:garnet_ore_feature_rule",
							"places_feature": "v:garnet_ore_feature"
						}
					},
					{
						"open": {
							"description": {
								"identifier": "v:garnet_ore_feature_rule",
								"places_feature": "v:garnet_ore_feature"
							},
							"conditions": {
								"placement_pass": "first_pass",
								"minecraft:biome_filter": {
									"test": "has_biome_tag",
									"operator": "==",
									"value": "overworld"
								}
							},
							"distribution": {
								"iterations": 9,
								"x": {
									"distribution": "uniform",
									"extent": [
										0,
										16
									]
								},
								"y": {
									"distribution": "uniform",
									"extent": [
										0,
										64
									]
								},
								"z": {
									"distribution": "uniform",
									"extent": [
										0,
										16
									]
								}
							}
						},
						"key": "conditions",
						"children": [
							{
								"data": "first_pass",
								"key": "placement_pass"
							},
							{
								"open": {
									"placement_pass": "first_pass",
									"minecraft:biome_filter": {
										"test": "has_biome_tag",
										"operator": "==",
										"value": "overworld"
									}
								},
								"key": "minecraft:biome_filter",
								"is_minified": true,
								"children": {
									"test": "has_biome_tag",
									"operator": "==",
									"value": "overworld"
								}
							}
						]
					},
					{
						"open": {
							"description": {
								"identifier": "v:garnet_ore_feature_rule",
								"places_feature": "v:garnet_ore_feature"
							},
							"conditions": {
								"placement_pass": "first_pass",
								"minecraft:biome_filter": {
									"test": "has_biome_tag",
									"operator": "==",
									"value": "overworld"
								}
							},
							"distribution": {
								"iterations": 9,
								"x": {
									"distribution": "uniform",
									"extent": [
										0,
										16
									]
								},
								"y": {
									"distribution": "uniform",
									"extent": [
										0,
										64
									]
								},
								"z": {
									"distribution": "uniform",
									"extent": [
										0,
										16
									]
								}
							}
						},
						"key": "distribution",
						"children": [
							{
								"open": {
									"iterations": 9,
									"x": {
										"distribution": "uniform",
										"extent": [
											0,
											16
										]
									},
									"y": {
										"distribution": "uniform",
										"extent": [
											0,
											64
										]
									},
									"z": {
										"distribution": "uniform",
										"extent": [
											0,
											16
										]
									}
								},
								"data": "9",
								"key": "iterations"
							},
							{
								"open": {
									"iterations": 9,
									"x": {
										"distribution": "uniform",
										"extent": [
											0,
											16
										]
									},
									"y": {
										"distribution": "uniform",
										"extent": [
											0,
											64
										]
									},
									"z": {
										"distribution": "uniform",
										"extent": [
											0,
											16
										]
									}
								},
								"key": "x",
								"children": [
									{
										"data": "uniform",
										"key": "distribution"
									},
									{
										"open": {
											"distribution": "uniform",
											"extent": [
												0,
												16
											]
										},
										"key": "extent",
										"is_minified": true,
										"children": [
											0,
											16
										]
									}
								]
							},
							{
								"open": {
									"iterations": 9,
									"x": {
										"distribution": "uniform",
										"extent": [
											0,
											16
										]
									},
									"y": {
										"distribution": "uniform",
										"extent": [
											0,
											64
										]
									},
									"z": {
										"distribution": "uniform",
										"extent": [
											0,
											16
										]
									}
								},
								"key": "y",
								"children": [
									{
										"data": "uniform",
										"key": "distribution"
									},
									{
										"open": {
											"distribution": "uniform",
											"extent": [
												0,
												64
											]
										},
										"key": "extent",
										"is_minified": true,
										"children": [
											0,
											64
										]
									}
								]
							},
							{
								"open": {
									"iterations": 9,
									"x": {
										"distribution": "uniform",
										"extent": [
											0,
											16
										]
									},
									"y": {
										"distribution": "uniform",
										"extent": [
											0,
											64
										]
									},
									"z": {
										"distribution": "uniform",
										"extent": [
											0,
											16
										]
									}
								},
								"key": "z",
								"children": [
									{
										"data": "uniform",
										"key": "distribution"
									},
									{
										"open": {
											"distribution": "uniform",
											"extent": [
												0,
												16
											]
										},
										"key": "extent",
										"is_minified": true,
										"children": [
											0,
											16
										]
									}
								]
							}
						]
					}
				]
			}
		]
	}
}