{
    "format_version": "1.17.11",
    "minecraft:entity": {
        "description": {
            "identifier": "true:backpack",
            "is_spawnable": false,
            "is_summonable": true,
            "is_experimental": false,
            "scripts": {
              "animate": [
                "ui_scores",
                "box",
                "water_bucket",
                "lava_bucket",

                "tool_sword",

                "armor"
              ]
            },
            "animations": {
              "ui_scores": "controller.animation.ui_scores",
              "box":"controller.animation.no_box",
              "water_bucket":"controller.animation.water_bucket",
              "lava_bucket":"controller.animation.lava_bucket",
              "tool_sword":"controller.animation.sword_attachment",

              "armor":"controller.animation.cyber_armor"
            }
        },
        "component_groups": {
          "mark_0": {
            "minecraft:mark_variant": {
              "value": 0
            }
          },
          "tool_wood_sword": {
            "minecraft:mark_variant": {
              "value": 1
            }
          },
          "tool_stone_sword": {
            "minecraft:mark_variant": {
              "value": 2
            }
          },
          "tool_gold_sword": {
            "minecraft:mark_variant": {
              "value": 3
            }
          },
          "tool_iron_sword": {
            "minecraft:mark_variant": {
              "value": 4
            }
          },
          "tool_diamond_sword": {
            "minecraft:mark_variant": {
              "value": 5
            }
          },
          "tool_netherite_sword": {
            "minecraft:mark_variant": {
              "value": 6
            }
          },
          "tool_wood_axe": {
            "minecraft:mark_variant": {
              "value": 7
            }
          },
          "tool_stone_axe": {
            "minecraft:mark_variant": {
              "value": 8
            }
          },
          "tool_gold_axe": {
            "minecraft:mark_variant": {
              "value": 9
            }
          },
          "tool_iron_axe": {
            "minecraft:mark_variant": {
              "value": 10
            }
          },
          "tool_diamond_axe": {
            "minecraft:mark_variant": {
              "value": 11
            }
          },
          "tool_netherite_axe": {
            "minecraft:mark_variant": {
              "value": 12
            }
          },
          "tool_wood_pickaxe": {
            "minecraft:mark_variant": {
              "value": 13
            }
          },
          "tool_stone_pickaxe": {
            "minecraft:mark_variant": {
              "value": 14
            }
          },
          "tool_gold_pickaxe": {
            "minecraft:mark_variant": {
              "value": 15
            }
          },
          "tool_iron_pickaxe": {
            "minecraft:mark_variant": {
              "value": 16
            }
          },
          "tool_diamond_pickaxe": {
            "minecraft:mark_variant": {
              "value": 17
            }
          },
          "tool_netherite_pickaxe": {
            "minecraft:mark_variant": {
              "value": 18
            }
          },
          
          "tool_wood_shovel": {
            "minecraft:mark_variant": {
              "value": 19
            }
          },
          "tool_stone_shovel": {
            "minecraft:mark_variant": {
              "value": 20
            }
          },
          "tool_gold_shovel": {
            "minecraft:mark_variant": {
              "value": 21
            }
          },
          "tool_iron_shovel": {
            "minecraft:mark_variant": {
              "value": 22
            }
          },
          "tool_diamond_shovel": {
            "minecraft:mark_variant": {
              "value": 23
            }
          },
          "tool_netherite_shovel": {
            "minecraft:mark_variant": {
              "value": 24
            }
          },

          "tool_wood_hoe": {
            "minecraft:mark_variant": {
              "value": 25
            }
          },
          "tool_stone_hoe": {
            "minecraft:mark_variant": {
              "value": 26
            }
          },
          "tool_gold_hoe": {
            "minecraft:mark_variant": {
              "value": 27
            }
          },
          "tool_iron_hoe": {
            "minecraft:mark_variant": {
              "value": 28
            }
          },
          "tool_diamond_hoe": {
            "minecraft:mark_variant": {
              "value": 29
            }
          },
          "tool_netherite_hoe": {
            "minecraft:mark_variant": {
              "value": 30
            }
          },
          "tool_shears": {
            "minecraft:mark_variant": {
              "value": 31
            }
          },
          "tool_totem": {
            "minecraft:mark_variant": {
              "value": 32
            }
          },
          "fishing_rod": {
            "minecraft:mark_variant": {
              "value": 33
            }
          },


          
          "water_bucket":{
            "minecraft:is_baby": {  }
          },
          "lava_bucket":{
            "minecraft:is_illager_captain": {
            }
          },
          "si_box":{
            "minecraft:collision_box": {
              "width": 0.5,
              "height": 300
            }
          },
          "no_box":{
            "minecraft:collision_box": {
              "width": 0,
              "height": 0
            }
          },
          "interacts":{      
                "minecraft:interact": {
            "interactions": [
              {
                "on_interact": {
                  "filters": {
                    "test": "has_equipment",
                    "subject": "other",
                    "domain": "hand",
                    "value": "minecraft:red_dye"},
                  "event": "red_backpack"
                },
                "use_item": true,
                "play_sounds": "bucket.empty.fish"
              },
              {
                "on_interact": {
                  "filters": {
                    "test": "has_equipment",
                    "subject": "other",
                    "domain": "hand",
                    "value": "yellow_dye"},
                  "event": "yellow_backpack"
                },
                "use_item": true,
                "play_sounds": "bucket.empty.fish"
              },
              {
                "on_interact": {
                  "filters": {
                    "test": "has_equipment",
                    "subject": "other",
                    "domain": "hand",
                    "value": "minecraft:green_dye"},
                  "event": "green_backpack"
                },
                "use_item": true,
                "play_sounds": "bucket.empty.fish"
              },
              {
                "on_interact": {
                  "filters": {
                    "test": "has_equipment",
                    "subject": "other",
                    "domain": "hand",
                    "value": "minecraft:black_dye"
                  },
                  "event": "black_backpack"
                },
                "use_item": true,
                "play_sounds": "bucket.empty.fish"
              },
              {
                "on_interact": {
                  "filters": {
                    "test": "has_equipment",
                    "subject": "other",
                    "domain": "hand",
                    "value": "minecraft:blue_dye"},
                  "event": "blue_backpack"
                },
                "use_item": true,
                "play_sounds": "bucket.empty.fish"
              },
              {
                "on_interact": {
                  "filters": {
                    "test": "has_equipment",
                    "subject": "other",
                    "domain": "hand",
                    "value": "minecraft:brown_dye"},
                  "event": "brown_backpack"
                },
                "use_item": true,
                "play_sounds": "bucket.empty.fish"
              },
              {
                "on_interact": {
                  "filters": {
                    "test": "has_equipment",
                    "subject": "other",
                    "domain": "hand",
                    "value": "minecraft:purple_dye"},
                  "event": "purple_backpack"
                },
                "use_item": true,
                "play_sounds": "bucket.empty.fish"
              },
              {
                "on_interact": {
                  "filters": {
                    "test": "has_equipment",
                    "subject": "other",
                    "domain": "hand",
                    "value": "minecraft:pink_dye"},
                  "event": "pink_backpack"
                },
                "use_item": true,
                "play_sounds": "bucket.empty.fish"
              },
              {
                "on_interact": {
                  "filters": {
                    "test": "has_equipment",
                    "subject": "other",
                    "domain": "hand",
                    "value": "minecraft:orange_dye"},
                  "event": "orange_backpack"
                },
                "use_item": true,
                "play_sounds": "bucket.empty.fish"
              },
              {
                "on_interact": {
                  "filters": {
                    "test": "has_equipment",
                    "subject": "other",
                    "domain": "hand",
                    "value": "minecraft:cyan_dye"},
                  "event": "cyan_backpack"
                },
                "use_item": true,
                "play_sounds": "bucket.empty.fish"
              },

              //special
              {
                "on_interact": {
                  "filters": {
                    "test": "has_equipment",
                    "subject": "other",
                    "domain": "hand",
                    "value": "minecraft:iron_ingot"},
                  "event": "cosmo_backpack"
                },
                "use_item": true,
                "play_sounds": "bucket.empty.fish"
              },
              {
                "on_interact": {
                  "filters": {
                    "test": "has_equipment",
                    "subject": "other",
                    "domain": "hand",
                    "value": "minecraft:blue_ice"},
                  "event": "cryo_backpack"
                },
                "use_item": true,
                "play_sounds": "bucket.empty.fish"
              },
              {
                "on_interact": {
                  "filters": {
                    "test": "has_equipment",
                    "subject": "other",
                    "domain": "hand",
                    "value": "minecraft:gold_ingot"},
                  "event": "gold_backpack"
                },
                "use_item": true,
                "play_sounds": "bucket.empty.fish"
              },
              {
                "on_interact": {
                  "filters": {
                    "test": "has_equipment",
                    "subject": "other",
                    "domain": "hand",
                    "value": "minecraft:amethyst_shard"},
                  "event": "amethyst_backpack"
                },
                "use_item": true,
                "play_sounds": "bucket.empty.fish"
              },
              {
                "on_interact": {
                  "filters": {
                    "test": "has_equipment",
                    "subject": "other",
                    "domain": "hand",
                    "value": "minecraft:white_dye"},
                  "event": "white_backpack"
                },
                "use_item": true,
                "play_sounds": "bucket.empty.fish"
              },
              {
                "on_interact": {
                  "filters": {
                    "test": "has_equipment",
                    "subject": "other",
                    "domain": "hand",
                    "value": "minecraft:glowstone_dust"},
                  "event": "glowstone_backpack"
                },
                "use_item": true,
                "play_sounds": "bucket.empty.fish"
              },
              {
                "on_interact": {
                  "filters": {
                    "test": "has_equipment",
                    "subject": "other",
                    "domain": "hand",
                    "value": "minecraft:copper_ingot"},
                  "event": "copper_backpack"
                },
                "use_item": true,
                "play_sounds": "bucket.empty.fish"
              },
              {
                "on_interact": {
                  "filters": {
                    "test": "has_equipment",
                    "subject": "other",
                    "domain": "hand",
                    "value": "minecraft:prismarine_shard"},
                  "event": "prismarine_backpack"
                },
                "use_item": true,
                "play_sounds": "bucket.empty.fish"
              },
              {
                "on_interact": {
                  "filters": {
                    "test": "has_equipment",
                    "subject": "other",
                    "domain": "hand",
                    "value": "minecraft:diamond"},
                  "event": "diamond_backpack"
                },
                "use_item": true,
                "play_sounds": "bucket.empty.fish"
              },
              {
                "on_interact": {
                  "filters": {
                    "test": "has_equipment",
                    "subject": "other",
                    "domain": "hand",
                    "value": "minecraft:emerald"},
                  "event": "emerald_backpack"
                },
                "use_item": true,
                "play_sounds": "bucket.empty.fish"
              },
              {
                "on_interact": {
                  "filters": {
                    "test": "has_equipment",
                    "subject": "other",
                    "domain": "hand",
                    "value": "minecraft:light_gray_dye"},
                  "event": "light_gray_backpack"
                },
                "use_item": true,
                "play_sounds": "bucket.empty.fish"
              },
              {
                "on_interact": {
                  "filters": {
                    "test": "has_equipment",
                    "subject": "other",
                    "domain": "hand",
                    "value": "minecraft:gray_dye"},
                  "event": "gray_backpack"
                },
                "use_item": true,
                "play_sounds": "bucket.empty.fish"
              },
              {
                "on_interact": {
                  "filters": {
                    "test": "has_equipment",
                    "subject": "other",
                    "domain": "hand",
                    "value": "minecraft:lime_dye"},
                  "event": "lime_backpack"
                },
                "use_item": true,
                "play_sounds": "bucket.empty.fish"
              },
              {
                "on_interact": {
                  "filters": {
                    "test": "has_equipment",
                    "subject": "other",
                    "domain": "hand",
                    "value": "minecraft:light_blue_dye"},
                  "event": "light_blue_backpack"
                },
                "use_item": true,
                "play_sounds": "bucket.empty.fish"
              },
              {
                "on_interact": {
                  "filters": {
                    "test": "has_equipment",
                    "subject": "other",
                    "domain": "hand",
                    "value": "minecraft:magenta_dye"},
                  "event": "magenta_backpack"
                },
                "use_item": true,
                "play_sounds": "bucket.empty.fish"
              },
              {
                "on_interact": {
                  "filters": {
                    "test": "has_equipment",
                    "subject": "other",
                    "domain": "hand",
                    "value": "minecraft:comparator"},
                  "event": "comparator_backpack"
                },
                "use_item": true,
                "play_sounds": "bucket.empty.fish"
              },
              {
                "on_interact": {
                  "filters": {
                    "test": "has_equipment",
                    "subject": "other",
                    "domain": "hand",
                    "value": "minecraft:netherite_ingot"},
                  "event": "netherite_backpack"
                },
                "use_item": true,
                "play_sounds": "beacon.power"
              },
              {
                "on_interact": {
                  "filters": {
                    "test": "has_equipment",
                    "subject": "other",
                    "domain": "hand",
                    "value": "minecraft:carved_pumpkin"},
                  "event": "pumpkin_backpack"
                },
                "use_item": true,
                "play_sounds": "bucket.empty.fish"
              },
              {
                "on_interact": {
                  "filters": {
                    "test": "has_equipment",
                    "subject": "other",
                    "domain": "hand",
                    "value": "minecraft:hay_block"},
                  "event": "hay_backpack"
                },
                "use_item": true,
                "play_sounds": "bucket.empty.fish"
              },
              {
                "on_interact": {
                  "filters": {
                    "test": "has_equipment",
                    "subject": "other",
                    "domain": "hand",
                    "value": "deathnerite:netherite_ingot"},
                  "event": "deathnerite_backpack"
                },
                "use_item": true,
                "play_sounds": "beacon.power"
              },
              {
                "on_interact": {
                  "filters": {
                    "test": "has_equipment",
                    "subject": "other",
                    "domain": "hand",
                    "value": "minecraft:dripstone_block"},
                  "event": "dripstone_backpack"
                },
                "use_item": true,
                "play_sounds": "bucket.empty.fish"
              },
              {
                "on_interact": {
                  "filters": {
                    "test": "has_equipment",
                    "subject": "other",
                    "domain": "hand",
                    "value": "minecraft:nether_star"},
                  "event": "cyber_backpack"
                },
                "use_item": true,
                "play_sounds": "bucket.empty.fish"
              },
              {
                "on_interact": {
                  "filters": {
                    "test": "has_equipment",
                    "subject": "other",
                    "domain": "hand",
                    "value": "minecraft:cookie"},
                  "event": "cafi_backpack"
                },
                "use_item": true,
                "play_sounds": "bucket.empty.fish"
              },

              {
                "on_interact": {
                  "filters": {
                    "test": "has_equipment",
                    "subject": "other",
                    "domain": "hand",
                    "value": "minecraft:prismarine:1"},
                  "event": "prismarine_dark"
                },
                "use_item": true,
                "play_sounds": "bucket.empty.fish"
              },
              {
                "on_interact": {
                  "filters": {
                    "test": "has_equipment",
                    "subject": "other",
                    "domain": "hand",
                    "value": "minecraft:magma"},
                  "event": "magma"
                },
                "use_item": true,
                "play_sounds": "bucket.empty.fish"
              },
              {
                "on_interact": {
                  "filters": {
                    "test": "has_equipment",
                    "subject": "other",
                    "domain": "hand",
                    "value": "minecraft:end_bricks"},
                  "event": "end_bricks"
                },
                "use_item": true,
                "play_sounds": "bucket.empty.fish"
              },
              {
                "on_interact": {
                  "filters": {
                    "test": "has_equipment",
                    "subject": "other",
                    "domain": "hand",
                    "value": "minecraft:quartz_block"},
                  "event": "quartz_bricks"
                },
                "use_item": true,
                "play_sounds": "bucket.empty.fish"
              },

              {
                "on_interact": {
                  "filters": {
                    "test": "has_equipment",
                    "subject": "other",
                    "domain": "hand",
                    "value": "minecraft:bee_nest"},
                  "event": "bee_nest"
                },
                "use_item": true,
                "play_sounds": "bucket.empty.fish"
              },
              {
                "on_interact": {
                  "filters": {
                    "test": "has_equipment",
                    "subject": "other",
                    "domain": "hand",
                    "value": "minecraft:bone_block"},
                  "event": "bone"
                },
                "use_item": true,
                "play_sounds": "bucket.empty.fish"
              },
              {
                "on_interact": {
                  "filters": {
                    "test": "has_equipment",
                    "subject": "other",
                    "domain": "hand",
                    "value": "minecraft:popped_chorus_fruit"},
                  "event": "purpur"
                },
                "use_item": true,
                "play_sounds": "bucket.empty.fish"
              },
              {
                "on_interact": {
                  "filters": {
                    "test": "has_equipment",
                    "subject": "other",
                    "domain": "hand",
                    "value": "minecraft:sculk"},
                  "event": "sculk"
                },
                "use_item": true,
                "play_sounds": "bucket.empty.fish"
              },
              {
                "on_interact": {
                  "filters": {
                    "test": "has_equipment",
                    "subject": "other",
                    "domain": "hand",
                    "value": "minecraft:sculk_catalyst"},
                  "event": "sculk_catalyst"
                },
                "use_item": true,
                "play_sounds": "bucket.empty.fish"
              },
              {
                "on_interact": {
                  "filters": {
                    "test": "has_equipment",
                    "subject": "other",
                    "domain": "hand",
                    "value": "minecraft:dirt"},
                  "event": "dirt"
                },
                "use_item": true,
                "play_sounds": "bucket.empty.fish"
              },
              {
                "on_interact": {
                  "filters": {
                    "test": "has_equipment",
                    "subject": "other",
                    "domain": "hand",
                    "value": "minecraft:mud_bricks"},
                  "event": "mud_bricks"
                },
                "use_item": true,
                "play_sounds": "bucket.empty.fish"
              },
              {
                "on_interact": {
                  "filters": {
                    "test": "has_equipment",
                    "subject": "other",
                    "domain": "hand",
                    "value": "minecraft:obsidian"},
                  "event": "obsidian"
                },
                "use_item": true,
                "play_sounds": "bucket.empty.fish"
              },
              {
                "on_interact": {
                  "filters": {
                    "test": "has_equipment",
                    "subject": "other",
                    "domain": "hand",
                    "value": "minecraft:crying_obsidian"},
                  "event": "crying_obsidian"
                },
                "use_item": true,
                "play_sounds": "bucket.empty.fish"
              }
            ]
          }
        },
          "brown": {
            "minecraft:skin_id": {
              "value": 0
            }
          },
          "red": {
            "minecraft:skin_id": {
              "value": 1
            }
          },
          "yellow": {
            "minecraft:skin_id": {
              "value": 2
            }
          },
          "green": {
            "minecraft:skin_id": {
              "value": 3
            }
          },
          "black": {
            "minecraft:skin_id": {
              "value": 4
            }
          },
          "blue": {
            "minecraft:skin_id": {
              "value": 5
            }
          },

          //v1.4
          "purple": {
            "minecraft:skin_id": {
              "value": 6
            }
          },
          "pink": {
            "minecraft:skin_id": {
              "value": 7
            }
          },
          "orange": {
            "minecraft:skin_id": {
              "value": 8
            }
          },
          "cyan": {
            "minecraft:skin_id": {
              "value": 9
            }
          },
          "white": {
            "minecraft:skin_id": {
              "value": 14 
            }
          },

          //special

          "cosmo": {
            "minecraft:skin_id": {
              "value": 10
            }
          },
          "cryo": {
            "minecraft:skin_id": {
              "value": 11
            }
          },
          "gold": {
            "minecraft:skin_id": {
              "value": 12
            }
          },
          "amethyst": {
            "minecraft:skin_id": {
              "value": 13
            }
          },
          "glowstone": {
            "minecraft:skin_id": {
              "value": 15
            }
          },
          "copper": {
            "minecraft:skin_id": {
              "value": 16
            }
          },
          "prismarine": {
            "minecraft:skin_id": {
              "value": 17
            }
          },
          "diamond": {
            "minecraft:skin_id": {
              "value": 18
            }
          },
          "emerald": {
            "minecraft:skin_id": {
              "value": 19
            }
          },
          "light_gray": {
            "minecraft:skin_id": {
              "value": 20
            }
          },
          "gray": {
            "minecraft:skin_id": {
              "value": 21
            }
          },
          "lime": {
            "minecraft:skin_id": {
              "value": 22
            }
          },
          "light_blue": {
            "minecraft:skin_id": {
              "value": 23
            }
          },
          "magenta": {
            "minecraft:skin_id": {
              "value": 24
            }
          },
          "comparator": {
            "minecraft:skin_id": {
              "value": 25
            }
          },
          "netherite": {
            "minecraft:skin_id": {
              "value": 26
            },
            "minecraft:inventory": {
              "inventory_size": 512,
              "container_type": "horse",
              "can_be_siphoned_from": true
            }
          },
          "pumpkin": {
            "minecraft:skin_id": {
              "value": 27
            }
          },
          "hay": {
            "minecraft:skin_id": {
              "value": 28
            }
          },
          "deathnerite": {
            "minecraft:skin_id": {
              "value": 29
            },
            "minecraft:inventory": {
              "inventory_size": 512,
              "container_type": "horse",
              "can_be_siphoned_from": true
            }
          },
          "dripstone": {
            "minecraft:skin_id": {
              "value": 30
            }
          },
          "cyber": {
            "minecraft:skin_id": {
              "value": 31
            },
            "minecraft:is_sheared": {}
          },
          "cafi": {
            "minecraft:skin_id": {
              "value": 32
            },
            "minecraft:is_sheared": {}
          },

          "prismarine_dark": {
            "minecraft:skin_id": {
              "value": 33
            }
          },
          "magma": {
            "minecraft:skin_id": {
              "value": 34
            }
          },
          "end_bricks": {
            "minecraft:skin_id": {
              "value": 35
            }
          },
          "quartz_bricks": {
            "minecraft:skin_id": {
              "value": 36
            }
          },

          "bee_nest": {
            "minecraft:skin_id": {
              "value": 37
            }
          },
          "bone": {
            "minecraft:skin_id": {
              "value": 38
            }
          },
          "purpur": {
            "minecraft:skin_id": {
              "value": 39
            }
          },
          "sculk": {
            "minecraft:skin_id": {
              "value": 40
            }
          },
          "sculk_catalyst": {
            "minecraft:skin_id": {
              "value": 41
            }
          },
          "dirt": {
            "minecraft:skin_id": {
              "value": 42
            }
          },
          "mud_bricks": {
            "minecraft:skin_id": {
              "value": 43
            }
          },
          "obsidian": {
            "minecraft:skin_id": {
              "value": 44
            }
          },
          "crying_obsidian": {
            "minecraft:skin_id": {
              "value": 45
            }
          },


          "spawn_basic":{
            "minecraft:variant": {
              "value": 0
            },
            "minecraft:damage_sensor": {
              "triggers": [
                {
                  "on_damage": {
                  "filters": {
                    "all_of": [
                    {
                      "test": "has_damage",
                      "subject": "self",
                      "operator": "==",
                      "value": "fatal"
                    }
                    ]
                  }
                  },
                  "deals_damage": false
                },
                {
                  "on_damage": {
                  "filters": {
                    "any_of": [
                    {
                      "test": "has_damage",
                      "subject": "self",
                      "operator": "==",
                      "value": "wither"
                    }
                    ]
                  }
                  },
                  "deals_damage": false
                },
                {
                  "on_damage": {
                  "filters": {
                    "any_of": [
                    {
                      "test": "has_damage",
                      "subject": "self",
                      "operator": "==",
                      "value": "projectile"
                    }
                    ]
                  }
                  },
                  "deals_damage": false
                },
                {
                  "on_damage": {
                  "filters": {
                    "any_of": [
                    {
                      "test": "has_damage",
                      "subject": "self",
                      "operator": "==",
                      "value": "suffocation"
                    }
                    ]
                  }
                  },
                  "deals_damage": false
                },
                {
                  "on_damage": {
                  "filters": {
                    "any_of": [
                    {
                      "test": "has_damage",
                      "subject": "self",
                      "operator": "==",
                      "value": "fall"
                    }
                    ]
                  }
                  },
                  "deals_damage": false
                },
                {
                  "on_damage": {
                  "filters": {
                    "any_of": [
                    {
                      "test": "has_damage",
                      "subject": "self",
                      "operator": "==",
                      "value": "attack"
                    }
                    ]
                  }
                  },
                  "deals_damage": false
                },
                {
                  "on_damage": {
                  "filters": {
                    "any_of": [
                    {
                      "test": "has_damage",
                      "subject": "self",
                      "operator": "==",
                      "value": "anvil"
                    }
                    ]
                  }
                  },
                  "deals_damage": false
                },
                {
                  "on_damage": {
                  "filters": {
                    "any_of": [
                    {
                      "test": "has_damage",
                      "subject": "self",
                      "operator": "==",
                      "value": "magic"
                    }
                    ]
                  }
                  },
                  "deals_damage": false
                },
                {
                  "on_damage": {
                  "filters": {
                    "any_of": [
                    {
                      "test": "has_damage",
                      "subject": "self",
                      "operator": "==",
                      "value": "entity_explosion"
                    }
                    ]
                  }
                  },
                  "deals_damage": false
                },
                {
                  "on_damage": {
                  "filters": {
                    "all_of": [
                    {
                      "test": "has_damage",
                      "subject": "self",
                      "operator": "==",
                      "value": "block_explosion"
                    }
                    ]
                  }
                  },
                  "deals_damage": false
                }
                ]
            },
            "minecraft:inventory": {
              "inventory_size": 64,
              "container_type": "horse",
              "can_be_siphoned_from": true
            }
          },
          "void_backpack":{
            "minecraft:damage_sensor": {
              "triggers": [
                {
                  "on_damage": {
                  "filters": {
                    "any_of": [
                    {
                      "test": "has_damage",
                      "subject": "self",
                      "operator": "==",
                      "value": "falling_block"
                    }
                    ]
                  }
                  },
                  "deals_damage": false
                },
                {
                  "on_damage": {
                  "filters": {
                    "any_of": [
                    {
                      "test": "has_damage",
                      "subject": "self",
                      "operator": "==",
                      "value": "stalactite"
                    }
                    ]
                  }
                  },
                  "deals_damage": false
                },
                {
                  "on_damage": {
                  "filters": {
                    "any_of": [
                    {
                      "test": "has_damage",
                      "subject": "self",
                      "operator": "==",
                      "value": "stalagmite"
                    }
                    ]
                  }
                  },
                  "deals_damage": false
                },
                {
                  "on_damage": {
                  "filters": {
                    "any_of": [
                    {
                      "test": "has_damage",
                      "subject": "self",
                      "operator": "==",
                      "value": "piston"
                    }
                    ]
                  }
                  },
                  "deals_damage": false
                },
                {
                  "on_damage": {
                  "filters": {
                    "any_of": [
                    {
                      "test": "has_damage",
                      "subject": "self",
                      "operator": "==",
                      "value": "fire_tick"
                    }
                    ]
                  }
                  },
                  "deals_damage": false
                },
                {
                  "on_damage": {
                  "filters": {
                    "any_of": [
                    {
                      "test": "has_damage",
                      "subject": "self",
                      "operator": "==",
                      "value": "fire"
                    }
                    ]
                  }
                  },
                  "deals_damage": false
                },
                {
                  "on_damage": {
                  "filters": {
                    "any_of": [
                    {
                      "test": "has_damage",
                      "subject": "self",
                      "operator": "==",
                      "value": "lava"
                    }
                    ]
                  }
                  },
                  "deals_damage": false
                },
                {
                  "on_damage": {
                  "filters": {
                    "any_of": [
                    {
                      "test": "has_damage",
                      "subject": "self",
                      "operator": "==",
                      "value": "wither"
                    }
                    ]
                  }
                  },
                  "deals_damage": false
                },
                {
                  "on_damage": {
                  "filters": {
                    "any_of": [
                    {
                      "test": "has_damage",
                      "subject": "self",
                      "operator": "==",
                      "value": "projectile"
                    }
                    ]
                  }
                  },
                  "deals_damage": false
                },
                {
                  "on_damage": {
                  "filters": {
                    "any_of": [
                    {
                      "test": "has_damage",
                      "subject": "self",
                      "operator": "==",
                      "value": "suffocation"
                    }
                    ]
                  }
                  },
                  "deals_damage": false
                },
                {
                  "on_damage": {
                  "filters": {
                    "any_of": [
                    {
                      "test": "has_damage",
                      "subject": "self",
                      "operator": "==",
                      "value": "fall"
                    }
                    ]
                  }
                  },
                  "deals_damage": false
                },
                {
                  "on_damage": {
                  "filters": {
                    "any_of": [
                    {
                      "test": "has_damage",
                      "subject": "self",
                      "operator": "==",
                      "value": "attack"
                    }
                    ]
                  }
                  },
                  "deals_damage": false
                },
                {
                  "on_damage": {
                  "filters": {
                    "any_of": [
                    {
                      "test": "has_damage",
                      "subject": "self",
                      "operator": "==",
                      "value": "anvil"
                    }
                    ]
                  }
                  },
                  "deals_damage": false
                },
                {
                  "on_damage": {
                  "filters": {
                    "any_of": [
                    {
                      "test": "has_damage",
                      "subject": "self",
                      "operator": "==",
                      "value": "magic"
                    }
                    ]
                  }
                  },
                  "deals_damage": false
                },
                {
                  "on_damage": {
                  "filters": {
                    "any_of": [
                    {
                      "test": "has_damage",
                      "subject": "self",
                      "operator": "==",
                      "value": "entity_explosion"
                    }
                    ]
                  }
                  },
                  "deals_damage": false
                },
                {
                  "on_damage": {
                  "filters": {
                    "all_of": [
                    {
                      "test": "has_damage",
                      "subject": "self",
                      "operator": "==",
                      "value": "block_explosion"
                    }
                    ]
                  }
                  },
                  "deals_damage": false
                },
                {
                  "on_damage": {
                  "filters": {
                    "all_of": [
                    {
                      "test": "has_damage",
                      "subject": "self",
                      "operator": "==",
                      "value": "fatal"
                    }
                    ]
                  }
                  },
                  "deals_damage": false
                }
                ]
            },
        "minecraft:variant": {
          "value": 1
        },
            "minecraft:inventory": {
              "inventory_size": 256,
              "container_type": "horse",
              "can_be_siphoned_from": true
            }
          }
          },
        "components": {
          "minecraft:nameable": {
            "always_show": false,
            "allow_name_tag_renaming": false
          },
          "minecraft:entity_sensor": {
            "sensor_range": 1,
            "event_filters": {
                "all_of": [
                  {
                    "test": "is_family",
                    "subject": "other",
                    "value": "player"
                }    
                ]
            },
            "event": "backpack_on"
        },
          "minecraft:equippable": {
            "slots": [
              {
                "slot": 0,
                "item": "minecraft:water_bucket",
                "accepted_items": [
                  "minecraft:water_bucket",
                  "minecraft:lava_bucket"
                ]
              },
              {
                "slot": 1,
                "item": "minecraft:diamond_sword",
                "accepted_items": [
                  "minecraft:diamond_sword",
                  "minecraft:diamond_axe",
                  "minecraft:diamond_hoe",
                  "minecraft:diamond_pickaxe",
                  "minecraft:diamond_shovel",
                  "minecraft:netherite_sword",
                  "minecraft:netherite_axe",
                  "minecraft:netherite_hoe",
                  "minecraft:netherite_pickaxe",
                  "minecraft:netherite_shovel",
                  "minecraft:iron_sword",
                  "minecraft:iron_axe",
                  "minecraft:iron_hoe",
                  "minecraft:iron_pickaxe",
                  "minecraft:iron_shovel",
                  "minecraft:golden_sword",
                  "minecraft:golden_axe",
                  "minecraft:golden_hoe",
                  "minecraft:golden_pickaxe",
                  "minecraft:golden_shovel",
                  "minecraft:stone_sword",
                  "minecraft:stone_axe",
                  "minecraft:stone_hoe",
                  "minecraft:stone_pickaxe",
                  "minecraft:stone_shovel",
                  "minecraft:wooden_sword",
                  "minecraft:wooden_axe",
                  "minecraft:wooden_hoe",
                  "minecraft:wooden_pickaxe",
                  "minecraft:wooden_shovel",

                  "minecraft:totem_of_undying",
                  "minecraft:shears",
                  "minecraft:fishing_rod"
                ]
              },
              {
                "slot": 3,
                "item": "true:ender_bag",
                "accepted_items": [
                  "true:ender_bag"
                ],
                "on_equip": {
                  "event": "void_backpack_full"
                },
                "on_unequip": {
                  "event": "unvoid_backpack_full"
                }
              }
            ]
          },
          "minecraft:behavior.pickup_items": {
            "priority": 0,
            "max_dist": 10,
            "goal_radius": 10,
            "speed_multiplier": 0
          },
          "minecraft:is_chested": {},
            "minecraft:type_family": {
                "family": [
                    "parrot_tame","backpack"
                ]
            },
            "minecraft:health": {
                "value": 2,
                "max": 2
            },
            "minecraft:loot": {
                "table": "loot_tables/entities/none.json"
            },
            "minecraft:is_stackable": {},
            "minecraft:knockback_resistance": {
                "value": 1.0
              },
            "minecraft:physics": {
                "has_gravity": true,
                "has_collision": true
            },
            "minecraft:pushable": {
                "is_pushable": true,
                "is_pushable_by_piston": true
            },
            "minecraft:equipment": {
                "table": "loot_tables/empty.json",
                "slot_drop_chance": [
                    {
                        "slot": "slot.inventory",
                        "drop_chance": 1
                    }
                ]
            }
        },
        "events": {
          "backpack_on": {
            "run_command": {
              "command": [
                "tag @p add BACKPACK"
              ]
            }
            },
          "minecraft:entity_spawned": {
            "add": {
              "component_groups": [
                "interacts",
                "spawn_basic",
                "brown"
              ]
            }
          },
          "void_backpack_full": {
            "add": {
              "component_groups": [
                "void_backpack"
              ]
            },
            "remove":{
              "component_groups":[
                "spawn_basic"
              ]
            }
          },
          "unvoid_backpack_full": {
            "remove": {
              "component_groups": [
                "void_backpack"
              ]
            },
            "add":{
              "component_groups":[
                "spawn_basic"
              ]
            }
          },
          "red_backpack": {
            "add": {
              "component_groups": [
                "red"
              ]
            },
            "remove":{
              "component_groups":[
                "brown",
                "yellow",
                "green",
                "black",
                "blue",
                "brown",
                "cyber"
              ]
            }
          },
          "yellow_backpack": {
            "add": {
              "component_groups": [
                "yellow"
              ]
            },
            "remove":{
              "component_groups":[
                "brown",
                "red",
                "green",
                "black",
                "blue",
                "brown",
                "cyber"
              ]
            }
          },
          "green_backpack": {
            "add": {
              "component_groups": [
                "green"
              ]
            },
            "remove":{
              "component_groups":[
                "brown",
                "red",
                "yellow",
                "black",
                "blue",
                "brown",
                "cyber"
              ]
            }
          },
          "black_backpack": {
            "add": {
              "component_groups": [
                "black"
              ]
            },
            "remove":{
              "component_groups":[
                "brown",
                "red",
                "yellow",
                "green",
                "blue",
                "brown",
                "cyber"
              ]
            }
          },
          "blue_backpack": {
            "add": {
              "component_groups": [
                "blue"
              ]
            },
            "remove":{
              "component_groups":[
                "brown",
                "red",
                "yellow",
                "green",
                "black",
                "brown",
                "cyber"
              ]
            }
          },
          "brown_backpack": {
            "add": {
              "component_groups": [
                "brown"
              ]
            },
            "remove":{
              "component_groups":[
                "brown",
                "red",
                "yellow",
                "green",
                "black",
                "blue",
                "cyber"
              ]
            }
          },

          //v1.4
          "purple_backpack": {
            "add": {
              "component_groups": [
                "purple"
              ]
            },
            "remove":{
              "component_groups":[
                "orange",
                "brown",
                "red",
                "yellow",
                "green",
                "black",
                "blue",
                "cyber"
              ]
            }
          },
          "pink_backpack": {
            "add": {
              "component_groups": [
                "pink"
              ]
            },
            "remove":{
              "component_groups":[
                "orange",
                "purple",
                "brown",
                "red",
                "yellow",
                "green",
                "black",
                "blue",
                "cyber"
              ]
            }
          },
          "orange_backpack": {
            "add": {
              "component_groups": [
                "orange"
              ]
            },
            "remove":{
              "component_groups":[
                "pink",
                "purple",
                "brown",
                "red",
                "yellow",
                "green",
                "black",
                "blue",
                "cyber"
              ]
            }
          },
          "cyan_backpack": {
            "add": {
              "component_groups": [
                "cyan"
              ]
            },
            "remove":{
              "component_groups":[
                "orange",
                "pink",
                "purple",
                "brown",
                "red",
                "yellow",
                "green",
                "black",
                "blue",
                "cyber"
              ]
            }
          },
          "cosmo_backpack": {
            "add": {
              "component_groups": [
                "cosmo"
              ]
            },
            "remove":{
              "component_groups":[
                "orange",
                "pink",
                "purple",
                "brown",
                "red",
                "yellow",
                "green",
                "black",
                "blue",
                "cyber"
              ]
            }
          },
          "cryo_backpack": {
            "add": {
              "component_groups": [
                "cryo"
              ]
            },
            "remove":{
              "component_groups":[
                "orange",
                "pink",
                "purple",
                "brown",
                "red",
                "yellow",
                "green",
                "black",
                "blue",
                "cyber"
              ]
            }
          },
          "amethyst_backpack": {
            "add": {
              "component_groups": [
                "amethyst"
              ]
            },
            "remove":{
              "component_groups":[
                "orange",
                "pink",
                "purple",
                "brown",
                "red",
                "yellow",
                "green",
                "black",
                "blue",
                "cyber"
              ]
            }
          },
          "white_backpack": {
            "add": {
              "component_groups": [
                "white"
              ]
            },
            "remove":{
              "component_groups":[
                "orange",
                "pink",
                "purple",
                "brown",
                "red",
                "yellow",
                "green",
                "black",
                "blue",
                "cyber"
              ]
            }
          },
          "gold_backpack": {
            "add": {
              "component_groups": [
                "gold"
              ]
            },
            "remove":{
              "component_groups":[
                "orange",
                "pink",
                "purple",
                "brown",
                "red",
                "yellow",
                "green",
                "black",
                "blue",
                "cyber"
              ]
            }
          },
          "glowstone_backpack": {
            "add": {
              "component_groups": [
                "glowstone"
              ]
            },
            "remove":{
              "component_groups":[
                "orange",
                "pink",
                "purple",
                "brown",
                "red",
                "yellow",
                "green",
                "black",
                "blue",
                "cyber"
              ]
            }
          },
          "copper_backpack": {
            "add": {
              "component_groups": [
                "copper"
              ]
            },
            "remove":{
              "component_groups":[
                "orange",
                "pink",
                "purple",
                "brown",
                "red",
                "yellow",
                "green",
                "black",
                "blue",
                "cyber"
              ]
            }
          },
          "prismarine_backpack": {
            "add": {
              "component_groups": [
                "prismarine"
              ]
            },
            "remove":{
              "component_groups":[
                "orange",
                "pink",
                "purple",
                "brown",
                "red",
                "yellow",
                "green",
                "black",
                "blue",
                "cyber"
              ]
            }
          },
          "diamond_backpack": {
            "add": {
              "component_groups": [
                "diamond"
              ]
            },
            "remove":{
              "component_groups":[
                "orange",
                "pink",
                "purple",
                "brown",
                "red",
                "yellow",
                "green",
                "black",
                "blue",
                "cyber"
              ]
            }
          },
          "emerald_backpack": {
            "add": {
              "component_groups": [
                "emerald"
              ]
            },
            "remove":{
              "component_groups":[
                "orange",
                "pink",
                "purple",
                "brown",
                "red",
                "yellow",
                "green",
                "black",
                "blue",
                "cyber"
              ]
            }
          },
          "light_gray_backpack": {
            "add": {
              "component_groups": [
                "light_gray"
              ]
            },
            "remove":{
              "component_groups":[
                "orange",
                "pink",
                "purple",
                "brown",
                "red",
                "yellow",
                "green",
                "black",
                "blue",
                "cyber"
              ]
            }
          },
          "gray_backpack": {
            "add": {
              "component_groups": [
                "gray"
              ]
            },
            "remove":{
              "component_groups":[
                "orange",
                "pink",
                "purple",
                "brown",
                "red",
                "yellow",
                "green",
                "black",
                "blue",
                "cyber"
              ]
            }
          },
          "lime_backpack": {
            "add": {
              "component_groups": [
                "lime"
              ]
            },
            "remove":{
              "component_groups":[
                "orange",
                "pink",
                "purple",
                "brown",
                "red",
                "yellow",
                "green",
                "black",
                "blue",
                "cyber"
              ]
            }
          },
          "light_blue_backpack": {
            "add": {
              "component_groups": [
                "light_blue"
              ]
            },
            "remove":{
              "component_groups":[
                "orange",
                "pink",
                "purple",
                "brown",
                "red",
                "yellow",
                "green",
                "black",
                "blue",
                "cyber"
              ]
            }
          },
          "magenta_backpack": {
            "add": {
              "component_groups": [
                "magenta"
              ]
            },
            "remove":{
              "component_groups":[
                "orange",
                "pink",
                "purple",
                "brown",
                "red",
                "yellow",
                "green",
                "black",
                "blue",
                "cyber"
              ]
            }
          },
          "comparator_backpack": {
            "add": {
              "component_groups": [
                "comparator"
              ]
            },
            "remove":{
              "component_groups":[
                "orange",
                "pink",
                "purple",
                "brown",
                "red",
                "yellow",
                "green",
                "black",
                "blue",
                "cyber"
              ]
            }
          },
          "netherite_backpack": {
            "add": {
              "component_groups": [
                "netherite"
              ]
            },
            "remove":{
              "component_groups":[
                "interacts",
                "orange",
                "pink",
                "purple",
                "brown",
                "red",
                "yellow",
                "green",
                "black",
                "blue",
                "cyber"
              ]
            }
          },
          "pumpkin_backpack": {
            "add": {
              "component_groups": [
                "pumpkin"
              ]
            },
            "remove":{
              "component_groups":[
                "orange",
                "pink",
                "purple",
                "brown",
                "red",
                "yellow",
                "green",
                "black",
                "blue",
                "cyber"
              ]
            }
          },
          "hay_backpack": {
            "add": {
              "component_groups": [
                "hay"
              ]
            },
            "remove":{
              "component_groups":[
                "orange",
                "pink",
                "purple",
                "brown",
                "red",
                "yellow",
                "green",
                "black",
                "blue",
                "cyber"
              ]
            }
          },
          "deathnerite_backpack": {
            "add": {
              "component_groups": [
                "deathnerite"
              ]
            },
            "remove":{
              "component_groups":[
                "interacts",
                "orange",
                "pink",
                "purple",
                "brown",
                "red",
                "yellow",
                "green",
                "black",
                "blue",
                "cyber"
              ]
            }
          },
          "dripstone_backpack": {
            "add": {
              "component_groups": [
                "dripstone"
              ]
            },
            "remove":{
              "component_groups":[
                "orange",
                "pink",
                "purple",
                "brown",
                "red",
                "yellow",
                "green",
                "black",
                "blue",
                "cyber"
              ]
            }
          },
          "cyber_backpack": {
            "add": {
              "component_groups": [
                "cyber"
              ]
            },
            "remove":{
              "component_groups":[
                "orange",
                "pink",
                "purple",
                "brown",
                "red",
                "yellow",
                "green",
                "black",
                "blue"
              ]
            }
          },
          "cafi_backpack": {
            "add": {
              "component_groups": [
                "cafi"
              ]
            },
            "remove":{
              "component_groups":[
                "orange",
                "pink",
                "purple",
                "brown",
                "red",
                "yellow",
                "green",
                "black",
                "blue",
                "cyber"
              ]
            }
          },

          "prismarine_dark": {
            "add": {
              "component_groups": [
                "prismarine_dark"
              ]
            },
            "remove":{
              "component_groups":[
                "orange",
                "pink",
                "purple",
                "brown",
                "red",
                "yellow",
                "green",
                "black",
                "blue",
                "cyber"
              ]
            }
          },
          "magma": {
            "add": {
              "component_groups": [
                "magma"
              ]
            },
            "remove":{
              "component_groups":[
                "orange",
                "pink",
                "purple",
                "brown",
                "red",
                "yellow",
                "green",
                "black",
                "blue",
                "cyber"
              ]
            }
          },
          "end_bricks": {
            "add": {
              "component_groups": [
                "end_bricks"
              ]
            },
            "remove":{
              "component_groups":[
                "orange",
                "pink",
                "purple",
                "brown",
                "red",
                "yellow",
                "green",
                "black",
                "blue",
                "cyber"
              ]
            }
          },
          "quartz_bricks": {
            "add": {
              "component_groups": [
                "quartz_bricks"
              ]
            },
            "remove":{
              "component_groups":[
                "orange",
                "pink",
                "purple",
                "brown",
                "red",
                "yellow",
                "green",
                "black",
                "blue",
                "cyber"
              ]
            }
          },

          "bee_nest": {
            "add": {
              "component_groups": [
                "bee_nest"
              ]
            },
            "remove":{
              "component_groups":[
                "orange",
                "pink",
                "purple",
                "brown",
                "red",
                "yellow",
                "green",
                "black",
                "blue",
                "cyber"
              ]
            }
          },
          "bone": {
            "add": {
              "component_groups": [
                "bone"
              ]
            },
            "remove":{
              "component_groups":[
                "orange",
                "pink",
                "purple",
                "brown",
                "red",
                "yellow",
                "green",
                "black",
                "blue",
                "cyber"
              ]
            }
          },
          "purpur": {
            "add": {
              "component_groups": [
                "purpur"
              ]
            },
            "remove":{
              "component_groups":[
                "orange",
                "pink",
                "purple",
                "brown",
                "red",
                "yellow",
                "green",
                "black",
                "blue",
                "cyber"
              ]
            }
          },
          "sculk": {
            "add": {
              "component_groups": [
                "sculk"
              ]
            },
            "remove":{
              "component_groups":[
                "orange",
                "pink",
                "purple",
                "brown",
                "red",
                "yellow",
                "green",
                "black",
                "blue",
                "cyber"
              ]
            }
          },
          "sculk_catalyst": {
            "add": {
              "component_groups": [
                "sculk_catalyst"
              ]
            },
            "remove":{
              "component_groups":[
                "orange",
                "pink",
                "purple",
                "brown",
                "red",
                "yellow",
                "green",
                "black",
                "blue",
                "cyber"
              ]
            }
          },
          "dirt": {
            "add": {
              "component_groups": [
                "dirt"
              ]
            },
            "remove":{
              "component_groups":[
                "orange",
                "pink",
                "purple",
                "brown",
                "red",
                "yellow",
                "green",
                "black",
                "blue",
                "cyber"
              ]
            }
          },
          "mud_bricks": {
            "add": {
              "component_groups": [
                "mud_bricks"
              ]
            },
            "remove":{
              "component_groups":[
                "orange",
                "pink",
                "purple",
                "brown",
                "red",
                "yellow",
                "green",
                "black",
                "blue",
                "cyber"
              ]
            }
          },
          "obsidian": {
            "add": {
              "component_groups": [
                "obsidian"
              ]
            },
            "remove":{
              "component_groups":[
                "orange",
                "pink",
                "purple",
                "brown",
                "red",
                "yellow",
                "green",
                "black",
                "blue",
                "cyber"
              ]
            }
          },
          "crying_obsidian": {
            "add": {
              "component_groups": [
                "crying_obsidian"
              ]
            },
            "remove":{
              "component_groups":[
                "orange",
                "pink",
                "purple",
                "brown",
                "red",
                "yellow",
                "green",
                "black",
                "blue",
                "cyber"
              ]
            }
          },
          
          "si_box": {
            "add": {
              "component_groups": [
                "si_box"
              ]
            }
          },
          "no_box": {
            "add": {
              "component_groups": [
                "no_box"
              ]
            }
          },
          "water_bucket_on": {
            "add": {
              "component_groups": [
                "water_bucket"
              ]
            }
          },
          "water_bucket_off": {
            "remove": {
              "component_groups": [
                "water_bucket"
              ]
            }
          },
          "lava_bucket_on": {
            "add": {
              "component_groups": [
                "lava_bucket"
              ]
            }
          },
          "lava_bucket_off": {
            "remove": {
              "component_groups": [
                "lava_bucket"
              ]
            }
          },
          //sword
          "wood_sword_on": {
            "add": {
              "component_groups": [
                "tool_wood_sword"
              ]
            }
          },
          "stone_sword_on": {
            "add": {
              "component_groups": [
                "tool_stone_sword"
              ]
            }
          },
          "gold_sword_on": {
            "add": {
              "component_groups": [
                "tool_gold_sword"
              ]
            }
          },
          "iron_sword_on": {
            "add": {
              "component_groups": [
                "tool_iron_sword"
              ]
            }
          },
          "diamond_sword_on": {
            "add": {
              "component_groups": [
                "tool_diamond_sword"
              ]
            }
          },
          "netherite_sword_on": {
            "add": {
              "component_groups": [
                "tool_netherite_sword"
              ]
            }
          },
          //axe
          "wood_axe_on": {
            "add": {
              "component_groups": [
                "tool_wood_axe"
              ]
            }
          },
          "stone_axe_on": {
            "add": {
              "component_groups": [
                "tool_stone_axe"
              ]
            }
          },
          "gold_axe_on": {
            "add": {
              "component_groups": [
                "tool_gold_axe"
              ]
            }
          },
          "iron_axe_on": {
            "add": {
              "component_groups": [
                "tool_iron_axe"
              ]
            }
          },
          "diamond_axe_on": {
            "add": {
              "component_groups": [
                "tool_diamond_axe"
              ]
            }
          },
          "netherite_axe_on": {
            "add": {
              "component_groups": [
                "tool_netherite_axe"
              ]
            }
          },

          "wood_pickaxe_on": {
            "add": {
              "component_groups": [
                "tool_wood_pickaxe"
              ]
            }
          },
          "stone_pickaxe_on": {
            "add": {
              "component_groups": [
                "tool_stone_pickaxe"
              ]
            }
          },
          "gold_pickaxe_on": {
            "add": {
              "component_groups": [
                "tool_gold_pickaxe"
              ]
            }
          },
          "iron_pickaxe_on": {
            "add": {
              "component_groups": [
                "tool_iron_pickaxe"
              ]
            }
          },
          "diamond_pickaxe_on": {
            "add": {
              "component_groups": [
                "tool_diamond_pickaxe"
              ]
            }
          },
          "netherite_pickaxe_on": {
            "add": {
              "component_groups": [
                "tool_netherite_pickaxe"
              ]
            }
          },

          "wood_shovel_on": {
            "add": {
              "component_groups": [
                "tool_wood_shovel"
              ]
            }
          },
          "stone_shovel_on": {
            "add": {
              "component_groups": [
                "tool_stone_shovel"
              ]
            }
          },
          "gold_shovel_on": {
            "add": {
              "component_groups": [
                "tool_gold_shovel"
              ]
            }
          },
          "iron_shovel_on": {
            "add": {
              "component_groups": [
                "tool_iron_shovel"
              ]
            }
          },
          "diamond_shovel_on": {
            "add": {
              "component_groups": [
                "tool_diamond_shovel"
              ]
            }
          },
          "netherite_shovel_on": {
            "add": {
              "component_groups": [
                "tool_netherite_shovel"
              ]
            }
          },

          "wood_hoe_on": {
            "add": {
              "component_groups": [
                "tool_wood_hoe"
              ]
            }
          },
          "stone_hoe_on": {
            "add": {
              "component_groups": [
                "tool_stone_hoe"
              ]
            }
          },
          "gold_hoe_on": {
            "add": {
              "component_groups": [
                "tool_gold_hoe"
              ]
            }
          },
          "iron_hoe_on": {
            "add": {
              "component_groups": [
                "tool_iron_hoe"
              ]
            }
          },
          "diamond_hoe_on": {
            "add": {
              "component_groups": [
                "tool_diamond_hoe"
              ]
            }
          },
          "netherite_hoe_on": {
            "add": {
              "component_groups": [
                "tool_netherite_hoe"
              ]
            }
          },
          "shears_on": {
            "add": {
              "component_groups": [
                "tool_shears"
              ]
            }
          },
          "totem_on": {
            "add": {
              "component_groups": [
                "tool_totem"
              ]
            }
          },
          "fishing_rod_on": {
            "add": {
              "component_groups": [
                "fishing_rod"
              ]
            }
          },
          
          "no_sword": {
            "add": {
              "component_groups": [
                "mark_0"
              ]
            }
          }
        }
    }
}