{
	"pools": [
		{
			"rolls": 1,
			"entries": [
				{
					"type": "item",
					"name": "minecraft:music_disc_11"
				},
				{
					"type": "item",
					"name": "minecraft:music_disc_13"
				},
				{
					"type": "item",
					"name": "minecraft:music_disc_5"
				},
				{
					"type": "item",
					"name": "minecraft:music_disc_blocks"
				},
				{
					"type": "item",
					"name": "minecraft:music_disc_cat"
				},
				{
					"type": "item",
					"name": "minecraft:music_disc_chirp"
				},
				{
					"type": "item",
					"name": "minecraft:music_disc_far"
				},
				{
					"type": "item",
					"name": "minecraft:music_disc_mall"
				},
				{
					"type": "item",
					"name": "minecraft:music_disc_mellohi"
				},
				{
					"type": "item",
					"name": "minecraft:music_disc_otherside"
				},
				{
					"type": "item",
					"name": "minecraft:music_disc_pigstep"
				},
				{
					"type": "item",
					"name": "minecraft:music_disc_stal"
				},
				{
					"type": "item",
					"name": "minecraft:music_disc_strad"
				},
				{
					"type": "item",
					"name": "minecraft:music_disc_wait"
				},
				{
					"type": "item",
					"name": "minecraft:music_disc_ward"
				}
			]
		}
	]
}