{
  "format_version": "1.12",
  "minecraft:recipe_shaped": {
    "description": {
    "identifier": "yes:glowing_obsidian_battleaxe"
    },  
    "tags": [ "crafting_table" ],
    "pattern": [
      "XZX",
      "XYX",
      " Y "
    ],
    "key": {
      "Y": {
        "item": "minecraft:stick"
      },
      "X": {
        "item": "yes:glowing_obsidian_shard"
      },
      "Z": {
        "item": "yes:glowing_obsidian_block"
      }
    },
    "result": {
      "item": "yes:glowing_obsidian_battleaxe"
    }
  }
}
