{
  "format_version": "1.12",
  "minecraft:recipe_shapeless": {
    "description": {
    "identifier": "graves:grave_key_teleport"
    },

    
    "tags": [ "crafting_table" ],
    "ingredients": [
      {
        "item": "minecraft:ender_pearl"
      },
      {
        "item": "graves:grave_key"
      }
    ],
    "result": {
      "item": "graves:grave_key_teleport"
    }
  }
}
