{
  "format_version": "1.12",
  "minecraft:recipe_shaped": {
    "description": {
    "identifier": "yes:gilded_netherite_boots2"
    },

    
    "tags": [ "crafting_table" ],
    "pattern": [
      "###",
      "#X#",
      "###"
    ],
    "key": {
      "#": {
        "item": "yes:melted_gilded_blackstone"
      },
      "X": {
        "item": "minecraft:netherite_boots"
      }
    },
    "result": {
      "item": "yes:gilded_netherite_boots"
    }
  }
}
