{
  "pools": [
    {
      "rolls": 1,
      "entries": [
        {
          "type": "item",
          "name": "minecraft:bow",
          "weight": 6,
          "functions": [
            {
              "function": "set_damage",
              "damage": {
                "min": 0.8,
                "max": 1
              }
            },
            {
              "function": "enchant_with_levels",
              "levels": 24,
              "treasure": true
            }
          ]
        },
        {
          "type": "item",
          "name": "minecraft:iron_sword",
          "weight": 6,
          "functions": [
            {
              "function": "set_damage",
              "damage": {
                "min": 0.8,
                "max": 1
              }
            },
            {
              "function": "enchant_with_levels",
              "levels": 24,
              "treasure": true
            }
          ]
        },
        {
          "type": "item",
          "name": "btr:iron_dagger",
          "weight": 6,
          "functions": [
            {
              "function": "set_damage",
              "damage": {
                "min": 0.8,
                "max": 1
              }
            },
            {
              "function": "enchant_with_levels",
              "levels": 24,
              "treasure": true
            }
          ]
        },
        {
          "type": "item",
          "name": "btr:iron_nunchaku",
          "weight": 6,
          "functions": [
            {
              "function": "set_damage",
              "damage": {
                "min": 0.8,
                "max": 1
              }
            },
            {
              "function": "enchant_with_levels",
              "levels": 24,
              "treasure": true
            }
          ]
        },
        {
          "type": "item",
          "name": "btr:iron_battleaxe",
          "weight": 6,
          "functions": [
            {
              "function": "set_damage",
              "damage": {
                "min": 0.8,
                "max": 1
              }
            },
            {
              "function": "enchant_with_levels",
              "levels": 24,
              "treasure": true
            }
          ]
        },
        {
          "type": "item",
          "name": "btr:iron_hammer",
          "weight": 6,
          "functions": [
            {
              "function": "set_damage",
              "damage": {
                "min": 0.8,
                "max": 1
              }
            },
            {
              "function": "enchant_with_levels",
              "levels": 24,
              "treasure": true
            }
          ]
        },
        {
          "type": "item",
          "name": "minecraft:iron_pickaxe",
          "weight": 6,
          "functions": [
            {
              "function": "set_damage",
              "damage": {
                "min": 0.8,
                "max": 1
              }
            },
            {
              "function": "enchant_with_levels",
              "levels": 24,
              "treasure": true
            }
          ]
        },
        {
          "type": "item",
          "name": "minecraft:iron_axe",
          "weight": 6,
          "functions": [
            {
              "function": "set_damage",
              "damage": {
                "min": 0.8,
                "max": 1
              }
            },
            {
              "function": "enchant_with_levels",
              "levels": 24,
              "treasure": true
            }
          ]
        },
        {
          "type": "item",
          "name": "minecraft:iron_shovel",
          "weight": 6,
          "functions": [
            {
              "function": "set_damage",
              "damage": {
                "min": 0.8,
                "max": 1
              }
            },
            {
              "function": "enchant_with_levels",
              "levels": 24,
              "treasure": true
            }
          ]
        },
        {
          "type": "item",
          "name": "minecraft:iron_hoe",
          "weight": 6,
          "functions": [
            {
              "function": "set_damage",
              "damage": {
                "min": 0.8,
                "max": 1
              }
            },
            {
              "function": "enchant_with_levels",
              "levels": 24,
              "treasure": true
            }
          ]
        },
        {
          "type": "item",
          "name": "minecraft:iron_helmet",
          "weight": 6,
          "functions": [
            {
              "function": "set_damage",
              "damage": {
                "min": 0.8,
                "max": 1
              }
            },
            {
              "function": "enchant_with_levels",
              "levels": 24,
              "treasure": true
            }
          ]
        },
        {
          "type": "item",
          "name": "minecraft:iron_chestplate",
          "weight": 6,
          "functions": [
            {
              "function": "set_damage",
              "damage": {
                "min": 0.8,
                "max": 1
              }
            },
            {
              "function": "enchant_with_levels",
              "levels": 24,
              "treasure": true
            }
          ]
        },
        {
          "type": "item",
          "name": "minecraft:iron_leggings",
          "weight": 6,
          "functions": [
            {
              "function": "set_damage",
              "damage": {
                "min": 0.8,
                "max": 1
              }
            },
            {
              "function": "enchant_with_levels",
              "levels": 24,
              "treasure": true
            }
          ]
        },
        {
          "type": "item",
          "name": "minecraft:iron_boots",
          "weight": 6,
          "functions": [
            {
              "function": "set_damage",
              "damage": {
                "min": 0.8,
                "max": 1
              }
            },
            {
              "function": "enchant_with_levels",
              "levels": 24,
              "treasure": true
            }
          ]
        },
        {
          "type": "item",
          "name": "minecraft:golden_sword",
          "weight": 3,
          "functions": [
            {
              "function": "set_damage",
              "damage": {
                "min": 0.8,
                "max": 1
              }
            },
            {
              "function": "enchant_with_levels",
              "levels": 24,
              "treasure": true
            }
          ]
        },
        {
          "type": "item",
          "name": "btr:golden_dagger",
          "weight": 3,
          "functions": [
            {
              "function": "set_damage",
              "damage": {
                "min": 0.8,
                "max": 1
              }
            },
            {
              "function": "enchant_with_levels",
              "levels": 24,
              "treasure": true
            }
          ]
        },
        {
          "type": "item",
          "name": "btr:golden_nunchaku",
          "weight": 3,
          "functions": [
            {
              "function": "set_damage",
              "damage": {
                "min": 0.8,
                "max": 1
              }
            },
            {
              "function": "enchant_with_levels",
              "levels": 24,
              "treasure": true
            }
          ]
        },
        {
          "type": "item",
          "name": "btr:golden_battleaxe",
          "weight": 3,
          "functions": [
            {
              "function": "set_damage",
              "damage": {
                "min": 0.8,
                "max": 1
              }
            },
            {
              "function": "enchant_with_levels",
              "levels": 24,
              "treasure": true
            }
          ]
        },
        {
          "type": "item",
          "name": "btr:golden_hammer",
          "weight": 3,
          "functions": [
            {
              "function": "set_damage",
              "damage": {
                "min": 0.8,
                "max": 1
              }
            },
            {
              "function": "enchant_with_levels",
              "levels": 24,
              "treasure": true
            }
          ]
        },
        {
          "type": "item",
          "name": "minecraft:golden_pickaxe",
          "weight": 3,
          "functions": [
            {
              "function": "set_damage",
              "damage": {
                "min": 0.8,
                "max": 1
              }
            },
            {
              "function": "enchant_with_levels",
              "levels": 24,
              "treasure": true
            }
          ]
        },
        {
          "type": "item",
          "name": "minecraft:golden_axe",
          "weight": 3,
          "functions": [
            {
              "function": "set_damage",
              "damage": {
                "min": 0.8,
                "max": 1
              }
            },
            {
              "function": "enchant_with_levels",
              "levels": 24,
              "treasure": true
            }
          ]
        },
        {
          "type": "item",
          "name": "minecraft:golden_shovel",
          "weight": 3,
          "functions": [
            {
              "function": "set_damage",
              "damage": {
                "min": 0.8,
                "max": 1
              }
            },
            {
              "function": "enchant_with_levels",
              "levels": 24,
              "treasure": true
            }
          ]
        },
        {
          "type": "item",
          "name": "minecraft:golden_hoe",
          "weight": 3,
          "functions": [
            {
              "function": "set_damage",
              "damage": {
                "min": 0.8,
                "max": 1
              }
            },
            {
              "function": "enchant_with_levels",
              "levels": 24,
              "treasure": true
            }
          ]
        },
        {
          "type": "item",
          "name": "minecraft:golden_helmet",
          "weight": 3,
          "functions": [
            {
              "function": "set_damage",
              "damage": {
                "min": 0.8,
                "max": 1
              }
            },
            {
              "function": "enchant_with_levels",
              "levels": 24,
              "treasure": true
            }
          ]
        },
        {
          "type": "item",
          "name": "minecraft:golden_chestplate",
          "weight": 3,
          "functions": [
            {
              "function": "set_damage",
              "damage": {
                "min": 0.8,
                "max": 1
              }
            },
            {
              "function": "enchant_with_levels",
              "levels": 24,
              "treasure": true
            }
          ]
        },
        {
          "type": "item",
          "name": "minecraft:golden_leggings",
          "weight": 3,
          "functions": [
            {
              "function": "set_damage",
              "damage": {
                "min": 0.8,
                "max": 1
              }
            },
            {
              "function": "enchant_with_levels",
              "levels": 24,
              "treasure": true
            }
          ]
        },
        {
          "type": "item",
          "name": "minecraft:golden_boots",
          "weight": 3,
          "functions": [
            {
              "function": "set_damage",
              "damage": {
                "min": 0.8,
                "max": 1
              }
            },
            {
              "function": "enchant_with_levels",
              "levels": 24,
              "treasure": true
            }
          ]
        },
        {
          "type": "item",
          "name": "minecraft:golden_apple",
          "weight": 3
        },
        {
          "type": "item",
          "name": "minecraft:blaze_powder",
          "weight": 3,
          "functions": [
            {
              "function": "set_count",
              "count": {
                "min": 1,
                "max": 3
              }
            }
          ]
        },
        {
          "type": "loot_table",
          "name": "loot_tables/books/books_ultra.json",
          "weight": 6
        }
      ]
    },
    {
      "rolls": 1,
      "entries": [
        {
          "type": "item",
          "name": "minecraft:string",
          "weight": 1,
          "functions": [
            {
              "function": "set_count",
              "count": {
                "min": 4,
                "max": 6
              }
            },
            {
              "function": "looting_enchant",
              "count": {
                "min": 2,
                "max": 4
              }
            }
          ]
        }
      ]
    },
    {
      "conditions": [
        {
          "condition": "killed_by_player"
        }
      ],
      "rolls": 1,
      "entries": [
        {
          "type": "item",
          "name": "minecraft:spider_eye",
          "weight": 1,
          "functions": [
            {
              "function": "set_count",
              "count": {
                "min": 2,
                "max": 4
              }
            },
            {
              "function": "looting_enchant",
              "count": {
                "min": 2,
                "max": 4
              }
            }
          ]
        }
      ]
    }
  ]
}