{
  "format_version": "1.18.0",
  "minecraft:item": {
    "description": {
      "category": "commands",
      "identifier": "btr:agility_i_netherite_leggings"
    },
    "components": {
      "minecraft:max_stack_size": 1,
      "minecraft:enchantable": {
        "value": 15,
        "slot": "armor_legs"
      },
      "minecraft:durability": {
        "max_damage": 555,
        "damage_chance": {
          "min": 60,
          "max": 100
        },
        "max_durability": 555
      },
      "minecraft:mining_speed": 9,
      "minecraft:damage": 4,
      "minecraft:armor": {
        "protection": 6
      },
      "minecraft:wearable": {
        "slot": "slot.armor.legs"
      },
      "minecraft:knockback_resistance": {
        "protection": 0.1
      },
      "minecraft:icon": {
        "texture": "netherite_leggings"
      },
      "minecraft:foil": true,
      "minecraft:display_name": {
        "value": "§bNetherite Leggings\n§7Agility I"
      },
      "minecraft:repairable": {
        "repair_items": [
          {
            "items": [
              "minecraft:netherite_leggings"
            ],
            "repair_amount": "query.max_durability"
          },
          {
            "items": [
              "minecraft:netherite_ingot"
            ],
            "repair_amount": 139
          }
        ]
      }
    }
  }
}