{
	"file_path": "C:\\Users\\plant\\AppData\\Local\\Packages\\Microsoft.MinecraftUWP_8wekyb3d8bbwe\\LocalState\\games\\com.mojang\\development_behavior_packs\\Village and Pillage+\\blocks\\topaz_ore.json",
	"file_type": "block",
	"format_version": 1,
	"file_uuid": "8f16d198_692e_41fa_bae1_644c345bf69f",
	"file_version": 37,
	"cache_content": {
		"children": [
			{
				"data": "1.17.0",
				"key": "format_version"
			},
			{
				"open": {
					"format_version": "1.17.0",
					"minecraft:block": {
						"description": {
							"identifier": "v:topaz_ore"
						},
						"components": {
							"minecraft:destroy_time": 1,
							"minecraft:material_instances": {
								"*": {
									"texture": "topaz_ore"
								}
							},
							"minecraft:entity_collision": {
								"origin": [
									-8,
									0,
									-8
								],
								"size": [
									16,
									16,
									16
								]
							},
							"minecraft:pick_collision": {
								"origin": [
									-8,
									0,
									-8
								],
								"size": [
									16,
									16,
									16
								]
							},
							"minecraft:loot": "empty",
							"minecraft:on_player_destroyed": {
								"condition": "query.get_equipped_item_name == 'diamond_pickaxe' || query.get_equipped_item_name == 'netherite_pickaxe' || query.get_equipped_item_name == 'iron_pickaxe' || query.equipped_item_any_tag('slot.weapon.mainhand','is_pickaxe_costum') || query.get_equipped_item_name == 'stone_pickaxe' ",
								"event": "pick"
							},
							"minecraft:creative_category": {
								"group": "itemGroup.name.ore",
								"category": "nature"
							},
							"minecraft:unit_cube": {},
							"tag:fast_pickaxe_mineable": {}
						},
						"events": {
							"pick": {
								"spawn_loot": {
									"table": "loot_tables/topaz_ore_loot.json"
								},
								"run_command": {
									"command": [
										"summon v:ore_item_deleter"
									]
								}
							}
						}
					}
				},
				"key": "minecraft:block",
				"children": [
					{
						"open": {
							"description": {
								"identifier": "v:topaz_ore"
							},
							"components": {
								"minecraft:destroy_time": 1,
								"minecraft:material_instances": {
									"*": {
										"texture": "topaz_ore"
									}
								},
								"minecraft:entity_collision": {
									"origin": [
										-8,
										0,
										-8
									],
									"size": [
										16,
										16,
										16
									]
								},
								"minecraft:pick_collision": {
									"origin": [
										-8,
										0,
										-8
									],
									"size": [
										16,
										16,
										16
									]
								},
								"minecraft:loot": "empty",
								"minecraft:on_player_destroyed": {
									"condition": "query.get_equipped_item_name == 'diamond_pickaxe' || query.get_equipped_item_name == 'netherite_pickaxe' || query.get_equipped_item_name == 'iron_pickaxe' || query.equipped_item_any_tag('slot.weapon.mainhand','is_pickaxe_costum') || query.get_equipped_item_name == 'stone_pickaxe' ",
									"event": "pick"
								},
								"minecraft:creative_category": {
									"group": "itemGroup.name.ore",
									"category": "nature"
								},
								"minecraft:unit_cube": {},
								"tag:fast_pickaxe_mineable": {}
							},
							"events": {
								"pick": {
									"spawn_loot": {
										"table": "loot_tables/topaz_ore_loot.json"
									},
									"run_command": {
										"command": [
											"summon v:ore_item_deleter"
										]
									}
								}
							}
						},
						"key": "description",
						"is_minified": true,
						"children": {
							"identifier": "v:topaz_ore"
						}
					},
					{
						"open": {
							"description": {
								"identifier": "v:topaz_ore"
							},
							"components": {
								"minecraft:destroy_time": 1,
								"minecraft:material_instances": {
									"*": {
										"texture": "topaz_ore"
									}
								},
								"minecraft:entity_collision": {
									"origin": [
										-8,
										0,
										-8
									],
									"size": [
										16,
										16,
										16
									]
								},
								"minecraft:pick_collision": {
									"origin": [
										-8,
										0,
										-8
									],
									"size": [
										16,
										16,
										16
									]
								},
								"minecraft:loot": "empty",
								"minecraft:on_player_destroyed": {
									"condition": "query.get_equipped_item_name == 'diamond_pickaxe' || query.get_equipped_item_name == 'netherite_pickaxe' || query.get_equipped_item_name == 'iron_pickaxe' || query.equipped_item_any_tag('slot.weapon.mainhand','is_pickaxe_costum') || query.get_equipped_item_name == 'stone_pickaxe' ",
									"event": "pick"
								},
								"minecraft:creative_category": {
									"group": "itemGroup.name.ore",
									"category": "nature"
								},
								"minecraft:unit_cube": {},
								"tag:fast_pickaxe_mineable": {}
							},
							"events": {
								"pick": {
									"spawn_loot": {
										"table": "loot_tables/topaz_ore_loot.json"
									},
									"run_command": {
										"command": [
											"summon v:ore_item_deleter"
										]
									}
								}
							}
						},
						"key": "components",
						"children": [
							{
								"data": "1",
								"key": "minecraft:destroy_time"
							},
							{
								"open": {
									"minecraft:destroy_time": 1,
									"minecraft:material_instances": {
										"*": {
											"texture": "topaz_ore"
										}
									},
									"minecraft:entity_collision": {
										"origin": [
											-8,
											0,
											-8
										],
										"size": [
											16,
											16,
											16
										]
									},
									"minecraft:pick_collision": {
										"origin": [
											-8,
											0,
											-8
										],
										"size": [
											16,
											16,
											16
										]
									},
									"minecraft:loot": "empty",
									"minecraft:on_player_destroyed": {
										"condition": "query.get_equipped_item_name == 'diamond_pickaxe' || query.get_equipped_item_name == 'netherite_pickaxe' || query.get_equipped_item_name == 'iron_pickaxe' || query.equipped_item_any_tag('slot.weapon.mainhand','is_pickaxe_costum') || query.get_equipped_item_name == 'stone_pickaxe' ",
										"event": "pick"
									},
									"minecraft:creative_category": {
										"group": "itemGroup.name.ore",
										"category": "nature"
									},
									"minecraft:unit_cube": {},
									"tag:fast_pickaxe_mineable": {}
								},
								"key": "minecraft:material_instances",
								"children": [
									{
										"open": {
											"*": {
												"texture": "topaz_ore"
											}
										},
										"key": "*",
										"is_minified": true,
										"children": {
											"texture": "topaz_ore"
										}
									}
								]
							},
							{
								"key": "minecraft:entity_collision",
								"is_minified": true,
								"children": {
									"origin": [
										-8,
										0,
										-8
									],
									"size": [
										16,
										16,
										16
									]
								}
							},
							{
								"key": "minecraft:pick_collision",
								"is_minified": true,
								"children": {
									"origin": [
										-8,
										0,
										-8
									],
									"size": [
										16,
										16,
										16
									]
								}
							},
							{
								"data": "empty",
								"key": "minecraft:loot"
							},
							{
								"key": "minecraft:on_player_destroyed",
								"is_minified": true,
								"children": {
									"condition": "query.get_equipped_item_name == 'diamond_pickaxe' || query.get_equipped_item_name == 'netherite_pickaxe' || query.get_equipped_item_name == 'iron_pickaxe' || query.equipped_item_any_tag('slot.weapon.mainhand','is_pickaxe_costum') || query.get_equipped_item_name == 'stone_pickaxe' ",
									"event": "pick"
								}
							},
							{
								"key": "minecraft:creative_category",
								"is_minified": true,
								"children": {
									"group": "itemGroup.name.ore",
									"category": "nature"
								}
							},
							{
								"key": "minecraft:unit_cube",
								"is_minified": true,
								"children": {}
							},
							{
								"open": {
									"minecraft:destroy_time": 1,
									"minecraft:material_instances": {
										"*": {
											"texture": "topaz_ore"
										}
									},
									"minecraft:entity_collision": {
										"origin": [
											-8,
											0,
											-8
										],
										"size": [
											16,
											16,
											16
										]
									},
									"minecraft:pick_collision": {
										"origin": [
											-8,
											0,
											-8
										],
										"size": [
											16,
											16,
											16
										]
									},
									"minecraft:loot": "empty",
									"minecraft:on_player_destroyed": {
										"condition": "query.get_equipped_item_name == 'diamond_pickaxe' || query.get_equipped_item_name == 'netherite_pickaxe' || query.get_equipped_item_name == 'iron_pickaxe' || query.equipped_item_any_tag('slot.weapon.mainhand','is_pickaxe_costum') || query.get_equipped_item_name == 'stone_pickaxe' ",
										"event": "pick"
									},
									"minecraft:creative_category": {
										"group": "itemGroup.name.ore",
										"category": "nature"
									},
									"minecraft:unit_cube": {},
									"tag:fast_pickaxe_mineable": {}
								},
								"key": "tag:fast_pickaxe_mineable",
								"is_minified": true,
								"children": {}
							}
						]
					},
					{
						"open": {
							"description": {
								"identifier": "v:topaz_ore"
							},
							"components": {
								"minecraft:destroy_time": 1,
								"minecraft:material_instances": {
									"*": {
										"texture": "topaz_ore"
									}
								},
								"minecraft:entity_collision": {
									"origin": [
										-8,
										0,
										-8
									],
									"size": [
										16,
										16,
										16
									]
								},
								"minecraft:pick_collision": {
									"origin": [
										-8,
										0,
										-8
									],
									"size": [
										16,
										16,
										16
									]
								},
								"minecraft:loot": "empty",
								"minecraft:on_player_destroyed": {
									"condition": "query.get_equipped_item_name == 'diamond_pickaxe' || query.get_equipped_item_name == 'netherite_pickaxe' || query.get_equipped_item_name == 'iron_pickaxe' || query.equipped_item_any_tag('slot.weapon.mainhand','is_pickaxe_costum') || query.get_equipped_item_name == 'stone_pickaxe' ",
									"event": "pick"
								},
								"minecraft:creative_category": {
									"group": "itemGroup.name.ore",
									"category": "nature"
								},
								"minecraft:unit_cube": {},
								"tag:fast_pickaxe_mineable": {}
							},
							"events": {
								"pick": {
									"spawn_loot": {
										"table": "loot_tables/topaz_ore_loot.json"
									},
									"run_command": {
										"command": [
											"summon v:ore_item_deleter"
										]
									}
								}
							}
						},
						"key": "events",
						"children": [
							{
								"open": {
									"pick": {
										"spawn_loot": {
											"table": "loot_tables/topaz_ore_loot.json"
										},
										"run_command": {
											"command": [
												"summon v:ore_item_deleter"
											]
										}
									}
								},
								"key": "pick",
								"children": [
									{
										"open": {
											"spawn_loot": {
												"table": "loot_tables/topaz_ore_loot.json"
											},
											"run_command": {
												"command": [
													"summon v:ore_item_deleter"
												]
											}
										},
										"key": "spawn_loot",
										"is_minified": true,
										"children": {
											"table": "loot_tables/topaz_ore_loot.json"
										}
									},
									{
										"open": {
											"spawn_loot": {
												"table": "loot_tables/topaz_ore_loot.json"
											},
											"run_command": {
												"command": [
													"summon v:ore_item_deleter"
												]
											}
										},
										"key": "run_command",
										"children": [
											{
												"open": {
													"command": [
														"summon v:ore_item_deleter"
													]
												},
												"key": "command",
												"is_minified": true,
												"children": [
													"summon v:ore_item_deleter"
												]
											}
										]
									}
								]
							}
						]
					}
				]
			}
		]
	}
}