{
	"file_path": "C:\\Users\\plant\\AppData\\Local\\Packages\\Microsoft.MinecraftUWP_8wekyb3d8bbwe\\LocalState\\games\\com.mojang\\development_behavior_packs\\Village and Pillage+\\blocks\\topaz_block.json",
	"file_type": "block",
	"format_version": 1,
	"file_uuid": "55a85bed_1003_44ac_ae22_8813d862889f",
	"file_version": 18,
	"cache_content": {
		"children": [
			{
				"data": "1.17.0",
				"key": "format_version"
			},
			{
				"open": {
					"format_version": "1.17.0",
					"minecraft:block": {
						"description": {
							"identifier": "v:topaz_block"
						},
						"components": {
							"minecraft:destroy_time": 1,
							"tag:fast_pickaxe_mineable": {},
							"minecraft:unit_cube": {},
							"minecraft:material_instances": {
								"*": {
									"texture": "topaz_block"
								}
							},
							"minecraft:creative_category": {
								"group": "itemGroup.name.block",
								"category": "construction"
							}
						}
					}
				},
				"key": "minecraft:block",
				"children": [
					{
						"open": {
							"description": {
								"identifier": "v:topaz_block"
							},
							"components": {
								"minecraft:destroy_time": 1,
								"tag:fast_pickaxe_mineable": {},
								"minecraft:unit_cube": {},
								"minecraft:material_instances": {
									"*": {
										"texture": "topaz_block"
									}
								},
								"minecraft:creative_category": {
									"group": "itemGroup.name.block",
									"category": "construction"
								}
							}
						},
						"key": "description",
						"is_minified": true,
						"children": {
							"identifier": "v:topaz_block"
						}
					},
					{
						"open": {
							"description": {
								"identifier": "v:topaz_block"
							},
							"components": {
								"minecraft:destroy_time": 1,
								"tag:fast_pickaxe_mineable": {},
								"minecraft:unit_cube": {},
								"minecraft:material_instances": {
									"*": {
										"texture": "topaz_block"
									}
								},
								"minecraft:creative_category": {
									"group": "itemGroup.name.block",
									"category": "construction"
								}
							}
						},
						"key": "components",
						"children": [
							{
								"data": "1",
								"key": "minecraft:destroy_time"
							},
							{
								"key": "tag:fast_pickaxe_mineable",
								"is_minified": true,
								"children": {}
							},
							{
								"key": "minecraft:unit_cube",
								"is_minified": true,
								"children": {}
							},
							{
								"open": {
									"minecraft:destroy_time": 1,
									"tag:fast_pickaxe_mineable": {},
									"minecraft:unit_cube": {},
									"minecraft:material_instances": {
										"*": {
											"texture": "topaz_block"
										}
									},
									"minecraft:creative_category": {
										"group": "itemGroup.name.block",
										"category": "construction"
									}
								},
								"key": "minecraft:material_instances",
								"children": [
									{
										"open": {
											"*": {
												"texture": "topaz_block"
											}
										},
										"key": "*",
										"is_minified": true,
										"children": {
											"texture": "topaz_block"
										}
									}
								]
							},
							{
								"key": "minecraft:creative_category",
								"is_minified": true,
								"children": {
									"group": "itemGroup.name.block",
									"category": "construction"
								}
							}
						]
					}
				]
			}
		]
	}
}