{
	"file_path": "C:\\Users\\plant\\AppData\\Local\\Packages\\Microsoft.MinecraftUWP_8wekyb3d8bbwe\\LocalState\\games\\com.mojang\\development_resource_packs\\Village and Pillage+ RP\\entity\\excavator_illager.json",
	"file_type": "client_entity",
	"format_version": 1,
	"file_uuid": "766870ea_8b74_4868_a915_f850e1341c41",
	"file_version": 12,
	"cache_content": {
		"children": [
			{
				"data": "1.10.0",
				"key": "format_version"
			},
			{
				"open": {
					"format_version": "1.10.0",
					"minecraft:client_entity": {
						"description": {
							"identifier": "v:excavator_illager",
							"min_engine_version": "1.8.0",
							"materials": {
								"default": "vindicator"
							},
							"textures": {
								"default": "textures/entity/excavator_illager"
							},
							"geometry": {
								"default": "geometry.excavator_illager"
							},
							"spawn_egg": {
								"base_color": "#5E5E5E",
								"overlay_color": "#19232C"
							},
							"render_controllers": [
								"controller.render.excavator_illager"
							],
							"enable_attachables": true,
							"scripts": {
								"scale": 0.9375,
								"animate": [
									"vindicator_walk",
									"controller_look_at_target",
									"controller_vindicator_base",
									"controller_riding"
								]
							},
							"animations": {
								"look_at_target_default": "animation.humanoid.look_at_target.default",
								"look_at_target_gliding": "animation.humanoid.look_at_target.gliding",
								"look_at_target_swimming": "animation.humanoid.look_at_target.swimming",
								"riding.arms": "animation.vindicator.riding.arms",
								"riding.legs": "animation.vindicator.riding.legs",
								"vindicator_base": "animation.vindicator.base",
								"vindicator_attack": "animation.vindicator.attack",
								"vindicator_hand_attack": "animation.vindicator.hand_attack",
								"vindicator_walk": "animation.vindicator.walk",
								"celebrating": "animation.humanoid.celebrating",
								"controller_look_at_target": "controller.animation.humanoid.look_at_target",
								"controller_vindicator_base": "controller.animation.vindicator.base",
								"controller_riding": "controller.animation.humanoid.riding"
							}
						}
					}
				},
				"key": "minecraft:client_entity",
				"children": [
					{
						"open": {
							"description": {
								"identifier": "v:excavator_illager",
								"min_engine_version": "1.8.0",
								"materials": {
									"default": "vindicator"
								},
								"textures": {
									"default": "textures/entity/excavator_illager"
								},
								"geometry": {
									"default": "geometry.excavator_illager"
								},
								"spawn_egg": {
									"base_color": "#5E5E5E",
									"overlay_color": "#19232C"
								},
								"render_controllers": [
									"controller.render.excavator_illager"
								],
								"enable_attachables": true,
								"scripts": {
									"scale": 0.9375,
									"animate": [
										"vindicator_walk",
										"controller_look_at_target",
										"controller_vindicator_base",
										"controller_riding"
									]
								},
								"animations": {
									"look_at_target_default": "animation.humanoid.look_at_target.default",
									"look_at_target_gliding": "animation.humanoid.look_at_target.gliding",
									"look_at_target_swimming": "animation.humanoid.look_at_target.swimming",
									"riding.arms": "animation.vindicator.riding.arms",
									"riding.legs": "animation.vindicator.riding.legs",
									"vindicator_base": "animation.vindicator.base",
									"vindicator_attack": "animation.vindicator.attack",
									"vindicator_hand_attack": "animation.vindicator.hand_attack",
									"vindicator_walk": "animation.vindicator.walk",
									"celebrating": "animation.humanoid.celebrating",
									"controller_look_at_target": "controller.animation.humanoid.look_at_target",
									"controller_vindicator_base": "controller.animation.vindicator.base",
									"controller_riding": "controller.animation.humanoid.riding"
								}
							}
						},
						"key": "description",
						"children": [
							{
								"data": "v:excavator_illager",
								"key": "identifier"
							},
							{
								"data": "1.8.0",
								"key": "min_engine_version"
							},
							{
								"key": "materials",
								"is_minified": true,
								"children": {
									"default": "vindicator"
								}
							},
							{
								"key": "textures",
								"is_minified": true,
								"children": {
									"default": "textures/entity/excavator_illager"
								}
							},
							{
								"key": "geometry",
								"is_minified": true,
								"children": {
									"default": "geometry.excavator_illager"
								}
							},
							{
								"key": "spawn_egg",
								"is_minified": true,
								"children": {
									"base_color": "#5E5E5E",
									"overlay_color": "#19232C"
								}
							},
							{
								"open": {
									"identifier": "v:excavator_illager",
									"min_engine_version": "1.8.0",
									"materials": {
										"default": "vindicator"
									},
									"textures": {
										"default": "textures/entity/excavator_illager"
									},
									"geometry": {
										"default": "geometry.excavator_illager"
									},
									"spawn_egg": {
										"base_color": "#5E5E5E",
										"overlay_color": "#19232C"
									},
									"render_controllers": [
										"controller.render.excavator_illager"
									],
									"enable_attachables": true,
									"scripts": {
										"scale": 0.9375,
										"animate": [
											"vindicator_walk",
											"controller_look_at_target",
											"controller_vindicator_base",
											"controller_riding"
										]
									},
									"animations": {
										"look_at_target_default": "animation.humanoid.look_at_target.default",
										"look_at_target_gliding": "animation.humanoid.look_at_target.gliding",
										"look_at_target_swimming": "animation.humanoid.look_at_target.swimming",
										"riding.arms": "animation.vindicator.riding.arms",
										"riding.legs": "animation.vindicator.riding.legs",
										"vindicator_base": "animation.vindicator.base",
										"vindicator_attack": "animation.vindicator.attack",
										"vindicator_hand_attack": "animation.vindicator.hand_attack",
										"vindicator_walk": "animation.vindicator.walk",
										"celebrating": "animation.humanoid.celebrating",
										"controller_look_at_target": "controller.animation.humanoid.look_at_target",
										"controller_vindicator_base": "controller.animation.vindicator.base",
										"controller_riding": "controller.animation.humanoid.riding"
									}
								},
								"key": "render_controllers",
								"is_minified": true,
								"children": [
									"controller.render.excavator_illager"
								]
							},
							{
								"data": "true",
								"key": "enable_attachables"
							},
							{
								"open": {
									"identifier": "v:excavator_illager",
									"min_engine_version": "1.8.0",
									"materials": {
										"default": "vindicator"
									},
									"textures": {
										"default": "textures/entity/excavator_illager"
									},
									"geometry": {
										"default": "geometry.excavator_illager"
									},
									"spawn_egg": {
										"base_color": "#5E5E5E",
										"overlay_color": "#19232C"
									},
									"render_controllers": [
										"controller.render.excavator_illager"
									],
									"enable_attachables": true,
									"scripts": {
										"scale": 0.9375,
										"animate": [
											"vindicator_walk",
											"controller_look_at_target",
											"controller_vindicator_base",
											"controller_riding"
										]
									},
									"animations": {
										"look_at_target_default": "animation.humanoid.look_at_target.default",
										"look_at_target_gliding": "animation.humanoid.look_at_target.gliding",
										"look_at_target_swimming": "animation.humanoid.look_at_target.swimming",
										"riding.arms": "animation.vindicator.riding.arms",
										"riding.legs": "animation.vindicator.riding.legs",
										"vindicator_base": "animation.vindicator.base",
										"vindicator_attack": "animation.vindicator.attack",
										"vindicator_hand_attack": "animation.vindicator.hand_attack",
										"vindicator_walk": "animation.vindicator.walk",
										"celebrating": "animation.humanoid.celebrating",
										"controller_look_at_target": "controller.animation.humanoid.look_at_target",
										"controller_vindicator_base": "controller.animation.vindicator.base",
										"controller_riding": "controller.animation.humanoid.riding"
									}
								},
								"key": "scripts",
								"children": [
									{
										"data": "0.9375",
										"key": "scale"
									},
									{
										"open": {
											"scale": 0.9375,
											"animate": [
												"vindicator_walk",
												"controller_look_at_target",
												"controller_vindicator_base",
												"controller_riding"
											]
										},
										"key": "animate",
										"is_minified": true,
										"children": [
											"vindicator_walk",
											"controller_look_at_target",
											"controller_vindicator_base",
											"controller_riding"
										]
									}
								]
							},
							{
								"key": "animations",
								"is_minified": true,
								"children": {
									"look_at_target_default": "animation.humanoid.look_at_target.default",
									"look_at_target_gliding": "animation.humanoid.look_at_target.gliding",
									"look_at_target_swimming": "animation.humanoid.look_at_target.swimming",
									"riding.arms": "animation.vindicator.riding.arms",
									"riding.legs": "animation.vindicator.riding.legs",
									"vindicator_base": "animation.vindicator.base",
									"vindicator_attack": "animation.vindicator.attack",
									"vindicator_hand_attack": "animation.vindicator.hand_attack",
									"vindicator_walk": "animation.vindicator.walk",
									"celebrating": "animation.humanoid.celebrating",
									"controller_look_at_target": "controller.animation.humanoid.look_at_target",
									"controller_vindicator_base": "controller.animation.vindicator.base",
									"controller_riding": "controller.animation.humanoid.riding"
								}
							}
						]
					}
				]
			}
		]
	}
}