{
  "format_version": "1.12",
  "minecraft:recipe_shaped": {
    "description": {
    "identifier": "yes:emerald_helmet"
    },
    "tags": [ "crafting_table" ],
    "pattern": [
      "ZZZ",
      "Z Z"
    ],
    "key": {
      "Z": {
        "item": "minecraft:emerald"
      }
    },
    "result": {
      "item": "yes:emerald_helmet"
    }
  }
}