{
  "format_version": "1.16.0",
  "minecraft:entity": {
    "description": {
      "identifier": "yes:stun_entity1",
      "is_spawnable": false,
      "is_summonable": true,
      "is_experimental": false
   },
    "component_groups": {
      "yes:despawn": {
        "minecraft:instant_despawn": {}
      }
    },
        "components": {
			
	  "minecraft:type_family": {
	    "family": [ "inanimate", "weeweejuice", "stun_entity" ]
	  },
      "minecraft:environment_sensor": {
        "triggers": [
			  {
            "filters": {
              "all_of": [
                {
                  "test": "is_family",
                  "subject": "self",
                  "value": "stun_entity"
                }
              ]
            },
            "event": "yes:stun_event"
            }
		  ]
		},
      "minecraft:knockback_resistance": {
        "value": 1.0
      },
        "minecraft:timer": {
          "looping": false,
          "time": 0.25,
          "time_down_event": {
            "event": "yes:despawn"
          }
        },
      "minecraft:navigation.walk": {
        "is_amphibious": false,
        "can_pass_doors": false,
        "can_walk": false,
        "can_break_doors": false
      },
            "minecraft:custom_hit_test": {
                "hitboxes": [
                    {
                        "pivot": [ 0, 100, 0 ],
                        "width": 0,
                        "height": 0
                    }
                ]
            },
            "minecraft:damage_sensor": {
                "triggers": {
                    "deals_damage": false
                }
            },
            "minecraft:pushable": {
                "is_pushable": false,
                "is_pushable_by_piston": false
            },
            "minecraft:collision_box": {
                "width": 0.0001,
                "height": 0.0001
            }
        },
    "events": {
      "yes:despawn": {
				  "run_command": {
   				 "command": [
						 "scoreboard players set @a[r=3,c=1,tag=stunned] weakness 0",
						 "tag @e[r=3,c=1,tag=stunned] remove stunned"
  						  ]
 					 },
        "add": {
          "component_groups": [
            "yes:despawn"
       		 	  ]
      		  }
    		  },
      "yes:stun_event": {
				  "run_command": {
   				 "command": [
						 "gamerule sendcommandfeedback false",
						 "execute @a[r=2,c=1,tag=stunned] ~~~ tp @s ~~~ ~ 40",
						 "execute @e[tag=stunned,r=2,c=1,family=!inanimate,type=!item,type=!player] ~~~ tp @s ~~~ ~ 58",
						 "gamerule sendcommandfeedback true"
  						  ]
 					 }
    		  }
	 	  }
    }
}