{
	"file_path": "C:\\Users\\plant\\AppData\\Local\\Packages\\Microsoft.MinecraftUWP_8wekyb3d8bbwe\\LocalState\\games\\com.mojang\\development_resource_packs\\Village and Pillage+ RP\\textures\\terrain_texture.json",
	"file_type": "terrain_texture",
	"format_version": 1,
	"file_uuid": "c70f3c03_031e_4386_92b0_b9c80ad639f4",
	"file_version": 5,
	"cache_content": {
		"children": [
			{
				"data": "bridgeRP",
				"key": "resource_pack_name"
			},
			{
				"data": "atlas.terrain",
				"key": "texture_name"
			},
			{
				"data": "8",
				"key": "padding"
			},
			{
				"data": "4",
				"key": "num_mip_levels"
			},
			{
				"open": {
					"resource_pack_name": "bridgeRP",
					"texture_name": "atlas.terrain",
					"padding": 8,
					"num_mip_levels": 4,
					"texture_data": {
						"glowing_obsidian_new": {
							"textures": [
								{
									"path": "textures/blocks/glowing_obsidian_new"
								}
							]
						},
						"revieve_table_bottom": {
							"textures": [
								{
									"path": "textures/blocks/revieve_table_bottom"
								}
							]
						},
						"revieve_table_side": {
							"textures": [
								{
									"path": "textures/blocks/revieve_table_side"
								}
							]
						},
						"revieve_table_top": {
							"textures": [
								{
									"path": "textures/blocks/revieve_table_top"
								}
							]
						},
						"kyanite_ore": {
							"textures": [
								{
									"path": "textures/blocks/kyanite_ore"
								}
							]
						},
						"kyanite_block": {
							"textures": [
								{
									"path": "textures/blocks/kyanite_block"
								}
							]
						},
						"garnet_ore": {
							"textures": [
								{
									"path": "textures/blocks/garnet_ore"
								}
							]
						},
						"garnet_block": {
							"textures": [
								{
									"path": "textures/blocks/garnet_block"
								}
							]
						},
						"topaz_ore": {
							"textures": [
								{
									"path": "textures/blocks/topaz_ore"
								}
							]
						},
						"topaz_block": {
							"textures": [
								{
									"path": "textures/blocks/topaz_block"
								}
							]
						}
					}
				},
				"key": "texture_data",
				"children": [
					{
						"key": "glowing_obsidian_new",
						"children": [
							{
								"open": {
									"textures": [
										{
											"path": "textures/blocks/glowing_obsidian_new"
										}
									]
								},
								"key": "textures",
								"children": [
									{
										"open": [
											{
												"path": "textures/blocks/glowing_obsidian_new"
											}
										],
										"is_minified": true,
										"children": {
											"path": "textures/blocks/glowing_obsidian_new"
										}
									}
								]
							}
						]
					},
					{
						"key": "revieve_table_bottom",
						"children": [
							{
								"open": {
									"textures": [
										{
											"path": "textures/blocks/revieve_table_bottom"
										}
									]
								},
								"key": "textures",
								"children": [
									{
										"open": [
											{
												"path": "textures/blocks/revieve_table_bottom"
											}
										],
										"is_minified": true,
										"children": {
											"path": "textures/blocks/revieve_table_bottom"
										}
									}
								]
							}
						]
					},
					{
						"key": "revieve_table_side",
						"children": [
							{
								"open": {
									"textures": [
										{
											"path": "textures/blocks/revieve_table_side"
										}
									]
								},
								"key": "textures",
								"children": [
									{
										"open": [
											{
												"path": "textures/blocks/revieve_table_side"
											}
										],
										"is_minified": true,
										"children": {
											"path": "textures/blocks/revieve_table_side"
										}
									}
								]
							}
						]
					},
					{
						"key": "revieve_table_top",
						"children": [
							{
								"open": {
									"textures": [
										{
											"path": "textures/blocks/revieve_table_top"
										}
									]
								},
								"key": "textures",
								"children": [
									{
										"open": [
											{
												"path": "textures/blocks/revieve_table_top"
											}
										],
										"is_minified": true,
										"children": {
											"path": "textures/blocks/revieve_table_top"
										}
									}
								]
							}
						]
					},
					{
						"key": "kyanite_ore",
						"children": [
							{
								"open": {
									"textures": [
										{
											"path": "textures/blocks/kyanite_ore"
										}
									]
								},
								"key": "textures",
								"children": [
									{
										"open": [
											{
												"path": "textures/blocks/kyanite_ore"
											}
										],
										"is_minified": true,
										"children": {
											"path": "textures/blocks/kyanite_ore"
										}
									}
								]
							}
						]
					},
					{
						"key": "kyanite_block",
						"children": [
							{
								"open": {
									"textures": [
										{
											"path": "textures/blocks/kyanite_block"
										}
									]
								},
								"key": "textures",
								"children": [
									{
										"open": [
											{
												"path": "textures/blocks/kyanite_block"
											}
										],
										"is_minified": true,
										"children": {
											"path": "textures/blocks/kyanite_block"
										}
									}
								]
							}
						]
					},
					{
						"key": "garnet_ore",
						"children": [
							{
								"open": {
									"textures": [
										{
											"path": "textures/blocks/garnet_ore"
										}
									]
								},
								"key": "textures",
								"children": [
									{
										"open": [
											{
												"path": "textures/blocks/garnet_ore"
											}
										],
										"is_minified": true,
										"children": {
											"path": "textures/blocks/garnet_ore"
										}
									}
								]
							}
						]
					},
					{
						"key": "garnet_block",
						"children": [
							{
								"open": {
									"textures": [
										{
											"path": "textures/blocks/garnet_block"
										}
									]
								},
								"key": "textures",
								"children": [
									{
										"open": [
											{
												"path": "textures/blocks/garnet_block"
											}
										],
										"is_minified": true,
										"children": {
											"path": "textures/blocks/garnet_block"
										}
									}
								]
							}
						]
					},
					{
						"open": {
							"glowing_obsidian_new": {
								"textures": [
									{
										"path": "textures/blocks/glowing_obsidian_new"
									}
								]
							},
							"revieve_table_bottom": {
								"textures": [
									{
										"path": "textures/blocks/revieve_table_bottom"
									}
								]
							},
							"revieve_table_side": {
								"textures": [
									{
										"path": "textures/blocks/revieve_table_side"
									}
								]
							},
							"revieve_table_top": {
								"textures": [
									{
										"path": "textures/blocks/revieve_table_top"
									}
								]
							},
							"kyanite_ore": {
								"textures": [
									{
										"path": "textures/blocks/kyanite_ore"
									}
								]
							},
							"kyanite_block": {
								"textures": [
									{
										"path": "textures/blocks/kyanite_block"
									}
								]
							},
							"garnet_ore": {
								"textures": [
									{
										"path": "textures/blocks/garnet_ore"
									}
								]
							},
							"garnet_block": {
								"textures": [
									{
										"path": "textures/blocks/garnet_block"
									}
								]
							},
							"topaz_ore": {
								"textures": [
									{
										"path": "textures/blocks/topaz_ore"
									}
								]
							},
							"topaz_block": {
								"textures": [
									{
										"path": "textures/blocks/topaz_block"
									}
								]
							}
						},
						"key": "topaz_ore",
						"children": [
							{
								"open": {
									"textures": [
										{
											"path": "textures/blocks/topaz_ore"
										}
									]
								},
								"key": "textures",
								"children": [
									{
										"open": [
											{
												"path": "textures/blocks/topaz_ore"
											}
										],
										"is_minified": true,
										"children": {
											"path": "textures/blocks/topaz_ore"
										}
									}
								]
							}
						]
					},
					{
						"open": {
							"glowing_obsidian_new": {
								"textures": [
									{
										"path": "textures/blocks/glowing_obsidian_new"
									}
								]
							},
							"revieve_table_bottom": {
								"textures": [
									{
										"path": "textures/blocks/revieve_table_bottom"
									}
								]
							},
							"revieve_table_side": {
								"textures": [
									{
										"path": "textures/blocks/revieve_table_side"
									}
								]
							},
							"revieve_table_top": {
								"textures": [
									{
										"path": "textures/blocks/revieve_table_top"
									}
								]
							},
							"kyanite_ore": {
								"textures": [
									{
										"path": "textures/blocks/kyanite_ore"
									}
								]
							},
							"kyanite_block": {
								"textures": [
									{
										"path": "textures/blocks/kyanite_block"
									}
								]
							},
							"garnet_ore": {
								"textures": [
									{
										"path": "textures/blocks/garnet_ore"
									}
								]
							},
							"garnet_block": {
								"textures": [
									{
										"path": "textures/blocks/garnet_block"
									}
								]
							},
							"topaz_ore": {
								"textures": [
									{
										"path": "textures/blocks/topaz_ore"
									}
								]
							},
							"topaz_block": {
								"textures": [
									{
										"path": "textures/blocks/topaz_block"
									}
								]
							}
						},
						"key": "topaz_block",
						"children": [
							{
								"open": {
									"textures": [
										{
											"path": "textures/blocks/topaz_block"
										}
									]
								},
								"key": "textures",
								"children": [
									{
										"open": [
											{
												"path": "textures/blocks/topaz_block"
											}
										],
										"is_minified": true,
										"children": {
											"path": "textures/blocks/topaz_block"
										}
									}
								]
							}
						]
					}
				]
			}
		]
	}
}