{
    "pools": [
        {
            "rolls": {
                "min": 3,
                "max": 5
            },
            "entries": [
                {
                    "type": "item",
                    "weight": 10,
                    "name": "minecraft:flint"
                },
                {
                    "type": "item",
                    "weight": 3,
                    "name": "minecraft:copper_ingot"
                },
                {
                    "type": "item",
                    "weight": 70,
                    "name": "minecraft:iron_nugget"
                },
                {
                    "type": "item",
                    "weight": 30,
                    "name": "minecraft:gold_nugget"
                },
                {
                    "type": "item",
                    "weight": 35,
                    "name": "minecraft:coal"
                },
                {
                    "type": "item",
                    "weight": 40,
                    "name": "minecraft:redstone"
                },
                {
                    "type": "item",
                    "weight": 5,
                    "name": "minecraft:dye",
                    "functions": [
                        {
                            "function": "set_data",
                            "data": 4
                        }
                    ]
                }
            ]
        }
    ]
}