{
	"format_version": "1.17.0",
	"minecraft:block": {
		"description": {
			"identifier": "btr:tunneling_clay"
		},
		"components": {
			"minecraft:on_placed": {
				"event": "tunnel"
			},
			"minecraft:unit_cube": {},
			"minecraft:material_instances": {
				"*": {
					"texture" : "invisible",
					"render_method" : "alpha_test"
				}
			},
			"minecraft:creative_category": {
				"group": "itemGroup.name.Commands",
				"category": "Commands"
			}
		},
		"events": {
			"tunnel": {
				"sequence": [
					{
						"spawn_loot": {
							"table": "loot_tables/enchantment/tunnel/clay.json"
						}
					},
					{
						"run_command": {
							"command": [
								"setblock ~~~ air"
							]
						}
					}
				]
			}
		}
	}
}