{
    "format_version": "1.19.0",
    "minecraft:entity": {
        "description": {
            "identifier": "experiencestorage:experience_storage_entity",
            "is_spawnable": false,
            "is_summonable": true,
            "scripts": {
                "animate": [
                    "saved",
                    "full",
                    "insufficient",
                    "remove",
                    "exhausted"
                ]
            },
            "animations": {
                "saved": "controller.animation.experience_storage_entity.saved",
                "full": "controller.animation.experience_storage_entity.full",
                "insufficient": "controller.animation.experience_storage_entity.insufficient",
                "remove": "controller.animation.experience_storage_entity.remove",
                "exhausted": "controller.animation.experience_storage_entity.exhausted"
            }
        },
        "component_groups": {
            "minecraft:despawn": {
                "minecraft:instant_despawn": {
                    "remove_child_entities": false
                }
            },
            "minecraft:interact_item": {
                "minecraft:interact": {
                    "interactions": [
                        {
                            "on_interact": {
                                "filters": {
                                    "all_of": [
                                        {
                                            "test": "has_tag",
                                            "subject": "other",
                                            "value": "xp"
                                        },
                                        {
                                            "test": "has_equipment",
                                            "subject": "other",
                                            "domain": "hand",
                                            "operator": "==",
                                            "value": "experiencestorage:experience_book"    
                                        },
                                        {
                                            "test": "has_tag",
                                            "subject": "self",
                                            "operator": "!=",
                                            "value": "full"
                                        }
                                    ]
                                },
                                "event": "minecraft:experience_saved_event"
                            },
                            "interact_text": "action.interact.experience_saved"
                        },
                        {
                            "on_interact": {
                                "filters": {
                                    "all_of": [
                                        {
                                            "test": "has_tag",
                                            "subject": "other",
                                            "value": "xp"
                                        },
                                        {
                                            "test": "has_equipment",
                                            "subject": "other",
                                            "domain": "hand",
                                            "operator": "==",
                                            "value": "experiencestorage:experience_book"    
                                        },
                                        {
                                            "test": "has_tag",
                                            "subject": "self",
                                            "operator": "==",
                                            "value": "full"
                                        }
                                    ]
                                },
                                "event": "minecraft:experience_full_event"
                            },
                            "interact_text": "action.interact.experience_saved"
                        },
                        {
                            "on_interact": {
                                "filters": {
                                    "all_of": [
                                        {
                                            "test": "has_tag",
                                            "subject": "other",
                                            "operator": "!=",
                                            "value": "xp"
                                        },
                                        {
                                            "test": "has_equipment",
                                            "subject": "other",
                                            "domain": "hand",
                                            "operator": "==",
                                            "value": "experiencestorage:experience_book"    
                                        },
                                        {
                                            "test": "has_tag",
                                            "subject": "self",
                                            "operator": "!=",
                                            "value": "full"
                                        }
                                    ]
                                },
                                "event": "minecraft:experience_insufficient_event"
                            },
                            "interact_text": "action.interact.experience_saved"
                        },
                        {
                            "on_interact": {
                                "filters": {
                                    "all_of": [
                                        {
                                            "test": "has_tag",
                                            "subject": "self",
                                            "operator": "==",
                                            "value": "xp"
                                        },
                                        {
                                            "test": "has_equipment",
                                            "subject": "other",
                                            "domain": "hand",
                                            "operator": "!=",
                                            "value": "experiencestorage:experience_book"    
                                        }
                                    ]
                                },
                                "event": "minecraft:experience_remove_event"
                            },
                            "interact_text": "action.interact.experience_remove"
                        },
                        {
                            "on_interact": {
                                "filters": {
                                    "all_of": [
                                        {
                                            "test": "has_tag",
                                            "subject": "self",
                                            "operator": "!=",
                                            "value": "xp"
                                        },
                                        {
                                            "test": "has_equipment",
                                            "subject": "other",
                                            "domain": "hand",
                                            "operator": "!=",
                                            "value": "experiencestorage:experience_book"    
                                        }
                                    ]
                                },
                                "event": "minecraft:experience_exhausted_event"
                            },
                            "interact_text": "action.interact.experience_remove"
                        }
                    ]
                }
            },
            "minecraft:experience_saved": {
                "minecraft:is_saddled": {
                },
                "minecraft:timer": {
                    "looping": false,
                    "randomInterval": true,
                    "time": [
                        0.1,
                        0.1
                    ],
                    "time_down_event": {
                        "event": "minecraft:experience_saved_remove_event"
                    }
                }
            },
            "minecraft:experience_full": {
                "minecraft:is_chested": {
                },
                "minecraft:timer": {
                    "looping": false,
                    "randomInterval": true,
                    "time": [
                        0.1,
                        0.1
                    ],
                    "time_down_event": {
                        "event": "minecraft:experience_full_remove_event"
                    }
                }
            },
            "minecraft:experience_default": {
                "minecraft:variant": {
                    "value": 0
                },
                "minecraft:timer": {
                    "looping": false,
                    "randomInterval": true,
                    "time": [
                        0.1,
                        0.1
                    ],
                    "time_down_event": {
                        "event": "minecraft:experience_default_remove_event"
                    }
                }
            },
            "minecraft:experience_insufficient": {
                "minecraft:variant": {
                    "value": 1
                },
                "minecraft:timer": {
                    "looping": false,
                    "randomInterval": true,
                    "time": [
                        0.1,
                        0.1
                    ],
                    "time_down_event": {
                        "event": "minecraft:experience_insufficient_remove_event"
                    }
                }
            },
            "minecraft:experience_remove": {
                "minecraft:variant": {
                    "value": 2
                },
                "minecraft:timer": {
                    "looping": false,
                    "randomInterval": true,
                    "time": [
                        0.1,
                        0.1
                    ],
                    "time_down_event": {
                        "event": "minecraft:experience_remove_remove_event"
                    }
                }
            },
            "minecraft:experience_exhausted": {
                "minecraft:variant": {
                    "value": 3
                },
                "minecraft:timer": {
                    "looping": false,
                    "randomInterval": true,
                    "time": [
                        0.1,
                        0.1
                    ],
                    "time_down_event": {
                        "event": "minecraft:experience_exhausted_remove_event"
                    }
                }
            }
        },
        "components": {
            "minecraft:type_family": {
                "family": [ "block" ]
            },
            "minecraft:damage_sensor": {
                "triggers": [
                    {
                        "cause": "all",
                        "deals_damage": false
                    }
                ]
            },
            "minecraft:block_sensor": {
                "sensor_radius": 1,
                "on_break": [
                    {
                        "block_list": [
                            "experiencestorage:experience_storage_block"
                        ],
                        "on_block_broken": "minecraft:despawn_event"
                    }
                ]
            },
            "minecraft:behavior.nearest_attackable_target": {
                "priority": 2,
                "entity_types": [
                    {
                        "filters": {
                        "test": "is_family",
                        "subject": "other",
                        "value": "player"
                        },
                        "max_dist": 6
                    }
                ],
                "must_see": true
            },
            "minecraft:collision_box": {
                "height": 0.5,
                "width": 0.5
            },      
            "minecraft:behavior.look_at_player": {
				"priority": 1,
				"look_distance": 6,
				"probability": 100
			},
            "minecraft:physics": {
                "has_collision": false,
                "has_gravity": false
            },
            "minecraft:pushable": {
              "is_pushable": false,
              "is_pushable_by_piston": false
            }
        },
        "events": {
            "minecraft:entity_spawned": {
                "add": {
                    "component_groups": [
                        "minecraft:interact_item"
                    ]
                }
            },
            "minecraft:despawn_event": {
                "add": {
                    "component_groups": [
                        "minecraft:despawn"
                    ]
                }
            },
            "minecraft:experience_saved_event": {
                "add": {
                    "component_groups": [
                        "minecraft:experience_saved"
                    ]
                }
            },
            "minecraft:experience_saved_remove_event": {
                "remove": {
                    "component_groups": [
                        "minecraft:experience_saved"
                    ]
                }
            },
            "minecraft:experience_full_event": {
                "add": {
                    "component_groups": [
                        "minecraft:experience_full"
                    ]
                }
            },
            "minecraft:experience_full_remove_event": {
                "remove": {
                    "component_groups": [
                        "minecraft:experience_full"
                    ]
                }
            },
            "minecraft:experience_insufficient_event": {
                "add": {
                    "component_groups": [
                        "minecraft:experience_insufficient"
                    ]
                }
            },
            "minecraft:experience_insufficient_remove_event": {
                "remove": {
                    "component_groups": [
                        "minecraft:experience_insufficient"
                    ]
                },
                "add": {
                    "component_groups": [
                        "minecraft:experience_default"
                    ]
                }
            },
            "minecraft:experience_default_remove_event": {
                "remove": {
                    "component_groups": [
                        "minecraft:experience_default"
                    ]
                }
            },
            "minecraft:experience_remove_event": {
                "add": {
                    "component_groups": [
                        "minecraft:experience_remove"
                    ]
                }
            },
            "minecraft:experience_remove_remove_event": {
                "remove": {
                    "component_groups": [
                        "minecraft:experience_remove"
                    ]
                },
                "add": {
                    "component_groups": [
                        "minecraft:experience_default"
                    ]
                }
            },
            "minecraft:experience_exhausted_event": {
                "add": {
                    "component_groups": [
                        "minecraft:experience_exhausted"
                    ]
                }
            },
            "minecraft:experience_exhausted_remove_event": {
                "remove": {
                    "component_groups": [
                        "minecraft:experience_exhausted"
                    ]
                },
                "add": {
                    "component_groups": [
                        "minecraft:experience_default"
                    ]
                }
            }
        }
    }
}