{
	"format_version": "1.17.0",
	"minecraft:block": {
		"description": {
			"identifier": "vote:death_cap_fungi_spawn2"
		},
		"components": {
			"minecraft:material_instances": {
				"*": {
					"render_method": "alpha_test",
					"texture": "death_cap_fungus"
				}
			},
			"minecraft:geometry": "geometry.chain_cross_display",
			"minecraft:pick_collision": {
				"origin": [
					-3,
					6,
					-3
				],
				"size": [
					6,
					10,
					6
				]
			},
			"minecraft:entity_collision": false,
			"minecraft:block_light_absorption": 0.1,
			"minecraft:creative_category": {
				"group": "commands",
				"category": "commands"
			},
			"minecraft:ticking": {
				"range": [
					0.1,
					0.1
				],
				"on_tick": {
					"event": "placed"
				}
			}
		},
		"events": {
			"placed": {
				"run_command": {
					"command": [
						"structure load death_capshro_2 ~-2~-6~-2",
						"setblock ~ ~ ~ vote:death_cap_stem"
					]
				}
			}
		}
	}
}