{
  "format_version": "1.8.0",
  "render_controllers": {
    "controller.render.amethyst_spear2": {
      "arrays": {
        "textures": {
          "array.visible": [
            "texture.visible"
          ],
          "array.invisible": [
            "texture.invisible"
          ]
        }
      },
      "geometry": "Geometry.spear",
      "textures": [ "temp.life_time = query.life_time; return (query.is_invisible || query.has_any_family('monster')) ? array.visible[temp.life_time] : array.visible[temp.life_time];", 
			"texture.enchanted" 
		],
      "materials": [ { "*": "variable.is_enchanted ? material.enchanted : Material.default" } ]
    }
  }
}