{
  "format_version": "1.17.0",
  "minecraft:item": {
    "description": {
      "category": "commands",
      "identifier": "btr:assasinate_ii_netherite_dagger"
    },
    "components": {
      "minecraft:icon": {
        "texture": "netherite_dagger"
      },
      "minecraft:max_stack_size": 1,
      "minecraft:hand_equipped": true,
      "minecraft:foil": true,
      "minecraft:durability": {
        "max_durability": 1015
      },
      "minecraft:repairable": {
        "repair_items": [
          {
            "items": [
              "minecraft:netherite_ingot"
            ],
            "repair_amount": 254
          },
          {
            "items": [
              "btr:netherite_dagger"
            ],
            "repair_amount": "context.other->query.remaining_durability + 0.5 * context.other->query.max_durability"
          }
        ]
      },
      "minecraft:mining_speed": 1.5,
      "minecraft:damage": 7,
      "minecraft:enchantable": {
        "value": 22,
        "slot": "sword"
      },
      "minecraft:can_destroy_in_creative": false,
      "minecraft:digger": {
        "use_efficiency": false,
        "destroy_speeds": [
          {
            "block": "minecraft:infested_deepslate",
            "speed": 10,
            "on_dig": {
              "event": "reduce_durability"
            }
          },
          {
            "block": "minecraft:bamboo",
            "speed": 10,
            "on_dig": {
              "event": "reduce_durability"
            }
          },
          {
            "block": "minecraft:monster_egg",
            "speed": 10,
            "on_dig": {
              "event": "reduce_durability"
            }
          },
          {
            "block": "minecraft:web",
            "speed": 15,
            "on_dig": {
              "event": "reduce_durability"
            }
          }
        ],
        "on_dig": {
          "event": "reduce_durability"
        }
      },
      "minecraft:weapon": {
        "on_hurt_entity": {
          "event": "reduce_durability"
        }
      },
      "tag:minecraft:is_sword": {},
      "minecraft:display_name": {
        "value": "§bNetherite Dagger\n§7Assasinate II"
      },
      "minecraft:on_use": {
        "on_use": {
          "event": "surprise"
        }
      },
      "minecraft:cooldown": {
        "category": "dagger",
        "duration": 8
      }
    },
    "events": {
      "reduce_durability": {
        "damage": {
          "type": "durability",
          "amount": 1,
          "target": "self"
        }
      },
      "surprise": {
        "swing": {},
        "run_command": {
          "command": [
            "function enchantment/stab_assasinate_ii"
          ]
        },
        "damage": {
          "type": "durability",
          "amount": 2,
          "target": "self"
        }
      }
    }
  }
}