{
  "format_version": "1.16.100",
  "minecraft:item": {
        "description": {
      "category": "equipment",
      "identifier": "yes:exposed_copper_leggings"
    },
    "components": {
      "minecraft:creative_category": {
        "parent": "itemGroup.name.leggings"
     },
            "minecraft:display_name": { "value": "Exposed Copper Leggings\n§l§r"},
     "minecraft:icon": {
        "texture": "exposed_copper_leggings"
     },
    "minecraft:render_offsets": "leggings",
      "minecraft:max_stack_size": 1,
      "minecraft:durability": {
        "max_durability": 134
      },
      "minecraft:armor": {
        "protection": 4
      },
		"minecraft:knockback_resistance": {
			"protection": 0
		},
      "minecraft:wearable": {
        "slot": "slot.armor.legs"
      },
                  "minecraft:repairable": {
                "repair_items": [
                    {
                        "items": [
                            "yes:exposed_copper_leggings",
                            "minecraft:copper_ingot"
                            ],
                            "repair_amount": 134
          }
        ]
      }
    }
  }
}