{
  "format_version": "1.12",
  "minecraft:recipe_shapeless": {
    "description": {
      "identifier": "tunneling_i_iron_shovel"
    },
    "tags": [
      "crafting_table"
    ],
    "ingredients": [
      {
        "item": "minecraft:iron_shovel"
      },
      {
        "item": "btr:tunneling_i_book"
      }
    ],
    "result": {
      "item": "btr:tunneling_i_iron_shovel"
    }
  }
}