{
    "namespace": "chest",
  
  //chest label needed for getting the entity name
    "chest_label": {
      "$new_container_title|default": "$container_title",
      "text": "$new_container_title"
    },	
  
    "small_chest_grid": {
      "type": "grid",
      "size": [ 162, 54 ],
      "anchor_from": "top_left",
      "anchor_to": "top_left",
      "grid_dimensions": [ 9, 3 ],
      "grid_item_template": "chest.chest_grid_item",
      "collection_name": "container_items"
    },
  //custom grid container
    "my_custom_container_grid": {
      "type": "grid",
      "size": [ 144, 108 ],
      "anchor_from": "top_left",
      "anchor_to": "top_left",
      "grid_dimensions": [ 8, 6 ], //max row 8, unless your going to change the size
      "grid_item_template": "chest.chest_grid_item",
      "collection_name": "container_items"
    },
  //---
    "small_chest_panel_top_half": {
      "type": "panel",
      "size": [ "100%", "50%" ],
      "offset": [ 0, 12 ],
      "anchor_to": "top_left",
      "anchor_from": "top_left",
      "controls": [
        { "chest_label@chest.chest_label": {} },
        {
          "small_chest_grid@chest.small_chest_grid": {
            "offset": [ 7, 9 ]
          }
        }
      ]
    },
           
  //---
  //custom scroll panel
      "my_custom_container_scroll_panel_top_half":{
      "type": "panel",
      "size": [ "100%", 102 ],
      "offset": [ 0, 11 ],
      "anchor_to": "top_left",
      "anchor_from": "top_left",	
      "controls": [
        { "chest_label@chest.chest_label": {} },
          //scroll panel
        {"scrolling_panel@common.container_scroll_panel":{
          "offset": [ 0, 11 ],
          "size": [ "87%", "93%" ],
          "$scrolling_content|default": "chest.my_custom_container_grid" //use custom container grid to show
        }}
      ]
      },
  //--
    "small_root_panel@common.root_panel": {
      "$chest_panel|default": "chest.small_chest_panel_top_half",
      "layer": 1,
      "controls": [
        { "common_panel@common.common_panel": {} },
        {
          "chest_panel": {
            "type": "panel",
            "layer": 5,
            "controls": [
              { "small_chest_panel_top_half@$chest_panel": {} },
              { "inventory_panel_bottom_half_with_label@common.inventory_panel_bottom_half_with_label": {} },
              { "hotbar_grid@common.hotbar_grid_template": {} },
              { "inventory_take_progress_icon_button@common.inventory_take_progress_icon_button": {} }
            ]
          }
        },
        { "inventory_selected_icon_button@common.inventory_selected_icon_button": {} },
        { "gamepad_cursor@common.gamepad_cursor_button": {} }
      ]
    },
  //setting top half for custom container
    "my_custom_container_root_panel@small_root_panel": {
      "size": [ 176, 220 ],
      "$chest_panel": "chest.my_custom_container_scroll_panel_top_half"
    },
  //---
    "small_chest_panel": {
      "type": "panel",
      "controls": [
        { "container_gamepad_helpers@common.container_gamepad_helpers": {} },
        {
          "flying_item_renderer@common.flying_item_renderer": {
            "layer": 11
          }
        },
        {
          "selected_item_details_factory@common.selected_item_details_factory": {
            "control_name": "@chest.selected_item_details"
          }
        },
        {
          "item_lock_notification_factory@common.item_lock_notification_factory": {
            "control_name": "@common.item_lock_notification"
          }
        },
        {
          "root_panel@$root_panel": { }
        }
      ]
    },
    "ender_chest_panel@chest.small_chest_panel": {
    },
    "small_chest_screen@common.inventory_screen_common": {
      "$close_on_player_hurt|default": true,
      "close_on_player_hurt": "$close_on_player_hurt",
      "$root_panel|default": "chest.small_root_panel", //default root panel
      "$new_container_title|default": "$container_title", //title of container
      "$container_size|default": 27, //default size if nothing matches
      "variables": [
      //If the entity is named test, show my custom container
        {
          "requires": "($container_title = 'inventory')",
          "$root_panel": "chest.my_custom_container_root_panel",
          "$new_container_title": "test container",
          "$container_size": 54
        },
      //---
        {
          "requires": "$desktop_screen",
          "$screen_content": "chest.small_chest_panel",
          "$screen_bg_content": "common.screen_background"
        },
        {
          "requires": "$pocket_screen",
          "$container_title": "$new_container_title",
          "$screen_content": "pocket_containers.panel"
        }
      ]
    },
    //Fixes inventory screen of ender chest disappearing
    "ender_chest_screen@common.inventory_screen_common": {
      "$close_on_player_hurt|default": true,
      "close_on_player_hurt": "$close_on_player_hurt",
      "variables": [
        {
          "requires": "$desktop_screen",
          "$screen_content": "chest.small_root_panel",
          "$screen_bg_content": "common.screen_background"
        },
        {
          "requires": "$pocket_screen",
          "$screen_content": "pocket_containers.ender_chest_panel"
        }
      ]
    }
  }