{
  "format_version": "1.16.0",
  "minecraft:entity": {
    "description": {
      "identifier": "nicothekid:giant_moa",
      "is_spawnable": true,
      "is_summonable": true,
      "is_experimental": false
    },
    "component_groups": {
      "component:giant_moa_tameable": {
        "minecraft:tameable": {
          "probability": 0.10,
          "tame_items": [
            "minecraft:glow_berries"
          ],
          "tame_event": {
            "event": "minecraft:on_tame",
            "target": "self"
          }
        }
      },
      "component:giant_moa_wild": {
        "minecraft:health": {
          "value": {
            "range_min": 15,
            "range_max": 15
          }
        },
        "minecraft:type_family": {
          "family": [
            "giant_moa",
            "bird",
            "mob"
          ]
        },
        
        "minecraft:despawn": {
          "despawn_from_chance": true,
          "despawn_from_inactivity": true,
          "despawn_from_simulation_edge": true,
          "remove_child_entities": false,
          "min_range_inactivity_timer": 30,
          "min_range_random_chance": 800,
          "despawn_from_distance": {
            "max_distance": 128,
            "min_distance": 32
          }
        },
        "minecraft:behavior.hurt_by_target": {
          "priority": 2,
          "alert_same_type": false,
          "hurt_owner": false,
          "entity_types": [
            {
              "must_see": false,
              "reevaluate_description": false,
              "max_dist": 16,
              "walk_speed_multiplier": 1.10,
              "sprint_speed_multiplier": 1.10,
              "filters": {
                "any_of": [
                  {
                    "test": "is_family",
                    "subject": "other",
                    "value": "creeper",
                    "operator": "!="
                  }
                ]
              }
            }
          ]
        },
        "minecraft:behavior.tempt": {
          "priority": 7,
          "can_get_scared": true,
          "can_tempt_vertically": true,
          "can_tempt_while_ridden": false,
          "speed_multiplier": 0.8,
          "within_radius": 16,
          "items": [
            "minecraft:glow_berries",
            "minecraft:sweet_berries"
          ]
        },
        "minecraft:behavior.avoid_mob_type": {
          "priority": 9,
          "remove_target": false,
          "avoid_target_xz": 16,
          "avoid_target_y": 7,
          "max_dist": 3.0,
          "max_flee": 10.0,
          "sprint_distance": 7.0,
          "sprint_speed_multiplier": 1.10,
          "walk_speed_multiplier": 1.10,
          "entity_types": [
            {
              "must_see": true,
              "reevaluate_description": false,
              "max_dist": 16,
              "walk_speed_multiplier": 1.10,
              "sprint_speed_multiplier": 1.25,
              "filters": {
                "any_of": [
                  {
                    "test": "is_family",
                    "subject": "other",
                    "value": "player"
                  },
                  {
                    "test": "is_family",
                    "subject": "other",
                    "value": "illager"
                  },
                  {
                    "test": "is_family",
                    "subject": "other",
                    "value": "monster"
                  }
                ]
              }
            }
          ]
        }
      },
      "component:giant_moa_tamed": {
        "minecraft:is_tamed": {},
        "minecraft:health": {
          "value": {
            "range_min": 30,
            "range_max": 30
          }
        },
        "minecraft:type_family": {
          "family": [
            "giant_moa",
            "bird",
            "player_tamed",
            "mob"
          ]
        },
        
        "minecraft:equippable": {
          "slots": [
            {
              "slot": 0,
              "item": "saddle",
              "accepted_items": [
                "saddle"
              ],
              "on_equip": {
                "event": "minecraft:giant_moa_saddled"
              },
              "on_unequip": {
                "event": "minecraft:giant_moa_unsaddled"
              }
            }
          ]
        },
        "minecraft:persistent": {},
        "minecraft:rideable": {
          "controlling_seat": 0,
          "seat_count": 1,
          "crouching_skip_interact": true,
          "pull_in_entities": false,
          "rider_can_interact": false,
          "interact_text": "action.interact.ride.horse",
          "family_types": [
            "player"
          ],
          "seats": {
            "position": [ 0.0, 1.5, -0.2 ]
          }
        },
        
        "minecraft:behavior.player_ride_tamed": {
          "priority": 0
        },
        "minecraft:behavior.mount_pathing": {
          "priority": 1,
          "track_target": true,
          "speed_multiplier": 1.25,
          "target_dist": 0.0
        },
        "minecraft:behavior.hurt_by_target": {
          "priority": 2,
          "alert_same_type": false,
          "hurt_owner": false,
          "entity_types": [
            {
              "must_see": false,
              "reevaluate_description": false,
              "max_dist": 16,
              "sprint_speed_multiplier": 1.10,
              "walk_speed_multiplier": 1.10,
              "filters": {
                "any_of": [
                  {
                    "test": "is_family",
                    "subject": "other",
                    "value": "player",
                    "operator": "!="
                  },
                  {
                    "test": "is_family",
                    "subject": "other",
                    "value": "player_tamed",
                    "operator": "!="
                  },
                  {
                    "test": "is_family",
                    "subject": "other",
                    "value": "creeper",
                    "operator": "!="
                  }
                ]
              }
            }
          ]
        },
        "minecraft:behavior.panic": {
          "priority": 6,
          "force": false,
          "ignore_mob_damage": false,
          "prefer_water": false,
          "speed_multiplier": 1.25
        },
        "minecraft:behavior.tempt": {
          "priority": 7,
          "can_get_scared": false,
          "can_tempt_vertically": true,
          "can_tempt_while_ridden": false,
          "speed_multiplier": 0.8,
          "within_radius": 16,
          "items": [
            "minecraft:glow_berries",
            "minecraft:sweet_berries"
          ]
        },
        "minecraft:behavior.follow_owner": {
          "priority": 8,
          "can_teleport": true,
          "ignore_vibration": true,
          "max_distance": 60.0,
          "start_distance": 10.0,
          "stop_distance": 2.0,
          "speed_multiplier": 1.10
        }
      },
      "component:giant_moa_adult": {
        "minecraft:collision_box": {
          "width": 0.9,
          "height": 2.50
        },
        "minecraft:scale": {
          "value": 1.0
        },
        
        "minecraft:attack": {
          "damage": [ 3, 4 ]
        },
        "minecraft:breedable": {
          "allow_sitting": false,
          "causes_pregnancy": true,
          "inherit_tamed": false,
          "require_full_health": true,
          "require_tame": false,
          "extra_baby_chance": 0,
          "breed_cooldown": 60,
          "breed_items": [
            "minecraft:sweet_berries"
          ],
          "breeds_with": {
            "mate_type": "nicothekid:giant_moa",
            "baby_type": "nicothekid:giant_moa",
            "breed_event": {
              "event": "minecraft:become_pregnant"
            }
          }
        },
        "minecraft:behavior.breed": {
          "priority": 3,
          "speed_multiplier": 1.10
        },
        
        "minecraft:experience_reward": {
          "on_bred": "Math.Random(1,7)",
          "on_death": "query.last_hit_by_player ? 5 + (query.equipment_count * Math.Random(1,3)) : 0"
        },
        "minecraft:loot": {
          "table": "loot_tables/nicos_mobs/entities/nicothekid_giant_moa_adult.json"
        }
      },
      "component:giant_moa_pregnant": {
        "minecraft:behavior.lay_egg": {
          "priority": 2,
          "speed_multiplier": 1.0,
          "search_range": 10,
          "search_height": 3,
          "goal_radius": 1.7,
          "target_blocks": [ "minecraft:grass" ],
          "target_materials_above_block": [ "Air" ],
          "allow_laying_from_below": true,
          "use_default_animation": false,
          "lay_seconds": 2,
          "egg_type": "nicothekid:moa_egg_block",
          "lay_egg_sound": "lay_spawn",
          "on_lay": {
            "event": "minecraft:laid_egg",
            "target": "self"
          }
        }
      },
      "component:giant_moa_baby_wild": {
        "minecraft:is_baby": {},
        "minecraft:collision_box": {
          "width": 0.50,
          "height": 1.45
        },
        "minecraft:health": {
          "value": {
            "range_min": 8,
            "range_max": 8
          }
        },
        "minecraft:scale": {
          "value": 0.5
        },
        
        "minecraft:attack": {
          "damage": 1
        },
        "minecraft:ageable": {
          "duration": 3000,
          "feed_items": [
            {
              "item": "minecraft:sweet_berries",
              "growth": 0.10
            },
            {
              "item": "minecraft:glow_berries",
              "growth": 0.10
            }
          ],
          "grow_up": {
            "event": "minecraft:ageable_grow_up_wild",
            "target": "self"
          }
        },
        "minecraft:behavior.follow_parent": {
          "priority": 8,
          "speed_multiplier": 1.10
        }
      },
      "component:giant_moa_baby_tamed": {
        "minecraft:is_baby": {},
        "minecraft:collision_box": {
          "width": 0.5,
          "height": 1.45
        },
        "minecraft:health": {
          "value": {
            "range_min": 12,
            "range_max": 12
          }
        },
        "minecraft:scale": {
          "value": 0.5
        },
        
        "minecraft:attack": {
          "damage": 1
        },
        "minecraft:ageable": {
          "duration": 3000,
          "feed_items": [
            {
              "item": "minecraft:sweet_berries",
              "growth": 0.10
            },
            {
              "item": "minecraft:glow_berries",
              "growth": 0.10
            }
          ],
          "grow_up": {
            "event": "minecraft:ageable_grow_up_tamed",
            "target": "self"
          }
        }
      },
      "component:giant_moa_saddled": {
        "minecraft:can_power_jump": {},
        "minecraft:is_saddled": {},
        "minecraft:input_ground_controlled": {}
      },
      "component:giant_moa_unchested": {
        "minecraft:interact": {
          "interactions": [
            {
              "cooldown": 0,
              "cooldown_after_being_attacked": 0,
              "swing": false,
              "use_item": true,
              "play_sounds": "armor.equip_generic",
              "interact_text": "action.interact.attachchest",
              "on_interact": {
                "filters": {
                  "all_of": [
                    {
                      "test": "has_equipment",
                      "subject": "other",
                      "domain": "hand",
                      "value": "chest",
                      "operator": "=="
                    },
                    {
                      "test": "is_family",
                      "subject": "other",
                      "value":  "player",
                      "operator": "=="
                    }
                  ]
                },
                "event": "minecraft:on_chested",
                "target": "self"
              }
            }
          ]
        },
        "minecraft:inventory": {
          "inventory_size": 1,
          "additional_slots_per_strength": 0,
          "container_type": "horse",
          "private": true,
          "can_be_siphoned_from": true,
          "restrict_to_owner": false
        }
      },
      "component:giant_moa_chested": {
        "minecraft:is_chested": {},
        "minecraft:inventory": {
          "inventory_size": 16,
          "additional_slots_per_strength": 0,
          "container_type": "horse",
          "private": true,
          "can_be_siphoned_from": true,
          "restrict_to_owner": false
        }
      },
      
      "component:giant_moa_at_day": {
        "minecraft:environment_sensor": {
          "triggers": [
            {
              "filters": {
                "test": "weather_at_position",
                "value": "thunderstorm"
              },
              "event": "minecraft:configure_thunderstorm"
            },
            {
              "filters": {
                "test": "is_daytime",
                "value": false
              },
              "event": "minecraft:configure_night"
            }
          ]
        }
      },
      "component:giant_moa_at_night": {
        "minecraft:environment_sensor": {
          "triggers": [
            {
              "filters": {
                "test": "weather_at_position",
                "value": "thunderstorm"
              },
              "event": "minecraft:configure_thunderstorm"
            },
            {
              "filters": {
                "test": "is_daytime",
                "value": true
              },
              "event": "minecraft:configure_day"
            }
          ]
        },
        "minecraft:behavior.nap": {
          "priority": 10,
          "cooldown_min": 1.0,
          "cooldown_max": 4.0,
          "mob_detect_dist": 4.0,
          "mob_detect_height": 3.0,
          "can_nap_filters": {
            "all_of": [
              {
                "test": "in_water",
                "subject": "self",
                "value": false,
                "operator": "=="
              },
              {
                "test": "on_ground",
                "subject": "self",
                "value": true,
                "operator": "=="
              },
              {
                "test": "weather_at_position",
                "subject": "self",
                "value": "thunderstorm",
                "operator": "!="
              }
            ]
          },
          "wake_mob_exceptions": {
            "any_of": [
              {
                "all_of": [
                  {
                    "test": "has_component",
                    "subject": "self",
                    "value": "minecraft:is_tamed",
                    "operator": "=="
                  },
                  {
                    "test": "is_family",
                    "subject": "other",
                    "value": "player",
                    "operator": "=="
                  }
                ]
              },
              {
                "all_of": [
                  {
                    "test": "has_component",
                    "subject": "self",
                    "value": "minecraft:is_tamed",
                    "operator": "=="
                  },
                  {
                    "test": "is_family",
                    "subject": "other",
                    "value": "player_tamed",
                    "operator": "=="
                  }
                ]
              },
              {
                "all_of": [
                  {
                    "test": "has_component",
                    "subject": "self",
                    "value": "minecraft:is_tamed",
                    "operator": "=="
                  },
                  {
                    "test": "is_family",
                    "subject": "other",
                    "value": "cat",
                    "operator": "=="
                  }
                ]
              },
              {
                "all_of": [
                  {
                    "test": "has_component",
                    "subject": "self",
                    "value": "minecraft:is_tamed",
                    "operator": "=="
                  },
                  {
                    "test": "is_family",
                    "subject": "other",
                    "value": "crates_trader",
                    "operator": "=="
                  }
                ]
              },
              {
                "all_of": [
                  {
                    "test": "has_component",
                    "subject": "self",
                    "value": "minecraft:is_tamed",
                    "operator": "=="
                  },
                  {
                    "test": "is_family",
                    "subject": "other",
                    "value": "firefly",
                    "operator": "=="
                  }
                ]
              },
              {
                "all_of": [
                  {
                    "test": "has_component",
                    "subject": "self",
                    "value": "minecraft:is_tamed",
                    "operator": "=="
                  },
                  {
                    "test": "is_family",
                    "subject": "other",
                    "value": "iron_golem",
                    "operator": "=="
                  }
                ]
              },
              {
                "all_of": [
                  {
                    "test": "has_component",
                    "subject": "self",
                    "value": "minecraft:is_tamed",
                    "operator": "=="
                  },
                  {
                    "test": "is_family",
                    "subject": "other",
                    "value": "parrot",
                    "operator": "=="
                  }
                ]
              },
              {
                "all_of": [
                  {
                    "test": "has_component",
                    "subject": "self",
                    "value": "minecraft:is_tamed",
                    "operator": "=="
                  },
                  {
                    "test": "is_family",
                    "subject": "other",
                    "value": "snow_golem",
                    "operator": "=="
                  }
                ]
              },
              {
                "all_of": [
                  {
                    "test": "has_component",
                    "subject": "self",
                    "value": "minecraft:is_tamed",
                    "operator": "=="
                  },
                  {
                    "test": "is_family",
                    "subject": "other",
                    "value": "villager",
                    "operator": "=="
                  }
                ]
              },
              {
                "all_of": [
                  {
                    "test": "has_component",
                    "subject": "self",
                    "value": "minecraft:is_tamed",
                    "operator": "=="
                  },
                  {
                    "test": "is_family",
                    "subject": "other",
                    "value": "wandering_trader",
                    "operator": "=="
                  }
                ]
              },
              {
                "all_of": [
                  {
                    "test": "has_component",
                    "subject": "self",
                    "value": "minecraft:is_tamed",
                    "operator": "=="
                  },
                  {
                    "test": "is_family",
                    "subject": "other",
                    "value": "wolf",
                    "operator": "=="
                  }
                ]
              },
              {
                "test": "is_family",
                "subject": "other",
                "value": "giant_moa",
                "operator": "=="
              },
              {
                "test": "is_sneaking",
                "subject": "other",
                "value": true,
                "operator": "=="
              },
              {
                "test": "is_sneaking",
                "subject": "player",
                "value": true,
                "operator": "=="
              }
            ]
          }
        }
      },
      "component:giant_moa_at_thunderstorm": {
        "minecraft:environment_sensor": {
          "triggers": [
            {
              "filters": {
                "all_of": [
                  {
                    "test": "weather_at_position",
                    "value": "thunderstorm",
                    "operator": "!="
                  },
                  {
                    "test": "is_daytime",
                    "value": true
                  }
                ]
              },
              "event": "minecraft:configure_day"
            },
            {
              "filters": {
                "all_of": [
                  {
                    "test": "weather_at_position",
                    "value": "thunderstorm",
                    "operator": "!="
                  },
                  {
                    "test": "is_daytime",
                    "value": false
                  }
                ]
              },
              "event": "minecraft:configure_night"
            }
          ]
        }
      }
    },
    "components": {
      "minecraft:balloonable": {
        "mass": 1.0
      },
      "minecraft:horse.jump_strength": {
        "value": {
          "range_min": 0.5,
          "range_max": 1.0
        }
      },
      "minecraft:is_hidden_when_invisible": {},
      "minecraft:movement": {
        "value": 0.30
      },
      
      "minecraft:breathable": {
        "breathes_air": true,
        "breathes_lava": false,
        "breathes_solids": false,
        "breathes_water": false,
        "generates_bubbles": true,
        "inhale_time": 0,
        "suffocate_time": 0,
        "total_supply": 15
      },
      "minecraft:damage_sensor": {
        "triggers": [
          {
            "cause": "fall",
            "deals_damage": true,
            "damage_modifier": 0.0,
						"damage_multiplier": 1.0
          }
        ]
      },
      "minecraft:environment_sensor": {
        "triggers": [
          {
            "filters": {
              "test": "is_daytime",
              "value": true
            },
            "event": "minecraft:configure_day"
          },
          {
            "filters": {
              "test": "is_daytime",
              "value": false
            },
            "event": "minecraft:configure_night"
          }
        ]
      },
      "minecraft:healable": {
        "force_use": false,
        "items": [
          {
            "item": "minecraft:sweet_berries",
            "heal_amount": 2
          },
          {
            "item": "minecraft:glow_berries",
            "heal_amount": 2
          }
        ]
      },
      "minecraft:hurt_on_condition": {
        "damage_conditions": [
          {
            "filters": {
              "test": "in_lava",
              "subject": "self",
              "operator": "==",
              "value": true
            },
            "cause": "lava",
            "damage_per_tick": 4
          }
        ]
      },
      "minecraft:jump.static": {
        "jump_power": 0.42
      },
      "minecraft:leashable": {
        "can_be_stolen": false,
        "soft_distance": 4.0,
        "hard_distance": 6.0,
        "max_distance": 10.0
      },
      "minecraft:movement.basic": {
        "max_turn": 30.0
      },
      "minecraft:nameable": {
        "allow_name_tag_renaming": false,
        "always_show": false
      },
      "minecraft:navigation.walk": {
        "avoid_damage_blocks": true,
        "avoid_portals": false,
        "avoid_sun": false,
        "avoid_water": true,
        "can_breach": false,
        "can_break_doors": false,
        "can_jump": true,
        "can_open_doors": false,
        "can_open_iron_doors": false,
        "can_pass_doors": true,
        "can_path_from_air": false,
        "can_path_over_lava": false,
        "can_path_over_water": true,
        "can_sink": true,
        "can_swim": false,
        "can_walk": true,
        "can_walk_in_lava": false,
        "is_amphibious": false
      },
      "minecraft:physics": {
        "has_collision": true,
        "has_gravity": true
      },
      "minecraft:pushable": {
        "is_pushable": true,
        "is_pushable_by_piston": true
      },
      
      "minecraft:behavior.float": {
        "priority": 0
      },
      "minecraft:behavior.melee_attack": {
        "priority": 4,
        "attack_once": false,
        "track_target": true,
        "require_complete_path": false,
        "cooldown_time": 1,
        "speed_multiplier": 1.10
      },
      "minecraft:behavior.nearest_attackable_target": {
        "priority": 5,
        "attack_owner": false,
        "must_reach": true,
        "must_see": true,
        "reselect_targets": false,
        "set_persistent": false,
        "attack_interval": 0,
        "attack_interval_min": 0,
        "persist_time": 0.0,
        "scan_interval": 10,
        "target_invisible_multiplier": 0.7,
        "target_search_height": -1.0,
        "target_sneak_visibility_multiplier": 0.8,
        "within_radius": 16.0,
        "entity_types": [
          {
            "must_see": true,
            "reevaluate_description": false,
            "max_dist": 8,
            "filters": {
              "any_of": [
                {
                  "test": "is_family",
                  "subject": "other",
                  "value": "endermite",
                  "operator": "=="
                },
                {
                  "test": "is_family",
                  "subject": "other",
                  "value": "silverfish",
                  "operator": "=="
                }
              ]
            }
          }
        ]
      },
      "minecraft:behavior.random_stroll": {
        "priority": 11,
        "speed_multiplier": 1.20
      },
      "minecraft:behavior.look_at_target": {
        "priority": 12,
        "probability": 0.02,
        "angle_of_view_horizontal": 360,
        "angle_of_view_vertical": 360,
        "look_distance": 8.0,
        "look_time": [ 2, 4 ]
      },
      "minecraft:behavior.look_at_player": {
        "priority": 13,
        "look_distance": 8.0,
        "probability": 0.02
      },
      "minecraft:behavior.random_look_around": {
        "priority": 14,
        "look_time": [ 1, 2 ]
      },
      "minecraft:behavior.look_at_entity": {
        "priority": 15,
        "probability": 0.02,
        "angle_of_view_horizontal": 360,
        "angle_of_view_vertical": 360,
        "look_distance": 8.0,
        "look_time": [ 1, 2 ],
        "filters": {
          "any_of": [
            {
              "test": "is_family",
              "subject": "other",
              "value": "mob",
              "operator": "=="
            }
          ]
        }
      },
      "minecraft:conditional_bandwidth_optimization": {
      }
    },
    "events": {
      "minecraft:entity_spawned": {
        "sequence": [
          {
            "randomize": [
              {
                "weight": 100,
                "add": {
                  "component_groups": [
                    "component:giant_moa_adult",
                    "component:giant_moa_wild",
                    "component:giant_moa_tameable"
                  ]
                }
              },
              {
                "weight": 20,
                "add": {
                  "component_groups": [
                    "component:giant_moa_baby_wild",
                    "component:giant_moa_wild"
                  ]
                }
              }
            ]
          }
        ]
      },
      "minecraft:entity_born": {
        "sequence": [
          {
            "filters": {
              "all_of": [
                {
                  "test": "has_component",
                  "subject": "parent",
                  "value": "minecraft:is_tamed",
                  "operator": "!="
                },
                {
                  "test": "has_component",
                  "subject": "parent",
                  "value": "minecraft:is_baby",
                  "operator": "!="
                }
              ]
            },
            "remove": {},
            "add": {
              "component_groups": [
                "component:giant_moa_baby_wild",
                "component:giant_moa_wild"
              ]
            }
          },
          {
            "filters": {
              "all_of": [
                {
                  "test": "has_component",
                  "subject": "parent",
                  "value": "minecraft:is_tamed",
                  "operator": "=="
                },
                {
                  "test": "has_component",
                  "subject": "parent",
                  "value": "minecraft:is_baby",
                  "operator": "!="
                }
              ]
            },
            "remove": {},
            "add": {
              "component_groups": [
                "component:giant_moa_baby_tamed",
                "component:giant_moa_tamed"
              ]
            }
          }
        ]
      },
      "minecraft:giant_moa_born": {
        "add": {
          "component_groups": [
            "component:giant_moa_baby_wild",
            "component:giant_moa_wild"
          ]
        }
      },
      "minecraft:become_pregnant": {
        "add": {
          "component_groups": [
            "component:giant_moa_pregnant"
          ]
        }
      },
      "minecraft:laid_egg": {
        "remove": {
          "component_groups": [
            "component:giant_moa_pregnant"
          ]
        }
      },
      "minecraft:ageable_grow_up_wild": {
        "remove": {
          "component_groups": [
            "component:giant_moa_baby_wild"
          ]
        },
        "add": {
          "component_groups": [
            "component:giant_moa_adult",
            "component:giant_moa_tameable"
          ]
        }
      },
      "minecraft:ageable_grow_up_tamed": {
        "remove": {
          "component_groups": [
            "component:giant_moa_baby_tamed"
          ]
        },
        "add": {
          "component_groups": [
            "component:giant_moa_adult",
            "component:giant_moa_tamed",
            "component:giant_moa_unchested"
          ]
        }
      },
      "minecraft:on_tame": {
        "remove": {
          "component_groups": [
            "component:giant_moa_wild",
            "component:giant_moa_tameable"
          ]
        },
        "add": {
          "component_groups": [
            "component:giant_moa_tamed",
            "component:giant_moa_unchested"
          ]
        }
      },
      "minecraft:on_chested": {
        "remove": {
          "component_groups": [
            "component:giant_moa_unchested"
          ]
        },
        "add": {
          "component_groups": [
            "component:giant_moa_chested"
          ]
        }
      },
      "minecraft:giant_moa_saddled": {
        "add": {
          "component_groups": [
            "component:giant_moa_saddled"
          ]
        }
      },
      "minecraft:giant_moa_unsaddled": {
        "remove": {
          "component_groups": [
            "component:giant_moa_saddled"
          ]
        }
      },
      
      "minecraft:configure_day": {
        "remove": {
          "component_groups": [
            "component:giant_moa_at_night",
            "component:giant_moa_at_thunderstorm"
          ]
        },
        "add": {
          "component_groups": [
            "component:giant_moa_at_day"
          ]
        }
      },
      "minecraft:configure_night": {
        "remove": {
          "component_groups": [
            "component:giant_moa_at_day",
            "component:giant_moa_at_thunderstorm"
          ]
        },
        "add": {
          "component_groups": [
            "component:giant_moa_at_night"
          ]
        }
      },
      "minecraft:configure_thunderstorm": {
        "remove": {
          "component_groups": [
            "component:giant_moa_at_night",
            "component:giant_moa_at_day"
          ]
        },
        "add": {
          "component_groups": [
            "component:giant_moa_at_thunderstorm"
          ]
        }
      }
    }
  }
}