{
    "format_version": "1.16.0",
    "minecraft:entity": {
        "description": {
            "identifier": "yes:netherite_mace_projectile_ad2",
            "is_spawnable": false,
            "is_summonable": true,
            "is_experimental": false,
            "runtime_identifier": "minecraft:snowball",
	  "scripts": {
	    "animate": [ 
			"sound"
			 
		]
	  },
	  "animations": {
		"sound": "animation.mace_sound"
	  }
   },
    "component_groups": {
      "yes:despawn": {
        "minecraft:instant_despawn": {}
      }
    },
        "components": {
			  "minecraft:type_family": {
			    "family": [ "inanimate", "weeweejuice" ]
			  },
        "minecraft:timer": {
          "looping": false,
          "time": 0.1,
          "time_down_event": {
            "event": "yes:despawn"
          }
        },
            "minecraft:collision_box": {
                "width": 0.01,
                "height": 0.01
            },
            "minecraft:scale": {
                "value": 1
            },
            "minecraft:projectile": {
                "onHit": {
                    "impact_damage": {
                        "damage": 0,
                        "knockback": true,
                        "semi_random_diff_damage": false
                    },
                    "remove_on_hit": {
                    },
                    "definition_event": {
						  		"event_trigger":{
									"event": "yes:hit_event"
								}
						  }
                },
                "destroyOnHurt": true,
                "power": 1,
                "gravity": 0
            },
            "minecraft:physics": {
            }
        },
    "events": {
      "yes:hit_event": {
					"run_command": {
               "command": [
						"effect @e[c=1,r=2.5,tag=!netherite_mace_attacking,type=!yes:netherite_mace_projectile,family=!inanimate,family=!weeweejuice,tag=!mace_attacking,type=!item,type=!arrow,type=!tnt,type=!egg,type=!ender_pearl,type=!fireworks_rocket,type=!fireball,type=!dragon_fireball,type=!small_fireball,type=!evocation_fang,type=!eye_of_ender_signal,type=!falling_block,type=!fishing_hook] resistance 1 5 true",
					   "execute @e[c=1,r=2.5,tag=!netherite_mace_attacking,type=!yes:netherite_mace_projectile,family=!inanimate,family=!weeweejuice,tag=!mace_attacking,type=!item,type=!arrow,type=!tnt,type=!egg,type=!ender_pearl,type=!fireworks_rocket,type=!fireball,type=!dragon_fireball,type=!small_fireball,type=!evocation_fang,type=!eye_of_ender_signal,type=!falling_block,type=!fishing_hook] ~~~ damage @s[tag=!netherite_mace_attacking] 208 entity_attack entity @p[tag=netherite_mace_attacking,r=5]",
						
						"scoreboard players random @s weapon_sound 1 3",
						"execute @e[family=!inanimate,family=!weeweejuice,tag=!netherite_mace_attacking,r=2.5,c=1] ~~~ tag @e[type=yes:netherite_mace_projectile_ad2,c=1,r=2.5] add hitting_mob",
						"execute @s[tag=hitting_mob,r=2.5,c=1,scores={weapon_sound=1}] ~~~ playsound weapon.mace_hit_weewee @a[r=20] ~~1~ 1 0.9 0.5",
						"execute @s[tag=hitting_mob,r=2.5,c=1,scores={weapon_sound=2}] ~~~ playsound weapon.mace_hit_weewee @a[r=20] ~~1~ 1 1 0.5",
						"execute @s[tag=hitting_mob,r=2.5,c=1,scores={weapon_sound=3}] ~~~ playsound weapon.mace_hit_weewee @a[r=20] ~~1~ 1 1.1 0.5",
						
						"execute @s[tag=!hitting_mob,r=2.5,c=1,scores={weapon_sound=1}] ~~~ playsound weapon.mace_hit_ground_weewee @a[r=20] ~~1~ 1 1 0.5",
						"execute @s[tag=!hitting_mob,r=2.5,c=1,scores={weapon_sound=2}] ~~~ playsound weapon.mace_hit_ground_weewee @a[r=20] ~~1~ 1 1.2 0.5",
						"execute @s[tag=!hitting_mob,r=2.5,c=1,scores={weapon_sound=3}] ~~~ playsound weapon.mace_hit_ground_weewee @a[r=20] ~~1~ 1 1.4 0.5",
						"tag @e[c=1,r=5,tag=netherite_mace_attacking] remove netherite_mace_attacking"
								]
							}
    		  },
      "yes:despawn": {
        "add": {
          "component_groups": [
            "yes:despawn"
       		 	   ]
      		   }
 			   }
	 	  }
    }
}