{
  "format_version": "1.10.0",
  "minecraft:attachable": {
    "description": {
      "identifier": "yes:gilded_netherite_chestplate",
      "item": { "yes:gilded_netherite_chestplate": "query.owner_identifier == 'minecraft:player'" },
      "materials": {
        "default": "armor",
        "enchanted": "armor_enchanted"
      },
      "textures": {
        "default": "textures/models/gilded_netherite/armor/gilded_netherite_chestplate",
        "enchanted": "textures/misc/enchanted_item_glint"
      },
      "geometry": {
        "default": "geometry.gilded_netherite_chestplate"
      },
      "scripts": {
        "parent_setup": "variable.chest_layer_visible = 0.0;"
      },
      "render_controllers": [ "controller.render.armor" ]
    }
  }
}
