{
  "format_version": "1.16.100",
  "minecraft:item": {
    "description": {
      "identifier": "nicothekid:moss_berry_pie",
      "category": "equipment"
    },
    "components": {
      "minecraft:icon": {
				"texture": "nicothekid_moss_berry_pie"
			},
			"minecraft:display_name": {
				"value": "item.nicothekid:moss_berry_pie.name"
			},
			"minecraft:creative_category": {
				"parent": "itemGroup.name.miscFood"
			},
      "minecraft:max_stack_size": 64,
      "minecraft:foil": false,
      "minecraft:hand_equipped": false,
      "minecraft:food": {
        "nutrition": 7,
        "saturation_modifier": "normal",
        "can_always_eat": true,
        "on_consume": {
					"target": "self",
					"event": "eating_effect"
				}
      },
      "minecraft:use_duration": 2.0,
      "minecraft:use_animation": "eat"
    },
    "events": {
			"eating_effect": {
				"sequence": [
					{
						"add_mob_effect": {
							"target": "holder",
							"effect": "regeneration",
							"duration": 20,
							"amplifier": 0
						}
					}
				]
			}
		}
  }
}
