{
	"format_version": "1.16.100",
	"minecraft:item": {
		"description": {
			"identifier": "nicothekid:brass_helmet",
			"category": "equipment"
		},
		"components": {
			"minecraft:icon": {
				"texture": "nicothekid_brass_helmet"
			},
			"minecraft:display_name": {
				"value": "item.nicothekid:brass_helmet.name"
			},
			"minecraft:creative_category": {
				"parent": "itemGroup.name.helmet"
			},
			"minecraft:render_offsets": "head",
			"minecraft:max_stack_size": 1,
			"minecraft:durability": {
				"max_durability": 195,
				"damage_chance": {
					"min": 60,
					"max": 100
				}
			},
			"minecraft:armor": {
				"protection": 2
			},
			"minecraft:enchantable": {
				"value": 14,
				"slot": "armor_head"
			},
			"minecraft:repairable": {
				"repair_items": [
					{
						"items": [
							"nicothekid:brass_helmet"
						],
						"repair_amount": "query.max_durability"
					},
					{
						"items": [
							"nicothekid:brass_ingot"
						],
						"repair_amount": 39
					}
				]
			},
			"minecraft:wearable": {
				"slot": "slot.armor.head"
			}
		},
		"events": {}
	}
}