{
	"format_version": "1.16.100",
	"minecraft:item": {
		"description": {
			"identifier": "nicothekid:zinc_leggings",
			"category": "equipment"
		},
		"components": {
			"minecraft:icon": {
				"texture": "nicothekid_zinc_leggings"
			},
			"minecraft:display_name": {
				"value": "item.nicothekid:zinc_leggings.name"
			},
			"minecraft:creative_category": {
				"parent": "itemGroup.name.leggings"
			},
			"minecraft:render_offsets": "leggings",
			"minecraft:max_stack_size": 1,
			"minecraft:durability": {
				"max_durability": 195,
				"damage_chance": {
					"min": 60,
					"max": 100
				}
			},
			"minecraft:armor": {
				"protection": 4
			},
			"minecraft:enchantable": {
				"value": 14,
				"slot": "armor_legs"
			},
			"minecraft:repairable": {
				"repair_items": [
					{
						"items": [
							"nicothekid:zinc_leggings"
						],
						"repair_amount": "query.max_durability"
					},
					{
						"items": [
							"nicothekid:zinc_ingot"
						],
						"repair_amount": 27
					}
				]
			},
			"minecraft:wearable": {
				"slot": "slot.armor.legs"
			}
		},
		"events": {}
	}
}