{
  "format_version": "1.16.0",
  "minecraft:item": {
    "description": {
      "identifier": "nicothekid:zinc_ingot",
      "category": "items"
    },
    "components": {
      "minecraft:icon": {
				"texture": "nicothekid_zinc_ingot"
			},
			"minecraft:display_name": {
				"value": "item.nicothekid:zinc_ingot.name"
			},
      "minecraft:max_stack_size": 64,
      "minecraft:stack_by_data": true,
      "minecraft:foil": false,
      "minecraft:hand_equipped": false,
			"minecraft:allow_off_hand": false
    }
  }
}