{
  "format_version": "1.16.100",
  "minecraft:item": {
    "description": {
      "identifier": "nicothekid:zinc_sword",
      "category": "equipment"
    },
    "components": {
      "minecraft:icon": {
				"texture": "nicothekid_zinc_sword"
			},
			"minecraft:display_name": {
				"value": "item.nicothekid:zinc_sword.name"
			},
			"minecraft:creative_category": {
				"parent": "itemGroup.name.sword"
			},
      "minecraft:max_stack_size": 1,
      "minecraft:foil": false,
      "minecraft:hand_equipped": true,
			"minecraft:allow_off_hand": false,
      "minecraft:can_destroy_in_creative": false,
      "minecraft:durability": {
				"max_durability": 190,
				"damage_chance": {
					"min": 60,
					"max": 100
				}
			},
			"minecraft:damage": 6,
			"minecraft:mining_speed": 1,
			"minecraft:digger": {
				"use_efficiency": false,
				"on_dig": {
					"event": "on_digging",
					"target": "self"
				},
				"destroy_speeds": [
					{
						"block": "minecraft:bamboo",
						"speed": 5,
						"on_dig": {
							"event": "on_digging"
						}
					},
					{
						"block": "minecraft:web",
						"speed": 5,
						"on_dig": {
							"event": "on_digging"
						}
					},
					{
						"block": "minecraft:cocoa",
						"speed": 5,
						"on_dig": {
							"event": "on_digging"
						}
					},
					{
						"block": "minecraft:hay_block",
						"speed": 5,
						"on_dig": {
							"event": "on_digging"
						}
					},
					{
						"block": "minecraft:leaves",
						"speed": 5,
						"on_dig": {
							"event": "on_digging"
						}
					},
					{
						"block": "minecraft:leaves2",
						"speed": 5,
						"on_dig": {
							"event": "on_digging"
						}
					},
					{
						"block": "minecraft:azalea_leaves",
						"speed": 5,
						"on_dig": {
							"event": "on_digging"
						}
					},
					{
						"block": "minecraft:azalea_leaves_flowered",
						"speed": 5,
						"on_dig": {
							"event": "on_digging"
						}
					},
					{
						"block": "minecraft:mangrove_leaves",
						"speed": 5,
						"on_dig": {
							"event": "on_digging"
						}
					},
					{
						"block": "minecraft:lit_pumpkin",
						"speed": 5,
						"on_dig": {
							"event": "on_digging"
						}
					},
					{
						"block": "minecraft:melon_block",
						"speed": 5,
						"on_dig": {
							"event": "on_digging"
						}
					},
					{
						"block": "minecraft:pumpkin",
						"speed": 5,
						"on_dig": {
							"event": "on_digging"
						}
					},
					{
						"block": "minecraft:vine",
						"speed": 5,
						"on_dig": {
							"event": "on_digging"
						}
					}
				]
			},
			"minecraft:enchantable": {
				"value": 10,
				"slot": "sword"
			},
			"minecraft:repairable": {
				"repair_items": [
					{
						"items": [
							"nicothekid:zinc_sword"
						],
						"repair_amount": "query.max_durability"
					},
					{
						"items": [
							"nicothekid:zinc_ingot"
						],
						"repair_amount": 90
					}
				]
			},
			"minecraft:weapon": {
				"on_hurt_entity": {
					"event": "on_digging"
				}
			},
			"tag:minecraft:is_sword": {}
    },
    "events": {
			"on_digging": {
				"damage": {
					"target": "self",
					"type": "durability",
					"amount": 1
				}
			},
			"on_tool_used": {
				"damage": {
					"target": "self",
					"type": "durability",
					"amount": 1
				}
			}
		}
  }
}
