{
	"format_version": "1.16.100",
	"minecraft:item": {
		"description": {
			"identifier": "nicothekid:mycelium_sprouts_tall",
			"category": "nature"
		},
		"components": {
      "minecraft:icon": {
				"texture": "nicothekid_mycelium_sprouts_tall"
			},
			"minecraft:display_name": {
				"value": "item.nicothekid:mycelium_sprouts_tall.name"
			},
			"minecraft:creative_category": {
				"parent": "itemGroup.name.grass"
			},
			"minecraft:render_offsets": "apple",
      "minecraft:max_stack_size": 64,
      "minecraft:foil": false,
      "minecraft:hand_equipped": false,
			"minecraft:block_placer": {
				"block": "nicothekid:mycelium_sprouts_tall_block",
				"use_block_description": true
			}
		}
	}
}