{
  "format_version": "1.16.100",
  "minecraft:item": {
    "description": {
      "identifier": "nicothekid:tin_hoe",
      "category": "equipment"
    },
    "components": {
      "minecraft:icon": {
				"texture": "nicothekid_tin_hoe"
			},
			"minecraft:display_name": {
				"value": "item.nicothekid:tin_hoe.name"
			},
			"minecraft:creative_category": {
				"parent": "itemGroup.name.hoe"
			},
      "minecraft:max_stack_size": 1,
      "minecraft:foil": false,
      "minecraft:hand_equipped": true,
			"minecraft:allow_off_hand": false,
      "minecraft:can_destroy_in_creative": false,
      "minecraft:durability": {
				"max_durability": 146,
				"damage_chance": {
					"min": 60,
					"max": 100
				}
			},
			"minecraft:damage": 2,
			"minecraft:mining_speed": 5,
			"minecraft:digger": {
				"use_efficiency": true,
				"on_dig": {
					"event": "on_digging",
					"target": "self"
				},
				"destroy_speeds": [
					{
						"block": "minecraft:leaves",
						"speed": 5,
						"on_dig": {
							"event": "on_digging"
						}
					},
					{
						"block": "minecraft:leaves2",
						"speed": 5,
						"on_dig": {
							"event": "on_digging"
						}
					},
					{
						"block": "minecraft:azalea_leaves",
						"speed": 5,
						"on_dig": {
							"event": "on_digging"
						}
					},
					{
						"block": "minecraft:azalea_leaves_flowered",
						"speed": 5,
						"on_dig": {
							"event": "on_digging"
						}
					},
					{
						"block": "minecraft:mangrove_leaves",
						"speed": 5,
						"on_dig": {
							"event": "on_digging"
						}
					},
					{
						"block": "minecraft:nether_wart_block",
						"speed": 5,
						"on_dig": {
							"event": "on_digging"
						}
					},
					{
						"block": "minecraft:warped_wart_block",
						"speed": 5,
						"on_dig": {
							"event": "on_digging"
						}
					},
					{
						"block": "minecraft:shroomlight",
						"speed": 5,
						"on_dig": {
							"event": "on_digging"
						}
					},
					{
						"block": "minecraft:sponge",
						"speed": 5,
						"on_dig": {
							"event": "on_digging"
						}
					},
					{
						"block": "minecraft:dried_kelp_block",
						"speed": 5,
						"on_dig": {
							"event": "on_digging"
						}
					},
					{
						"block": "minecraft:hay_block",
						"speed": 5,
						"on_dig": {
							"event": "on_digging"
						}
					},
					{
						"block": "minecraft:target",
						"speed": 5,
						"on_dig": {
							"event": "on_digging"
						}
					},
					{
						"block": "minecraft:moss_block",
						"speed": 5,
						"on_dig": {
							"event": "on_digging"
						}
					},
					{
						"block": "minecraft:sculk",
						"speed": 5,
						"on_dig": {
							"event": "on_digging"
						}
					},
					{
						"block": "minecraft:sculk_vein",
						"speed": 5,
						"on_dig": {
							"event": "on_digging"
						}
					},
					{
						"block": "minecraft:sculk_catalyst",
						"speed": 5,
						"on_dig": {
							"event": "on_digging"
						}
					},
					{
						"block": "minecraft:sculk_sensor",
						"speed": 5,
						"on_dig": {
							"event": "on_digging"
						}
					},
					{
						"block": "minecraft:sculk_shrieker",
						"speed": 5,
						"on_dig": {
							"event": "on_digging"
						}
					}
				]
			},
			"minecraft:enchantable": {
				"value": 10,
				"slot": "hoe"
			},
			"minecraft:repairable": {
				"repair_items": [
					{
						"items": [
							"nicothekid:tin_hoe"
						],
						"repair_amount": "query.max_durability"
					},
					{
						"items": [
							"nicothekid:tin_ingot"
						],
						"repair_amount": 73
					}
				]
			},
			"minecraft:use_on": {
				"blocks": [
					"grass",
					"dirt",
					"grass_path"
				]
			},
			"minecraft:weapon": {
				"on_hurt_entity": {
					"event": "on_digging"
				}
			},
			"tag:minecraft:is_hoe": {}
    },
    "events": {
			"on_digging": {
				"damage": {
					"target": "self",
					"type": "durability",
					"amount": 1
				}
			},
			"on_tool_used": {
				"damage": {
					"target": "self",
					"type": "durability",
					"amount": 1
				}
			}
		}
  }
}
