{
  "format_version": "1.16.100",
  "minecraft:item": {
    "description": {
      "identifier": "nicothekid:zinc_pickaxe",
      "category": "equipment"
    },
    "components": {
      "minecraft:icon": {
				"texture": "nicothekid_zinc_pickaxe"
			},
			"minecraft:display_name": {
				"value": "item.nicothekid:zinc_pickaxe.name"
			},
			"minecraft:creative_category": {
				"parent": "itemGroup.name.pickaxe"
			},
      "minecraft:max_stack_size": 1,
      "minecraft:foil": false,
      "minecraft:hand_equipped": true,
			"minecraft:allow_off_hand": false,
      "minecraft:can_destroy_in_creative": false,
      "minecraft:durability": {
				"max_durability": 190,
				"damage_chance": {
					"min": 60,
					"max": 100
				}
			},
			"minecraft:damage": 3,
			"minecraft:mining_speed": 5,
			"minecraft:digger": {
				"use_efficiency": true,
				"on_dig": {
					"event": "on_digging",
					"target": "self"
				},
				"destroy_speeds": [
					{
						"block": {
							"tags": "query.any_tag('stone', 'metal', 'wood_pick_diggable', 'stone_pick_diggable', 'gold_pick_diggable', 'iron_pick_diggable', 'rail', 'mob_spawner')"
						},
						"speed": 5,
						"on_dig": {
							"event": "on_digging"
						}
					},
					{
						"block": "minecraft:stone",
						"speed": 5,
						"on_dig": {
							"event": "on_digging"
						}
					},
					{
						"block": "minecraft:blackstone",
						"speed": 5,
						"on_dig": {
							"event": "on_digging"
						}
					},
					{
						"block": "minecraft:polished_blackstone",
						"speed": 5,
						"on_dig": {
							"event": "on_digging"
						}
					},
					{
						"block": "minecraft:deepslate",
						"speed": 5,
						"on_dig": {
							"event": "on_digging"
						}
					},
					{
						"block": "minecraft:polished_deepslate",
						"speed": 5,
						"on_dig": {
							"event": "on_digging"
						}
					},
					{
						"block": "minecraft:basalt",
						"speed": 5,
						"on_dig": {
							"event": "on_digging"
						}
					},
					{
						"block": "minecraft:polished_basalt",
						"speed": 5,
						"on_dig": {
							"event": "on_digging"
						}
					},
					{
						"block": "minecraft:smooth_basalt",
						"speed": 5,
						"on_dig": {
							"event": "on_digging"
						}
					},
					{
						"block": "minecraft:dripstone_block",
						"speed": 5,
						"on_dig": {
							"event": "on_digging"
						}
					},
					{
						"block": "minecraft:pointed_dripstone",
						"speed": 5,
						"on_dig": {
							"event": "on_digging"
						}
					},
					{
						"block": "minecraft:calcite",
						"speed": 5,
						"on_dig": {
							"event": "on_digging"
						}
					},
					{
						"block": "minecraft:tuff",
						"speed": 5,
						"on_dig": {
							"event": "on_digging"
						}
					},
					{
						"block": "minecraft:end_stone",
						"speed": 5,
						"on_dig": {
							"event": "on_digging"
						}
					},
					
					{
						"block": "minecraft:brick_block",
						"speed": 5,
						"on_dig": {
							"event": "on_digging"
						}
					},
					{
						"block": "minecraft:chiseled_nether_bricks",
						"speed": 5,
						"on_dig": {
							"event": "on_digging"
						}
					},
					{
						"block": "minecraft:cracked_nether_bricks",
						"speed": 5,
						"on_dig": {
							"event": "on_digging"
						}
					},
					{
						"block": "minecraft:quartz_bricks",
						"speed": 5,
						"on_dig": {
							"event": "on_digging"
						}
					},
					{
						"block": "minecraft:stonebrick",
						"speed": 5,
						"on_dig": {
							"event": "on_digging"
						}
					},
					{
						"block": "minecraft:end_bricks",
						"speed": 5,
						"on_dig": {
							"event": "on_digging"
						}
					},
					{
						"block": "minecraft:prismarine",
						"speed": 5,
						"on_dig": {
							"event": "on_digging"
						}
					},
					{
						"block": "minecraft:polished_blackstone_bricks",
						"speed": 5,
						"on_dig": {
							"event": "on_digging"
						}
					},
					{
						"block": "minecraft:cracked_polished_blackstone_bricks",
						"speed": 5,
						"on_dig": {
							"event": "on_digging"
						}
					},
					{
						"block": "minecraft:gilded_blackstone",
						"speed": 5,
						"on_dig": {
							"event": "on_digging"
						}
					},
					{
						"block": "minecraft:chiseled_polished_blackstone",
						"speed": 5,
						"on_dig": {
							"event": "on_digging"
						}
					},
					{
						"block": "minecraft:deepslate_tiles",
						"speed": 5,
						"on_dig": {
							"event": "on_digging"
						}
					},
					{
						"block": "minecraft:cracked_deepslate_tiles",
						"speed": 5,
						"on_dig": {
							"event": "on_digging"
						}
					},
					{
						"block": "minecraft:deepslate_bricks",
						"speed": 5,
						"on_dig": {
							"event": "on_digging"
						}
					},
					{
						"block": "minecraft:cracked_deepslate_bricks",
						"speed": 5,
						"on_dig": {
							"event": "on_digging"
						}
					},
					{
						"block": "minecraft:chiseled_deepslate",
						"speed": 5,
						"on_dig": {
							"event": "on_digging"
						}
					},
					{
						"block": "minecraft:cobblestone",
						"speed": 5,
						"on_dig": {
							"event": "on_digging"
						}
					},
					{
						"block": "minecraft:mossy_cobblestone",
						"speed": 5,
						"on_dig": {
							"event": "on_digging"
						}
					},
					{
						"block": "minecraft:cobbled_deepslate",
						"speed": 5,
						"on_dig": {
							"event": "on_digging"
						}
					},
					{
						"block": "minecraft:smooth_stone",
						"speed": 5,
						"on_dig": {
							"event": "on_digging"
						}
					},
					{
						"block": "minecraft:sandstone",
						"speed": 5,
						"on_dig": {
							"event": "on_digging"
						}
					},
					{
						"block": "minecraft:red_sandstone",
						"speed": 5,
						"on_dig": {
							"event": "on_digging"
						}
					},
					{
						"block": "minecraft:nether_brick",
						"speed": 5,
						"on_dig": {
							"event": "on_digging"
						}
					},
					{
						"block": "minecraft:red_nether_brick",
						"speed": 5,
						"on_dig": {
							"event": "on_digging"
						}
					},
					{
						"block": "minecraft:concrete",
						"speed": 5,
						"on_dig": {
							"event": "on_digging"
						}
					},
					{
						"block": "minecraft:hardened_clay",
						"speed": 5,
						"on_dig": {
							"event": "on_digging"
						}
					},
					{
						"block": "minecraft:stained_hardened_clay",
						"speed": 5,
						"on_dig": {
							"event": "on_digging"
						}
					},
					{
						"block": "minecraft:white_glazed_terracotta",
						"speed": 5,
						"on_dig": {
							"event": "on_digging"
						}
					},
					{
						"block": "minecraft:silver_glazed_terracotta",
						"speed": 5,
						"on_dig": {
							"event": "on_digging"
						}
					},
					{
						"block": "minecraft:gray_glazed_terracotta",
						"speed": 5,
						"on_dig": {
							"event": "on_digging"
						}
					},
					{
						"block": "minecraft:black_glazed_terracotta",
						"speed": 5,
						"on_dig": {
							"event": "on_digging"
						}
					},
					{
						"block": "minecraft:brown_glazed_terracotta",
						"speed": 5,
						"on_dig": {
							"event": "on_digging"
						}
					},
					{
						"block": "minecraft:red_glazed_terracotta",
						"speed": 5,
						"on_dig": {
							"event": "on_digging"
						}
					},
					{
						"block": "minecraft:orange_glazed_terracotta",
						"speed": 5,
						"on_dig": {
							"event": "on_digging"
						}
					},
					{
						"block": "minecraft:yellow_glazed_terracotta",
						"speed": 5,
						"on_dig": {
							"event": "on_digging"
						}
					},
					{
						"block": "minecraft:lime_glazed_terracotta",
						"speed": 5,
						"on_dig": {
							"event": "on_digging"
						}
					},
					{
						"block": "minecraft:green_glazed_terracotta",
						"speed": 5,
						"on_dig": {
							"event": "on_digging"
						}
					},
					{
						"block": "minecraft:cyan_glazed_terracotta",
						"speed": 5,
						"on_dig": {
							"event": "on_digging"
						}
					},
					{
						"block": "minecraft:light_blue_glazed_terracotta",
						"speed": 5,
						"on_dig": {
							"event": "on_digging"
						}
					},
					{
						"block": "minecraft:blue_glazed_terracotta",
						"speed": 5,
						"on_dig": {
							"event": "on_digging"
						}
					},
					{
						"block": "minecraft:purple_glazed_terracotta",
						"speed": 5,
						"on_dig": {
							"event": "on_digging"
						}
					},
					{
						"block": "minecraft:magenta_glazed_terracotta",
						"speed": 5,
						"on_dig": {
							"event": "on_digging"
						}
					},
					{
						"block": "minecraft:pink_glazed_terracotta",
						"speed": 5,
						"on_dig": {
							"event": "on_digging"
						}
					},
					{
						"block": "minecraft:purpur_block",
						"speed": 5,
						"on_dig": {
							"event": "on_digging"
						}
					},
					{
						"block": "minecraft:packed_mud",
						"speed": 5,
						"on_dig": {
							"event": "on_digging"
						}
					},
					{
						"block": "minecraft:mud_bricks",
						"speed": 5,
						"on_dig": {
							"event": "on_digging"
						}
					},
					
					{
						"block": "minecraft:normal_stone_stairs",
						"speed": 5,
						"on_dig": {
							"event": "on_digging"
						}
					},
					{
						"block": "minecraft:stone_stairs",
						"speed": 5,
						"on_dig": {
							"event": "on_digging"
						}
					},
					{
						"block": "minecraft:mossy_cobblestone_stairs",
						"speed": 5,
						"on_dig": {
							"event": "on_digging"
						}
					},
					{
						"block": "minecraft:stone_brick_stairs",
						"speed": 5,
						"on_dig": {
							"event": "on_digging"
						}
					},
					{
						"block": "minecraft:mossy_stone_brick_stairs",
						"speed": 5,
						"on_dig": {
							"event": "on_digging"
						}
					},
					{
						"block": "minecraft:sandstone_stairs",
						"speed": 5,
						"on_dig": {
							"event": "on_digging"
						}
					},
					{
						"block": "minecraft:smooth_sandstone_stairs",
						"speed": 5,
						"on_dig": {
							"event": "on_digging"
						}
					},
					{
						"block": "minecraft:red_sandstone_stairs",
						"speed": 5,
						"on_dig": {
							"event": "on_digging"
						}
					},
					{
						"block": "minecraft:smooth_red_sandstone_stairs",
						"speed": 5,
						"on_dig": {
							"event": "on_digging"
						}
					},
					{
						"block": "minecraft:granite_stairs",
						"speed": 5,
						"on_dig": {
							"event": "on_digging"
						}
					},
					{
						"block": "minecraft:polished_granite_stairs",
						"speed": 5,
						"on_dig": {
							"event": "on_digging"
						}
					},
					{
						"block": "minecraft:diorite_stairs",
						"speed": 5,
						"on_dig": {
							"event": "on_digging"
						}
					},
					{
						"block": "minecraft:polished_diorite_stairs",
						"speed": 5,
						"on_dig": {
							"event": "on_digging"
						}
					},
					{
						"block": "minecraft:andesite_stairs",
						"speed": 5,
						"on_dig": {
							"event": "on_digging"
						}
					},
					{
						"block": "minecraft:polished_andesite_stairs",
						"speed": 5,
						"on_dig": {
							"event": "on_digging"
						}
					},
					{
						"block": "minecraft:brick_stairs",
						"speed": 5,
						"on_dig": {
							"event": "on_digging"
						}
					},
					{
						"block": "minecraft:nether_brick_stairs",
						"speed": 5,
						"on_dig": {
							"event": "on_digging"
						}
					},
					{
						"block": "minecraft:red_nether_brick_stairs",
						"speed": 5,
						"on_dig": {
							"event": "on_digging"
						}
					},
					{
						"block": "minecraft:end_brick_stairs",
						"speed": 5,
						"on_dig": {
							"event": "on_digging"
						}
					},
					{
						"block": "minecraft:quartz_stairs",
						"speed": 5,
						"on_dig": {
							"event": "on_digging"
						}
					},
					{
						"block": "minecraft:smooth_quartz_stairs",
						"speed": 5,
						"on_dig": {
							"event": "on_digging"
						}
					},
					{
						"block": "minecraft:purpur_stairs",
						"speed": 5,
						"on_dig": {
							"event": "on_digging"
						}
					},
					{
						"block": "minecraft:prismarine_stairs",
						"speed": 5,
						"on_dig": {
							"event": "on_digging"
						}
					},
					{
						"block": "minecraft:dark_prismarine_stairs",
						"speed": 5,
						"on_dig": {
							"event": "on_digging"
						}
					},
					{
						"block": "minecraft:prismarine_bricks_stairs",
						"speed": 5,
						"on_dig": {
							"event": "on_digging"
						}
					},
					{
						"block": "minecraft:blackstone_stairs",
						"speed": 5,
						"on_dig": {
							"event": "on_digging"
						}
					},
					{
						"block": "minecraft:polished_blackstone_stairs",
						"speed": 5,
						"on_dig": {
							"event": "on_digging"
						}
					},
					{
						"block": "minecraft:polished_blackstone_brick_stairs",
						"speed": 5,
						"on_dig": {
							"event": "on_digging"
						}
					},
					{
						"block": "minecraft:cut_copper_stairs",
						"speed": 5,
						"on_dig": {
							"event": "on_digging"
						}
					},
					{
						"block": "minecraft:exposed_cut_copper_stairs",
						"speed": 5,
						"on_dig": {
							"event": "on_digging"
						}
					},
					{
						"block": "minecraft:weathered_cut_copper_stairs",
						"speed": 5,
						"on_dig": {
							"event": "on_digging"
						}
					},
					{
						"block": "minecraft:oxidized_cut_copper_stairs",
						"speed": 5,
						"on_dig": {
							"event": "on_digging"
						}
					},
					{
						"block": "minecraft:waxed_cut_copper_stairs",
						"speed": 5,
						"on_dig": {
							"event": "on_digging"
						}
					},
					{
						"block": "minecraft:waxed_exposed_cut_copper_stairs",
						"speed": 5,
						"on_dig": {
							"event": "on_digging"
						}
					},
					{
						"block": "minecraft:waxed_weathered_cut_copper_stairs",
						"speed": 5,
						"on_dig": {
							"event": "on_digging"
						}
					},
					{
						"block": "minecraft:waxed_oxidized_cut_copper_stairs",
						"speed": 5,
						"on_dig": {
							"event": "on_digging"
						}
					},
					{
						"block": "minecraft:cobbled_deepslate_stairs",
						"speed": 5,
						"on_dig": {
							"event": "on_digging"
						}
					},
					{
						"block": "minecraft:polished_deepslate_stairs",
						"speed": 5,
						"on_dig": {
							"event": "on_digging"
						}
					},
					{
						"block": "minecraft:deepslate_brick_stairs",
						"speed": 5,
						"on_dig": {
							"event": "on_digging"
						}
					},
					{
						"block": "minecraft:deepslate_tile_stairs",
						"speed": 5,
						"on_dig": {
							"event": "on_digging"
						}
					},
					{
						"block": "minecraft:mud_brick_stairs",
						"speed": 5,
						"on_dig": {
							"event": "on_digging"
						}
					},
					
					{
						"block": "minecraft:stone_slab",
						"speed": 5,
						"on_dig": {
							"event": "on_digging"
						}
					},
					{
						"block": "minecraft:double_stone_slab",
						"speed": 5,
						"on_dig": {
							"event": "on_digging"
						}
					},
					{
						"block": "minecraft:stone_slab2",
						"speed": 5,
						"on_dig": {
							"event": "on_digging"
						}
					},
					{
						"block": "minecraft:double_stone_slab2",
						"speed": 5,
						"on_dig": {
							"event": "on_digging"
						}
					},
					{
						"block": "minecraft:stone_slab3",
						"speed": 5,
						"on_dig": {
							"event": "on_digging"
						}
					},
					{
						"block": "minecraft:double_stone_slab3",
						"speed": 5,
						"on_dig": {
							"event": "on_digging"
						}
					},
					{
						"block": "minecraft:stone_slab4",
						"speed": 5,
						"on_dig": {
							"event": "on_digging"
						}
					},
					{
						"block": "minecraft:double_stone_slab4",
						"speed": 5,
						"on_dig": {
							"event": "on_digging"
						}
					},
					{
						"block": "minecraft:blackstone_slab",
						"speed": 5,
						"on_dig": {
							"event": "on_digging"
						}
					},
					{
						"block": "minecraft:blackstone_double_slab",
						"speed": 5,
						"on_dig": {
							"event": "on_digging"
						}
					},
					{
						"block": "minecraft:polished_blackstone_slab",
						"speed": 5,
						"on_dig": {
							"event": "on_digging"
						}
					},
					{
						"block": "minecraft:polished_blackstone_double_slab",
						"speed": 5,
						"on_dig": {
							"event": "on_digging"
						}
					},
					{
						"block": "minecraft:polished_blackstone_brick_slab",
						"speed": 5,
						"on_dig": {
							"event": "on_digging"
						}
					},
					{
						"block": "minecraft:polished_blackstone_brick_double_slab",
						"speed": 5,
						"on_dig": {
							"event": "on_digging"
						}
					},
					{
						"block": "minecraft:cut_copper_slab",
						"speed": 5,
						"on_dig": {
							"event": "on_digging"
						}
					},
					{
						"block": "minecraft:double_cut_copper_slab",
						"speed": 5,
						"on_dig": {
							"event": "on_digging"
						}
					},
					{
						"block": "minecraft:exposed_cut_copper_slab",
						"speed": 5,
						"on_dig": {
							"event": "on_digging"
						}
					},
					{
						"block": "minecraft:exposed_double_cut_copper_slab",
						"speed": 5,
						"on_dig": {
							"event": "on_digging"
						}
					},
					{
						"block": "minecraft:weathered_cut_copper_slab",
						"speed": 5,
						"on_dig": {
							"event": "on_digging"
						}
					},
					{
						"block": "minecraft:weathered_double_cut_copper_slab",
						"speed": 5,
						"on_dig": {
							"event": "on_digging"
						}
					},
					{
						"block": "minecraft:oxidized_cut_copper_slab",
						"speed": 5,
						"on_dig": {
							"event": "on_digging"
						}
					},
					{
						"block": "minecraft:oxidized_double_cut_copper_slab",
						"speed": 5,
						"on_dig": {
							"event": "on_digging"
						}
					},
					{
						"block": "minecraft:waxed_cut_copper_slab",
						"speed": 5,
						"on_dig": {
							"event": "on_digging"
						}
					},
					{
						"block": "minecraft:waxed_double_cut_copper_slab",
						"speed": 5,
						"on_dig": {
							"event": "on_digging"
						}
					},
					{
						"block": "minecraft:waxed_exposed_cut_copper_slab",
						"speed": 5,
						"on_dig": {
							"event": "on_digging"
						}
					},
					{
						"block": "minecraft:waxed_exposed_double_cut_copper_slab",
						"speed": 5,
						"on_dig": {
							"event": "on_digging"
						}
					},
					{
						"block": "minecraft:waxed_weathered_cut_copper_slab",
						"speed": 5,
						"on_dig": {
							"event": "on_digging"
						}
					},
					{
						"block": "minecraft:waxed_weathered_double_cut_copper_slab",
						"speed": 5,
						"on_dig": {
							"event": "on_digging"
						}
					},
					{
						"block": "minecraft:waxed_oxidized_cut_copper_slab",
						"speed": 5,
						"on_dig": {
							"event": "on_digging"
						}
					},
					{
						"block": "minecraft:waxed_oxidized_double_cut_copper_slab",
						"speed": 5,
						"on_dig": {
							"event": "on_digging"
						}
					},
					{
						"block": "minecraft:cobbled_deepslate_slab",
						"speed": 5,
						"on_dig": {
							"event": "on_digging"
						}
					},
					{
						"block": "minecraft:cobbled_deepslate_double_slab",
						"speed": 5,
						"on_dig": {
							"event": "on_digging"
						}
					},
					{
						"block": "minecraft:polished_deepslate_slab",
						"speed": 5,
						"on_dig": {
							"event": "on_digging"
						}
					},
					{
						"block": "minecraft:polished_deepslate_double_slab",
						"speed": 5,
						"on_dig": {
							"event": "on_digging"
						}
					},
					{
						"block": "minecraft:deepslate_brick_slab",
						"speed": 5,
						"on_dig": {
							"event": "on_digging"
						}
					},
					{
						"block": "minecraft:deepslate_brick_double_slab",
						"speed": 5,
						"on_dig": {
							"event": "on_digging"
						}
					},
					{
						"block": "minecraft:deepslate_tile_slab",
						"speed": 5,
						"on_dig": {
							"event": "on_digging"
						}
					},
					{
						"block": "minecraft:deepslate_tile_double_slab",
						"speed": 5,
						"on_dig": {
							"event": "on_digging"
						}
					},
					{
						"block": "minecraft:mud_brick_slab",
						"speed": 5,
						"on_dig": {
							"event": "on_digging"
						}
					},
					{
						"block": "minecraft:mud_brick_double_slab",
						"speed": 5,
						"on_dig": {
							"event": "on_digging"
						}
					},
					
					{
						"block": "minecraft:blackstone_wall",
						"speed": 5,
						"on_dig": {
							"event": "on_digging"
						}
					},
					{
						"block": "minecraft:cobbled_deepslate_wall",
						"speed": 5,
						"on_dig": {
							"event": "on_digging"
						}
					},
					{
						"block": "minecraft:cobblestone_wall",
						"speed": 5,
						"on_dig": {
							"event": "on_digging"
						}
					},
					{
						"block": "minecraft:deepslate_brick_wall",
						"speed": 5,
						"on_dig": {
							"event": "on_digging"
						}
					},
					{
						"block": "minecraft:polished_blackstone_wall",
						"speed": 5,
						"on_dig": {
							"event": "on_digging"
						}
					},
					{
						"block": "minecraft:polished_blackstone_brick_wall",
						"speed": 5,
						"on_dig": {
							"event": "on_digging"
						}
					},
					{
						"block": "minecraft:polished_deepslate_wall",
						"speed": 5,
						"on_dig": {
							"event": "on_digging"
						}
					},
					{
						"block": "minecraft:mud_brick_wall",
						"speed": 5,
						"on_dig": {
							"event": "on_digging"
						}
					},
					
					{
						"block": "minecraft:copper_block",
						"speed": 5,
						"on_dig": {
							"event": "on_digging"
						}
					},
					{
						"block": "minecraft:exposed_copper",
						"speed": 5,
						"on_dig": {
							"event": "on_digging"
						}
					},
					{
						"block": "minecraft:weathered_copper",
						"speed": 5,
						"on_dig": {
							"event": "on_digging"
						}
					},
					{
						"block": "minecraft:oxidized_copper",
						"speed": 5,
						"on_dig": {
							"event": "on_digging"
						}
					},
					{
						"block": "minecraft:waxed_copper",
						"speed": 5,
						"on_dig": {
							"event": "on_digging"
						}
					},
					{
						"block": "minecraft:waxed_exposed_copper",
						"speed": 5,
						"on_dig": {
							"event": "on_digging"
						}
					},
					{
						"block": "minecraft:waxed_weathered_copper",
						"speed": 5,
						"on_dig": {
							"event": "on_digging"
						}
					},
					{
						"block": "minecraft:waxed_oxidized_copper",
						"speed": 5,
						"on_dig": {
							"event": "on_digging"
						}
					},
					{
						"block": "minecraft:cut_copper",
						"speed": 5,
						"on_dig": {
							"event": "on_digging"
						}
					},
					{
						"block": "minecraft:exposed_cut_copper",
						"speed": 5,
						"on_dig": {
							"event": "on_digging"
						}
					},
					{
						"block": "minecraft:weathered_cut_copper",
						"speed": 5,
						"on_dig": {
							"event": "on_digging"
						}
					},
					{
						"block": "minecraft:oxidized_cut_copper",
						"speed": 5,
						"on_dig": {
							"event": "on_digging"
						}
					},
					{
						"block": "minecraft:waxed_cut_copper",
						"speed": 5,
						"on_dig": {
							"event": "on_digging"
						}
					},
					{
						"block": "minecraft:waxed_exposed_cut_copper",
						"speed": 5,
						"on_dig": {
							"event": "on_digging"
						}
					},
					{
						"block": "minecraft:waxed_weathered_cut_copper",
						"speed": 5,
						"on_dig": {
							"event": "on_digging"
						}
					},
					{
						"block": "minecraft:waxed_oxidized_cut_copper",
						"speed": 5,
						"on_dig": {
							"event": "on_digging"
						}
					},
					
					{
						"block": "minecraft:coal_block",
						"speed": 5,
						"on_dig": {
							"event": "on_digging"
						}
					},
					{
						"block": "minecraft:gold_block",
						"speed": 5,
						"on_dig": {
							"event": "on_digging"
						}
					},
					{
						"block": "minecraft:iron_block",
						"speed": 5,
						"on_dig": {
							"event": "on_digging"
						}
					},
					{
						"block": "minecraft:emerald_block",
						"speed": 5,
						"on_dig": {
							"event": "on_digging"
						}
					},
					{
						"block": "minecraft:diamond_block",
						"speed": 5,
						"on_dig": {
							"event": "on_digging"
						}
					},
					{
						"block": "minecraft:lapis_block",
						"speed": 5,
						"on_dig": {
							"event": "on_digging"
						}
					},
					{
						"block": "minecraft:raw_iron_block",
						"speed": 5,
						"on_dig": {
							"event": "on_digging"
						}
					},
					{
						"block": "minecraft:raw_copper_block",
						"speed": 5,
						"on_dig": {
							"event": "on_digging"
						}
					},
					{
						"block": "minecraft:raw_gold_block",
						"speed": 5,
						"on_dig": {
							"event": "on_digging"
						}
					},
					{
						"block": "minecraft:quartz_block",
						"speed": 5,
						"on_dig": {
							"event": "on_digging"
						}
					},
					{
						"block": "minecraft:bone_block",
						"speed": 5,
						"on_dig": {
							"event": "on_digging"
						}
					},
					{
						"block": "minecraft:netherite_block",
						"speed": 5,
						"on_dig": {
							"event": "on_digging"
						}
					},
					
					{
						"block": "minecraft:amethyst_block",
						"speed": 5,
						"on_dig": {
							"event": "on_digging"
						}
					},
					{
						"block": "minecraft:small_amethyst_bud",
						"speed": 5,
						"on_dig": {
							"event": "on_digging"
						}
					},
					{
						"block": "minecraft:medium_amethyst_bud",
						"speed": 5,
						"on_dig": {
							"event": "on_digging"
						}
					},
					{
						"block": "minecraft:large_amethyst_bud",
						"speed": 5,
						"on_dig": {
							"event": "on_digging"
						}
					},
					{
						"block": "minecraft:amethyst_cluster",
						"speed": 5,
						"on_dig": {
							"event": "on_digging"
						}
					},
					{
						"block": "minecraft:coral_block",
						"speed": 5,
						"on_dig": {
							"event": "on_digging"
						}
					},
					{
						"block": "minecraft:ice",
						"speed": 5,
						"on_dig": {
							"event": "on_digging"
						}
					},
					{
						"block": "minecraft:packed_ice",
						"speed": 5,
						"on_dig": {
							"event": "on_digging"
						}
					},
					{
						"block": "minecraft:blue_ice",
						"speed": 5,
						"on_dig": {
							"event": "on_digging"
						}
					},
					{
						"block": "minecraft:magma",
						"speed": 5,
						"on_dig": {
							"event": "on_digging"
						}
					},
					{
						"block": "minecraft:netherrack",
						"speed": 5,
						"on_dig": {
							"event": "on_digging"
						}
					},
					{
						"block": "minecraft:crimson_nylium",
						"speed": 5,
						"on_dig": {
							"event": "on_digging"
						}
					},
					{
						"block": "minecraft:warped_nylium",
						"speed": 5,
						"on_dig": {
							"event": "on_digging"
						}
					},
					{
						"block": "minecraft:nether_gold_ore",
						"speed": 5,
						"on_dig": {
							"event": "on_digging"
						}
					},
					{
						"block": "minecraft:quartz_ore",
						"speed": 5,
						"on_dig": {
							"event": "on_digging"
						}
					},
					{
						"block": "minecraft:coal_ore",
						"speed": 5,
						"on_dig": {
							"event": "on_digging"
						}
					},
					{
						"block": "minecraft:copper_ore",
						"speed": 5,
						"on_dig": {
							"event": "on_digging"
						}
					},
					{
						"block": "minecraft:gold_ore",
						"speed": 5,
						"on_dig": {
							"event": "on_digging"
						}
					},
					{
						"block": "minecraft:iron_ore",
						"speed": 5,
						"on_dig": {
							"event": "on_digging"
						}
					},
					{
						"block": "minecraft:redstone_ore",
						"speed": 5,
						"on_dig": {
							"event": "on_digging"
						}
					},
					{
						"block": "minecraft:lit_redstone_ore",
						"speed": 5,
						"on_dig": {
							"event": "on_digging"
						}
					},
					{
						"block": "minecraft:lapis_ore",
						"speed": 5,
						"on_dig": {
							"event": "on_digging"
						}
					},
					{
						"block": "minecraft:emerald_ore",
						"speed": 5,
						"on_dig": {
							"event": "on_digging"
						}
					},
					{
						"block": "minecraft:diamond_ore",
						"speed": 5,
						"on_dig": {
							"event": "on_digging"
						}
					},
					{
						"block": "minecraft:deepslate_coal_ore",
						"speed": 5,
						"on_dig": {
							"event": "on_digging"
						}
					},
					{
						"block": "minecraft:deepslate_copper_ore",
						"speed": 5,
						"on_dig": {
							"event": "on_digging"
						}
					},
					{
						"block": "minecraft:deepslate_gold_ore",
						"speed": 5,
						"on_dig": {
							"event": "on_digging"
						}
					},
					{
						"block": "minecraft:deepslate_iron_ore",
						"speed": 5,
						"on_dig": {
							"event": "on_digging"
						}
					},
					{
						"block": "minecraft:deepslate_redstone_ore",
						"speed": 5,
						"on_dig": {
							"event": "on_digging"
						}
					},
					{
						"block": "minecraft:lit_deepslate_redstone_ore",
						"speed": 5,
						"on_dig": {
							"event": "on_digging"
						}
					},
					{
						"block": "minecraft:deepslate_lapis_ore",
						"speed": 5,
						"on_dig": {
							"event": "on_digging"
						}
					},
					{
						"block": "minecraft:deepslate_emerald_ore",
						"speed": 5,
						"on_dig": {
							"event": "on_digging"
						}
					},
					{
						"block": "minecraft:deepslate_diamond_ore",
						"speed": 5,
						"on_dig": {
							"event": "on_digging"
						}
					},
					
					{
						"block": "minecraft:dragon_egg",
						"speed": 5,
						"on_dig": {
							"event": "on_digging"
						}
					},
					{
						"block": "minecraft:mob_spawner",
						"speed": 5,
						"on_dig": {
							"event": "on_digging"
						}
					},
					{
						"block": "minecraft:monster_egg",
						"speed": 5,
						"on_dig": {
							"event": "on_digging"
						}
					},
					{
						"block": "minecraft:infested_deepslate",
						"speed": 5,
						"on_dig": {
							"event": "on_digging"
						}
					},
					{
						"block": "minecraft:lodestone",
						"speed": 5,
						"on_dig": {
							"event": "on_digging"
						}
					},
					
					{
						"block": "minecraft:nether_brick_fence",
						"speed": 5,
						"on_dig": {
							"event": "on_digging"
						}
					},
					{
						"block": "minecraft:iron_door",
						"speed": 5,
						"on_dig": {
							"event": "on_digging"
						}
					},
					{
						"block": "minecraft:iron_trapdoor",
						"speed": 5,
						"on_dig": {
							"event": "on_digging"
						}
					},
					{
						"block": "minecraft:iron_bars",
						"speed": 5,
						"on_dig": {
							"event": "on_digging"
						}
					},
					{
						"block": "minecraft:lantern",
						"speed": 5,
						"on_dig": {
							"event": "on_digging"
						}
					},
					{
						"block": "minecraft:soul_lantern",
						"speed": 5,
						"on_dig": {
							"event": "on_digging"
						}
					},
					{
						"block": "minecraft:furnace",
						"speed": 5,
						"on_dig": {
							"event": "on_digging"
						}
					},
					{
						"block": "minecraft:blast_furnace",
						"speed": 5,
						"on_dig": {
							"event": "on_digging"
						}
					},
					{
						"block": "minecraft:lit_blast_furnace",
						"speed": 5,
						"on_dig": {
							"event": "on_digging"
						}
					},
					{
						"block": "minecraft:smoker",
						"speed": 5,
						"on_dig": {
							"event": "on_digging"
						}
					},
					{
						"block": "minecraft:lit_smoker",
						"speed": 5,
						"on_dig": {
							"event": "on_digging"
						}
					},
					{
						"block": "minecraft:brewing_stand",
						"speed": 5,
						"on_dig": {
							"event": "on_digging"
						}
					},
					{
						"block": "minecraft:anvil",
						"speed": 5,
						"on_dig": {
							"event": "on_digging"
						}
					},
					{
						"block": "minecraft:grindstone",
						"speed": 5,
						"on_dig": {
							"event": "on_digging"
						}
					},
					{
						"block": "minecraft:enchanting_table",
						"speed": 5,
						"on_dig": {
							"event": "on_digging"
						}
					},
					{
						"block": "minecraft:cauldron",
						"speed": 5,
						"on_dig": {
							"event": "on_digging"
						}
					},
					{
						"block": "minecraft:lava_cauldron",
						"speed": 5,
						"on_dig": {
							"event": "on_digging"
						}
					},
					{
						"block": "minecraft:ender_chest",
						"speed": 5,
						"on_dig": {
							"event": "on_digging"
						}
					},
					{
						"block": "minecraft:undyed_shulker_box",
						"speed": 5,
						"on_dig": {
							"event": "on_digging"
						}
					},
					{
						"block": "minecraft:shulker_box",
						"speed": 5,
						"on_dig": {
							"event": "on_digging"
						}
					},
					{
						"block": "minecraft:glowstone",
						"speed": 5,
						"on_dig": {
							"event": "on_digging"
						}
					},
					{
						"block": "minecraft:seaLantern",
						"speed": 5,
						"on_dig": {
							"event": "on_digging"
						}
					},
					{
						"block": "minecraft:bell",
						"speed": 5,
						"on_dig": {
							"event": "on_digging"
						}
					},
					{
						"block": "minecraft:conduit",
						"speed": 5,
						"on_dig": {
							"event": "on_digging"
						}
					},
					{
						"block": "minecraft:stonecutter_block",
						"speed": 5,
						"on_dig": {
							"event": "on_digging"
						}
					},
					{
						"block": "minecraft:end_rod",
						"speed": 5,
						"on_dig": {
							"event": "on_digging"
						}
					},
					{
						"block": "minecraft:lightning_rod",
						"speed": 5,
						"on_dig": {
							"event": "on_digging"
						}
					},
					{
						"block": "minecraft:rail",
						"speed": 5,
						"on_dig": {
							"event": "on_digging"
						}
					},
					{
						"block": "minecraft:golden_rail",
						"speed": 5,
						"on_dig": {
							"event": "on_digging"
						}
					},
					{
						"block": "minecraft:detector_rail",
						"speed": 5,
						"on_dig": {
							"event": "on_digging"
						}
					},
					{
						"block": "minecraft:activator_rail",
						"speed": 5,
						"on_dig": {
							"event": "on_digging"
						}
					},
					{
						"block": "minecraft:redstone_block",
						"speed": 5,
						"on_dig": {
							"event": "on_digging"
						}
					},
					{
						"block": "minecraft:stone_button",
						"speed": 5,
						"on_dig": {
							"event": "on_digging"
						}
					},
					{
						"block": "minecraft:polished_blackstone_button",
						"speed": 5,
						"on_dig": {
							"event": "on_digging"
						}
					},
					{
						"block": "minecraft:stone_pressure_plate",
						"speed": 5,
						"on_dig": {
							"event": "on_digging"
						}
					},
					{
						"block": "minecraft:heavy_weighted_pressure_plate",
						"speed": 5,
						"on_dig": {
							"event": "on_digging"
						}
					},
					{
						"block": "minecraft:light_weighted_pressure_plate",
						"speed": 5,
						"on_dig": {
							"event": "on_digging"
						}
					},
					{
						"block": "minecraft:polished_blackstone_pressure_plate",
						"speed": 5,
						"on_dig": {
							"event": "on_digging"
						}
					},
					{
						"block": "minecraft:observer",
						"speed": 5,
						"on_dig": {
							"event": "on_digging"
						}
					},
					{
						"block": "minecraft:hopper",
						"speed": 5,
						"on_dig": {
							"event": "on_digging"
						}
					},
					{
						"block": "minecraft:dropper",
						"speed": 5,
						"on_dig": {
							"event": "on_digging"
						}
					},
					{
						"block": "minecraft:dispenser",
						"speed": 5,
						"on_dig": {
							"event": "on_digging"
						}
					},
					{
						"block": "minecraft:piston",
						"speed": 5,
						"on_dig": {
							"event": "on_digging"
						}
					},
					{
						"block": "minecraft:sticky_piston",
						"speed": 5,
						"on_dig": {
							"event": "on_digging"
						}
					},
					{
						"block": "minecraft:chain",
						"speed": 5,
						"on_dig": {
							"event": "on_digging"
						}
					}
				]
			},
			"minecraft:enchantable": {
				"value": 10,
				"slot": "pickaxe"
			},
			"minecraft:repairable": {
				"repair_items": [
					{
						"items": [
							"nicothekid:zinc_pickaxe"
						],
						"repair_amount": "query.max_durability"
					},
					{
						"items": [
							"nicothekid:zinc_ingot"
						],
						"repair_amount": 60
					}
				]
			},
			"minecraft:weapon": {
				"on_hurt_entity": {
					"event": "on_digging"
				}
			},
			"tag:minecraft:is_pickaxe": {}
    },
    "events": {
			"on_digging": {
				"damage": {
					"target": "self",
					"type": "durability",
					"amount": 1
				}
			},
			"on_tool_used": {
				"damage": {
					"target": "self",
					"type": "durability",
					"amount": 1
				}
			}
		}
  }
}
