{
  "format_version": "1.12",
  "minecraft:recipe_shapeless": {
    "description": {
      "identifier": "vitality_iron_chestplate"
    },
    "tags": [
      "crafting_table"
    ],
    "ingredients": [
      {
        "item": "minecraft:iron_chestplate"
      },
      {
        "item": "btr:vitality_book"
      }
    ],
    "result": {
      "item": "btr:vitality_iron_chestplate"
    }
  }
}