{
  "format_version": "1.12",
  "minecraft:recipe_shapeless": {
    "description": {
      "identifier": "agility_ii_iron_leggings"
    },
    "tags": [
      "crafting_table"
    ],
    "ingredients": [
      {
        "item": "minecraft:iron_leggings"
      },
      {
        "item": "btr:agility_ii_book"
      }
    ],
    "result": {
      "item": "btr:agility_ii_iron_leggings"
    }
  }
}