{
	"format_version": "1.12.0",
	"minecraft:geometry": [
		{
			"description": {
				"identifier": "geometry.glowing_obsidian_helmet",
				"texture_width": 64,
				"texture_height": 32,
				"visible_bounds_width": 2,
				"visible_bounds_height": 2.5,
				"visible_bounds_offset": [0, 0.75, 0]
			},
			"bones": [
				{
					"name": "body",
					"pivot": [0, 0, 0]
				},
				{
					"name": "head",
					"parent": "body",
					"pivot": [0, 0, 0],
					"cubes": [
						{
							"origin": [-4.73432, -0.92467, -4.73432],
							"size": [9.46864, 9.47, 9.46864],
							"uv": {
								"north": {"uv": [0, 0], "uv_size": [8, 8]},
								"east": {"uv": [0, 8], "uv_size": [8, 8]},
								"south": {"uv": [24, 8], "uv_size": [8, 8]},
								"west": {"uv": [16, 8], "uv_size": [8, 8]},
								"up": {"uv": [16, 8], "uv_size": [-8, -8]},
								"down": {"uv": [16, 16], "uv_size": [-8, 8]}
							}
						}
					]
				},
				{
					"name": "bone",
					"parent": "head",
					"pivot": [-2.95895, 5.32611, -4.61596],
					"cubes": [
						{
							"origin": [-4.66432, -0.9251, -4.7357],
							"size": [5.03432, 9.47, 2.5],
							"pivot": [-4.71464, 6.50969, -4.52968],
							"rotation": [0, 20, 0],
							"uv": {
								"north": {"uv": [8, 8], "uv_size": [4, 8]},
								"east": {"uv": [63, 0], "uv_size": [1, 8]},
								"south": {"uv": [60, 5], "uv_size": [4, 7]},
								"west": {"uv": [64, 0], "uv_size": [5, 0]},
								"up": {"uv": [15.97, 2], "uv_size": [-4, -2]},
								"down": {"uv": [16, 16.75], "uv_size": [-4, -0.75]}
							}
						},
						{
							"origin": [-0.371, -0.925, -4.73003],
							"size": [5.073, 9.47, 2.5],
							"pivot": [4.7146, 6.50969, -4.5297],
							"rotation": [0, -20.05, 0],
							"uv": {
								"north": {"uv": [12, 8], "uv_size": [4, 8]},
								"east": {"uv": [63, 1], "uv_size": [0.75, 8]},
								"south": {"uv": [48, 1], "uv_size": [4, 8]},
								"west": {"uv": [63.25, 0], "uv_size": [0.75, 8]},
								"up": {"uv": [12.03, 2], "uv_size": [4, -2]},
								"down": {"uv": [12, 16.75], "uv_size": [-4, -0.75]}
							}
						},
						{
							"origin": [-0.0071, -0.9238, -6.462],
							"size": [0.013, 9.46864, 0.88769],
							"uv": {
								"north": {"uv": [11, 8], "uv_size": [2, 8]},
								"east": {"uv": [63, 0], "uv_size": [0.75, 8]},
								"south": {"uv": [63, 0], "uv_size": [1, 8]},
								"west": {"uv": [63, 0], "uv_size": [0.75, 8]},
								"up": {"uv": [13, 1], "uv_size": [-2, -1]},
								"down": {"uv": [12, 17], "uv_size": [2, -1]}
							}
						},
						{
							"origin": [2.435, -0.59, -5.2],
							"size": [1.73, 1.47, 2.5],
							"pivot": [3.3146, 0.40969, -4.5297],
							"rotation": [14.47031, -14.02968, -45],
							"uv": {
								"north": {"uv": [14, 15], "uv_size": [1, 1]},
								"east": {"uv": [63, 1], "uv_size": [0.75, 8]},
								"south": {"uv": [60, 0], "uv_size": [4, 8]},
								"west": {"uv": [63.25, 0], "uv_size": [0.75, 8]},
								"up": {"uv": [60, 2], "uv_size": [4, -2]},
								"down": {"uv": [64, 0.75], "uv_size": [-4, -0.75]}
							}
						},
						{
							"origin": [-4.14, -0.57, -5.2],
							"size": [1.73, 1.47, 2.5],
							"pivot": [-3.3146, 0.40969, -4.5297],
							"rotation": [14.47031, 14.02968, 45],
							"uv": {
								"north": {"uv": [10, 15], "uv_size": [-1, 1]},
								"east": {"uv": [64, 0], "uv_size": [-0.75, 8]},
								"south": {"uv": [64, 0], "uv_size": [-4, 8]},
								"west": {"uv": [63.75, 1], "uv_size": [-0.75, 8]},
								"up": {"uv": [64, 2], "uv_size": [-4, -2]},
								"down": {"uv": [60, 0.75], "uv_size": [4, -0.75]}
							}
						}
					]
				}
			]
		}
	]
}