{
    "format_version": "1.10.0",
    "animation_controllers": {
        "controller.animation.staff_teleport_ad2": {
            "states": {
                "default": {
                    "transitions": [
                        {
                            "alive": "query.is_alive"
						}
                    ]
                },
                "alive": {
					"on_entry": [
						"/execute @a[tag=using_staff,c=1,r=5] ~~~ tp @e[type=yes:staff_hit_entity_ad2,c=1,r=5] ^0.5^2.5^"
					],
                    "transitions": [
                        {
                            "default": "query.is_alive"
						}
                    ],
                    "on_exit": [
						"/execute @a[tag=using_staff,c=1,r=5] ~~~ tp @e[type=yes:staff_hit_entity_ad2,c=1,r=5] ^0.5^2.5^"
                    ]
                }
            }
        }
    }
}