{
	"format_version": "1.12.0",
	"minecraft:geometry": [
		{
			"description": {
				"identifier": "geometry.emerald_greatsword",
				"texture_width": 16,
				"texture_height": 16,
				"visible_bounds_width": 6,
				"visible_bounds_height": 5,
				"visible_bounds_offset": [0, 0.5, 0]
			},
			"bones": [
				{
					"name": "root",
					"pivot": [0, 0, 0]
				},
				{
					"name": "waist",
					"parent": "root",
					"pivot": [0, 12, 0]
				},
				{
					"name": "body",
					"parent": "waist",
					"pivot": [0, 24, 0],
					"cubes": [
						{"origin": [-4, 12, -2], "size": [8, 12, 4], "uv": [48, 0]}
					]
				},
				{
					"name": "head",
					"parent": "body",
					"pivot": [0, 24, 0],
					"cubes": [
						{"origin": [-4, 24, -4], "size": [8, 8, 8], "uv": [32, 32]}
					]
				},
				{
					"name": "hat",
					"parent": "head",
					"pivot": [0, 24, 0]
				},
				{
					"name": "cape",
					"parent": "body",
					"pivot": [0, 24, 3]
				},
				{
					"name": "leftArm",
					"parent": "body",
					"pivot": [5, 22, 0],
					"cubes": [
						{"origin": [4, 12, -2], "size": [4, 12, 4], "uv": [32, 45]}
					]
				},
				{
					"name": "leftSleeve",
					"parent": "leftArm",
					"pivot": [5, 22, 0],
					"cubes": [
						{"origin": [4, 12, -2], "size": [4, 12, 4], "inflate": 0.25, "uv": [64, 16]}
					]
				},
				{
					"name": "leftItem",
					"parent": "leftArm",
					"pivot": [6, 15, 1]
				},
				{
					"name": "rightArm",
					"parent": "body",
					"pivot": [-5, 22, 0],
					"cubes": [
						{"origin": [-8, 12, -2], "size": [4, 12, 4], "uv": [16, 45]}
					]
				},
				{
					"name": "rightSleeve",
					"parent": "rightArm",
					"pivot": [-5, 22, 0]
				},
				{
					"name": "rightItem",
					"parent": "rightArm",
					"pivot": [-6, 15, 1],
					"locators": {
						"lead_hold": [-6, 15, 1]
					}
				},
				{
					"name": "emerald_greatsword",
					"parent": "rightItem",
					"pivot": [-6, 15, 1],
					"rotation": [0, -55, -90],
					"cubes": [
						{
							"origin": [-27.40789, 14.39585, -17.96528],
							"size": [3, 1, 5],
							"uv": {
								"north": {"uv": [15.33333, 0], "uv_size": [-2, 0.66667]},
								"east": {"uv": [14.66667, 0], "uv_size": [0.66667, 0.66666]},
								"south": {"uv": [13.33333, 2.66667], "uv_size": [2, 0.66667]},
								"west": {"uv": [13.33333, 0], "uv_size": [0.66667, 0.66667]},
								"up": {"uv": [15.33333, 3.33333], "uv_size": [-2, -3.33333]},
								"down": {"uv": [15.33333, 0], "uv_size": [-2, 3.33333]}
							}
						},
						{
							"origin": [-24.40789, 14.39585, -16.96528],
							"size": [1, 1, 7],
							"uv": {
								"north": {"uv": [13.33333, 0.66667], "uv_size": [-0.66667, 0.66667]},
								"east": {"uv": [12.66667, 4.66667], "uv_size": [0.66667, 0.66667]},
								"south": {"uv": [12.66667, 4.66667], "uv_size": [0.66667, 0.66667]},
								"west": {"uv": [12.66667, 0.66667], "uv_size": [0.66667, 0.66667]},
								"up": {"uv": [13.33333, 5.33333], "uv_size": [-0.66667, -4.66667]},
								"down": {"uv": [13.33333, 0.66667], "uv_size": [-0.66667, 4.66667]}
							}
						},
						{
							"origin": [-23.40789, 14.39585, -15.96528],
							"size": [1, 1, 7],
							"uv": {
								"north": {"uv": [12.66667, 1.33333], "uv_size": [-0.66667, 0.66667]},
								"east": {"uv": [12, 5.33333], "uv_size": [0.66667, 0.66667]},
								"south": {"uv": [12, 5.33333], "uv_size": [0.66667, 0.66667]},
								"west": {"uv": [12, 1.33333], "uv_size": [0.66667, 0.66667]},
								"up": {"uv": [12.66667, 6], "uv_size": [-0.66667, -4.66667]},
								"down": {"uv": [12.66667, 1.33333], "uv_size": [-0.66667, 4.66667]}
							}
						},
						{
							"origin": [-22.40789, 14.39585, -14.96528],
							"size": [1, 1, 7],
							"uv": {
								"north": {"uv": [12, 2], "uv_size": [-0.66667, 0.66667]},
								"east": {"uv": [11.33333, 6], "uv_size": [0.66667, 0.66667]},
								"south": {"uv": [11.33333, 6], "uv_size": [0.66667, 0.66667]},
								"west": {"uv": [11.33333, 2], "uv_size": [0.66667, 0.66667]},
								"up": {"uv": [12, 6.66667], "uv_size": [-0.66667, -4.66667]},
								"down": {"uv": [12, 2], "uv_size": [-0.66667, 4.66667]}
							}
						},
						{
							"origin": [-21.40789, 14.39585, -13.96528],
							"size": [1, 1, 7],
							"uv": {
								"north": {"uv": [11.33333, 2.66667], "uv_size": [-0.66667, 0.66667]},
								"east": {"uv": [10.66667, 6.66667], "uv_size": [0.66667, 0.66667]},
								"south": {"uv": [10.66667, 6.66667], "uv_size": [0.66667, 0.66667]},
								"west": {"uv": [10.66667, 2.66667], "uv_size": [0.66667, 0.66667]},
								"up": {"uv": [11.33333, 7.33333], "uv_size": [-0.66667, -4.66667]},
								"down": {"uv": [11.33333, 2.66667], "uv_size": [-0.66667, 4.66667]}
							}
						},
						{
							"origin": [-20.40789, 14.39585, -12.96528],
							"size": [1, 1, 7],
							"uv": {
								"north": {"uv": [10.66667, 3.33333], "uv_size": [-0.66667, 0.66667]},
								"east": {"uv": [10, 7.33333], "uv_size": [0.66667, 0.66667]},
								"south": {"uv": [10, 7.33333], "uv_size": [0.66667, 0.66667]},
								"west": {"uv": [10, 3.33333], "uv_size": [0.66667, 0.66667]},
								"up": {"uv": [10.66667, 8], "uv_size": [-0.66667, -4.66667]},
								"down": {"uv": [10.66667, 3.33333], "uv_size": [-0.66667, 4.66667]}
							}
						},
						{
							"origin": [-26.40789, 14.39585, -12.96528],
							"size": [2, 1, 1],
							"uv": {
								"north": {"uv": [14.66667, 3.33333], "uv_size": [-1.33333, 0.66667]},
								"east": {"uv": [14, 3.33333], "uv_size": [0.66667, 0.66667]},
								"south": {"uv": [13.33333, 3.33333], "uv_size": [1.33333, 0.66667]},
								"west": {"uv": [13.33333, 3.33333], "uv_size": [0.66667, 0.66667]},
								"up": {"uv": [14.66667, 4], "uv_size": [-1.33333, -0.66667]},
								"down": {"uv": [14.66667, 3.33333], "uv_size": [-1.33333, 0.66667]}
							}
						},
						{
							"origin": [-19.40789, 14.39585, -11.96528],
							"size": [1, 1, 7],
							"uv": {
								"north": {"uv": [10, 4], "uv_size": [-0.66667, 0.66667]},
								"east": {"uv": [9.33333, 8], "uv_size": [0.66667, 0.66667]},
								"south": {"uv": [9.33333, 8], "uv_size": [0.66667, 0.66667]},
								"west": {"uv": [9.33333, 4], "uv_size": [0.66667, 0.66667]},
								"up": {"uv": [10, 8.66667], "uv_size": [-0.66667, -4.66667]},
								"down": {"uv": [10, 4], "uv_size": [-0.66667, 4.66667]}
							}
						},
						{
							"origin": [-25.40789, 14.39585, -11.96528],
							"size": [1, 1, 1],
							"uv": {
								"north": {"uv": [14, 4], "uv_size": [-0.66667, 0.66667]},
								"east": {"uv": [13.33333, 4], "uv_size": [0.66667, 0.66667]},
								"south": {"uv": [13.33333, 4], "uv_size": [0.66667, 0.66667]},
								"west": {"uv": [13.33333, 4], "uv_size": [0.66667, 0.66667]},
								"up": {"uv": [14, 4.66667], "uv_size": [-0.66667, -0.66667]},
								"down": {"uv": [14, 4], "uv_size": [-0.66667, 0.66667]}
							}
						},
						{
							"origin": [-18.40789, 14.39585, -10.96528],
							"size": [1, 1, 7],
							"uv": {
								"north": {"uv": [9.33333, 4.66667], "uv_size": [-0.66667, 0.66667]},
								"east": {"uv": [8.66667, 8.66667], "uv_size": [0.66667, 0.66667]},
								"south": {"uv": [8.66667, 8.66667], "uv_size": [0.66667, 0.66667]},
								"west": {"uv": [8.66667, 4.66667], "uv_size": [0.66667, 0.66667]},
								"up": {"uv": [9.33333, 9.33333], "uv_size": [-0.66667, -4.66667]},
								"down": {"uv": [9.33333, 4.66667], "uv_size": [-0.66667, 4.66667]}
							}
						},
						{
							"origin": [-17.40789, 14.39585, -9.96528],
							"size": [1, 1, 7],
							"uv": {
								"north": {"uv": [8.66667, 5.33333], "uv_size": [-0.66667, 0.66667]},
								"east": {"uv": [8, 9.33333], "uv_size": [0.66667, 0.66667]},
								"south": {"uv": [8, 9.33333], "uv_size": [0.66667, 0.66667]},
								"west": {"uv": [8, 5.33333], "uv_size": [0.66667, 0.66667]},
								"up": {"uv": [8.66667, 10], "uv_size": [-0.66667, -4.66667]},
								"down": {"uv": [8.66667, 5.33333], "uv_size": [-0.66667, 4.66667]}
							}
						},
						{
							"origin": [-16.40789, 14.39585, -8.96528],
							"size": [1, 1, 7],
							"uv": {
								"north": {"uv": [8, 6], "uv_size": [-0.66667, 0.66667]},
								"east": {"uv": [7.33333, 10], "uv_size": [0.66667, 0.66667]},
								"south": {"uv": [7.33333, 10], "uv_size": [0.66667, 0.66667]},
								"west": {"uv": [7.33333, 6], "uv_size": [0.66667, 0.66667]},
								"up": {"uv": [8, 10.66667], "uv_size": [-0.66667, -4.66667]},
								"down": {"uv": [8, 6], "uv_size": [-0.66667, 4.66667]}
							}
						},
						{
							"origin": [-15.40789, 14.39585, -7.96528],
							"size": [1, 1, 7],
							"uv": {
								"north": {"uv": [7.33333, 6.66667], "uv_size": [-0.66667, 0.66667]},
								"east": {"uv": [6.66667, 10.66667], "uv_size": [0.66667, 0.66667]},
								"south": {"uv": [6.66667, 10.66667], "uv_size": [0.66667, 0.66667]},
								"west": {"uv": [6.66667, 6.66667], "uv_size": [0.66667, 0.66667]},
								"up": {"uv": [7.33333, 11.33333], "uv_size": [-0.66667, -4.66667]},
								"down": {"uv": [7.33333, 6.66667], "uv_size": [-0.66667, 4.66667]}
							}
						},
						{
							"origin": [-14.40789, 14.39585, -5.96528],
							"size": [1, 1, 10],
							"uv": {
								"north": {"uv": [6.66667, 8], "uv_size": [-0.66667, 0.66667]},
								"east": {"uv": [6, 11.33333], "uv_size": [0.66667, 2]},
								"south": {"uv": [6, 14], "uv_size": [0.66667, 0.66667]},
								"west": {"uv": [6, 8.66667], "uv_size": [0.66667, -0.66666]},
								"up": {"uv": [6.66667, 14.66667], "uv_size": [-0.66667, -6.66667]},
								"down": {"uv": [6.66667, 8], "uv_size": [-0.66667, 6.66667]}
							}
						},
						{
							"origin": [-8.40789, 14.39585, -4.96528],
							"size": [2, 1, 2],
							"uv": {
								"north": {"uv": [2.66667, 8.66667], "uv_size": [-1.33333, 0.66667]},
								"east": {"uv": [2, 8.66667], "uv_size": [0.66667, 0.66667]},
								"south": {"uv": [1.33333, 9.33333], "uv_size": [1.33333, 0.66667]},
								"west": {"uv": [1.33333, 8.66667], "uv_size": [0.66667, 1.33333]},
								"up": {"uv": [2.66667, 10], "uv_size": [-1.33333, -1.33333]},
								"down": {"uv": [2.66667, 8.66667], "uv_size": [-1.33333, 1.33333]}
							}
						},
						{
							"origin": [-13.40789, 14.39585, -4.96528],
							"size": [1, 1, 8],
							"uv": {
								"north": {"uv": [6, 8.66667], "uv_size": [-0.66667, 0.66667]},
								"east": {"uv": [5.33333, 8.66667], "uv_size": [0.66667, 5.33333]},
								"south": {"uv": [5.33333, 13.33333], "uv_size": [0.66667, 0.66667]},
								"west": {"uv": [5.33333, 8.66667], "uv_size": [0.66667, 0.66666]},
								"up": {"uv": [6, 14], "uv_size": [-0.66667, -5.33333]},
								"down": {"uv": [6, 8.66667], "uv_size": [-0.66667, 5.33333]}
							}
						},
						{
							"origin": [-10.40789, 14.39585, -3.96528],
							"size": [2, 1, 6],
							"uv": {
								"north": {"uv": [4, 9.33333], "uv_size": [-1.33333, 0.66667]},
								"east": {"uv": [3.33333, 9.33333], "uv_size": [0.66667, 0.66667]},
								"south": {"uv": [2.66667, 12.66667], "uv_size": [1.33333, 0.66667]},
								"west": {"uv": [2.66667, 12.66666], "uv_size": [0.66667, 0.66667]},
								"up": {"uv": [4, 13.33333], "uv_size": [-1.33333, -4]},
								"down": {"uv": [4, 9.33333], "uv_size": [-1.33333, 4]}
							}
						},
						{
							"origin": [-12.40789, 14.39585, -3.96528],
							"size": [1, 1, 7],
							"uv": {
								"north": {"uv": [5.33333, 9.33333], "uv_size": [-0.66667, 0.66667]},
								"east": {"uv": [4.66667, 9.33333], "uv_size": [0.66667, 4.66667]},
								"south": {"uv": [4.66667, 13.33333], "uv_size": [0.66667, 0.66667]},
								"west": {"uv": [4.66667, 10], "uv_size": [0.66667, -0.66666]},
								"up": {"uv": [5.33333, 14], "uv_size": [-0.66667, -4.66667]},
								"down": {"uv": [5.33333, 9.33333], "uv_size": [-0.66667, 4.66667]}
							}
						},
						{
							"origin": [-8.40789, 14.39585, -2.96528],
							"size": [1, 1, 2],
							"uv": {
								"north": {"uv": [2.66667, 10], "uv_size": [-0.66667, 0.66667]},
								"east": {"uv": [2, 10], "uv_size": [0.66667, 1.33333]},
								"south": {"uv": [2, 10.66667], "uv_size": [0.66667, 0.66667]},
								"west": {"uv": [2, 10], "uv_size": [0.66667, 1.33333]},
								"up": {"uv": [2.66667, 11.33333], "uv_size": [-0.66667, -1.33333]},
								"down": {"uv": [2.66667, 10], "uv_size": [-0.66667, 1.33333]}
							}
						},
						{
							"origin": [-11.40789, 14.39585, -2.96528],
							"size": [1, 1, 5],
							"uv": {
								"north": {"uv": [4.66667, 10], "uv_size": [-0.66667, 0.66667]},
								"east": {"uv": [4, 10], "uv_size": [0.66667, 3.33333]},
								"south": {"uv": [4, 12.66667], "uv_size": [0.66667, 0.66667]},
								"west": {"uv": [4, 10], "uv_size": [0.66667, 3.33333]},
								"up": {"uv": [4.66667, 13.33333], "uv_size": [-0.66667, -3.33333]},
								"down": {"uv": [4.66667, 10], "uv_size": [-0.66667, 3.33333]}
							}
						},
						{
							"origin": [-8.40789, 14.39585, 1.03472],
							"size": [1, 1, 3],
							"uv": {
								"north": {"uv": [2.66667, 12.66667], "uv_size": [-0.66667, 0.66667]},
								"east": {"uv": [2, 14], "uv_size": [0.66667, 0.66667]},
								"south": {"uv": [2, 14], "uv_size": [0.66667, 0.66667]},
								"west": {"uv": [2, 12.66667], "uv_size": [0.66667, 0.66667]},
								"up": {"uv": [2.66667, 14.66667], "uv_size": [-0.66667, -2]},
								"down": {"uv": [2.66667, 12.66667], "uv_size": [-0.66667, 2]}
							}
						},
						{
							"origin": [-7.40789, 14.39585, 2.03472],
							"size": [1, 1, 4],
							"uv": {
								"north": {"uv": [2, 13.33333], "uv_size": [-0.66667, 0.66667]},
								"east": {"uv": [1.33333, 15.33333], "uv_size": [0.66667, 0.66667]},
								"south": {"uv": [1.33333, 15.33333], "uv_size": [0.66667, 0.66667]},
								"west": {"uv": [1.33333, 13.33333], "uv_size": [0.66667, 0.66667]},
								"up": {"uv": [2, 16], "uv_size": [-0.66667, -2.66667]},
								"down": {"uv": [2, 13.33333], "uv_size": [-0.66667, 2.66667]}
							}
						},
						{
							"origin": [-9.40789, 14.39585, 2.03472],
							"size": [1, 1, 1],
							"uv": {
								"north": {"uv": [3.33333, 13.33333], "uv_size": [-0.66667, 0.66667]},
								"east": {"uv": [2.66667, 13.33333], "uv_size": [0.66667, 0.66667]},
								"south": {"uv": [2.66667, 13.33333], "uv_size": [0.66667, 0.66667]},
								"west": {"uv": [2.66667, 13.33333], "uv_size": [0.66667, 0.66667]},
								"up": {"uv": [3.33333, 14], "uv_size": [-0.66667, -0.66667]},
								"down": {"uv": [3.33333, 13.33333], "uv_size": [-0.66667, 0.66667]}
							}
						},
						{
							"origin": [-15.40789, 14.39585, 2.03472],
							"size": [1, 1, 2],
							"uv": {
								"north": {"uv": [7.33333, 13.33333], "uv_size": [-0.66667, 0.66667]},
								"east": {"uv": [6.66667, 13.33333], "uv_size": [0.66667, 1.33333]},
								"south": {"uv": [6.66667, 14], "uv_size": [0.66667, 0.66667]},
								"west": {"uv": [6.66667, 13.33333], "uv_size": [0.66667, 1.33333]},
								"up": {"uv": [7.33333, 14.66667], "uv_size": [-0.66667, -1.33333]},
								"down": {"uv": [7.33333, 13.33333], "uv_size": [-0.66667, 1.33333]}
							}
						},
						{
							"origin": [-6.40789, 14.39585, 3.03472],
							"size": [2, 1, 3],
							"uv": {
								"north": {"uv": [1.33333, 14], "uv_size": [-1.33333, 0.66667]},
								"east": {"uv": [0.66667, 14], "uv_size": [0.66667, 2]},
								"south": {"uv": [0, 15.33333], "uv_size": [1.33333, 0.66667]},
								"west": {"uv": [0, 14], "uv_size": [0.66667, 1.33333]},
								"up": {"uv": [1.33333, 16], "uv_size": [-1.33333, -2]},
								"down": {"uv": [1.33333, 14], "uv_size": [-1.33333, 2]}
							}
						}
					]
				},
				{
					"name": "bone3",
					"parent": "emerald_greatsword",
					"pivot": [-12.65789, 14.39585, -4.71528],
					"rotation": [0, 135, 0],
					"cubes": [
						{
							"origin": [-15.65789, 14.59, -6.06528],
							"size": [6.5, 0.6, 2],
							"uv": {
								"north": {"uv": [0, 0], "uv_size": [0.5, 0.6]},
								"east": {"uv": [0, 0], "uv_size": [0, 0.6]},
								"south": {"uv": [0, 0], "uv_size": [0.5, 0.6]},
								"west": {"uv": [0, 0], "uv_size": [0, 0.6]},
								"up": {"uv": [0.5, 0], "uv_size": [-0.5, 0]},
								"down": {"uv": [0.5, 0], "uv_size": [-0.5, 0]}
							}
						}
					]
				},
				{
					"name": "jacket",
					"parent": "body",
					"pivot": [0, 24, 0]
				},
				{
					"name": "leftLeg",
					"parent": "root",
					"pivot": [1.9, 12, 0],
					"cubes": [
						{"origin": [-0.1, 0, -2], "size": [4, 12, 4], "uv": [56, 48]}
					]
				},
				{
					"name": "leftPants",
					"parent": "leftLeg",
					"pivot": [1.9, 12, 0],
					"cubes": [
						{"origin": [-0.1, 0, -2], "size": [4, 12, 4], "inflate": 0.25, "uv": [40, 48]}
					]
				},
				{
					"name": "rightLeg",
					"parent": "root",
					"pivot": [-1.9, 12, 0],
					"cubes": [
						{"origin": [-3.9, 0, -2], "size": [4, 12, 4], "uv": [24, 48]}
					]
				},
				{
					"name": "rightPants",
					"parent": "rightLeg",
					"pivot": [-1.9, 12, 0]
				}
			]
		}
	]
}