{
	"format_version": "1.12.0",
	"minecraft:geometry": [
		{
			"description": {
				"identifier": "geometry.aetherite_chestplate",
				"texture_width": 64,
				"texture_height": 32,
				"visible_bounds_width": 3,
				"visible_bounds_height": 4,
				"visible_bounds_offset": [0, 1, 0]
			},
			"bones": [
				{
					"name": "waist",
					"pivot": [0, 10, 0]
				},
				{
					"name": "body",
					"parent": "waist",
					"pivot": [0, 21.52, 0]
				},
				{
					"name": "body2",
					"parent": "body",
					"pivot": [0, 0, 0],
					"cubes": [
						{
							"origin": [-5, 8.3, -3.25],
							"size": [10, 14, 6.5],
							"uv": {
								"north": {"uv": [20, 17], "uv_size": [8, 14]},
								"east": {"uv": [16, 20], "uv_size": [4, 11]},
								"south": {"uv": [32, 17], "uv_size": [8, 14]},
								"west": {"uv": [28, 20], "uv_size": [4, 11]},
								"up": {"uv": [20, 12], "uv_size": [8, 5]},
								"down": {"uv": [64, 0], "uv_size": [0, 0]}
							}
						},
						{
							"origin": [-1.25, 15.3, -4.5],
							"size": [2.5, 2.25, 0.2],
							"uv": {
								"north": {"uv": [64, 0], "uv_size": [0, 0]},
								"east": {"uv": [23, 22], "uv_size": [-1, 2]},
								"south": {"uv": [25, 22], "uv_size": [-2, 2]},
								"west": {"uv": [26, 22], "uv_size": [-1, 2]},
								"up": {"uv": [23, 21], "uv_size": [2, 1]},
								"down": {"uv": [23, 25], "uv_size": [2, -1]}
							}
						},
						{
							"origin": [-5, 22.29, -3.65],
							"size": [10, 0, 6.9],
							"uv": {
								"north": {"uv": [32, 3], "uv_size": [8, 14]},
								"east": {"uv": [60, 0], "uv_size": [4, 11]},
								"south": {"uv": [56, 0], "uv_size": [8, 14]},
								"west": {"uv": [60, 0], "uv_size": [4, 11]},
								"up": {"uv": [20, 16], "uv_size": [8, 2]},
								"down": {"uv": [64, 0], "uv_size": [0, 0]}
							}
						}
					]
				},
				{
					"name": "plate1",
					"parent": "body2",
					"pivot": [0, 0, 0],
					"cubes": [
						{
							"origin": [-7.5, 16.3, -4.5],
							"size": [15, 6, 1.35],
							"uv": {
								"north": {"uv": [18, 1], "uv_size": [12, 5]},
								"east": {"uv": [19, 1], "uv_size": [-1, 5]},
								"south": {"uv": [30, 1], "uv_size": [-12, 5]},
								"west": {"uv": [30, 1], "uv_size": [-1, 5]},
								"up": {"uv": [18, 1], "uv_size": [12, 1]},
								"down": {"uv": [18, 6], "uv_size": [12, -1]}
							}
						},
						{
							"origin": [-1.25, 21.05, -4.5],
							"size": [2.5, 1.25, 1.5],
							"uv": {
								"north": {"uv": [63, 0], "uv_size": [1, 1]},
								"east": {"uv": [29, 5], "uv_size": [-1, 1]},
								"south": {"uv": [64, 0], "uv_size": [0, 0]},
								"west": {"uv": [29, 5], "uv_size": [-1, 1]},
								"up": {"uv": [63, 0], "uv_size": [1, 1]},
								"down": {"uv": [28, 6], "uv_size": [1, -1]}
							}
						},
						{
							"origin": [6.25, 16.3, -4.5],
							"size": [1.25, 1.25, 1.75],
							"uv": {
								"north": {"uv": [63, 0], "uv_size": [1, 1]},
								"east": {"uv": [29, 5], "uv_size": [-1, 1]},
								"south": {"uv": [64, 0], "uv_size": [0, 0]},
								"west": {"uv": [64, 0], "uv_size": [-1, 1]},
								"up": {"uv": [28, 5], "uv_size": [1, 1]},
								"down": {"uv": [63, 1], "uv_size": [1, -1]}
							}
						},
						{
							"origin": [-7.5, 16.3, -4.5],
							"size": [1.25, 1.25, 1.75],
							"uv": {
								"north": {"uv": [64, 0], "uv_size": [-1, 1]},
								"east": {"uv": [63, 0], "uv_size": [1, 1]},
								"south": {"uv": [64, 0], "uv_size": [0, 0]},
								"west": {"uv": [28, 5], "uv_size": [1, 1]},
								"up": {"uv": [29, 5], "uv_size": [-1, 1]},
								"down": {"uv": [64, 1], "uv_size": [-1, -1]}
							}
						},
						{
							"origin": [-3.75, 15.3, -4.5],
							"size": [7.5, 1, 1.25],
							"uv": {
								"north": {"uv": [21, 6], "uv_size": [6, 1]},
								"east": {"uv": [27, 6], "uv_size": [-1, 1]},
								"south": {"uv": [64, 7], "uv_size": [0, 0]},
								"west": {"uv": [22, 6], "uv_size": [-1, 1]},
								"up": {"uv": [56, 0], "uv_size": [8, 2]},
								"down": {"uv": [21, 7], "uv_size": [6, -1]}
							}
						},
						{
							"origin": [-1.25, 14.3, -4.5],
							"size": [2.5, 1, 1.25],
							"uv": {
								"north": {"uv": [23, 7], "uv_size": [2, 1]},
								"east": {"uv": [25, 7], "uv_size": [-1, 1]},
								"south": {"uv": [64, 7], "uv_size": [0, 0]},
								"west": {"uv": [24, 7], "uv_size": [-1, 1]},
								"up": {"uv": [56, 0], "uv_size": [8, 2]},
								"down": {"uv": [23, 8], "uv_size": [2, -1]}
							}
						}
					]
				},
				{
					"name": "plate2",
					"parent": "body2",
					"pivot": [0, 0, 0],
					"cubes": [
						{
							"origin": [-4.375, 13.3, -4.2],
							"size": [8.75, 3, 0.95],
							"uv": {
								"north": {"uv": [33.5, 1], "uv_size": [7, 3]},
								"east": {"uv": [41, 1], "uv_size": [-1, 3]},
								"south": {"uv": [64, 7], "uv_size": [0, 0]},
								"west": {"uv": [34, 1], "uv_size": [-1, 3]},
								"up": {"uv": [56, 0], "uv_size": [8, 2]},
								"down": {"uv": [33.5, 4], "uv_size": [7, -1]}
							}
						},
						{
							"origin": [-2.5, 12.3, -4.2],
							"size": [5, 1, 1.2],
							"uv": {
								"north": {"uv": [22, 26], "uv_size": [4, 1]},
								"east": {"uv": [26, 26], "uv_size": [-1, 1]},
								"south": {"uv": [64, 7], "uv_size": [0, 0]},
								"west": {"uv": [23, 27], "uv_size": [-1, -1]},
								"up": {"uv": [56, 0], "uv_size": [8, 2]},
								"down": {"uv": [22, 27], "uv_size": [4, -1]}
							}
						}
					]
				},
				{
					"name": "plate3",
					"parent": "body2",
					"pivot": [0, -2, 0.25],
					"cubes": [
						{
							"origin": [-3.75, 11.3, -3.75],
							"size": [7.5, 2, 0.5],
							"uv": {
								"north": {"uv": [34, 4], "uv_size": [6, 2]},
								"east": {"uv": [40, 4], "uv_size": [-1, 2]},
								"south": {"uv": [64, 7], "uv_size": [0, 0]},
								"west": {"uv": [35, 4], "uv_size": [-1, 2]},
								"up": {"uv": [56, 0], "uv_size": [8, 2]},
								"down": {"uv": [34, 6], "uv_size": [6, -1]}
							}
						},
						{
							"origin": [-2.5, 10.3, -3.75],
							"size": [5, 1, 0.75],
							"uv": {
								"north": {"uv": [22, 28], "uv_size": [4, 1]},
								"east": {"uv": [26, 28], "uv_size": [-1, 1]},
								"south": {"uv": [64, 7], "uv_size": [0, 0]},
								"west": {"uv": [23, 29], "uv_size": [-1, -1]},
								"up": {"uv": [56, 0], "uv_size": [8, 2]},
								"down": {"uv": [22, 29], "uv_size": [4, -1]}
							}
						}
					]
				},
				{
					"name": "back",
					"parent": "body2",
					"pivot": [0, 0, 0],
					"cubes": [
						{
							"origin": [-5, 17.3, 3.25],
							"size": [10, 2.975, 0.65],
							"uv": {
								"north": {"uv": [56, 0], "uv_size": [8, 14]},
								"east": {"uv": [60, 0], "uv_size": [4, 11]},
								"south": {"uv": [32, 11], "uv_size": [8, 3]},
								"west": {"uv": [60, 0], "uv_size": [4, 11]},
								"up": {"uv": [32, 11], "uv_size": [8, 1]},
								"down": {"uv": [64, 0], "uv_size": [0, 0]}
							}
						}
					]
				},
				{
					"name": "plate4",
					"parent": "back",
					"pivot": [0, 0, -0.25],
					"cubes": [
						{
							"origin": [-4.375, 14.3, 3.25],
							"size": [8.75, 6, 0.95],
							"uv": {
								"north": {"uv": [64, 7], "uv_size": [0, 0]},
								"east": {"uv": [52, 1], "uv_size": [1, 6]},
								"south": {"uv": [52.5, 1], "uv_size": [-7, 6]},
								"west": {"uv": [45, 1], "uv_size": [1, 6]},
								"up": {"uv": [45, 2], "uv_size": [8, -1]},
								"down": {"uv": [45.5, 6], "uv_size": [7, 1]}
							}
						},
						{
							"origin": [-1.25, 17.3, 3.25],
							"size": [2.5, 1, 0.95],
							"uv": {
								"north": {"uv": [64, 7], "uv_size": [0, 0]},
								"east": {"uv": [36, 22], "uv_size": [1, 1]},
								"south": {"uv": [37, 15], "uv_size": [-2, 1]},
								"west": {"uv": [35, 22], "uv_size": [1, 1]},
								"up": {"uv": [32, 16], "uv_size": [8, -1]},
								"down": {"uv": [35, 22], "uv_size": [2, 1]}
							}
						},
						{
							"origin": [-2.5, 18.3, 3.25],
							"size": [1.25, 1, 0.95],
							"uv": {
								"north": {"uv": [64, 7], "uv_size": [0, 0]},
								"east": {"uv": [36, 15], "uv_size": [1, 1]},
								"south": {"uv": [37, 15], "uv_size": [-2, 1]},
								"west": {"uv": [36, 15], "uv_size": [1, 1]},
								"up": {"uv": [32, 16], "uv_size": [8, -1]},
								"down": {"uv": [37, 21], "uv_size": [1, 1]}
							}
						},
						{
							"origin": [-3.75, 18.3, 3.25],
							"size": [1.25, 1, 0.95],
							"uv": {
								"north": {"uv": [64, 7], "uv_size": [0, 0]},
								"east": {"uv": [39, 20], "uv_size": [1, 1]},
								"south": {"uv": [35, 14], "uv_size": [-2, 1]},
								"west": {"uv": [34, 15], "uv_size": [1, 1]},
								"up": {"uv": [38, 20], "uv_size": [1, -1]},
								"down": {"uv": [38, 21], "uv_size": [1, 1]}
							}
						},
						{
							"origin": [-2.5, 19.3, 3.25],
							"size": [1.25, 1, 0.95],
							"uv": {
								"north": {"uv": [64, 7], "uv_size": [0, 0]},
								"east": {"uv": [38, 19], "uv_size": [1, 1]},
								"south": {"uv": [35, 14], "uv_size": [-2, 1]},
								"west": {"uv": [34, 15], "uv_size": [1, 1]},
								"up": {"uv": [34, 16], "uv_size": [1, -1]},
								"down": {"uv": [34, 15], "uv_size": [1, 1]}
							}
						},
						{
							"origin": [1.25, 19.3, 3.25],
							"size": [1.25, 1, 0.95],
							"uv": {
								"north": {"uv": [64, 7], "uv_size": [0, 0]},
								"east": {"uv": [35, 15], "uv_size": [-1, 1]},
								"south": {"uv": [33, 14], "uv_size": [2, 1]},
								"west": {"uv": [34, 19], "uv_size": [-1, 1]},
								"up": {"uv": [35, 16], "uv_size": [-1, -1]},
								"down": {"uv": [35, 15], "uv_size": [-1, 1]}
							}
						},
						{
							"origin": [2.5, 18.3, 3.25],
							"size": [1.25, 1, 0.95],
							"uv": {
								"north": {"uv": [64, 7], "uv_size": [0, 0]},
								"east": {"uv": [35, 15], "uv_size": [-1, 1]},
								"south": {"uv": [33, 14], "uv_size": [2, 1]},
								"west": {"uv": [33, 20], "uv_size": [-1, 1]},
								"up": {"uv": [34, 20], "uv_size": [-1, -1]},
								"down": {"uv": [34, 21], "uv_size": [-1, 1]}
							}
						},
						{
							"origin": [1.25, 18.3, 3.25],
							"size": [1.25, 1, 0.95],
							"uv": {
								"north": {"uv": [64, 7], "uv_size": [0, 0]},
								"east": {"uv": [37, 15], "uv_size": [-1, 1]},
								"south": {"uv": [35, 15], "uv_size": [2, 1]},
								"west": {"uv": [37, 15], "uv_size": [-1, 1]},
								"up": {"uv": [40, 16], "uv_size": [-8, -1]},
								"down": {"uv": [35, 21], "uv_size": [-1, 1]}
							}
						},
						{
							"origin": [-2.5, 13.3, 3],
							"size": [5, 1, 1.2],
							"uv": {
								"north": {"uv": [64, 7], "uv_size": [0, 0]},
								"east": {"uv": [36, 25], "uv_size": [1, 1]},
								"south": {"uv": [38, 25], "uv_size": [-4, 1]},
								"west": {"uv": [35, 26], "uv_size": [1, -1]},
								"up": {"uv": [56, 2], "uv_size": [8, -2]},
								"down": {"uv": [34, 25], "uv_size": [4, 1]}
							}
						}
					]
				},
				{
					"name": "plate5",
					"parent": "back",
					"pivot": [0, -2, -0.25],
					"cubes": [
						{
							"origin": [-3.75, 11.3, 3.25],
							"size": [7.5, 3, 0.6],
							"uv": {
								"north": {"uv": [64, 7], "uv_size": [0, 0]},
								"east": {"uv": [38, 25], "uv_size": [1, 3]},
								"south": {"uv": [39, 25], "uv_size": [-6, 3]},
								"west": {"uv": [33, 25], "uv_size": [1, 3]},
								"up": {"uv": [56, 2], "uv_size": [8, -2]},
								"down": {"uv": [33, 27], "uv_size": [6, 1]}
							}
						},
						{
							"origin": [-2.5, 10.3, 3],
							"size": [5, 1, 0.85],
							"uv": {
								"north": {"uv": [64, 7], "uv_size": [0, 0]},
								"east": {"uv": [36, 28], "uv_size": [1, 1]},
								"south": {"uv": [38, 28], "uv_size": [-4, 1]},
								"west": {"uv": [35, 29], "uv_size": [1, -1]},
								"up": {"uv": [56, 2], "uv_size": [8, -2]},
								"down": {"uv": [34, 28], "uv_size": [4, 1]}
							}
						}
					]
				},
				{
					"name": "rightArm",
					"parent": "body",
					"pivot": [-5.75, 19, 0]
				},
				{
					"name": "bone",
					"parent": "rightArm",
					"pivot": [1.25, -2.16, 0],
					"cubes": [
						{
							"origin": [-9.838, 10.84, -3.222],
							"size": [6.044, 11.502, 6.444],
							"uv": {
								"north": {"uv": [40, 17], "uv_size": [4, 9]},
								"east": {"uv": [44, 17], "uv_size": [4, 9]},
								"south": {"uv": [48, 17], "uv_size": [4, 9]},
								"west": {"uv": [27, 20], "uv_size": [4, 9]},
								"up": {"uv": [44, 17], "uv_size": [4, -4]},
								"down": {"uv": [61, 5], "uv_size": [-4, -4]}
							}
						},
						{
							"origin": [-8.838, 20.59, -2.722],
							"size": [6.044, 2.752, 5.444],
							"pivot": [-2.75, 23.1, 0],
							"rotation": [0, 0, -2.5],
							"uv": {
								"north": {"uv": [40, 17], "uv_size": [4, 1]},
								"east": {"uv": [44, 17], "uv_size": [4, 1]},
								"south": {"uv": [48, 17], "uv_size": [4, 1]},
								"west": {"uv": [44, 17], "uv_size": [4, 1]},
								"up": {"uv": [44, 17], "uv_size": [4, -4]},
								"down": {"uv": [61, 5], "uv_size": [-4, -4]}
							}
						}
					]
				},
				{
					"name": "leftArm",
					"parent": "body",
					"pivot": [5.75, 19, 0]
				},
				{
					"name": "bone2",
					"parent": "leftArm",
					"pivot": [-1.25, 13.3632, 0],
					"cubes": [
						{
							"origin": [3.794, 10.84, -3.222],
							"size": [6.044, 11.502, 6.444],
							"uv": {
								"north": {"uv": [44, 17], "uv_size": [-4, 9]},
								"east": {"uv": [31, 20], "uv_size": [-4, 9]},
								"south": {"uv": [52, 17], "uv_size": [-4, 9]},
								"west": {"uv": [48, 17], "uv_size": [-4, 9]},
								"up": {"uv": [48, 13], "uv_size": [-4, 4]},
								"down": {"uv": [64, 4], "uv_size": [-4, -4]}
							}
						},
						{
							"origin": [2.794, 20.59, -2.722],
							"size": [6.044, 2.752, 5.444],
							"pivot": [2.75, 23.1, 0],
							"rotation": [0, 0, 2.5],
							"uv": {
								"north": {"uv": [44, 17], "uv_size": [-4, 1]},
								"east": {"uv": [48, 17], "uv_size": [-4, 1]},
								"south": {"uv": [52, 17], "uv_size": [-4, 1]},
								"west": {"uv": [48, 17], "uv_size": [-4, 1]},
								"up": {"uv": [48, 17], "uv_size": [-4, -4]},
								"down": {"uv": [57, 5], "uv_size": [4, -4]}
							}
						}
					]
				}
			]
		}
	]
}