{
	"format_version": "1.10.0",
	"geometry.entity.nicothekid_myceling": {
		"texturewidth": 128,
		"textureheight": 128,
		"visible_bounds_width": 4,
		"visible_bounds_height": 3,
		"visible_bounds_offset": [0, 1.5, 0],
		"bones": [
			{
				"name": "body",
				"pivot": [0, 8, 1],
				"rotation": [-5, 0, 0],
				"reset": true,
				"cubes": [
					{"origin": [-6, 4, -7], "size": [12, 8, 16], "uv": [0, 0]}
				]
			},
			{
				"name": "back",
				"parent": "body",
				"pivot": [0, 4, -1],
				"cubes": [
					{"origin": [0, 12, -7], "size": [0, 8, 16], "uv": [0, 24]},
					{"origin": [-6, 12, 1], "size": [12, 8, 0], "uv": [0, 48]}
				]
			},
			{
				"name": "back_3",
				"parent": "back",
				"pivot": [0, 12, 1],
				"rotation": [0, 45, 0],
				"cubes": [
					{"origin": [0, 12, -7], "size": [0, 8, 16], "uv": [0, 16]}
				]
			},
			{
				"name": "back_4",
				"parent": "back",
				"pivot": [0, 12, 1],
				"rotation": [0, -45, 0],
				"cubes": [
					{"origin": [0, 12, -7], "size": [0, 8, 16], "uv": [0, 8]}
				]
			},
			{
				"name": "head",
				"parent": "body",
				"pivot": [0, 8, -7],
				"rotation": [5, 0, 0],
				"locators": {
					"held_item": [0, 7, -10],
					"lead": [0, 5, -7]
				}
			},
			{
				"name": "upper_mouth",
				"parent": "head",
				"pivot": [0, 7, -7],
				"cubes": [
					{"origin": [-4, 7, -12], "size": [8, 4, 6], "uv": [32, 24]}
				]
			},
			{
				"name": "lower_mouth",
				"parent": "head",
				"pivot": [0, 7, -7],
				"cubes": [
					{"origin": [-4, 5, -12], "size": [8, 2, 6], "uv": [32, 34]}
				]
			},
			{
				"name": "leg_front_l",
				"pivot": [-6, 8, -4],
				"reset": true,
				"cubes": [
					{"origin": [-8, 0, -6], "size": [4, 8, 4], "uv": [52, 42]}
				]
			},
			{
				"name": "leg_front_r",
				"pivot": [6, 8, -4],
				"reset": true,
				"mirror": true,
				"cubes": [
					{"origin": [4, 0, -6], "size": [4, 8, 4], "uv": [0, 0], "mirror": false}
				]
			},
			{
				"name": "leg_back_l",
				"pivot": [-6, 9, 8.5],
				"reset": true,
				"cubes": [
					{"origin": [-8.5, 0, 6], "size": [5, 10, 5], "uv": [40, 0]}
				]
			},
			{
				"name": "leg_back_r",
				"pivot": [6, 9, 8.5],
				"reset": true,
				"mirror": true,
				"cubes": [
					{"origin": [3.5, 0, 6], "size": [5, 10, 5], "uv": [32, 42], "mirror": false}
				]
			}
		]
	}
}