{
	"format_version": "1.8.0",
	"render_controllers": {
	  "controller.render.water_bucket": {
		"geometry": "geometry.water_bucket",
		"materials": [ 
		  { 
			"*": "Material.default" 
		  } 
		],
		"textures": [ 
            "texture.water_bucket" 
		]
	  }
	}
  }