{
	"format_version": "1.16.100",
	"minecraft:item": {
		"description": {
			"category": "nature",
			"identifier": "nether:death_cap_fungus_item"
		},
		"components": {
			"minecraft:max_stack_size": 64,
			"minecraft:display_name": {
				"value": "Death Cap Fungus \n§4Nethercraft"
			},
			"minecraft:icon": {
				"texture": "death_cap_fungus"
			},
			"minecraft:creative_category": {
				"parent": "itemGroup.name.sapling"
			},
			"minecraft:on_use_on": {
				"on_use_on": {
					"event": "placing"
				}
			}
		},
		"events": {
			"placing": {
				"run_command": {
					"command": [
						"fill ~ ~-1 ~ ~ ~-1 ~ nether:death_cap_fungus -1 replace air",
						"playsound place.hanging_roots @p"
					]
				},
				"decrement_stack": {}
			}
		}
	}
}