{
	"format_version": "1.17.0",
	"minecraft:item": {
		"description": {
			"identifier": "nether:mercury_potion",
			"category": "equipment"
		},
		"components": {
			"minecraft:icon": {
				"texture": "mercury_potion"
			},
			"minecraft:display_name": {
				"value": "Mercury Potion \n§7Effects: \n-Immunitiy to Wither/Poison and Fatal Poison (2:10) \n§4When drunken 5 times it will give Wither (2:10) \n§4Nethercraft"
			},
			"minecraft:creative_category": {
				"parent": "itemGroup.name.potion"
			},
			"minecraft:use_duration": 1,
			"minecraft:use_animation": "drink",
			"minecraft:food": {
				"nutrition": 0,
				"saturation_modifier": "supernatural",
				"can_always_eat": true,
				"on_consume": {
					"event": "consumed",
					"target": "self"
				},
				"using_converts_to": "minecraft:glass_bottle"
			},
			"minecraft:max_stack_size": 16,
			"minecraft:foil": true
		},
		"events": {
			"consumed": {
				"run_command": {
					"command": [
						"scoreboard players set @s merc_po 2600",
						"scoreboard players add @a merc_dru 1"
					],
					"target": "holder"
				}
			}
		}
	}
}