{
	"file_path": "C:\\Users\\plant\\AppData\\Local\\Packages\\Microsoft.MinecraftUWP_8wekyb3d8bbwe\\LocalState\\games\\com.mojang\\development_resource_packs\\Village and Pillage+ RP\\render_controllers\\controller.render.excavator_illager.json",
	"file_type": "render_controller",
	"format_version": 1,
	"file_uuid": "19265170_2006_447a_b3e5_040fa95586fa",
	"file_version": 5,
	"cache_content": {
		"children": [
			{
				"data": "1.8.0",
				"key": "format_version"
			},
			{
				"open": {
					"format_version": "1.8.0",
					"render_controllers": {
						"controller.render.excavator_illager": {
							"geometry": "geometry.default",
							"materials": [
								{
									"*": "Material.default"
								}
							],
							"textures": [
								"Texture.default"
							]
						}
					}
				},
				"key": "render_controllers",
				"children": [
					{
						"open": {
							"controller.render.excavator_illager": {
								"geometry": "geometry.default",
								"materials": [
									{
										"*": "Material.default"
									}
								],
								"textures": [
									"Texture.default"
								]
							}
						},
						"key": "controller.render.excavator_illager",
						"children": [
							{
								"data": "geometry.default",
								"key": "geometry"
							},
							{
								"open": {
									"geometry": "geometry.default",
									"materials": [
										{
											"*": "Material.default"
										}
									],
									"textures": [
										"Texture.default"
									]
								},
								"key": "materials",
								"children": [
									{
										"open": [
											{
												"*": "Material.default"
											}
										],
										"is_minified": true,
										"children": {
											"*": "Material.default"
										}
									}
								]
							},
							{
								"open": {
									"geometry": "geometry.default",
									"materials": [
										{
											"*": "Material.default"
										}
									],
									"textures": [
										"Texture.default"
									]
								},
								"key": "textures",
								"is_minified": true,
								"children": [
									"Texture.default"
								]
							}
						]
					}
				]
			}
		]
	}
}