{
	"file_path": "C:\\Users\\plant\\AppData\\Local\\Packages\\Microsoft.MinecraftUWP_8wekyb3d8bbwe\\LocalState\\games\\com.mojang\\development_resource_packs\\Village and Pillage+ RP\\render_controllers\\ore_item_deleter.render.json",
	"file_type": "render_controller",
	"format_version": 0,
	"cache_content": {
		"format_version": "1.10.0",
		"render_controllers": {
			"controller.render.ore_item_deleter": {
				"geometry": "Geometry.default",
				"textures": [
					"Texture.default"
				],
				"materials": [
					{
						"*": "Material.default"
					}
				]
			}
		}
	},
	"file_uuid": "a86c90da_3ac8_4379_9e82_905a7bbdf7ee"
}