{
  "format_version": "1.16.100",
  "animations": {
    "animation.whip_knockback": {
      "loop": true,
      "animation_length": 0.5,
      "timeline": {
		"0.02": [
						"/execute @e[family=!inanimate,family=!weeweejuice,type=!item,type=!player,c=1,r=4] ~~~ tp @s ~~~ facing @p[tag=using_whip,tag=whip_attacking,rm=0.8]",
						"/execute @e[family=!inanimate,family=!weeweejuice,type=!item,type=!player,c=1,r=4] ~~~ scoreboard players set @s phantom_knock 1",
						"/execute @e[family=!inanimate,family=!weeweejuice,type=!item,type=!player,c=1,scores={phantom_knock=1}] ~~~ tp @s ^^0.4^-1.1 facing @p[tag=using_whip,tag=whip_attacking,rm=0.8] true"
		],
		"0.07": [ 
						"/execute @e[family=!inanimate,family=!weeweejuice,type=!item,type=!player,c=1,r=4,scores={phantom_knock=1}] ~~~ scoreboard players set @s phantom_knock 2",
						"/execute @e[family=!inanimate,family=!weeweejuice,type=!item,type=!player,c=1,scores={phantom_knock=2}] ~~~ tp @s ^^0.4^-1.1 facing @p[tag=using_whip,tag=whip_attacking,rm=0.8] true"
		  ],
		
		
		
		"0.12": [ 
						"/execute @e[family=!inanimate,family=!weeweejuice,type=!item,type=!player,c=1,r=4,scores={phantom_knock=2}] ~~~ scoreboard players set @s phantom_knock 3",
						"/execute @e[family=!inanimate,family=!weeweejuice,type=!item,type=!player,c=1,scores={phantom_knock=3}] ~~~ tp @s ^^0.4^-1.1 facing @p[tag=using_whip,tag=whip_attacking,rm=0.8] true"
		],
		
		
		
		"0.17": [ 
						"/execute @e[family=!inanimate,family=!weeweejuice,type=!item,type=!player,c=1,r=4,scores={phantom_knock=3}] ~~~ scoreboard players set @s phantom_knock 4",
						"/execute @e[family=!inanimate,family=!weeweejuice,type=!item,type=!player,c=1,scores={phantom_knock=4}] ~~~ tp @s ^^0.4^-1.1 facing @p[tag=using_whip,tag=whip_attacking,rm=0.8] true",
						"/execute @e[family=!inanimate,family=!weeweejuice,type=!item,type=!player,c=1,r=5.2,scores={phantom_knock=3..4}] ~~~ scoreboard players set @s phantom_knock 0"
		],
		"0.21": [
			"/event entity @s yes:despawn"
		  ]
      }
    }
  }
}			