{
	"format_version": "1.18.0",
	"minecraft:recipe_shaped": {
		"description": {
			"identifier": "nether:polished_berly_shale_stone"
		},
		"tags": [
			"crafting_table"
		],
		"pattern": [
			"##",
			"##"
		],
		"key": {
			"#": {
				"item": "nether:berly_shale_stone"
			}
		},
		"result": [
			{
				"item": "nether:polished_berly_shale",
				"count": 4
			}
		]
	}
}