{
  "format_version": "1.10.0",
  "minecraft:client_entity": {
    "description": {
      "identifier": "btr:splash_ender_warp",
      "materials": {
        "default": "arrow"
      },
      "textures": {
        "default": "textures/entity/splash_ender_warp"
      },
      "geometry": {
        "default": "geometry.potion"
      },
      "render_controllers": [ "controller.render.arrow" ]
    }
  }
}
