{
  "format_version": "1.12",
  "minecraft:recipe_shapeless": {
    "description": {
      "identifier": "disarm_i_iron_battleaxe"
    },
    "tags": [
      "crafting_table"
    ],
    "ingredients": [
      {
        "item": "btr:iron_battleaxe"
      },
      {
        "item": "btr:disarm_i_book"
      }
    ],
    "result": {
      "item": "btr:disarm_i_iron_battleaxe"
    }
  }
}