{
  "format_version": "1.8.0",
  "animations": {
    "animation.spear_ad2": {
      "loop": true,
      "animation_length": 1.8,
      "timeline": {
		"0.64": [ 
			"/execute @a[c=1,tag=spear_attacking,r=10] ~~~ summon yes:stab_projectile_ad2 ^ ^0.5 ^0.75",
			"/execute @a[c=1,tag=spear_attacking,r=10] ~~~ particle yes:spear_particle ^^0.7^2"
		],
		"0.66": [
			"/scoreboard players random @s weapon_sound 1 3",
			"/execute @s[scores={weapon_sound=1}] ~~~ playsound weapon.spear_weewee @a[r=20] ~~1~ 1 0.85 0.5",
			"/execute @s[scores={weapon_sound=2}] ~~~ playsound weapon.spear_weewee @a[r=20] ~~1~ 1 1 0.5",
			"/execute @s[scores={weapon_sound=3}] ~~~ playsound weapon.spear_weewee @a[r=20] ~~1~ 1 1.15 0.5"
		],
		"1.53": [ 
			"/execute @a[c=1,tag=spear_attacking,r=10] ~~~ playanimation @s animation.player.move.arms.stationary",
			"/execute @a[c=1,tag=spear_attacking,r=10] ~~~ tag @s remove spear_attacking",
			"/event entity @s yes:despawn"
		  ]
      }
    }
  }
}