{
  "format_version": "1.8.0",
  "animations": {
    "animation.stab_projectile_ad1": {
      "loop": true,
      "animation_length": 0.30,
      "timeline": {
		"0.02": [
			"/event entity @e[family=mob,r=3] yes:knockback_add_event",
			"/scoreboard objectives add spear_attacking dummy",
			"/execute @p[tag=spear_attacking] ~~~ scoreboard players set @s spear_attacking 0",
			"/scoreboard players set @s spear_attacking 0"
		],
		"0.04": [ 
			"/event entity @e[family=mob,r=3] yes:knockback_add_event",
			"/execute @p[tag=spear_attacking,scores={spear_attacking=0}] ~~~ scoreboard players set @s spear_attacking 1",
			"/scoreboard players set @s spear_attacking 1",
			"/execute @p[scores={spear_attacking=1}] ~~~ tp @e[type=yes:stab_projectile_ad1,c=1,scores={spear_attacking=1}] ^ ^0.5 ^0.75",
			
			
			"/execute @e[family=!inanimate,family=!weeweejuice,r=0.75] ~~~ scoreboard players random @e[type=yes:stab_projectile_ad1,r=0.75,c=1] weapon_sound 1 5",
			"/execute @s[tag=!played_sound,scores={weapon_sound=1}] ~~~ playsound weapon.spear_hit_weewee @a[r=20] ~~1~ 1 0.7 0.5",
			"/execute @s[tag=!played_sound,scores={weapon_sound=2}] ~~~ playsound weapon.spear_hit_weewee @a[r=20] ~~1~ 1 0.8 0.5",
			"/execute @s[tag=!played_sound,scores={weapon_sound=3}] ~~~ playsound weapon.spear_hit_weewee @a[r=20] ~~1~ 1 0.9 0.5",
			"/execute @s[tag=!played_sound,scores={weapon_sound=4}] ~~~ playsound weapon.spear_hit_weewee @a[r=20] ~~1~ 1 1 0.5",
			"/execute @s[tag=!played_sound,scores={weapon_sound=5}] ~~~ playsound weapon.spear_hit_weewee @a[r=20] ~~1~ 1 1.1 0.5",
			"/execute @e[family=!inanimate,family=!weeweejuice,r=0.75] ~~~ tag @e[type=yes:stab_projectile_ad1,r=0.75,c=1] add played_sound",
			
			
			"/execute @e[family=!inanimate,family=!weeweejuice,r=0.75] ~~~ damage @s 22 entity_attack entity @a[c=1,scores={spear_attacking=1}]",
			"/gamerule sendcommandfeedback false",
			"/execute @e[family=!inanimate,family=!weeweejuice,r=0.75] ~~~ tp @s ~~~",
			"/gamerule sendcommandfeedback true"		
		  ],
		"0.06": [
			"/event entity @e[family=mob,r=3] yes:knockback_add_event",
			"/execute @p[tag=spear_attacking,scores={spear_attacking=1}] ~~~ scoreboard players set @s spear_attacking 2",
			"/scoreboard players set @s spear_attacking 2",
			"/execute @p[scores={spear_attacking=2}] ~~~ tp @e[type=yes:stab_projectile_ad1,c=1,scores={spear_attacking=2}] ^ ^0.5 ^1.5",
			
			
			"/execute @e[family=!inanimate,family=!weeweejuice,r=0.75] ~~~ scoreboard players random @e[type=yes:stab_projectile_ad1,r=0.75,c=1] weapon_sound 1 5",
			"/execute @s[tag=!played_sound,scores={weapon_sound=1}] ~~~ playsound weapon.spear_hit_weewee @a[r=20] ~~1~ 1 0.7 0.5",
			"/execute @s[tag=!played_sound,scores={weapon_sound=2}] ~~~ playsound weapon.spear_hit_weewee @a[r=20] ~~1~ 1 0.8 0.5",
			"/execute @s[tag=!played_sound,scores={weapon_sound=3}] ~~~ playsound weapon.spear_hit_weewee @a[r=20] ~~1~ 1 0.9 0.5",
			"/execute @s[tag=!played_sound,scores={weapon_sound=4}] ~~~ playsound weapon.spear_hit_weewee @a[r=20] ~~1~ 1 1 0.5",
			"/execute @s[tag=!played_sound,scores={weapon_sound=5}] ~~~ playsound weapon.spear_hit_weewee @a[r=20] ~~1~ 1 1.1 0.5",
			"/execute @e[family=!inanimate,family=!weeweejuice,r=0.75] ~~~ tag @e[type=yes:stab_projectile_ad1,r=0.75,c=1] add played_sound",
			
			
			"/execute @e[family=!inanimate,family=!weeweejuice,r=0.75] ~~~ damage @s 22 entity_attack entity @a[c=1,scores={spear_attacking=2}]",
			"/gamerule sendcommandfeedback false",
			"/execute @e[family=!inanimate,family=!weeweejuice,r=0.75] ~~~ tp @s ~~~",
			"/gamerule sendcommandfeedback true"
		  ],
		"0.08": [
			"/event entity @e[family=mob,r=3] yes:knockback_add_event",
			"/execute @p[tag=spear_attacking,scores={spear_attacking=2}] ~~~ scoreboard players set @s spear_attacking 3",
			"/scoreboard players set @s spear_attacking 3",
			"/execute @p[scores={spear_attacking=3}] ~~~ tp @e[type=yes:stab_projectile_ad1,c=1,scores={spear_attacking=3}] ^ ^0.5 ^2.25",
			
			
			"/execute @e[family=!inanimate,family=!weeweejuice,r=0.75] ~~~ scoreboard players random @e[type=yes:stab_projectile_ad1,r=0.75,c=1] weapon_sound 1 5",
			"/execute @s[tag=!played_sound,scores={weapon_sound=1}] ~~~ playsound weapon.spear_hit_weewee @a[r=20] ~~1~ 1 0.7 0.5",
			"/execute @s[tag=!played_sound,scores={weapon_sound=2}] ~~~ playsound weapon.spear_hit_weewee @a[r=20] ~~1~ 1 0.8 0.5",
			"/execute @s[tag=!played_sound,scores={weapon_sound=3}] ~~~ playsound weapon.spear_hit_weewee @a[r=20] ~~1~ 1 0.9 0.5",
			"/execute @s[tag=!played_sound,scores={weapon_sound=4}] ~~~ playsound weapon.spear_hit_weewee @a[r=20] ~~1~ 1 1 0.5",
			"/execute @s[tag=!played_sound,scores={weapon_sound=5}] ~~~ playsound weapon.spear_hit_weewee @a[r=20] ~~1~ 1 1.1 0.5",
			"/execute @e[family=!inanimate,family=!weeweejuice,r=0.75] ~~~ tag @e[type=yes:stab_projectile_ad1,r=0.75,c=1] add played_sound",
			
			
			"/execute @e[family=!inanimate,family=!weeweejuice,r=0.75] ~~~ damage @s 22 entity_attack entity @a[c=1,scores={spear_attacking=3}]",
			"/gamerule sendcommandfeedback false",
			"/execute @e[family=!inanimate,family=!weeweejuice,r=0.75] ~~~ tp @s ~~~",
			"/gamerule sendcommandfeedback true"
		  ],
		"0.1": [
			"/event entity @e[family=mob,r=3] yes:knockback_add_event",
			"/execute @p[tag=spear_attacking,scores={spear_attacking=3}] ~~~ scoreboard players set @s spear_attacking 4",
			"/scoreboard players set @s spear_attacking 4",
			"/execute @p[scores={spear_attacking=4}] ~~~ tp @e[type=yes:stab_projectile_ad1,c=1,scores={spear_attacking=4}] ^ ^0.5 ^3",
			
			
			"/execute @e[family=!inanimate,family=!weeweejuice,r=0.75] ~~~ scoreboard players random @e[type=yes:stab_projectile_ad1,r=0.75,c=1] weapon_sound 1 5",
			"/execute @s[tag=!played_sound,scores={weapon_sound=1}] ~~~ playsound weapon.spear_hit_weewee @a[r=20] ~~1~ 1 0.7 0.5",
			"/execute @s[tag=!played_sound,scores={weapon_sound=2}] ~~~ playsound weapon.spear_hit_weewee @a[r=20] ~~1~ 1 0.8 0.5",
			"/execute @s[tag=!played_sound,scores={weapon_sound=3}] ~~~ playsound weapon.spear_hit_weewee @a[r=20] ~~1~ 1 0.9 0.5",
			"/execute @s[tag=!played_sound,scores={weapon_sound=4}] ~~~ playsound weapon.spear_hit_weewee @a[r=20] ~~1~ 1 1 0.5",
			"/execute @s[tag=!played_sound,scores={weapon_sound=5}] ~~~ playsound weapon.spear_hit_weewee @a[r=20] ~~1~ 1 1.1 0.5",
			"/execute @e[family=!inanimate,family=!weeweejuice,r=0.75] ~~~ tag @e[type=yes:stab_projectile_ad1,r=0.75,c=1] add played_sound",
			
			
			"/execute @e[family=!inanimate,family=!weeweejuice,r=0.75] ~~~ damage @s 22 entity_attack entity @a[c=1,scores={spear_attacking=4}]",
			"/gamerule sendcommandfeedback false",
			"/execute @e[family=!inanimate,family=!weeweejuice,r=0.75] ~~~ tp @s ~~~",
			"/gamerule sendcommandfeedback true"
		  ],
		"0.12": [
			"/event entity @e[family=mob,r=3] yes:knockback_add_event",
			"/execute @p[tag=spear_attacking,scores={spear_attacking=4}] ~~~ scoreboard players set @s spear_attacking 5",
			"/scoreboard players set @s spear_attacking 5",
			"/execute @p[scores={spear_attacking=5}] ~~~ tp @e[type=yes:stab_projectile_ad1,c=1,scores={spear_attacking=5}] ^ ^0.5 ^3.75",
			
			
			"/execute @e[family=!inanimate,family=!weeweejuice,r=0.75] ~~~ scoreboard players random @e[type=yes:stab_projectile_ad1,r=0.75,c=1] weapon_sound 1 5",
			"/execute @s[tag=!played_sound,scores={weapon_sound=1}] ~~~ playsound weapon.spear_hit_weewee @a[r=20] ~~1~ 1 0.7 0.5",
			"/execute @s[tag=!played_sound,scores={weapon_sound=2}] ~~~ playsound weapon.spear_hit_weewee @a[r=20] ~~1~ 1 0.8 0.5",
			"/execute @s[tag=!played_sound,scores={weapon_sound=3}] ~~~ playsound weapon.spear_hit_weewee @a[r=20] ~~1~ 1 0.9 0.5",
			"/execute @s[tag=!played_sound,scores={weapon_sound=4}] ~~~ playsound weapon.spear_hit_weewee @a[r=20] ~~1~ 1 1 0.5",
			"/execute @s[tag=!played_sound,scores={weapon_sound=5}] ~~~ playsound weapon.spear_hit_weewee @a[r=20] ~~1~ 1 1.1 0.5",
			"/execute @e[family=!inanimate,family=!weeweejuice,r=0.75] ~~~ tag @e[type=yes:stab_projectile_ad1,r=0.75,c=1] add played_sound",
			
			
			"/execute @e[family=!inanimate,family=!weeweejuice,r=0.75] ~~~ damage @s 22 entity_attack entity @a[c=1,scores={spear_attacking=5}]",
			"/gamerule sendcommandfeedback false",
			"/execute @e[family=!inanimate,family=!weeweejuice,r=0.75] ~~~ tp @s ~~~",
			"/gamerule sendcommandfeedback true"
		  ],
		"0.14": [
			"/event entity @e[family=mob,r=3] yes:knockback_add_event",
			"/execute @p[tag=spear_attacking,scores={spear_attacking=5}] ~~~ scoreboard players set @s spear_attacking 6",
			"/scoreboard players set @s spear_attacking 6",
			"/execute @p[scores={spear_attacking=6}] ~~~ tp @e[type=yes:stab_projectile_ad1,c=1,scores={spear_attacking=6}] ^ ^0.5 ^4.5",
			
			
			"/execute @e[family=!inanimate,family=!weeweejuice,r=0.75] ~~~ scoreboard players random @e[type=yes:stab_projectile_ad1,r=0.75,c=1] weapon_sound 1 5",
			"/execute @s[tag=!played_sound,scores={weapon_sound=1}] ~~~ playsound weapon.spear_hit_weewee @a[r=20] ~~1~ 1 0.7 0.5",
			"/execute @s[tag=!played_sound,scores={weapon_sound=2}] ~~~ playsound weapon.spear_hit_weewee @a[r=20] ~~1~ 1 0.8 0.5",
			"/execute @s[tag=!played_sound,scores={weapon_sound=3}] ~~~ playsound weapon.spear_hit_weewee @a[r=20] ~~1~ 1 0.9 0.5",
			"/execute @s[tag=!played_sound,scores={weapon_sound=4}] ~~~ playsound weapon.spear_hit_weewee @a[r=20] ~~1~ 1 1 0.5",
			"/execute @s[tag=!played_sound,scores={weapon_sound=5}] ~~~ playsound weapon.spear_hit_weewee @a[r=20] ~~1~ 1 1.1 0.5",
			"/execute @e[family=!inanimate,family=!weeweejuice,r=0.75] ~~~ tag @e[type=yes:stab_projectile_ad1,r=0.75,c=1] add played_sound",
			
			
			"/execute @e[family=!inanimate,family=!weeweejuice,r=0.75] ~~~ damage @s 22 entity_attack entity @a[c=1,scores={spear_attacking=6}]",
			"/gamerule sendcommandfeedback false",
			"/execute @e[family=!inanimate,family=!weeweejuice,r=0.75] ~~~ tp @s ~~~",
			"/gamerule sendcommandfeedback true"
		  ],
		"0.16": [
			"/event entity @e[family=mob,r=3] yes:knockback_add_event",
			"/execute @p[tag=spear_attacking,scores={spear_attacking=6}] ~~~ scoreboard players set @s spear_attacking 7",
			"/scoreboard players set @s spear_attacking 7",
			"/execute @p[scores={spear_attacking=7}] ~~~ tp @e[type=yes:stab_projectile_ad1,c=1,scores={spear_attacking=7}] ^ ^0.5 ^5.25",
			
			
			"/execute @e[family=!inanimate,family=!weeweejuice,r=0.85] ~~~ scoreboard players random @e[type=yes:stab_projectile_ad1,r=0.85,c=1] weapon_sound 1 5",
			"/execute @s[tag=!played_sound,scores={weapon_sound=1}] ~~~ playsound weapon.spear_hit_weewee @a[r=20] ~~1~ 1 0.7 0.5",
			"/execute @s[tag=!played_sound,scores={weapon_sound=2}] ~~~ playsound weapon.spear_hit_weewee @a[r=20] ~~1~ 1 0.8 0.5",
			"/execute @s[tag=!played_sound,scores={weapon_sound=3}] ~~~ playsound weapon.spear_hit_weewee @a[r=20] ~~1~ 1 0.9 0.5",
			"/execute @s[tag=!played_sound,scores={weapon_sound=4}] ~~~ playsound weapon.spear_hit_weewee @a[r=20] ~~1~ 1 1 0.5",
			"/execute @s[tag=!played_sound,scores={weapon_sound=5}] ~~~ playsound weapon.spear_hit_weewee @a[r=20] ~~1~ 1 1.1 0.5",
			"/execute @e[family=!inanimate,family=!weeweejuice,r=0.85] ~~~ tag @e[type=yes:stab_projectile_ad1,r=0.85,c=1] add played_sound",
			
			
			"/execute @e[family=!inanimate,family=!weeweejuice,r=0.85] ~~~ damage @s 22 entity_attack entity @a[c=1,scores={spear_attacking=7}]",
			"/gamerule sendcommandfeedback false",
			"/execute @e[family=!inanimate,family=!weeweejuice,r=0.85] ~~~ tp @s ~~~",
			"/gamerule sendcommandfeedback true"
		  ],
		"0.17": [
			"/execute @a[scores={spear_attacking=7}] ~~~ scoreboard players set @s spear_attacking 0",
			"/event entity @s yes:despawn"
		  ],
		"0.18": [
			"/event entity @e[family=mob] yes:knockback_remove_event"
		  ]
      }
    }
  }
}			