{
    "format_version": "1.16.100",
    "minecraft:item": {
        "description": {
            "identifier": "yes:weathered_copper_sword",
            "category": "equipment"
        },
        "components": {
            "minecraft:icon": {
                "texture": "weathered_copper_sword"
            },
                  "minecraft:display_name": { "value": "Weathered Copper Sword\n§l§r"},
            "minecraft:creative_category": {
                "parent": "itemGroup.name.sword"
            },
            "minecraft:hand_equipped": true,
            "minecraft:max_stack_size": 1,

            "minecraft:render_offsets": "tools",
            "minecraft:durability": {
                "max_durability": 127,
                "damage_chance": {
                    "min": 90,
                    "max": 100
                }
            },
            "minecraft:repairable": {
                "repair_items": [
                    {
                        "items": [
                            "yes:weathered_copper_sword",
                            "minecraft:copper_ingot"
                        ],
                        "repair_amount": 127
                    }
                ]
            },
            "minecraft:weapon": {
                "on_hurt_entity": {
                    "event": "yes:damage_event",
                    "target": "self"
                }
            },
            "minecraft:mining_speed": 1.5,
            "minecraft:damage": 6,
            "minecraft:can_destroy_in_creative": false,
            "minecraft:digger": {
                "on_dig": {
                    "event": "yes:damage_event",
                    "target": "self"
                },
                "use_efficiency": true,
                "destroy_speeds": [
                    {
                        "block": "minecraft:web",
                        "speed": 11,
                        "on_dig": {
                            "event": "yes:damage_event",
                            "target": "self"
                        }
                    },
                    {
                        "block": "minecraft:bamboo",
                        "speed": 8,
                        "on_dig": {
                            "event": "yes:damage_event",
                            "target": "self"
                        }
                    }
                ]
            }
        },
        "events": {
            "yes:damage_event": {
                "damage": {
                    "type": "durability",
                    "amount": 1
                }
            }
        }
    }
}