{
	"format_version": "1.10.0",
	"geometry.test": {
		"texturewidth": 64,
		"textureheight": 64,
		"visible_bounds_width": 1,
		"visible_bounds_height": 1,
		"visible_bounds_offset": [0, 0.5, 0],
		"bones": [
			{
				"name": "bone",
				"pivot": [0, 3, 0],
				"rotation":[0,0,0],
				"cubes": [
					{"origin": [-0.5, 0, -0.5], "size": [1, 6, 1], "uv": [0, 0]}
				]
			}
		]
	}
}