{
	"format_version": "1.17.41",
	
	"minecraft:recipe_shapeless": {
		"description": {
			"identifier": "yes:aetherite_chestplate"
		},
		"tags": ["crafting_table"],
		
		"ingredients": [
			"yes:aetherite_ingot",
			"yes:emerald_chestplate"
		],
		"result": {
			"item": "yes:aetherite_chestplate"
		}
	}
}