{
	"format_version": "1.12.0",
	"minecraft:geometry": [
		{
			"description": {
				"identifier": "geometry.phantom_whip6",
				"texture_width": 180,
				"texture_height": 180,
				"visible_bounds_width": 7,
				"visible_bounds_height": 10,
				"visible_bounds_offset": [0, 3, 0]
			},
			"bones": [
				{
					"name": "root",
					"pivot": [0, 0, 0]
				},
				{
					"name": "waist",
					"parent": "root",
					"pivot": [0, 12, 0]
				},
				{
					"name": "body",
					"parent": "waist",
					"pivot": [0, 24, 0]
				},
				{
					"name": "head",
					"parent": "body",
					"pivot": [0, 24, 0]
				},
				{
					"name": "hat",
					"parent": "head",
					"pivot": [0, 24, 0]
				},
				{
					"name": "cape",
					"parent": "body",
					"pivot": [0, 24, 3]
				},
				{
					"name": "leftArm",
					"parent": "body",
					"pivot": [5, 22, 0]
				},
				{
					"name": "leftSleeve",
					"parent": "leftArm",
					"pivot": [5, 22, 0]
				},
				{
					"name": "leftItem",
					"parent": "leftArm",
					"pivot": [6, 15, 1]
				},
				{
					"name": "rightArm",
					"parent": "body",
					"pivot": [-5, 22, 0]
				},
				{
					"name": "rightSleeve",
					"parent": "rightArm",
					"pivot": [-5, 22, 0]
				},
				{
					"name": "rightItem",
					"parent": "rightArm",
					"pivot": [-6, 15, 1],
					"locators": {
						"lead_hold": [-6, 15, 1]
					}
				},
				{
					"name": "Whip_animation4",
					"parent": "rightItem",
					"pivot": [-6, 13.4, 1.4],
					"rotation": [-2.5, -52.5, -90],
					"cubes": [
						{
							"origin": [9.2192, 13.4, -30.96267],
							"size": [0.69973, 0.69973, 0.69973],
							"uv": {
								"north": {"uv": [57, 55], "uv_size": [-1, 1]},
								"east": {"uv": [56, 55], "uv_size": [1, 1]},
								"south": {"uv": [56, 55], "uv_size": [1, 1]},
								"west": {"uv": [56, 55], "uv_size": [1, 1]},
								"up": {"uv": [57, 56], "uv_size": [-1, -1]},
								"down": {"uv": [57, 55], "uv_size": [-1, 1]}
							}
						},
						{
							"origin": [8.51947, 13.4, -30.96267],
							"size": [0.69973, 0.69973, 0.69973],
							"uv": {
								"north": {"uv": [58, 55], "uv_size": [-1, 1]},
								"east": {"uv": [57, 55], "uv_size": [1, 1]},
								"south": {"uv": [57, 55], "uv_size": [1, 1]},
								"west": {"uv": [57, 55], "uv_size": [1, 1]},
								"up": {"uv": [58, 56], "uv_size": [-1, -1]},
								"down": {"uv": [58, 55], "uv_size": [-1, 1]}
							}
						},
						{
							"origin": [7.81973, 13.4, -30.96267],
							"size": [0.69973, 0.69973, 0.69973],
							"uv": {
								"north": {"uv": [59, 55], "uv_size": [-1, 1]},
								"east": {"uv": [58, 55], "uv_size": [1, 1]},
								"south": {"uv": [58, 55], "uv_size": [1, 1]},
								"west": {"uv": [58, 55], "uv_size": [1, 1]},
								"up": {"uv": [59, 56], "uv_size": [-1, -1]},
								"down": {"uv": [59, 55], "uv_size": [-1, 1]}
							}
						},
						{
							"origin": [7.12, 13.4, -30.96267],
							"size": [0.69973, 0.69973, 0.69973],
							"uv": {
								"north": {"uv": [60, 55], "uv_size": [-1, 1]},
								"east": {"uv": [59, 55], "uv_size": [1, 1]},
								"south": {"uv": [59, 55], "uv_size": [1, 1]},
								"west": {"uv": [59, 55], "uv_size": [1, 1]},
								"up": {"uv": [60, 56], "uv_size": [-1, -1]},
								"down": {"uv": [60, 55], "uv_size": [-1, 1]}
							}
						},
						{
							"origin": [6.42027, 13.4, -30.96267],
							"size": [0.69973, 0.69973, 0.69973],
							"uv": {
								"north": {"uv": [61, 55], "uv_size": [-1, 1]},
								"east": {"uv": [60, 55], "uv_size": [1, 1]},
								"south": {"uv": [60, 55], "uv_size": [1, 1]},
								"west": {"uv": [60, 55], "uv_size": [1, 1]},
								"up": {"uv": [61, 56], "uv_size": [-1, -1]},
								"down": {"uv": [61, 55], "uv_size": [-1, 1]}
							}
						},
						{
							"origin": [5.72053, 13.4, -30.96267],
							"size": [0.69973, 0.69973, 0.69973],
							"uv": {
								"north": {"uv": [62, 55], "uv_size": [-1, 1]},
								"east": {"uv": [61, 55], "uv_size": [1, 1]},
								"south": {"uv": [61, 55], "uv_size": [1, 1]},
								"west": {"uv": [61, 55], "uv_size": [1, 1]},
								"up": {"uv": [62, 56], "uv_size": [-1, -1]},
								"down": {"uv": [62, 55], "uv_size": [-1, 1]}
							}
						},
						{
							"origin": [5.0208, 13.4, -30.26293],
							"size": [0.69973, 0.69973, 0.69973],
							"uv": {
								"north": {"uv": [63, 56], "uv_size": [-1, 1]},
								"east": {"uv": [62, 56], "uv_size": [1, 1]},
								"south": {"uv": [62, 56], "uv_size": [1, 1]},
								"west": {"uv": [62, 56], "uv_size": [1, 1]},
								"up": {"uv": [63, 57], "uv_size": [-1, -1]},
								"down": {"uv": [63, 56], "uv_size": [-1, 1]}
							}
						},
						{
							"origin": [4.32107, 13.4, -30.26293],
							"size": [0.69973, 0.69973, 0.69973],
							"uv": {
								"north": {"uv": [64, 56], "uv_size": [-1, 1]},
								"east": {"uv": [63, 56], "uv_size": [1, 1]},
								"south": {"uv": [63, 56], "uv_size": [1, 1]},
								"west": {"uv": [63, 56], "uv_size": [1, 1]},
								"up": {"uv": [64, 57], "uv_size": [-1, -1]},
								"down": {"uv": [64, 56], "uv_size": [-1, 1]}
							}
						},
						{
							"origin": [3.62133, 13.4, -30.26293],
							"size": [0.69973, 0.69973, 0.69973],
							"uv": {
								"north": {"uv": [65, 56], "uv_size": [-1, 1]},
								"east": {"uv": [64, 56], "uv_size": [1, 1]},
								"south": {"uv": [64, 56], "uv_size": [1, 1]},
								"west": {"uv": [64, 56], "uv_size": [1, 1]},
								"up": {"uv": [65, 57], "uv_size": [-1, -1]},
								"down": {"uv": [65, 56], "uv_size": [-1, 1]}
							}
						},
						{
							"origin": [2.9216, 13.4, -30.26293],
							"size": [0.69973, 0.69973, 0.69973],
							"uv": {
								"north": {"uv": [66, 56], "uv_size": [-1, 1]},
								"east": {"uv": [65, 56], "uv_size": [1, 1]},
								"south": {"uv": [65, 56], "uv_size": [1, 1]},
								"west": {"uv": [65, 56], "uv_size": [1, 1]},
								"up": {"uv": [66, 57], "uv_size": [-1, -1]},
								"down": {"uv": [66, 56], "uv_size": [-1, 1]}
							}
						},
						{
							"origin": [2.22187, 13.4, -30.26293],
							"size": [0.69973, 0.69973, 0.69973],
							"uv": {
								"north": {"uv": [67, 56], "uv_size": [-1, 1]},
								"east": {"uv": [66, 56], "uv_size": [1, 1]},
								"south": {"uv": [66, 56], "uv_size": [1, 1]},
								"west": {"uv": [66, 56], "uv_size": [1, 1]},
								"up": {"uv": [67, 57], "uv_size": [-1, -1]},
								"down": {"uv": [67, 56], "uv_size": [-1, 1]}
							}
						},
						{
							"origin": [2.9216, 13.4, -29.5632],
							"size": [0.69973, 0.69973, 0.69973],
							"uv": {
								"north": {"uv": [66, 57], "uv_size": [-1, 1]},
								"east": {"uv": [65, 57], "uv_size": [1, 1]},
								"south": {"uv": [65, 57], "uv_size": [1, 1]},
								"west": {"uv": [65, 57], "uv_size": [1, 1]},
								"up": {"uv": [66, 58], "uv_size": [-1, -1]},
								"down": {"uv": [66, 57], "uv_size": [-1, 1]}
							}
						},
						{
							"origin": [2.22187, 13.4, -29.5632],
							"size": [0.69973, 0.69973, 0.69973],
							"uv": {
								"north": {"uv": [67, 57], "uv_size": [-1, 1]},
								"east": {"uv": [66, 57], "uv_size": [1, 1]},
								"south": {"uv": [66, 57], "uv_size": [1, 1]},
								"west": {"uv": [66, 57], "uv_size": [1, 1]},
								"up": {"uv": [67, 58], "uv_size": [-1, -1]},
								"down": {"uv": [67, 57], "uv_size": [-1, 1]}
							}
						},
						{
							"origin": [1.52213, 13.4, -29.5632],
							"size": [0.69973, 0.69973, 0.69973],
							"uv": {
								"north": {"uv": [68, 57], "uv_size": [-1, 1]},
								"east": {"uv": [67, 57], "uv_size": [1, 1]},
								"south": {"uv": [67, 57], "uv_size": [1, 1]},
								"west": {"uv": [67, 57], "uv_size": [1, 1]},
								"up": {"uv": [68, 58], "uv_size": [-1, -1]},
								"down": {"uv": [68, 57], "uv_size": [-1, 1]}
							}
						},
						{
							"origin": [0.8224, 13.4, -29.5632],
							"size": [0.69973, 0.69973, 0.69973],
							"uv": {
								"north": {"uv": [69, 57], "uv_size": [-1, 1]},
								"east": {"uv": [68, 57], "uv_size": [1, 1]},
								"south": {"uv": [68, 57], "uv_size": [1, 1]},
								"west": {"uv": [68, 57], "uv_size": [1, 1]},
								"up": {"uv": [69, 58], "uv_size": [-1, -1]},
								"down": {"uv": [69, 57], "uv_size": [-1, 1]}
							}
						},
						{
							"origin": [1.52213, 13.4, -28.86347],
							"size": [0.69973, 0.69973, 0.69973],
							"uv": {
								"north": {"uv": [68, 58], "uv_size": [-1, 1]},
								"east": {"uv": [67, 58], "uv_size": [1, 1]},
								"south": {"uv": [67, 58], "uv_size": [1, 1]},
								"west": {"uv": [67, 58], "uv_size": [1, 1]},
								"up": {"uv": [68, 59], "uv_size": [-1, -1]},
								"down": {"uv": [68, 58], "uv_size": [-1, 1]}
							}
						},
						{
							"origin": [0.8224, 13.4, -28.86347],
							"size": [0.69973, 0.69973, 0.69973],
							"uv": {
								"north": {"uv": [69, 58], "uv_size": [-1, 1]},
								"east": {"uv": [68, 58], "uv_size": [1, 1]},
								"south": {"uv": [68, 58], "uv_size": [1, 1]},
								"west": {"uv": [68, 58], "uv_size": [1, 1]},
								"up": {"uv": [69, 59], "uv_size": [-1, -1]},
								"down": {"uv": [69, 58], "uv_size": [-1, 1]}
							}
						},
						{
							"origin": [0.12267, 13.4, -28.86347],
							"size": [0.69973, 0.69973, 0.69973],
							"uv": {
								"north": {"uv": [70, 58], "uv_size": [-1, 1]},
								"east": {"uv": [69, 58], "uv_size": [1, 1]},
								"south": {"uv": [69, 58], "uv_size": [1, 1]},
								"west": {"uv": [69, 58], "uv_size": [1, 1]},
								"up": {"uv": [70, 59], "uv_size": [-1, -1]},
								"down": {"uv": [70, 58], "uv_size": [-1, 1]}
							}
						},
						{
							"origin": [-0.57707, 13.4, -28.86347],
							"size": [0.69973, 0.69973, 0.69973],
							"uv": {
								"north": {"uv": [71, 58], "uv_size": [-1, 1]},
								"east": {"uv": [70, 58], "uv_size": [1, 1]},
								"south": {"uv": [70, 58], "uv_size": [1, 1]},
								"west": {"uv": [70, 58], "uv_size": [1, 1]},
								"up": {"uv": [71, 59], "uv_size": [-1, -1]},
								"down": {"uv": [71, 58], "uv_size": [-1, 1]}
							}
						},
						{
							"origin": [0.12267, 13.4, -28.16373],
							"size": [0.69973, 0.69973, 0.69973],
							"uv": {
								"north": {"uv": [70, 59], "uv_size": [-1, 1]},
								"east": {"uv": [69, 59], "uv_size": [1, 1]},
								"south": {"uv": [69, 59], "uv_size": [1, 1]},
								"west": {"uv": [69, 59], "uv_size": [1, 1]},
								"up": {"uv": [70, 60], "uv_size": [-1, -1]},
								"down": {"uv": [70, 59], "uv_size": [-1, 1]}
							}
						},
						{
							"origin": [-0.57707, 13.4, -28.16373],
							"size": [0.69973, 0.69973, 0.69973],
							"uv": {
								"north": {"uv": [71, 59], "uv_size": [-1, 1]},
								"east": {"uv": [70, 59], "uv_size": [1, 1]},
								"south": {"uv": [70, 59], "uv_size": [1, 1]},
								"west": {"uv": [70, 59], "uv_size": [1, 1]},
								"up": {"uv": [71, 60], "uv_size": [-1, -1]},
								"down": {"uv": [71, 59], "uv_size": [-1, 1]}
							}
						},
						{
							"origin": [-1.2768, 13.4, -28.16373],
							"size": [0.69973, 0.69973, 0.69973],
							"uv": {
								"north": {"uv": [72, 59], "uv_size": [-1, 1]},
								"east": {"uv": [71, 59], "uv_size": [1, 1]},
								"south": {"uv": [71, 59], "uv_size": [1, 1]},
								"west": {"uv": [71, 59], "uv_size": [1, 1]},
								"up": {"uv": [72, 60], "uv_size": [-1, -1]},
								"down": {"uv": [72, 59], "uv_size": [-1, 1]}
							}
						},
						{
							"origin": [-1.97653, 13.4, -28.16373],
							"size": [0.69973, 0.69973, 0.69973],
							"uv": {
								"north": {"uv": [73, 59], "uv_size": [-1, 1]},
								"east": {"uv": [72, 59], "uv_size": [1, 1]},
								"south": {"uv": [72, 59], "uv_size": [1, 1]},
								"west": {"uv": [72, 59], "uv_size": [1, 1]},
								"up": {"uv": [73, 60], "uv_size": [-1, -1]},
								"down": {"uv": [73, 59], "uv_size": [-1, 1]}
							}
						},
						{
							"origin": [-1.2768, 13.4, -27.464],
							"size": [0.69973, 0.69973, 0.69973],
							"uv": {
								"north": {"uv": [72, 60], "uv_size": [-1, 1]},
								"east": {"uv": [71, 60], "uv_size": [1, 1]},
								"south": {"uv": [71, 60], "uv_size": [1, 1]},
								"west": {"uv": [71, 60], "uv_size": [1, 1]},
								"up": {"uv": [72, 61], "uv_size": [-1, -1]},
								"down": {"uv": [72, 60], "uv_size": [-1, 1]}
							}
						},
						{
							"origin": [-1.97653, 13.4, -27.464],
							"size": [0.69973, 0.69973, 0.69973],
							"uv": {
								"north": {"uv": [73, 60], "uv_size": [-1, 1]},
								"east": {"uv": [72, 60], "uv_size": [1, 1]},
								"south": {"uv": [72, 60], "uv_size": [1, 1]},
								"west": {"uv": [72, 60], "uv_size": [1, 1]},
								"up": {"uv": [73, 61], "uv_size": [-1, -1]},
								"down": {"uv": [73, 60], "uv_size": [-1, 1]}
							}
						},
						{
							"origin": [-2.67627, 13.4, -27.464],
							"size": [0.69973, 0.69973, 0.69973],
							"uv": {
								"north": {"uv": [74, 60], "uv_size": [-1, 1]},
								"east": {"uv": [73, 60], "uv_size": [1, 1]},
								"south": {"uv": [73, 60], "uv_size": [1, 1]},
								"west": {"uv": [73, 60], "uv_size": [1, 1]},
								"up": {"uv": [74, 61], "uv_size": [-1, -1]},
								"down": {"uv": [74, 60], "uv_size": [-1, 1]}
							}
						},
						{
							"origin": [-3.376, 13.4, -27.464],
							"size": [0.69973, 0.69973, 0.69973],
							"uv": {
								"north": {"uv": [75, 60], "uv_size": [-1, 1]},
								"east": {"uv": [74, 60], "uv_size": [1, 1]},
								"south": {"uv": [74, 60], "uv_size": [1, 1]},
								"west": {"uv": [74, 60], "uv_size": [1, 1]},
								"up": {"uv": [75, 61], "uv_size": [-1, -1]},
								"down": {"uv": [75, 60], "uv_size": [-1, 1]}
							}
						},
						{
							"origin": [-2.67627, 13.4, -26.76427],
							"size": [0.69973, 0.69973, 0.69973],
							"uv": {
								"north": {"uv": [74, 61], "uv_size": [-1, 1]},
								"east": {"uv": [73, 61], "uv_size": [1, 1]},
								"south": {"uv": [73, 61], "uv_size": [1, 1]},
								"west": {"uv": [73, 61], "uv_size": [1, 1]},
								"up": {"uv": [74, 62], "uv_size": [-1, -1]},
								"down": {"uv": [74, 61], "uv_size": [-1, 1]}
							}
						},
						{
							"origin": [-3.376, 13.4, -26.76427],
							"size": [0.69973, 0.69973, 0.69973],
							"uv": {
								"north": {"uv": [75, 61], "uv_size": [-1, 1]},
								"east": {"uv": [74, 61], "uv_size": [1, 1]},
								"south": {"uv": [74, 61], "uv_size": [1, 1]},
								"west": {"uv": [74, 61], "uv_size": [1, 1]},
								"up": {"uv": [75, 62], "uv_size": [-1, -1]},
								"down": {"uv": [75, 61], "uv_size": [-1, 1]}
							}
						},
						{
							"origin": [-4.07573, 13.4, -26.76427],
							"size": [0.69973, 0.69973, 0.69973],
							"uv": {
								"north": {"uv": [76, 61], "uv_size": [-1, 1]},
								"east": {"uv": [75, 61], "uv_size": [1, 1]},
								"south": {"uv": [75, 61], "uv_size": [1, 1]},
								"west": {"uv": [75, 61], "uv_size": [1, 1]},
								"up": {"uv": [76, 62], "uv_size": [-1, -1]},
								"down": {"uv": [76, 61], "uv_size": [-1, 1]}
							}
						},
						{
							"origin": [-4.77547, 13.4, -26.76427],
							"size": [0.69973, 0.69973, 0.69973],
							"uv": {
								"north": {"uv": [77, 61], "uv_size": [-1, 1]},
								"east": {"uv": [76, 61], "uv_size": [1, 1]},
								"south": {"uv": [76, 61], "uv_size": [1, 1]},
								"west": {"uv": [76, 61], "uv_size": [1, 1]},
								"up": {"uv": [77, 62], "uv_size": [-1, -1]},
								"down": {"uv": [77, 61], "uv_size": [-1, 1]}
							}
						},
						{
							"origin": [-4.07573, 13.4, -26.06453],
							"size": [0.69973, 0.69973, 0.69973],
							"uv": {
								"north": {"uv": [76, 62], "uv_size": [-1, 1]},
								"east": {"uv": [75, 62], "uv_size": [1, 1]},
								"south": {"uv": [75, 62], "uv_size": [1, 1]},
								"west": {"uv": [75, 62], "uv_size": [1, 1]},
								"up": {"uv": [76, 63], "uv_size": [-1, -1]},
								"down": {"uv": [76, 62], "uv_size": [-1, 1]}
							}
						},
						{
							"origin": [-4.77547, 13.4, -26.06453],
							"size": [0.69973, 0.69973, 0.69973],
							"uv": {
								"north": {"uv": [77, 62], "uv_size": [-1, 1]},
								"east": {"uv": [76, 62], "uv_size": [1, 1]},
								"south": {"uv": [76, 62], "uv_size": [1, 1]},
								"west": {"uv": [76, 62], "uv_size": [1, 1]},
								"up": {"uv": [77, 63], "uv_size": [-1, -1]},
								"down": {"uv": [77, 62], "uv_size": [-1, 1]}
							}
						},
						{
							"origin": [-5.4752, 13.4, -26.06453],
							"size": [0.69973, 0.69973, 0.69973],
							"uv": {
								"north": {"uv": [78, 62], "uv_size": [-1, 1]},
								"east": {"uv": [77, 62], "uv_size": [1, 1]},
								"south": {"uv": [77, 62], "uv_size": [1, 1]},
								"west": {"uv": [77, 62], "uv_size": [1, 1]},
								"up": {"uv": [78, 63], "uv_size": [-1, -1]},
								"down": {"uv": [78, 62], "uv_size": [-1, 1]}
							}
						},
						{
							"origin": [-6.17493, 13.4, -26.06453],
							"size": [0.69973, 0.69973, 0.69973],
							"uv": {
								"north": {"uv": [79, 62], "uv_size": [-1, 1]},
								"east": {"uv": [78, 62], "uv_size": [1, 1]},
								"south": {"uv": [78, 62], "uv_size": [1, 1]},
								"west": {"uv": [78, 62], "uv_size": [1, 1]},
								"up": {"uv": [79, 63], "uv_size": [-1, -1]},
								"down": {"uv": [79, 62], "uv_size": [-1, 1]}
							}
						},
						{
							"origin": [-5.4752, 13.4, -25.3648],
							"size": [0.69973, 0.69973, 0.69973],
							"uv": {
								"north": {"uv": [78, 63], "uv_size": [-1, 1]},
								"east": {"uv": [77, 63], "uv_size": [1, 1]},
								"south": {"uv": [77, 63], "uv_size": [1, 1]},
								"west": {"uv": [77, 63], "uv_size": [1, 1]},
								"up": {"uv": [78, 64], "uv_size": [-1, -1]},
								"down": {"uv": [78, 63], "uv_size": [-1, 1]}
							}
						},
						{
							"origin": [-6.17493, 13.4, -25.3648],
							"size": [0.69973, 0.69973, 0.69973],
							"uv": {
								"north": {"uv": [79, 63], "uv_size": [-1, 1]},
								"east": {"uv": [78, 63], "uv_size": [1, 1]},
								"south": {"uv": [78, 63], "uv_size": [1, 1]},
								"west": {"uv": [78, 63], "uv_size": [1, 1]},
								"up": {"uv": [79, 64], "uv_size": [-1, -1]},
								"down": {"uv": [79, 63], "uv_size": [-1, 1]}
							}
						},
						{
							"origin": [-6.87467, 13.4, -25.3648],
							"size": [0.69973, 0.69973, 0.69973],
							"uv": {
								"north": {"uv": [80, 63], "uv_size": [-1, 1]},
								"east": {"uv": [79, 63], "uv_size": [1, 1]},
								"south": {"uv": [79, 63], "uv_size": [1, 1]},
								"west": {"uv": [79, 63], "uv_size": [1, 1]},
								"up": {"uv": [80, 64], "uv_size": [-1, -1]},
								"down": {"uv": [80, 63], "uv_size": [-1, 1]}
							}
						},
						{
							"origin": [-6.87467, 13.4, -24.66507],
							"size": [0.69973, 0.69973, 0.69973],
							"uv": {
								"north": {"uv": [80, 64], "uv_size": [-1, 1]},
								"east": {"uv": [79, 64], "uv_size": [1, 1]},
								"south": {"uv": [79, 64], "uv_size": [1, 1]},
								"west": {"uv": [79, 64], "uv_size": [1, 1]},
								"up": {"uv": [80, 65], "uv_size": [-1, -1]},
								"down": {"uv": [80, 64], "uv_size": [-1, 1]}
							}
						},
						{
							"origin": [-7.5744, 13.4, -24.66507],
							"size": [0.69973, 0.69973, 0.69973],
							"uv": {
								"north": {"uv": [81, 64], "uv_size": [-1, 1]},
								"east": {"uv": [80, 64], "uv_size": [1, 1]},
								"south": {"uv": [80, 64], "uv_size": [1, 1]},
								"west": {"uv": [80, 64], "uv_size": [1, 1]},
								"up": {"uv": [81, 65], "uv_size": [-1, -1]},
								"down": {"uv": [81, 64], "uv_size": [-1, 1]}
							}
						},
						{
							"origin": [-7.5744, 13.4, -23.96533],
							"size": [0.69973, 0.69973, 0.69973],
							"uv": {
								"north": {"uv": [81, 65], "uv_size": [-1, 1]},
								"east": {"uv": [80, 65], "uv_size": [1, 1]},
								"south": {"uv": [80, 65], "uv_size": [1, 1]},
								"west": {"uv": [80, 65], "uv_size": [1, 1]},
								"up": {"uv": [81, 66], "uv_size": [-1, -1]},
								"down": {"uv": [81, 65], "uv_size": [-1, 1]}
							}
						},
						{
							"origin": [-8.27413, 13.4, -23.96533],
							"size": [0.69973, 0.69973, 0.69973],
							"uv": {
								"north": {"uv": [82, 65], "uv_size": [-1, 1]},
								"east": {"uv": [81, 65], "uv_size": [1, 1]},
								"south": {"uv": [81, 65], "uv_size": [1, 1]},
								"west": {"uv": [81, 65], "uv_size": [1, 1]},
								"up": {"uv": [82, 66], "uv_size": [-1, -1]},
								"down": {"uv": [82, 65], "uv_size": [-1, 1]}
							}
						},
						{
							"origin": [-8.27413, 13.4, -23.2656],
							"size": [0.69973, 0.69973, 0.69973],
							"uv": {
								"north": {"uv": [82, 66], "uv_size": [-1, 1]},
								"east": {"uv": [81, 66], "uv_size": [1, 1]},
								"south": {"uv": [81, 66], "uv_size": [1, 1]},
								"west": {"uv": [81, 66], "uv_size": [1, 1]},
								"up": {"uv": [82, 67], "uv_size": [-1, -1]},
								"down": {"uv": [82, 66], "uv_size": [-1, 1]}
							}
						},
						{
							"origin": [-8.97387, 13.4, -23.2656],
							"size": [0.69973, 0.69973, 0.69973],
							"uv": {
								"north": {"uv": [83, 66], "uv_size": [-1, 1]},
								"east": {"uv": [82, 66], "uv_size": [1, 1]},
								"south": {"uv": [82, 66], "uv_size": [1, 1]},
								"west": {"uv": [82, 66], "uv_size": [1, 1]},
								"up": {"uv": [83, 67], "uv_size": [-1, -1]},
								"down": {"uv": [83, 66], "uv_size": [-1, 1]}
							}
						},
						{
							"origin": [-8.97387, 13.4, -22.56587],
							"size": [0.69973, 0.69973, 0.69973],
							"uv": {
								"north": {"uv": [83, 67], "uv_size": [-1, 1]},
								"east": {"uv": [82, 67], "uv_size": [1, 1]},
								"south": {"uv": [82, 67], "uv_size": [1, 1]},
								"west": {"uv": [82, 67], "uv_size": [1, 1]},
								"up": {"uv": [83, 68], "uv_size": [-1, -1]},
								"down": {"uv": [83, 67], "uv_size": [-1, 1]}
							}
						},
						{
							"origin": [-9.6736, 13.4, -22.56587],
							"size": [0.69973, 0.69973, 0.69973],
							"uv": {
								"north": {"uv": [84, 67], "uv_size": [-1, 1]},
								"east": {"uv": [83, 67], "uv_size": [1, 1]},
								"south": {"uv": [83, 67], "uv_size": [1, 1]},
								"west": {"uv": [83, 67], "uv_size": [1, 1]},
								"up": {"uv": [84, 68], "uv_size": [-1, -1]},
								"down": {"uv": [84, 67], "uv_size": [-1, 1]}
							}
						},
						{
							"origin": [-9.6736, 13.4, -21.86613],
							"size": [0.69973, 0.69973, 0.69973],
							"uv": {
								"north": {"uv": [84, 68], "uv_size": [-1, 1]},
								"east": {"uv": [83, 68], "uv_size": [1, 1]},
								"south": {"uv": [83, 68], "uv_size": [1, 1]},
								"west": {"uv": [83, 68], "uv_size": [1, 1]},
								"up": {"uv": [84, 69], "uv_size": [-1, -1]},
								"down": {"uv": [84, 68], "uv_size": [-1, 1]}
							}
						},
						{
							"origin": [-10.37333, 13.4, -21.86613],
							"size": [0.69973, 0.69973, 0.69973],
							"uv": {
								"north": {"uv": [85, 68], "uv_size": [-1, 1]},
								"east": {"uv": [84, 68], "uv_size": [1, 1]},
								"south": {"uv": [84, 68], "uv_size": [1, 1]},
								"west": {"uv": [84, 68], "uv_size": [1, 1]},
								"up": {"uv": [85, 69], "uv_size": [-1, -1]},
								"down": {"uv": [85, 68], "uv_size": [-1, 1]}
							}
						},
						{
							"origin": [-10.37333, 13.4, -21.1664],
							"size": [0.69973, 0.69973, 0.69973],
							"uv": {
								"north": {"uv": [85, 69], "uv_size": [-1, 1]},
								"east": {"uv": [84, 69], "uv_size": [1, 1]},
								"south": {"uv": [84, 69], "uv_size": [1, 1]},
								"west": {"uv": [84, 69], "uv_size": [1, 1]},
								"up": {"uv": [85, 70], "uv_size": [-1, -1]},
								"down": {"uv": [85, 69], "uv_size": [-1, 1]}
							}
						},
						{
							"origin": [-11.07307, 13.4, -21.1664],
							"size": [0.69973, 0.69973, 0.69973],
							"uv": {
								"north": {"uv": [86, 69], "uv_size": [-1, 1]},
								"east": {"uv": [85, 69], "uv_size": [1, 1]},
								"south": {"uv": [85, 69], "uv_size": [1, 1]},
								"west": {"uv": [85, 69], "uv_size": [1, 1]},
								"up": {"uv": [86, 70], "uv_size": [-1, -1]},
								"down": {"uv": [86, 69], "uv_size": [-1, 1]}
							}
						},
						{
							"origin": [-11.07307, 13.4, -20.46667],
							"size": [0.69973, 0.69973, 0.69973],
							"uv": {
								"north": {"uv": [86, 70], "uv_size": [-1, 1]},
								"east": {"uv": [85, 70], "uv_size": [1, 1]},
								"south": {"uv": [85, 70], "uv_size": [1, 1]},
								"west": {"uv": [85, 70], "uv_size": [1, 1]},
								"up": {"uv": [86, 71], "uv_size": [-1, -1]},
								"down": {"uv": [86, 70], "uv_size": [-1, 1]}
							}
						},
						{
							"origin": [-11.7728, 13.4, -20.46667],
							"size": [0.69973, 0.69973, 0.69973],
							"uv": {
								"north": {"uv": [87, 70], "uv_size": [-1, 1]},
								"east": {"uv": [86, 70], "uv_size": [1, 1]},
								"south": {"uv": [86, 70], "uv_size": [1, 1]},
								"west": {"uv": [86, 70], "uv_size": [1, 1]},
								"up": {"uv": [87, 71], "uv_size": [-1, -1]},
								"down": {"uv": [87, 70], "uv_size": [-1, 1]}
							}
						},
						{
							"origin": [-11.07307, 13.4, -19.76693],
							"size": [0.69973, 0.69973, 0.69973],
							"uv": {
								"north": {"uv": [86, 71], "uv_size": [-1, 1]},
								"east": {"uv": [85, 71], "uv_size": [1, 1]},
								"south": {"uv": [85, 71], "uv_size": [1, 1]},
								"west": {"uv": [85, 71], "uv_size": [1, 1]},
								"up": {"uv": [86, 72], "uv_size": [-1, -1]},
								"down": {"uv": [86, 71], "uv_size": [-1, 1]}
							}
						},
						{
							"origin": [-11.7728, 13.4, -19.76693],
							"size": [0.69973, 0.69973, 0.69973],
							"uv": {
								"north": {"uv": [87, 71], "uv_size": [-1, 1]},
								"east": {"uv": [86, 71], "uv_size": [1, 1]},
								"south": {"uv": [86, 71], "uv_size": [1, 1]},
								"west": {"uv": [86, 71], "uv_size": [1, 1]},
								"up": {"uv": [87, 72], "uv_size": [-1, -1]},
								"down": {"uv": [87, 71], "uv_size": [-1, 1]}
							}
						},
						{
							"origin": [-11.7728, 13.4, -19.0672],
							"size": [0.69973, 0.69973, 0.69973],
							"uv": {
								"north": {"uv": [87, 72], "uv_size": [-1, 1]},
								"east": {"uv": [86, 72], "uv_size": [1, 1]},
								"south": {"uv": [86, 72], "uv_size": [1, 1]},
								"west": {"uv": [86, 72], "uv_size": [1, 1]},
								"up": {"uv": [87, 73], "uv_size": [-1, -1]},
								"down": {"uv": [87, 72], "uv_size": [-1, 1]}
							}
						},
						{
							"origin": [-12.47253, 13.4, -19.0672],
							"size": [0.69973, 0.69973, 0.69973],
							"uv": {
								"north": {"uv": [88, 72], "uv_size": [-1, 1]},
								"east": {"uv": [87, 72], "uv_size": [1, 1]},
								"south": {"uv": [87, 72], "uv_size": [1, 1]},
								"west": {"uv": [87, 72], "uv_size": [1, 1]},
								"up": {"uv": [88, 73], "uv_size": [-1, -1]},
								"down": {"uv": [88, 72], "uv_size": [-1, 1]}
							}
						},
						{
							"origin": [-11.7728, 13.4, -18.36747],
							"size": [0.69973, 0.69973, 0.69973],
							"uv": {
								"north": {"uv": [87, 73], "uv_size": [-1, 1]},
								"east": {"uv": [86, 73], "uv_size": [1, 1]},
								"south": {"uv": [86, 73], "uv_size": [1, 1]},
								"west": {"uv": [86, 73], "uv_size": [1, 1]},
								"up": {"uv": [87, 74], "uv_size": [-1, -1]},
								"down": {"uv": [87, 73], "uv_size": [-1, 1]}
							}
						},
						{
							"origin": [-12.47253, 13.4, -18.36747],
							"size": [0.69973, 0.69973, 0.69973],
							"uv": {
								"north": {"uv": [88, 73], "uv_size": [-1, 1]},
								"east": {"uv": [87, 73], "uv_size": [1, 1]},
								"south": {"uv": [87, 73], "uv_size": [1, 1]},
								"west": {"uv": [87, 73], "uv_size": [1, 1]},
								"up": {"uv": [88, 74], "uv_size": [-1, -1]},
								"down": {"uv": [88, 73], "uv_size": [-1, 1]}
							}
						},
						{
							"origin": [-12.47253, 13.4, -17.66773],
							"size": [0.69973, 0.69973, 0.69973],
							"uv": {
								"north": {"uv": [88, 74], "uv_size": [-1, 1]},
								"east": {"uv": [87, 74], "uv_size": [1, 1]},
								"south": {"uv": [87, 74], "uv_size": [1, 1]},
								"west": {"uv": [87, 74], "uv_size": [1, 1]},
								"up": {"uv": [88, 75], "uv_size": [-1, -1]},
								"down": {"uv": [88, 74], "uv_size": [-1, 1]}
							}
						},
						{
							"origin": [-13.17227, 13.4, -17.66773],
							"size": [0.69973, 0.69973, 0.69973],
							"uv": {
								"north": {"uv": [89, 74], "uv_size": [-1, 1]},
								"east": {"uv": [88, 74], "uv_size": [1, 1]},
								"south": {"uv": [88, 74], "uv_size": [1, 1]},
								"west": {"uv": [88, 74], "uv_size": [1, 1]},
								"up": {"uv": [89, 75], "uv_size": [-1, -1]},
								"down": {"uv": [89, 74], "uv_size": [-1, 1]}
							}
						},
						{
							"origin": [-13.17227, 13.4, -16.968],
							"size": [0.69973, 0.69973, 0.69973],
							"uv": {
								"north": {"uv": [89, 75], "uv_size": [-1, 1]},
								"east": {"uv": [88, 75], "uv_size": [1, 1]},
								"south": {"uv": [88, 75], "uv_size": [1, 1]},
								"west": {"uv": [88, 75], "uv_size": [1, 1]},
								"up": {"uv": [89, 76], "uv_size": [-1, -1]},
								"down": {"uv": [89, 75], "uv_size": [-1, 1]}
							}
						},
						{
							"origin": [-13.872, 13.4, -16.968],
							"size": [0.69973, 0.69973, 0.69973],
							"uv": {
								"north": {"uv": [90, 75], "uv_size": [-1, 1]},
								"east": {"uv": [89, 75], "uv_size": [1, 1]},
								"south": {"uv": [89, 75], "uv_size": [1, 1]},
								"west": {"uv": [89, 75], "uv_size": [1, 1]},
								"up": {"uv": [90, 76], "uv_size": [-1, -1]},
								"down": {"uv": [90, 75], "uv_size": [-1, 1]}
							}
						},
						{
							"origin": [-13.17227, 13.4, -16.26827],
							"size": [0.69973, 0.69973, 0.69973],
							"uv": {
								"north": {"uv": [89, 76], "uv_size": [-1, 1]},
								"east": {"uv": [88, 76], "uv_size": [1, 1]},
								"south": {"uv": [88, 76], "uv_size": [1, 1]},
								"west": {"uv": [88, 76], "uv_size": [1, 1]},
								"up": {"uv": [89, 77], "uv_size": [-1, -1]},
								"down": {"uv": [89, 76], "uv_size": [-1, 1]}
							}
						},
						{
							"origin": [-13.872, 13.4, -16.26827],
							"size": [0.69973, 0.69973, 0.69973],
							"uv": {
								"north": {"uv": [90, 76], "uv_size": [-1, 1]},
								"east": {"uv": [89, 76], "uv_size": [1, 1]},
								"south": {"uv": [89, 76], "uv_size": [1, 1]},
								"west": {"uv": [89, 76], "uv_size": [1, 1]},
								"up": {"uv": [90, 77], "uv_size": [-1, -1]},
								"down": {"uv": [90, 76], "uv_size": [-1, 1]}
							}
						},
						{
							"origin": [-13.17227, 13.4, -15.56853],
							"size": [0.69973, 0.69973, 0.69973],
							"uv": {
								"north": {"uv": [89, 77], "uv_size": [-1, 1]},
								"east": {"uv": [88, 77], "uv_size": [1, 1]},
								"south": {"uv": [88, 77], "uv_size": [1, 1]},
								"west": {"uv": [88, 77], "uv_size": [1, 1]},
								"up": {"uv": [89, 78], "uv_size": [-1, -1]},
								"down": {"uv": [89, 77], "uv_size": [-1, 1]}
							}
						},
						{
							"origin": [-13.872, 13.4, -15.56853],
							"size": [0.69973, 0.69973, 0.69973],
							"uv": {
								"north": {"uv": [90, 77], "uv_size": [-1, 1]},
								"east": {"uv": [89, 77], "uv_size": [1, 1]},
								"south": {"uv": [89, 77], "uv_size": [1, 1]},
								"west": {"uv": [89, 77], "uv_size": [1, 1]},
								"up": {"uv": [90, 78], "uv_size": [-1, -1]},
								"down": {"uv": [90, 77], "uv_size": [-1, 1]}
							}
						},
						{
							"origin": [-13.872, 13.4, -14.8688],
							"size": [0.69973, 0.69973, 0.69973],
							"uv": {
								"north": {"uv": [90, 78], "uv_size": [-1, 1]},
								"east": {"uv": [89, 78], "uv_size": [1, 1]},
								"south": {"uv": [89, 78], "uv_size": [1, 1]},
								"west": {"uv": [89, 78], "uv_size": [1, 1]},
								"up": {"uv": [90, 79], "uv_size": [-1, -1]},
								"down": {"uv": [90, 78], "uv_size": [-1, 1]}
							}
						},
						{
							"origin": [-14.57173, 13.4, -14.8688],
							"size": [0.69973, 0.69973, 0.69973],
							"uv": {
								"north": {"uv": [91, 78], "uv_size": [-1, 1]},
								"east": {"uv": [90, 78], "uv_size": [1, 1]},
								"south": {"uv": [90, 78], "uv_size": [1, 1]},
								"west": {"uv": [90, 78], "uv_size": [1, 1]},
								"up": {"uv": [91, 79], "uv_size": [-1, -1]},
								"down": {"uv": [91, 78], "uv_size": [-1, 1]}
							}
						},
						{
							"origin": [-13.872, 13.4, -14.16907],
							"size": [0.69973, 0.69973, 0.69973],
							"uv": {
								"north": {"uv": [90, 79], "uv_size": [-1, 1]},
								"east": {"uv": [89, 79], "uv_size": [1, 1]},
								"south": {"uv": [89, 79], "uv_size": [1, 1]},
								"west": {"uv": [89, 79], "uv_size": [1, 1]},
								"up": {"uv": [90, 80], "uv_size": [-1, -1]},
								"down": {"uv": [90, 79], "uv_size": [-1, 1]}
							}
						},
						{
							"origin": [-14.57173, 13.4, -14.16907],
							"size": [0.69973, 0.69973, 0.69973],
							"uv": {
								"north": {"uv": [91, 79], "uv_size": [-1, 1]},
								"east": {"uv": [90, 79], "uv_size": [1, 1]},
								"south": {"uv": [90, 79], "uv_size": [1, 1]},
								"west": {"uv": [90, 79], "uv_size": [1, 1]},
								"up": {"uv": [91, 80], "uv_size": [-1, -1]},
								"down": {"uv": [91, 79], "uv_size": [-1, 1]}
							}
						},
						{
							"origin": [-13.872, 13.4, -13.46933],
							"size": [0.69973, 0.69973, 0.69973],
							"uv": {
								"north": {"uv": [90, 80], "uv_size": [-1, 1]},
								"east": {"uv": [89, 80], "uv_size": [1, 1]},
								"south": {"uv": [89, 80], "uv_size": [1, 1]},
								"west": {"uv": [89, 80], "uv_size": [1, 1]},
								"up": {"uv": [90, 81], "uv_size": [-1, -1]},
								"down": {"uv": [90, 80], "uv_size": [-1, 1]}
							}
						},
						{
							"origin": [-14.57173, 13.4, -13.46933],
							"size": [0.69973, 0.69973, 0.69973],
							"uv": {
								"north": {"uv": [91, 80], "uv_size": [-1, 1]},
								"east": {"uv": [90, 80], "uv_size": [1, 1]},
								"south": {"uv": [90, 80], "uv_size": [1, 1]},
								"west": {"uv": [90, 80], "uv_size": [1, 1]},
								"up": {"uv": [91, 81], "uv_size": [-1, -1]},
								"down": {"uv": [91, 80], "uv_size": [-1, 1]}
							}
						},
						{
							"origin": [-14.57173, 13.4, -12.7696],
							"size": [0.69973, 0.69973, 0.69973],
							"uv": {
								"north": {"uv": [91, 81], "uv_size": [-1, 1]},
								"east": {"uv": [90, 81], "uv_size": [1, 1]},
								"south": {"uv": [90, 81], "uv_size": [1, 1]},
								"west": {"uv": [90, 81], "uv_size": [1, 1]},
								"up": {"uv": [91, 82], "uv_size": [-1, -1]},
								"down": {"uv": [91, 81], "uv_size": [-1, 1]}
							}
						},
						{
							"origin": [-15.27147, 13.4, -12.7696],
							"size": [0.69973, 0.69973, 0.69973],
							"uv": {
								"north": {"uv": [92, 81], "uv_size": [-1, 1]},
								"east": {"uv": [91, 81], "uv_size": [1, 1]},
								"south": {"uv": [91, 81], "uv_size": [1, 1]},
								"west": {"uv": [91, 81], "uv_size": [1, 1]},
								"up": {"uv": [92, 82], "uv_size": [-1, -1]},
								"down": {"uv": [92, 81], "uv_size": [-1, 1]}
							}
						},
						{
							"origin": [-14.57173, 13.4, -12.06987],
							"size": [0.69973, 0.69973, 0.69973],
							"uv": {
								"north": {"uv": [91, 82], "uv_size": [-1, 1]},
								"east": {"uv": [90, 82], "uv_size": [1, 1]},
								"south": {"uv": [90, 82], "uv_size": [1, 1]},
								"west": {"uv": [90, 82], "uv_size": [1, 1]},
								"up": {"uv": [91, 83], "uv_size": [-1, -1]},
								"down": {"uv": [91, 82], "uv_size": [-1, 1]}
							}
						},
						{
							"origin": [-15.27147, 13.4, -12.06987],
							"size": [0.69973, 0.69973, 0.69973],
							"uv": {
								"north": {"uv": [92, 82], "uv_size": [-1, 1]},
								"east": {"uv": [91, 82], "uv_size": [1, 1]},
								"south": {"uv": [91, 82], "uv_size": [1, 1]},
								"west": {"uv": [91, 82], "uv_size": [1, 1]},
								"up": {"uv": [92, 83], "uv_size": [-1, -1]},
								"down": {"uv": [92, 82], "uv_size": [-1, 1]}
							}
						},
						{
							"origin": [-14.57173, 13.4, -11.37013],
							"size": [0.69973, 0.69973, 0.69973],
							"uv": {
								"north": {"uv": [91, 83], "uv_size": [-1, 1]},
								"east": {"uv": [90, 83], "uv_size": [1, 1]},
								"south": {"uv": [90, 83], "uv_size": [1, 1]},
								"west": {"uv": [90, 83], "uv_size": [1, 1]},
								"up": {"uv": [91, 84], "uv_size": [-1, -1]},
								"down": {"uv": [91, 83], "uv_size": [-1, 1]}
							}
						},
						{
							"origin": [-15.27147, 13.4, -11.37013],
							"size": [0.69973, 0.69973, 0.69973],
							"uv": {
								"north": {"uv": [92, 83], "uv_size": [-1, 1]},
								"east": {"uv": [91, 83], "uv_size": [1, 1]},
								"south": {"uv": [91, 83], "uv_size": [1, 1]},
								"west": {"uv": [91, 83], "uv_size": [1, 1]},
								"up": {"uv": [92, 84], "uv_size": [-1, -1]},
								"down": {"uv": [92, 83], "uv_size": [-1, 1]}
							}
						},
						{
							"origin": [-14.57173, 13.4, -10.6704],
							"size": [0.69973, 0.69973, 0.69973],
							"uv": {
								"north": {"uv": [91, 84], "uv_size": [-1, 1]},
								"east": {"uv": [90, 84], "uv_size": [1, 1]},
								"south": {"uv": [90, 84], "uv_size": [1, 1]},
								"west": {"uv": [90, 84], "uv_size": [1, 1]},
								"up": {"uv": [91, 85], "uv_size": [-1, -1]},
								"down": {"uv": [91, 84], "uv_size": [-1, 1]}
							}
						},
						{
							"origin": [-15.27147, 13.4, -10.6704],
							"size": [0.69973, 0.69973, 0.69973],
							"uv": {
								"north": {"uv": [92, 84], "uv_size": [-1, 1]},
								"east": {"uv": [91, 84], "uv_size": [1, 1]},
								"south": {"uv": [91, 84], "uv_size": [1, 1]},
								"west": {"uv": [91, 84], "uv_size": [1, 1]},
								"up": {"uv": [92, 85], "uv_size": [-1, -1]},
								"down": {"uv": [92, 84], "uv_size": [-1, 1]}
							}
						},
						{
							"origin": [-14.57173, 13.4, -9.97067],
							"size": [0.69973, 0.69973, 0.69973],
							"uv": {
								"north": {"uv": [91, 85], "uv_size": [-1, 1]},
								"east": {"uv": [90, 85], "uv_size": [1, 1]},
								"south": {"uv": [90, 85], "uv_size": [1, 1]},
								"west": {"uv": [90, 85], "uv_size": [1, 1]},
								"up": {"uv": [91, 86], "uv_size": [-1, -1]},
								"down": {"uv": [91, 85], "uv_size": [-1, 1]}
							}
						},
						{
							"origin": [-15.27147, 13.4, -9.97067],
							"size": [0.69973, 0.69973, 0.69973],
							"uv": {
								"north": {"uv": [92, 85], "uv_size": [-1, 1]},
								"east": {"uv": [91, 85], "uv_size": [1, 1]},
								"south": {"uv": [91, 85], "uv_size": [1, 1]},
								"west": {"uv": [91, 85], "uv_size": [1, 1]},
								"up": {"uv": [92, 86], "uv_size": [-1, -1]},
								"down": {"uv": [92, 85], "uv_size": [-1, 1]}
							}
						},
						{
							"origin": [-13.872, 13.4, -9.27093],
							"size": [0.69973, 0.69973, 0.69973],
							"uv": {
								"north": {"uv": [90, 86], "uv_size": [-1, 1]},
								"east": {"uv": [89, 86], "uv_size": [1, 1]},
								"south": {"uv": [89, 86], "uv_size": [1, 1]},
								"west": {"uv": [89, 86], "uv_size": [1, 1]},
								"up": {"uv": [90, 87], "uv_size": [-1, -1]},
								"down": {"uv": [90, 86], "uv_size": [-1, 1]}
							}
						},
						{
							"origin": [-14.57173, 13.4, -9.27093],
							"size": [0.69973, 0.69973, 0.69973],
							"uv": {
								"north": {"uv": [91, 86], "uv_size": [-1, 1]},
								"east": {"uv": [90, 86], "uv_size": [1, 1]},
								"south": {"uv": [90, 86], "uv_size": [1, 1]},
								"west": {"uv": [90, 86], "uv_size": [1, 1]},
								"up": {"uv": [91, 87], "uv_size": [-1, -1]},
								"down": {"uv": [91, 86], "uv_size": [-1, 1]}
							}
						},
						{
							"origin": [-15.27147, 13.4, -9.27093],
							"size": [0.69973, 0.69973, 0.69973],
							"uv": {
								"north": {"uv": [92, 86], "uv_size": [-1, 1]},
								"east": {"uv": [91, 86], "uv_size": [1, 1]},
								"south": {"uv": [91, 86], "uv_size": [1, 1]},
								"west": {"uv": [91, 86], "uv_size": [1, 1]},
								"up": {"uv": [92, 87], "uv_size": [-1, -1]},
								"down": {"uv": [92, 86], "uv_size": [-1, 1]}
							}
						},
						{
							"origin": [-13.872, 13.4, -8.5712],
							"size": [0.69973, 0.69973, 0.69973],
							"uv": {
								"north": {"uv": [90, 87], "uv_size": [-1, 1]},
								"east": {"uv": [89, 87], "uv_size": [1, 1]},
								"south": {"uv": [89, 87], "uv_size": [1, 1]},
								"west": {"uv": [89, 87], "uv_size": [1, 1]},
								"up": {"uv": [90, 88], "uv_size": [-1, -1]},
								"down": {"uv": [90, 87], "uv_size": [-1, 1]}
							}
						},
						{
							"origin": [-14.57173, 13.4, -8.5712],
							"size": [0.69973, 0.69973, 0.69973],
							"uv": {
								"north": {"uv": [91, 87], "uv_size": [-1, 1]},
								"east": {"uv": [90, 87], "uv_size": [1, 1]},
								"south": {"uv": [90, 87], "uv_size": [1, 1]},
								"west": {"uv": [90, 87], "uv_size": [1, 1]},
								"up": {"uv": [91, 88], "uv_size": [-1, -1]},
								"down": {"uv": [91, 87], "uv_size": [-1, 1]}
							}
						},
						{
							"origin": [-13.872, 13.4, -7.87147],
							"size": [0.69973, 0.69973, 0.69973],
							"uv": {
								"north": {"uv": [90, 88], "uv_size": [-1, 1]},
								"east": {"uv": [89, 88], "uv_size": [1, 1]},
								"south": {"uv": [89, 88], "uv_size": [1, 1]},
								"west": {"uv": [89, 88], "uv_size": [1, 1]},
								"up": {"uv": [90, 89], "uv_size": [-1, -1]},
								"down": {"uv": [90, 88], "uv_size": [-1, 1]}
							}
						},
						{
							"origin": [-14.57173, 13.4, -7.87147],
							"size": [0.69973, 0.69973, 0.69973],
							"uv": {
								"north": {"uv": [91, 88], "uv_size": [-1, 1]},
								"east": {"uv": [90, 88], "uv_size": [1, 1]},
								"south": {"uv": [90, 88], "uv_size": [1, 1]},
								"west": {"uv": [90, 88], "uv_size": [1, 1]},
								"up": {"uv": [91, 89], "uv_size": [-1, -1]},
								"down": {"uv": [91, 88], "uv_size": [-1, 1]}
							}
						},
						{
							"origin": [-13.17227, 13.4, -7.17173],
							"size": [0.69973, 0.69973, 0.69973],
							"uv": {
								"north": {"uv": [89, 89], "uv_size": [-1, 1]},
								"east": {"uv": [88, 89], "uv_size": [1, 1]},
								"south": {"uv": [88, 89], "uv_size": [1, 1]},
								"west": {"uv": [88, 89], "uv_size": [1, 1]},
								"up": {"uv": [89, 90], "uv_size": [-1, -1]},
								"down": {"uv": [89, 89], "uv_size": [-1, 1]}
							}
						},
						{
							"origin": [-13.872, 13.4, -7.17173],
							"size": [0.69973, 0.69973, 0.69973],
							"uv": {
								"north": {"uv": [90, 89], "uv_size": [-1, 1]},
								"east": {"uv": [89, 89], "uv_size": [1, 1]},
								"south": {"uv": [89, 89], "uv_size": [1, 1]},
								"west": {"uv": [89, 89], "uv_size": [1, 1]},
								"up": {"uv": [90, 90], "uv_size": [-1, -1]},
								"down": {"uv": [90, 89], "uv_size": [-1, 1]}
							}
						},
						{
							"origin": [-14.57173, 13.4, -7.17173],
							"size": [0.69973, 0.69973, 0.69973],
							"uv": {
								"north": {"uv": [91, 89], "uv_size": [-1, 1]},
								"east": {"uv": [90, 89], "uv_size": [1, 1]},
								"south": {"uv": [90, 89], "uv_size": [1, 1]},
								"west": {"uv": [90, 89], "uv_size": [1, 1]},
								"up": {"uv": [91, 90], "uv_size": [-1, -1]},
								"down": {"uv": [91, 89], "uv_size": [-1, 1]}
							}
						},
						{
							"origin": [-13.17227, 13.4, -6.472],
							"size": [0.69973, 0.69973, 0.69973],
							"uv": {
								"north": {"uv": [89, 90], "uv_size": [-1, 1]},
								"east": {"uv": [88, 90], "uv_size": [1, 1]},
								"south": {"uv": [88, 90], "uv_size": [1, 1]},
								"west": {"uv": [88, 90], "uv_size": [1, 1]},
								"up": {"uv": [89, 91], "uv_size": [-1, -1]},
								"down": {"uv": [89, 90], "uv_size": [-1, 1]}
							}
						},
						{
							"origin": [-13.872, 13.4, -6.472],
							"size": [0.69973, 0.69973, 0.69973],
							"uv": {
								"north": {"uv": [90, 90], "uv_size": [-1, 1]},
								"east": {"uv": [89, 90], "uv_size": [1, 1]},
								"south": {"uv": [89, 90], "uv_size": [1, 1]},
								"west": {"uv": [89, 90], "uv_size": [1, 1]},
								"up": {"uv": [90, 91], "uv_size": [-1, -1]},
								"down": {"uv": [90, 90], "uv_size": [-1, 1]}
							}
						},
						{
							"origin": [-12.47253, 13.4, -5.77227],
							"size": [0.69973, 0.69973, 0.69973],
							"uv": {
								"north": {"uv": [88, 91], "uv_size": [-1, 1]},
								"east": {"uv": [87, 91], "uv_size": [1, 1]},
								"south": {"uv": [87, 91], "uv_size": [1, 1]},
								"west": {"uv": [87, 91], "uv_size": [1, 1]},
								"up": {"uv": [88, 92], "uv_size": [-1, -1]},
								"down": {"uv": [88, 91], "uv_size": [-1, 1]}
							}
						},
						{
							"origin": [-13.17227, 13.4, -5.77227],
							"size": [0.69973, 0.69973, 0.69973],
							"uv": {
								"north": {"uv": [89, 91], "uv_size": [-1, 1]},
								"east": {"uv": [88, 91], "uv_size": [1, 1]},
								"south": {"uv": [88, 91], "uv_size": [1, 1]},
								"west": {"uv": [88, 91], "uv_size": [1, 1]},
								"up": {"uv": [89, 92], "uv_size": [-1, -1]},
								"down": {"uv": [89, 91], "uv_size": [-1, 1]}
							}
						},
						{
							"origin": [-13.872, 13.4, -5.77227],
							"size": [0.69973, 0.69973, 0.69973],
							"uv": {
								"north": {"uv": [90, 91], "uv_size": [-1, 1]},
								"east": {"uv": [89, 91], "uv_size": [1, 1]},
								"south": {"uv": [89, 91], "uv_size": [1, 1]},
								"west": {"uv": [89, 91], "uv_size": [1, 1]},
								"up": {"uv": [90, 92], "uv_size": [-1, -1]},
								"down": {"uv": [90, 91], "uv_size": [-1, 1]}
							}
						},
						{
							"origin": [-12.47253, 13.4, -5.07253],
							"size": [0.69973, 0.69973, 0.69973],
							"uv": {
								"north": {"uv": [88, 92], "uv_size": [-1, 1]},
								"east": {"uv": [87, 92], "uv_size": [1, 1]},
								"south": {"uv": [87, 92], "uv_size": [1, 1]},
								"west": {"uv": [87, 92], "uv_size": [1, 1]},
								"up": {"uv": [88, 93], "uv_size": [-1, -1]},
								"down": {"uv": [88, 92], "uv_size": [-1, 1]}
							}
						},
						{
							"origin": [-13.17227, 13.4, -5.07253],
							"size": [0.69973, 0.69973, 0.69973],
							"uv": {
								"north": {"uv": [89, 92], "uv_size": [-1, 1]},
								"east": {"uv": [88, 92], "uv_size": [1, 1]},
								"south": {"uv": [88, 92], "uv_size": [1, 1]},
								"west": {"uv": [88, 92], "uv_size": [1, 1]},
								"up": {"uv": [89, 93], "uv_size": [-1, -1]},
								"down": {"uv": [89, 92], "uv_size": [-1, 1]}
							}
						},
						{
							"origin": [-11.7728, 13.4, -4.3728],
							"size": [0.69973, 0.69973, 0.69973],
							"uv": {
								"north": {"uv": [87, 93], "uv_size": [-1, 1]},
								"east": {"uv": [86, 93], "uv_size": [1, 1]},
								"south": {"uv": [86, 93], "uv_size": [1, 1]},
								"west": {"uv": [86, 93], "uv_size": [1, 1]},
								"up": {"uv": [87, 94], "uv_size": [-1, -1]},
								"down": {"uv": [87, 93], "uv_size": [-1, 1]}
							}
						},
						{
							"origin": [-12.47253, 13.4, -4.3728],
							"size": [0.69973, 0.69973, 0.69973],
							"uv": {
								"north": {"uv": [88, 93], "uv_size": [-1, 1]},
								"east": {"uv": [87, 93], "uv_size": [1, 1]},
								"south": {"uv": [87, 93], "uv_size": [1, 1]},
								"west": {"uv": [87, 93], "uv_size": [1, 1]},
								"up": {"uv": [88, 94], "uv_size": [-1, -1]},
								"down": {"uv": [88, 93], "uv_size": [-1, 1]}
							}
						},
						{
							"origin": [-13.17227, 13.4, -4.3728],
							"size": [0.69973, 0.69973, 0.69973],
							"uv": {
								"north": {"uv": [89, 93], "uv_size": [-1, 1]},
								"east": {"uv": [88, 93], "uv_size": [1, 1]},
								"south": {"uv": [88, 93], "uv_size": [1, 1]},
								"west": {"uv": [88, 93], "uv_size": [1, 1]},
								"up": {"uv": [89, 94], "uv_size": [-1, -1]},
								"down": {"uv": [89, 93], "uv_size": [-1, 1]}
							}
						},
						{
							"origin": [-11.07307, 13.4, -3.67307],
							"size": [0.69973, 0.69973, 0.69973],
							"uv": {
								"north": {"uv": [86, 94], "uv_size": [-1, 1]},
								"east": {"uv": [85, 94], "uv_size": [1, 1]},
								"south": {"uv": [85, 94], "uv_size": [1, 1]},
								"west": {"uv": [85, 94], "uv_size": [1, 1]},
								"up": {"uv": [86, 95], "uv_size": [-1, -1]},
								"down": {"uv": [86, 94], "uv_size": [-1, 1]}
							}
						},
						{
							"origin": [-11.7728, 13.4, -3.67307],
							"size": [0.69973, 0.69973, 0.69973],
							"uv": {
								"north": {"uv": [87, 94], "uv_size": [-1, 1]},
								"east": {"uv": [86, 94], "uv_size": [1, 1]},
								"south": {"uv": [86, 94], "uv_size": [1, 1]},
								"west": {"uv": [86, 94], "uv_size": [1, 1]},
								"up": {"uv": [87, 95], "uv_size": [-1, -1]},
								"down": {"uv": [87, 94], "uv_size": [-1, 1]}
							}
						},
						{
							"origin": [-12.47253, 13.4, -3.67307],
							"size": [0.69973, 0.69973, 0.69973],
							"uv": {
								"north": {"uv": [88, 94], "uv_size": [-1, 1]},
								"east": {"uv": [87, 94], "uv_size": [1, 1]},
								"south": {"uv": [87, 94], "uv_size": [1, 1]},
								"west": {"uv": [87, 94], "uv_size": [1, 1]},
								"up": {"uv": [88, 95], "uv_size": [-1, -1]},
								"down": {"uv": [88, 94], "uv_size": [-1, 1]}
							}
						},
						{
							"origin": [-10.37333, 13.4, -2.97333],
							"size": [0.69973, 0.69973, 0.69973],
							"uv": {
								"north": {"uv": [85, 95], "uv_size": [-1, 1]},
								"east": {"uv": [84, 95], "uv_size": [1, 1]},
								"south": {"uv": [84, 95], "uv_size": [1, 1]},
								"west": {"uv": [84, 95], "uv_size": [1, 1]},
								"up": {"uv": [85, 96], "uv_size": [-1, -1]},
								"down": {"uv": [85, 95], "uv_size": [-1, 1]}
							}
						},
						{
							"origin": [-11.07307, 13.4, -2.97333],
							"size": [0.69973, 0.69973, 0.69973],
							"uv": {
								"north": {"uv": [86, 95], "uv_size": [-1, 1]},
								"east": {"uv": [85, 95], "uv_size": [1, 1]},
								"south": {"uv": [85, 95], "uv_size": [1, 1]},
								"west": {"uv": [85, 95], "uv_size": [1, 1]},
								"up": {"uv": [86, 96], "uv_size": [-1, -1]},
								"down": {"uv": [86, 95], "uv_size": [-1, 1]}
							}
						},
						{
							"origin": [-11.7728, 13.4, -2.97333],
							"size": [0.69973, 0.69973, 0.69973],
							"uv": {
								"north": {"uv": [87, 95], "uv_size": [-1, 1]},
								"east": {"uv": [86, 95], "uv_size": [1, 1]},
								"south": {"uv": [86, 95], "uv_size": [1, 1]},
								"west": {"uv": [86, 95], "uv_size": [1, 1]},
								"up": {"uv": [87, 96], "uv_size": [-1, -1]},
								"down": {"uv": [87, 95], "uv_size": [-1, 1]}
							}
						},
						{
							"origin": [-9.6736, 13.4, -2.2736],
							"size": [0.69973, 0.69973, 0.69973],
							"uv": {
								"north": {"uv": [84, 96], "uv_size": [-1, 1]},
								"east": {"uv": [83, 96], "uv_size": [1, 1]},
								"south": {"uv": [83, 96], "uv_size": [1, 1]},
								"west": {"uv": [83, 96], "uv_size": [1, 1]},
								"up": {"uv": [84, 97], "uv_size": [-1, -1]},
								"down": {"uv": [84, 96], "uv_size": [-1, 1]}
							}
						},
						{
							"origin": [-10.37333, 13.4, -2.2736],
							"size": [0.69973, 0.69973, 0.69973],
							"uv": {
								"north": {"uv": [85, 96], "uv_size": [-1, 1]},
								"east": {"uv": [84, 96], "uv_size": [1, 1]},
								"south": {"uv": [84, 96], "uv_size": [1, 1]},
								"west": {"uv": [84, 96], "uv_size": [1, 1]},
								"up": {"uv": [85, 97], "uv_size": [-1, -1]},
								"down": {"uv": [85, 96], "uv_size": [-1, 1]}
							}
						},
						{
							"origin": [-11.07307, 13.4, -2.2736],
							"size": [0.69973, 0.69973, 0.69973],
							"uv": {
								"north": {"uv": [86, 96], "uv_size": [-1, 1]},
								"east": {"uv": [85, 96], "uv_size": [1, 1]},
								"south": {"uv": [85, 96], "uv_size": [1, 1]},
								"west": {"uv": [85, 96], "uv_size": [1, 1]},
								"up": {"uv": [86, 97], "uv_size": [-1, -1]},
								"down": {"uv": [86, 96], "uv_size": [-1, 1]}
							}
						},
						{
							"origin": [-8.97387, 13.4, -1.57387],
							"size": [0.69973, 0.69973, 0.69973],
							"uv": {
								"north": {"uv": [83, 97], "uv_size": [-1, 1]},
								"east": {"uv": [82, 97], "uv_size": [1, 1]},
								"south": {"uv": [82, 97], "uv_size": [1, 1]},
								"west": {"uv": [82, 97], "uv_size": [1, 1]},
								"up": {"uv": [83, 98], "uv_size": [-1, -1]},
								"down": {"uv": [83, 97], "uv_size": [-1, 1]}
							}
						},
						{
							"origin": [-9.6736, 13.4, -1.57387],
							"size": [0.69973, 0.69973, 0.69973],
							"uv": {
								"north": {"uv": [84, 97], "uv_size": [-1, 1]},
								"east": {"uv": [83, 97], "uv_size": [1, 1]},
								"south": {"uv": [83, 97], "uv_size": [1, 1]},
								"west": {"uv": [83, 97], "uv_size": [1, 1]},
								"up": {"uv": [84, 98], "uv_size": [-1, -1]},
								"down": {"uv": [84, 97], "uv_size": [-1, 1]}
							}
						},
						{
							"origin": [-10.37333, 13.4, -1.57387],
							"size": [0.69973, 0.69973, 0.69973],
							"uv": {
								"north": {"uv": [85, 97], "uv_size": [-1, 1]},
								"east": {"uv": [84, 97], "uv_size": [1, 1]},
								"south": {"uv": [84, 97], "uv_size": [1, 1]},
								"west": {"uv": [84, 97], "uv_size": [1, 1]},
								"up": {"uv": [85, 98], "uv_size": [-1, -1]},
								"down": {"uv": [85, 97], "uv_size": [-1, 1]}
							}
						},
						{
							"origin": [-8.27413, 13.4, -0.87413],
							"size": [0.69973, 0.69973, 0.69973],
							"uv": {
								"north": {"uv": [82, 98], "uv_size": [-1, 1]},
								"east": {"uv": [81, 98], "uv_size": [1, 1]},
								"south": {"uv": [81, 98], "uv_size": [1, 1]},
								"west": {"uv": [81, 98], "uv_size": [1, 1]},
								"up": {"uv": [82, 99], "uv_size": [-1, -1]},
								"down": {"uv": [82, 98], "uv_size": [-1, 1]}
							}
						},
						{
							"origin": [-8.97387, 13.4, -0.87413],
							"size": [0.69973, 0.69973, 0.69973],
							"uv": {
								"north": {"uv": [83, 98], "uv_size": [-1, 1]},
								"east": {"uv": [82, 98], "uv_size": [1, 1]},
								"south": {"uv": [82, 98], "uv_size": [1, 1]},
								"west": {"uv": [82, 98], "uv_size": [1, 1]},
								"up": {"uv": [83, 99], "uv_size": [-1, -1]},
								"down": {"uv": [83, 98], "uv_size": [-1, 1]}
							}
						},
						{
							"origin": [-9.6736, 13.4, -0.87413],
							"size": [0.69973, 0.69973, 0.69973],
							"uv": {
								"north": {"uv": [84, 98], "uv_size": [-1, 1]},
								"east": {"uv": [83, 98], "uv_size": [1, 1]},
								"south": {"uv": [83, 98], "uv_size": [1, 1]},
								"west": {"uv": [83, 98], "uv_size": [1, 1]},
								"up": {"uv": [84, 99], "uv_size": [-1, -1]},
								"down": {"uv": [84, 98], "uv_size": [-1, 1]}
							}
						},
						{
							"origin": [-7.5744, 13.4, -0.1744],
							"size": [0.69973, 0.69973, 0.69973],
							"uv": {
								"north": {"uv": [81, 99], "uv_size": [-1, 1]},
								"east": {"uv": [80, 99], "uv_size": [1, 1]},
								"south": {"uv": [80, 99], "uv_size": [1, 1]},
								"west": {"uv": [80, 99], "uv_size": [1, 1]},
								"up": {"uv": [81, 100], "uv_size": [-1, -1]},
								"down": {"uv": [81, 99], "uv_size": [-1, 1]}
							}
						},
						{
							"origin": [-8.27413, 13.4, -0.1744],
							"size": [0.69973, 0.69973, 0.69973],
							"uv": {
								"north": {"uv": [82, 99], "uv_size": [-1, 1]},
								"east": {"uv": [81, 99], "uv_size": [1, 1]},
								"south": {"uv": [81, 99], "uv_size": [1, 1]},
								"west": {"uv": [81, 99], "uv_size": [1, 1]},
								"up": {"uv": [82, 100], "uv_size": [-1, -1]},
								"down": {"uv": [82, 99], "uv_size": [-1, 1]}
							}
						},
						{
							"origin": [-8.97387, 13.4, -0.1744],
							"size": [0.69973, 0.69973, 0.69973],
							"uv": {
								"north": {"uv": [83, 99], "uv_size": [-1, 1]},
								"east": {"uv": [82, 99], "uv_size": [1, 1]},
								"south": {"uv": [82, 99], "uv_size": [1, 1]},
								"west": {"uv": [82, 99], "uv_size": [1, 1]},
								"up": {"uv": [83, 100], "uv_size": [-1, -1]},
								"down": {"uv": [83, 99], "uv_size": [-1, 1]}
							}
						},
						{
							"origin": [-6.87467, 13.4, 0.52533],
							"size": [0.69973, 0.69973, 0.69973],
							"uv": {
								"north": {"uv": [80, 100], "uv_size": [-1, 1]},
								"east": {"uv": [79, 100], "uv_size": [1, 1]},
								"south": {"uv": [79, 100], "uv_size": [1, 1]},
								"west": {"uv": [79, 100], "uv_size": [1, 1]},
								"up": {"uv": [80, 101], "uv_size": [-1, -1]},
								"down": {"uv": [80, 100], "uv_size": [-1, 1]}
							}
						},
						{
							"origin": [-7.5744, 13.4, 0.52533],
							"size": [0.69973, 0.69973, 0.69973],
							"uv": {
								"north": {"uv": [81, 100], "uv_size": [-1, 1]},
								"east": {"uv": [80, 100], "uv_size": [1, 1]},
								"south": {"uv": [80, 100], "uv_size": [1, 1]},
								"west": {"uv": [80, 100], "uv_size": [1, 1]},
								"up": {"uv": [81, 101], "uv_size": [-1, -1]},
								"down": {"uv": [81, 100], "uv_size": [-1, 1]}
							}
						},
						{
							"origin": [-8.27413, 13.4, 0.52533],
							"size": [0.69973, 0.69973, 0.69973],
							"uv": {
								"north": {"uv": [82, 100], "uv_size": [-1, 1]},
								"east": {"uv": [81, 100], "uv_size": [1, 1]},
								"south": {"uv": [81, 100], "uv_size": [1, 1]},
								"west": {"uv": [81, 100], "uv_size": [1, 1]},
								"up": {"uv": [82, 101], "uv_size": [-1, -1]},
								"down": {"uv": [82, 100], "uv_size": [-1, 1]}
							}
						},
						{
							"origin": [-5.4752, 13.4, 1.22507],
							"size": [0.69973, 0.69973, 0.69973],
							"uv": {
								"north": {"uv": [78, 101], "uv_size": [-1, 1]},
								"east": {"uv": [77, 101], "uv_size": [1, 1]},
								"south": {"uv": [77, 101], "uv_size": [1, 1]},
								"west": {"uv": [77, 101], "uv_size": [1, 1]},
								"up": {"uv": [78, 102], "uv_size": [-1, -1]},
								"down": {"uv": [78, 101], "uv_size": [-1, 1]}
							}
						},
						{
							"origin": [-6.17493, 13.4, 1.22507],
							"size": [0.69973, 0.69973, 0.69973],
							"uv": {
								"north": {"uv": [79, 101], "uv_size": [-1, 1]},
								"east": {"uv": [78, 101], "uv_size": [1, 1]},
								"south": {"uv": [78, 101], "uv_size": [1, 1]},
								"west": {"uv": [78, 101], "uv_size": [1, 1]},
								"up": {"uv": [79, 102], "uv_size": [-1, -1]},
								"down": {"uv": [79, 101], "uv_size": [-1, 1]}
							}
						},
						{
							"origin": [-6.87467, 13.4, 1.22507],
							"size": [0.69973, 0.69973, 0.69973],
							"uv": {
								"north": {"uv": [80, 101], "uv_size": [-1, 1]},
								"east": {"uv": [79, 101], "uv_size": [1, 1]},
								"south": {"uv": [79, 101], "uv_size": [1, 1]},
								"west": {"uv": [79, 101], "uv_size": [1, 1]},
								"up": {"uv": [80, 102], "uv_size": [-1, -1]},
								"down": {"uv": [80, 101], "uv_size": [-1, 1]}
							}
						},
						{
							"origin": [-7.5744, 13.4, 1.22507],
							"size": [0.69973, 0.69973, 0.69973],
							"uv": {
								"north": {"uv": [81, 101], "uv_size": [-1, 1]},
								"east": {"uv": [80, 101], "uv_size": [1, 1]},
								"south": {"uv": [80, 101], "uv_size": [1, 1]},
								"west": {"uv": [80, 101], "uv_size": [1, 1]},
								"up": {"uv": [81, 102], "uv_size": [-1, -1]},
								"down": {"uv": [81, 101], "uv_size": [-1, 1]}
							}
						},
						{
							"origin": [-5.4752, 13.4, 1.9248],
							"size": [0.69973, 0.69973, 0.69973],
							"uv": {
								"north": {"uv": [78, 102], "uv_size": [-1, 1]},
								"east": {"uv": [77, 102], "uv_size": [1, 1]},
								"south": {"uv": [77, 102], "uv_size": [1, 1]},
								"west": {"uv": [77, 102], "uv_size": [1, 1]},
								"up": {"uv": [78, 103], "uv_size": [-1, -1]},
								"down": {"uv": [78, 102], "uv_size": [-1, 1]}
							}
						},
						{
							"origin": [-6.17493, 13.4, 1.9248],
							"size": [0.69973, 0.69973, 0.69973],
							"uv": {
								"north": {"uv": [79, 102], "uv_size": [-1, 1]},
								"east": {"uv": [78, 102], "uv_size": [1, 1]},
								"south": {"uv": [78, 102], "uv_size": [1, 1]},
								"west": {"uv": [78, 102], "uv_size": [1, 1]},
								"up": {"uv": [79, 103], "uv_size": [-1, -1]},
								"down": {"uv": [79, 102], "uv_size": [-1, 1]}
							}
						},
						{
							"origin": [-6.87467, 13.4, 1.9248],
							"size": [0.69973, 0.69973, 0.69973],
							"uv": {
								"north": {"uv": [80, 102], "uv_size": [-1, 1]},
								"east": {"uv": [79, 102], "uv_size": [1, 1]},
								"south": {"uv": [79, 102], "uv_size": [1, 1]},
								"west": {"uv": [79, 102], "uv_size": [1, 1]},
								"up": {"uv": [80, 103], "uv_size": [-1, -1]},
								"down": {"uv": [80, 102], "uv_size": [-1, 1]}
							}
						},
						{
							"origin": [-5.4752, 13.4, 2.62453],
							"size": [0.69973, 0.69973, 0.69973],
							"uv": {
								"north": {"uv": [78, 103], "uv_size": [-1, 1]},
								"east": {"uv": [77, 103], "uv_size": [1, 1]},
								"south": {"uv": [77, 103], "uv_size": [1, 1]},
								"west": {"uv": [77, 103], "uv_size": [1, 1]},
								"up": {"uv": [78, 104], "uv_size": [-1, -1]},
								"down": {"uv": [78, 103], "uv_size": [-1, 1]}
							}
						},
						{
							"origin": [-6.17493, 13.4, 2.62453],
							"size": [0.69973, 0.69973, 0.69973],
							"uv": {
								"north": {"uv": [79, 103], "uv_size": [-1, 1]},
								"east": {"uv": [78, 103], "uv_size": [1, 1]},
								"south": {"uv": [78, 103], "uv_size": [1, 1]},
								"west": {"uv": [78, 103], "uv_size": [1, 1]},
								"up": {"uv": [79, 104], "uv_size": [-1, -1]},
								"down": {"uv": [79, 103], "uv_size": [-1, 1]}
							}
						},
						{
							"origin": [-6.87467, 13.4, 2.62453],
							"size": [0.69973, 0.69973, 0.69973],
							"uv": {
								"north": {"uv": [80, 103], "uv_size": [-1, 1]},
								"east": {"uv": [79, 103], "uv_size": [1, 1]},
								"south": {"uv": [79, 103], "uv_size": [1, 1]},
								"west": {"uv": [79, 103], "uv_size": [1, 1]},
								"up": {"uv": [80, 104], "uv_size": [-1, -1]},
								"down": {"uv": [80, 103], "uv_size": [-1, 1]}
							}
						}
					]
				},
				{
					"name": "jacket",
					"parent": "body",
					"pivot": [0, 24, 0]
				},
				{
					"name": "leftLeg",
					"parent": "root",
					"pivot": [1.9, 12, 0]
				},
				{
					"name": "leftPants",
					"parent": "leftLeg",
					"pivot": [1.9, 12, 0]
				},
				{
					"name": "rightLeg",
					"parent": "root",
					"pivot": [-1.9, 12, 0]
				},
				{
					"name": "rightPants",
					"parent": "rightLeg",
					"pivot": [-1.9, 12, 0]
				}
			]
		}
	]
}