{
	"format_version": "1.12.0",
	"minecraft:geometry": [
		{
			"description": {
				"identifier": "geometry.phantom_whip4",
				"texture_width": 180,
				"texture_height": 180,
				"visible_bounds_width": 7,
				"visible_bounds_height": 10,
				"visible_bounds_offset": [0, 3, 0]
			},
			"bones": [
				{
					"name": "root",
					"pivot": [0, 0, 0]
				},
				{
					"name": "waist",
					"parent": "root",
					"pivot": [0, 12, 0]
				},
				{
					"name": "body",
					"parent": "waist",
					"pivot": [0, 24, 0]
				},
				{
					"name": "head",
					"parent": "body",
					"pivot": [0, 24, 0]
				},
				{
					"name": "hat",
					"parent": "head",
					"pivot": [0, 24, 0]
				},
				{
					"name": "cape",
					"parent": "body",
					"pivot": [0, 24, 3]
				},
				{
					"name": "leftArm",
					"parent": "body",
					"pivot": [5, 22, 0]
				},
				{
					"name": "leftSleeve",
					"parent": "leftArm",
					"pivot": [5, 22, 0]
				},
				{
					"name": "leftItem",
					"parent": "leftArm",
					"pivot": [6, 15, 1]
				},
				{
					"name": "rightArm",
					"parent": "body",
					"pivot": [-5, 22, 0]
				},
				{
					"name": "rightSleeve",
					"parent": "rightArm",
					"pivot": [-5, 22, 0]
				},
				{
					"name": "rightItem",
					"parent": "rightArm",
					"pivot": [-6, 15, 1],
					"locators": {
						"lead_hold": [-6, 15, 1]
					}
				},
				{
					"name": "Whip_animation4a",
					"parent": "rightItem",
					"pivot": [-6.6, 12.5, 2.3],
					"rotation": [2.91699, -37.45817, 86.85],
					"cubes": [
						{
							"origin": [-15.09333, 12.5, -6.19333],
							"size": [0.69333, 0.69333, 0.69333],
							"uv": {
								"north": {"uv": [91, 89], "uv_size": [-1, 1]},
								"east": {"uv": [90, 89], "uv_size": [1, 1]},
								"south": {"uv": [90, 89], "uv_size": [1, 1]},
								"west": {"uv": [90, 89], "uv_size": [1, 1]},
								"up": {"uv": [91, 90], "uv_size": [-1, -1]},
								"down": {"uv": [91, 89], "uv_size": [-1, 1]}
							}
						},
						{
							"origin": [-15.78667, 12.5, -6.19333],
							"size": [0.69333, 0.69333, 0.69333],
							"uv": {
								"north": {"uv": [92, 89], "uv_size": [-1, 1]},
								"east": {"uv": [91, 89], "uv_size": [1, 1]},
								"south": {"uv": [91, 89], "uv_size": [1, 1]},
								"west": {"uv": [91, 89], "uv_size": [1, 1]},
								"up": {"uv": [92, 90], "uv_size": [-1, -1]},
								"down": {"uv": [92, 89], "uv_size": [-1, 1]}
							}
						},
						{
							"origin": [-16.48, 12.5, -6.19333],
							"size": [0.69333, 0.69333, 0.69333],
							"uv": {
								"north": {"uv": [93, 89], "uv_size": [-1, 1]},
								"east": {"uv": [92, 89], "uv_size": [1, 1]},
								"south": {"uv": [92, 89], "uv_size": [1, 1]},
								"west": {"uv": [92, 89], "uv_size": [1, 1]},
								"up": {"uv": [93, 90], "uv_size": [-1, -1]},
								"down": {"uv": [93, 89], "uv_size": [-1, 1]}
							}
						},
						{
							"origin": [-14.4, 12.5, -5.5],
							"size": [0.69333, 0.69333, 0.69333],
							"uv": {
								"north": {"uv": [90, 90], "uv_size": [-1, 1]},
								"east": {"uv": [89, 90], "uv_size": [1, 1]},
								"south": {"uv": [89, 90], "uv_size": [1, 1]},
								"west": {"uv": [89, 90], "uv_size": [1, 1]},
								"up": {"uv": [90, 91], "uv_size": [-1, -1]},
								"down": {"uv": [90, 90], "uv_size": [-1, 1]}
							}
						},
						{
							"origin": [-15.09333, 12.5, -5.5],
							"size": [0.69333, 0.69333, 0.69333],
							"uv": {
								"north": {"uv": [91, 90], "uv_size": [-1, 1]},
								"east": {"uv": [90, 90], "uv_size": [1, 1]},
								"south": {"uv": [90, 90], "uv_size": [1, 1]},
								"west": {"uv": [90, 90], "uv_size": [1, 1]},
								"up": {"uv": [91, 91], "uv_size": [-1, -1]},
								"down": {"uv": [91, 90], "uv_size": [-1, 1]}
							}
						},
						{
							"origin": [-15.78667, 12.5, -5.5],
							"size": [0.69333, 0.69333, 0.69333],
							"uv": {
								"north": {"uv": [92, 90], "uv_size": [-1, 1]},
								"east": {"uv": [91, 90], "uv_size": [1, 1]},
								"south": {"uv": [91, 90], "uv_size": [1, 1]},
								"west": {"uv": [91, 90], "uv_size": [1, 1]},
								"up": {"uv": [92, 91], "uv_size": [-1, -1]},
								"down": {"uv": [92, 90], "uv_size": [-1, 1]}
							}
						},
						{
							"origin": [-16.48, 12.5, -5.5],
							"size": [0.69333, 0.69333, 0.69333],
							"uv": {
								"north": {"uv": [93, 90], "uv_size": [-1, 1]},
								"east": {"uv": [92, 90], "uv_size": [1, 1]},
								"south": {"uv": [92, 90], "uv_size": [1, 1]},
								"west": {"uv": [92, 90], "uv_size": [1, 1]},
								"up": {"uv": [93, 91], "uv_size": [-1, -1]},
								"down": {"uv": [93, 90], "uv_size": [-1, 1]}
							}
						},
						{
							"origin": [-17.17333, 12.5, -5.5],
							"size": [0.69333, 0.69333, 0.69333],
							"uv": {
								"north": {"uv": [94, 90], "uv_size": [-1, 1]},
								"east": {"uv": [93, 90], "uv_size": [1, 1]},
								"south": {"uv": [93, 90], "uv_size": [1, 1]},
								"west": {"uv": [93, 90], "uv_size": [1, 1]},
								"up": {"uv": [94, 91], "uv_size": [-1, -1]},
								"down": {"uv": [94, 90], "uv_size": [-1, 1]}
							}
						},
						{
							"origin": [-13.70667, 12.5, -4.80667],
							"size": [0.69333, 0.69333, 0.69333],
							"uv": {
								"north": {"uv": [89, 91], "uv_size": [-1, 1]},
								"east": {"uv": [88, 91], "uv_size": [1, 1]},
								"south": {"uv": [88, 91], "uv_size": [1, 1]},
								"west": {"uv": [88, 91], "uv_size": [1, 1]},
								"up": {"uv": [89, 92], "uv_size": [-1, -1]},
								"down": {"uv": [89, 91], "uv_size": [-1, 1]}
							}
						},
						{
							"origin": [-14.4, 12.5, -4.80667],
							"size": [0.69333, 0.69333, 0.69333],
							"uv": {
								"north": {"uv": [90, 91], "uv_size": [-1, 1]},
								"east": {"uv": [89, 91], "uv_size": [1, 1]},
								"south": {"uv": [89, 91], "uv_size": [1, 1]},
								"west": {"uv": [89, 91], "uv_size": [1, 1]},
								"up": {"uv": [90, 92], "uv_size": [-1, -1]},
								"down": {"uv": [90, 91], "uv_size": [-1, 1]}
							}
						},
						{
							"origin": [-15.09333, 12.5, -4.80667],
							"size": [0.69333, 0.69333, 0.69333],
							"uv": {
								"north": {"uv": [91, 91], "uv_size": [-1, 1]},
								"east": {"uv": [90, 91], "uv_size": [1, 1]},
								"south": {"uv": [90, 91], "uv_size": [1, 1]},
								"west": {"uv": [90, 91], "uv_size": [1, 1]},
								"up": {"uv": [91, 92], "uv_size": [-1, -1]},
								"down": {"uv": [91, 91], "uv_size": [-1, 1]}
							}
						},
						{
							"origin": [-15.78667, 12.5, -4.80667],
							"size": [0.69333, 0.69333, 0.69333],
							"uv": {
								"north": {"uv": [92, 91], "uv_size": [-1, 1]},
								"east": {"uv": [91, 91], "uv_size": [1, 1]},
								"south": {"uv": [91, 91], "uv_size": [1, 1]},
								"west": {"uv": [91, 91], "uv_size": [1, 1]},
								"up": {"uv": [92, 92], "uv_size": [-1, -1]},
								"down": {"uv": [92, 91], "uv_size": [-1, 1]}
							}
						},
						{
							"origin": [-16.48, 12.5, -4.80667],
							"size": [0.69333, 0.69333, 0.69333],
							"uv": {
								"north": {"uv": [93, 91], "uv_size": [-1, 1]},
								"east": {"uv": [92, 91], "uv_size": [1, 1]},
								"south": {"uv": [92, 91], "uv_size": [1, 1]},
								"west": {"uv": [92, 91], "uv_size": [1, 1]},
								"up": {"uv": [93, 92], "uv_size": [-1, -1]},
								"down": {"uv": [93, 91], "uv_size": [-1, 1]}
							}
						},
						{
							"origin": [-17.17333, 12.5, -4.80667],
							"size": [0.69333, 0.69333, 0.69333],
							"uv": {
								"north": {"uv": [94, 91], "uv_size": [-1, 1]},
								"east": {"uv": [93, 91], "uv_size": [1, 1]},
								"south": {"uv": [93, 91], "uv_size": [1, 1]},
								"west": {"uv": [93, 91], "uv_size": [1, 1]},
								"up": {"uv": [94, 92], "uv_size": [-1, -1]},
								"down": {"uv": [94, 91], "uv_size": [-1, 1]}
							}
						},
						{
							"origin": [-17.86667, 12.5, -4.80667],
							"size": [0.69333, 0.69333, 0.69333],
							"uv": {
								"north": {"uv": [95, 91], "uv_size": [-1, 1]},
								"east": {"uv": [94, 91], "uv_size": [1, 1]},
								"south": {"uv": [94, 91], "uv_size": [1, 1]},
								"west": {"uv": [94, 91], "uv_size": [1, 1]},
								"up": {"uv": [95, 92], "uv_size": [-1, -1]},
								"down": {"uv": [95, 91], "uv_size": [-1, 1]}
							}
						},
						{
							"origin": [-13.01333, 12.5, -4.11333],
							"size": [0.69333, 0.69333, 0.69333],
							"uv": {
								"north": {"uv": [88, 92], "uv_size": [-1, 1]},
								"east": {"uv": [87, 92], "uv_size": [1, 1]},
								"south": {"uv": [87, 92], "uv_size": [1, 1]},
								"west": {"uv": [87, 92], "uv_size": [1, 1]},
								"up": {"uv": [88, 93], "uv_size": [-1, -1]},
								"down": {"uv": [88, 92], "uv_size": [-1, 1]}
							}
						},
						{
							"origin": [-13.70667, 12.5, -4.11333],
							"size": [0.69333, 0.69333, 0.69333],
							"uv": {
								"north": {"uv": [89, 92], "uv_size": [-1, 1]},
								"east": {"uv": [88, 92], "uv_size": [1, 1]},
								"south": {"uv": [88, 92], "uv_size": [1, 1]},
								"west": {"uv": [88, 92], "uv_size": [1, 1]},
								"up": {"uv": [89, 93], "uv_size": [-1, -1]},
								"down": {"uv": [89, 92], "uv_size": [-1, 1]}
							}
						},
						{
							"origin": [-14.4, 12.5, -4.11333],
							"size": [0.69333, 0.69333, 0.69333],
							"uv": {
								"north": {"uv": [90, 92], "uv_size": [-1, 1]},
								"east": {"uv": [89, 92], "uv_size": [1, 1]},
								"south": {"uv": [89, 92], "uv_size": [1, 1]},
								"west": {"uv": [89, 92], "uv_size": [1, 1]},
								"up": {"uv": [90, 93], "uv_size": [-1, -1]},
								"down": {"uv": [90, 92], "uv_size": [-1, 1]}
							}
						},
						{
							"origin": [-17.17333, 12.5, -4.11333],
							"size": [0.69333, 0.69333, 0.69333],
							"uv": {
								"north": {"uv": [94, 92], "uv_size": [-1, 1]},
								"east": {"uv": [93, 92], "uv_size": [1, 1]},
								"south": {"uv": [93, 92], "uv_size": [1, 1]},
								"west": {"uv": [93, 92], "uv_size": [1, 1]},
								"up": {"uv": [94, 93], "uv_size": [-1, -1]},
								"down": {"uv": [94, 92], "uv_size": [-1, 1]}
							}
						},
						{
							"origin": [-17.86667, 12.5, -4.11333],
							"size": [0.69333, 0.69333, 0.69333],
							"uv": {
								"north": {"uv": [95, 92], "uv_size": [-1, 1]},
								"east": {"uv": [94, 92], "uv_size": [1, 1]},
								"south": {"uv": [94, 92], "uv_size": [1, 1]},
								"west": {"uv": [94, 92], "uv_size": [1, 1]},
								"up": {"uv": [95, 93], "uv_size": [-1, -1]},
								"down": {"uv": [95, 92], "uv_size": [-1, 1]}
							}
						},
						{
							"origin": [-12.32, 12.5, -3.42],
							"size": [0.69333, 0.69333, 0.69333],
							"uv": {
								"north": {"uv": [87, 93], "uv_size": [-1, 1]},
								"east": {"uv": [86, 93], "uv_size": [1, 1]},
								"south": {"uv": [86, 93], "uv_size": [1, 1]},
								"west": {"uv": [86, 93], "uv_size": [1, 1]},
								"up": {"uv": [87, 94], "uv_size": [-1, -1]},
								"down": {"uv": [87, 93], "uv_size": [-1, 1]}
							}
						},
						{
							"origin": [-13.01333, 12.5, -3.42],
							"size": [0.69333, 0.69333, 0.69333],
							"uv": {
								"north": {"uv": [88, 93], "uv_size": [-1, 1]},
								"east": {"uv": [87, 93], "uv_size": [1, 1]},
								"south": {"uv": [87, 93], "uv_size": [1, 1]},
								"west": {"uv": [87, 93], "uv_size": [1, 1]},
								"up": {"uv": [88, 94], "uv_size": [-1, -1]},
								"down": {"uv": [88, 93], "uv_size": [-1, 1]}
							}
						},
						{
							"origin": [-13.70667, 12.5, -3.42],
							"size": [0.69333, 0.69333, 0.69333],
							"uv": {
								"north": {"uv": [89, 93], "uv_size": [-1, 1]},
								"east": {"uv": [88, 93], "uv_size": [1, 1]},
								"south": {"uv": [88, 93], "uv_size": [1, 1]},
								"west": {"uv": [88, 93], "uv_size": [1, 1]},
								"up": {"uv": [89, 94], "uv_size": [-1, -1]},
								"down": {"uv": [89, 93], "uv_size": [-1, 1]}
							}
						},
						{
							"origin": [-17.17333, 12.5, -3.42],
							"size": [0.69333, 0.69333, 0.69333],
							"uv": {
								"north": {"uv": [94, 93], "uv_size": [-1, 1]},
								"east": {"uv": [93, 93], "uv_size": [1, 1]},
								"south": {"uv": [93, 93], "uv_size": [1, 1]},
								"west": {"uv": [93, 93], "uv_size": [1, 1]},
								"up": {"uv": [94, 94], "uv_size": [-1, -1]},
								"down": {"uv": [94, 93], "uv_size": [-1, 1]}
							}
						},
						{
							"origin": [-17.86667, 12.5, -3.42],
							"size": [0.69333, 0.69333, 0.69333],
							"uv": {
								"north": {"uv": [95, 93], "uv_size": [-1, 1]},
								"east": {"uv": [94, 93], "uv_size": [1, 1]},
								"south": {"uv": [94, 93], "uv_size": [1, 1]},
								"west": {"uv": [94, 93], "uv_size": [1, 1]},
								"up": {"uv": [95, 94], "uv_size": [-1, -1]},
								"down": {"uv": [95, 93], "uv_size": [-1, 1]}
							}
						},
						{
							"origin": [-11.62667, 12.5, -2.72667],
							"size": [0.69333, 0.69333, 0.69333],
							"uv": {
								"north": {"uv": [86, 94], "uv_size": [-1, 1]},
								"east": {"uv": [85, 94], "uv_size": [1, 1]},
								"south": {"uv": [85, 94], "uv_size": [1, 1]},
								"west": {"uv": [85, 94], "uv_size": [1, 1]},
								"up": {"uv": [86, 95], "uv_size": [-1, -1]},
								"down": {"uv": [86, 94], "uv_size": [-1, 1]}
							}
						},
						{
							"origin": [-12.32, 12.5, -2.72667],
							"size": [0.69333, 0.69333, 0.69333],
							"uv": {
								"north": {"uv": [87, 94], "uv_size": [-1, 1]},
								"east": {"uv": [86, 94], "uv_size": [1, 1]},
								"south": {"uv": [86, 94], "uv_size": [1, 1]},
								"west": {"uv": [86, 94], "uv_size": [1, 1]},
								"up": {"uv": [87, 95], "uv_size": [-1, -1]},
								"down": {"uv": [87, 94], "uv_size": [-1, 1]}
							}
						},
						{
							"origin": [-13.01333, 12.5, -2.72667],
							"size": [0.69333, 0.69333, 0.69333],
							"uv": {
								"north": {"uv": [88, 94], "uv_size": [-1, 1]},
								"east": {"uv": [87, 94], "uv_size": [1, 1]},
								"south": {"uv": [87, 94], "uv_size": [1, 1]},
								"west": {"uv": [87, 94], "uv_size": [1, 1]},
								"up": {"uv": [88, 95], "uv_size": [-1, -1]},
								"down": {"uv": [88, 94], "uv_size": [-1, 1]}
							}
						},
						{
							"origin": [-17.17333, 12.5, -2.72667],
							"size": [0.69333, 0.69333, 0.69333],
							"uv": {
								"north": {"uv": [94, 94], "uv_size": [-1, 1]},
								"east": {"uv": [93, 94], "uv_size": [1, 1]},
								"south": {"uv": [93, 94], "uv_size": [1, 1]},
								"west": {"uv": [93, 94], "uv_size": [1, 1]},
								"up": {"uv": [94, 95], "uv_size": [-1, -1]},
								"down": {"uv": [94, 94], "uv_size": [-1, 1]}
							}
						},
						{
							"origin": [-17.86667, 12.5, -2.72667],
							"size": [0.69333, 0.69333, 0.69333],
							"uv": {
								"north": {"uv": [95, 94], "uv_size": [-1, 1]},
								"east": {"uv": [94, 94], "uv_size": [1, 1]},
								"south": {"uv": [94, 94], "uv_size": [1, 1]},
								"west": {"uv": [94, 94], "uv_size": [1, 1]},
								"up": {"uv": [95, 95], "uv_size": [-1, -1]},
								"down": {"uv": [95, 94], "uv_size": [-1, 1]}
							}
						},
						{
							"origin": [-10.93333, 12.5, -2.03333],
							"size": [0.69333, 0.69333, 0.69333],
							"uv": {
								"north": {"uv": [85, 95], "uv_size": [-1, 1]},
								"east": {"uv": [84, 95], "uv_size": [1, 1]},
								"south": {"uv": [84, 95], "uv_size": [1, 1]},
								"west": {"uv": [84, 95], "uv_size": [1, 1]},
								"up": {"uv": [85, 96], "uv_size": [-1, -1]},
								"down": {"uv": [85, 95], "uv_size": [-1, 1]}
							}
						},
						{
							"origin": [-11.62667, 12.5, -2.03333],
							"size": [0.69333, 0.69333, 0.69333],
							"uv": {
								"north": {"uv": [86, 95], "uv_size": [-1, 1]},
								"east": {"uv": [85, 95], "uv_size": [1, 1]},
								"south": {"uv": [85, 95], "uv_size": [1, 1]},
								"west": {"uv": [85, 95], "uv_size": [1, 1]},
								"up": {"uv": [86, 96], "uv_size": [-1, -1]},
								"down": {"uv": [86, 95], "uv_size": [-1, 1]}
							}
						},
						{
							"origin": [-12.32, 12.5, -2.03333],
							"size": [0.69333, 0.69333, 0.69333],
							"uv": {
								"north": {"uv": [87, 95], "uv_size": [-1, 1]},
								"east": {"uv": [86, 95], "uv_size": [1, 1]},
								"south": {"uv": [86, 95], "uv_size": [1, 1]},
								"west": {"uv": [86, 95], "uv_size": [1, 1]},
								"up": {"uv": [87, 96], "uv_size": [-1, -1]},
								"down": {"uv": [87, 95], "uv_size": [-1, 1]}
							}
						},
						{
							"origin": [-17.86667, 12.5, -2.03333],
							"size": [0.69333, 0.69333, 0.69333],
							"uv": {
								"north": {"uv": [95, 95], "uv_size": [-1, 1]},
								"east": {"uv": [94, 95], "uv_size": [1, 1]},
								"south": {"uv": [94, 95], "uv_size": [1, 1]},
								"west": {"uv": [94, 95], "uv_size": [1, 1]},
								"up": {"uv": [95, 96], "uv_size": [-1, -1]},
								"down": {"uv": [95, 95], "uv_size": [-1, 1]}
							}
						},
						{
							"origin": [-18.56, 12.5, -2.03333],
							"size": [0.69333, 0.69333, 0.69333],
							"uv": {
								"north": {"uv": [96, 95], "uv_size": [-1, 1]},
								"east": {"uv": [95, 95], "uv_size": [1, 1]},
								"south": {"uv": [95, 95], "uv_size": [1, 1]},
								"west": {"uv": [95, 95], "uv_size": [1, 1]},
								"up": {"uv": [96, 96], "uv_size": [-1, -1]},
								"down": {"uv": [96, 95], "uv_size": [-1, 1]}
							}
						},
						{
							"origin": [-10.24, 12.5, -1.34],
							"size": [0.69333, 0.69333, 0.69333],
							"uv": {
								"north": {"uv": [84, 96], "uv_size": [-1, 1]},
								"east": {"uv": [83, 96], "uv_size": [1, 1]},
								"south": {"uv": [83, 96], "uv_size": [1, 1]},
								"west": {"uv": [83, 96], "uv_size": [1, 1]},
								"up": {"uv": [84, 97], "uv_size": [-1, -1]},
								"down": {"uv": [84, 96], "uv_size": [-1, 1]}
							}
						},
						{
							"origin": [-10.93333, 12.5, -1.34],
							"size": [0.69333, 0.69333, 0.69333],
							"uv": {
								"north": {"uv": [85, 96], "uv_size": [-1, 1]},
								"east": {"uv": [84, 96], "uv_size": [1, 1]},
								"south": {"uv": [84, 96], "uv_size": [1, 1]},
								"west": {"uv": [84, 96], "uv_size": [1, 1]},
								"up": {"uv": [85, 97], "uv_size": [-1, -1]},
								"down": {"uv": [85, 96], "uv_size": [-1, 1]}
							}
						},
						{
							"origin": [-11.62667, 12.5, -1.34],
							"size": [0.69333, 0.69333, 0.69333],
							"uv": {
								"north": {"uv": [86, 96], "uv_size": [-1, 1]},
								"east": {"uv": [85, 96], "uv_size": [1, 1]},
								"south": {"uv": [85, 96], "uv_size": [1, 1]},
								"west": {"uv": [85, 96], "uv_size": [1, 1]},
								"up": {"uv": [86, 97], "uv_size": [-1, -1]},
								"down": {"uv": [86, 96], "uv_size": [-1, 1]}
							}
						},
						{
							"origin": [-17.86667, 12.5, -1.34],
							"size": [0.69333, 0.69333, 0.69333],
							"uv": {
								"north": {"uv": [95, 96], "uv_size": [-1, 1]},
								"east": {"uv": [94, 96], "uv_size": [1, 1]},
								"south": {"uv": [94, 96], "uv_size": [1, 1]},
								"west": {"uv": [94, 96], "uv_size": [1, 1]},
								"up": {"uv": [95, 97], "uv_size": [-1, -1]},
								"down": {"uv": [95, 96], "uv_size": [-1, 1]}
							}
						},
						{
							"origin": [-18.56, 12.5, -1.34],
							"size": [0.69333, 0.69333, 0.69333],
							"uv": {
								"north": {"uv": [96, 96], "uv_size": [-1, 1]},
								"east": {"uv": [95, 96], "uv_size": [1, 1]},
								"south": {"uv": [95, 96], "uv_size": [1, 1]},
								"west": {"uv": [95, 96], "uv_size": [1, 1]},
								"up": {"uv": [96, 97], "uv_size": [-1, -1]},
								"down": {"uv": [96, 96], "uv_size": [-1, 1]}
							}
						},
						{
							"origin": [-9.54667, 12.5, -0.64667],
							"size": [0.69333, 0.69333, 0.69333],
							"uv": {
								"north": {"uv": [83, 97], "uv_size": [-1, 1]},
								"east": {"uv": [82, 97], "uv_size": [1, 1]},
								"south": {"uv": [82, 97], "uv_size": [1, 1]},
								"west": {"uv": [82, 97], "uv_size": [1, 1]},
								"up": {"uv": [83, 98], "uv_size": [-1, -1]},
								"down": {"uv": [83, 97], "uv_size": [-1, 1]}
							}
						},
						{
							"origin": [-10.24, 12.5, -0.64667],
							"size": [0.69333, 0.69333, 0.69333],
							"uv": {
								"north": {"uv": [84, 97], "uv_size": [-1, 1]},
								"east": {"uv": [83, 97], "uv_size": [1, 1]},
								"south": {"uv": [83, 97], "uv_size": [1, 1]},
								"west": {"uv": [83, 97], "uv_size": [1, 1]},
								"up": {"uv": [84, 98], "uv_size": [-1, -1]},
								"down": {"uv": [84, 97], "uv_size": [-1, 1]}
							}
						},
						{
							"origin": [-10.93333, 12.5, -0.64667],
							"size": [0.69333, 0.69333, 0.69333],
							"uv": {
								"north": {"uv": [85, 97], "uv_size": [-1, 1]},
								"east": {"uv": [84, 97], "uv_size": [1, 1]},
								"south": {"uv": [84, 97], "uv_size": [1, 1]},
								"west": {"uv": [84, 97], "uv_size": [1, 1]},
								"up": {"uv": [85, 98], "uv_size": [-1, -1]},
								"down": {"uv": [85, 97], "uv_size": [-1, 1]}
							}
						},
						{
							"origin": [-17.86667, 12.5, -0.64667],
							"size": [0.69333, 0.69333, 0.69333],
							"uv": {
								"north": {"uv": [95, 97], "uv_size": [-1, 1]},
								"east": {"uv": [94, 97], "uv_size": [1, 1]},
								"south": {"uv": [94, 97], "uv_size": [1, 1]},
								"west": {"uv": [94, 97], "uv_size": [1, 1]},
								"up": {"uv": [95, 98], "uv_size": [-1, -1]},
								"down": {"uv": [95, 97], "uv_size": [-1, 1]}
							}
						},
						{
							"origin": [-18.56, 12.5, -0.64667],
							"size": [0.69333, 0.69333, 0.69333],
							"uv": {
								"north": {"uv": [96, 97], "uv_size": [-1, 1]},
								"east": {"uv": [95, 97], "uv_size": [1, 1]},
								"south": {"uv": [95, 97], "uv_size": [1, 1]},
								"west": {"uv": [95, 97], "uv_size": [1, 1]},
								"up": {"uv": [96, 98], "uv_size": [-1, -1]},
								"down": {"uv": [96, 97], "uv_size": [-1, 1]}
							}
						},
						{
							"origin": [-8.85333, 12.5, 0.04667],
							"size": [0.69333, 0.69333, 0.69333],
							"uv": {
								"north": {"uv": [82, 98], "uv_size": [-1, 1]},
								"east": {"uv": [81, 98], "uv_size": [1, 1]},
								"south": {"uv": [81, 98], "uv_size": [1, 1]},
								"west": {"uv": [81, 98], "uv_size": [1, 1]},
								"up": {"uv": [82, 99], "uv_size": [-1, -1]},
								"down": {"uv": [82, 98], "uv_size": [-1, 1]}
							}
						},
						{
							"origin": [-9.54667, 12.5, 0.04667],
							"size": [0.69333, 0.69333, 0.69333],
							"uv": {
								"north": {"uv": [83, 98], "uv_size": [-1, 1]},
								"east": {"uv": [82, 98], "uv_size": [1, 1]},
								"south": {"uv": [82, 98], "uv_size": [1, 1]},
								"west": {"uv": [82, 98], "uv_size": [1, 1]},
								"up": {"uv": [83, 99], "uv_size": [-1, -1]},
								"down": {"uv": [83, 98], "uv_size": [-1, 1]}
							}
						},
						{
							"origin": [-10.24, 12.5, 0.04667],
							"size": [0.69333, 0.69333, 0.69333],
							"uv": {
								"north": {"uv": [84, 98], "uv_size": [-1, 1]},
								"east": {"uv": [83, 98], "uv_size": [1, 1]},
								"south": {"uv": [83, 98], "uv_size": [1, 1]},
								"west": {"uv": [83, 98], "uv_size": [1, 1]},
								"up": {"uv": [84, 99], "uv_size": [-1, -1]},
								"down": {"uv": [84, 98], "uv_size": [-1, 1]}
							}
						},
						{
							"origin": [-17.86667, 12.5, 0.04667],
							"size": [0.69333, 0.69333, 0.69333],
							"uv": {
								"north": {"uv": [95, 98], "uv_size": [-1, 1]},
								"east": {"uv": [94, 98], "uv_size": [1, 1]},
								"south": {"uv": [94, 98], "uv_size": [1, 1]},
								"west": {"uv": [94, 98], "uv_size": [1, 1]},
								"up": {"uv": [95, 99], "uv_size": [-1, -1]},
								"down": {"uv": [95, 98], "uv_size": [-1, 1]}
							}
						},
						{
							"origin": [-18.56, 12.5, 0.04667],
							"size": [0.69333, 0.69333, 0.69333],
							"uv": {
								"north": {"uv": [96, 98], "uv_size": [-1, 1]},
								"east": {"uv": [95, 98], "uv_size": [1, 1]},
								"south": {"uv": [95, 98], "uv_size": [1, 1]},
								"west": {"uv": [95, 98], "uv_size": [1, 1]},
								"up": {"uv": [96, 99], "uv_size": [-1, -1]},
								"down": {"uv": [96, 98], "uv_size": [-1, 1]}
							}
						},
						{
							"origin": [-8.16, 12.5, 0.74],
							"size": [0.69333, 0.69333, 0.69333],
							"uv": {
								"north": {"uv": [81, 99], "uv_size": [-1, 1]},
								"east": {"uv": [80, 99], "uv_size": [1, 1]},
								"south": {"uv": [80, 99], "uv_size": [1, 1]},
								"west": {"uv": [80, 99], "uv_size": [1, 1]},
								"up": {"uv": [81, 100], "uv_size": [-1, -1]},
								"down": {"uv": [81, 99], "uv_size": [-1, 1]}
							}
						},
						{
							"origin": [-8.85333, 12.5, 0.74],
							"size": [0.69333, 0.69333, 0.69333],
							"uv": {
								"north": {"uv": [82, 99], "uv_size": [-1, 1]},
								"east": {"uv": [81, 99], "uv_size": [1, 1]},
								"south": {"uv": [81, 99], "uv_size": [1, 1]},
								"west": {"uv": [81, 99], "uv_size": [1, 1]},
								"up": {"uv": [82, 100], "uv_size": [-1, -1]},
								"down": {"uv": [82, 99], "uv_size": [-1, 1]}
							}
						},
						{
							"origin": [-9.54667, 12.5, 0.74],
							"size": [0.69333, 0.69333, 0.69333],
							"uv": {
								"north": {"uv": [83, 99], "uv_size": [-1, 1]},
								"east": {"uv": [82, 99], "uv_size": [1, 1]},
								"south": {"uv": [82, 99], "uv_size": [1, 1]},
								"west": {"uv": [82, 99], "uv_size": [1, 1]},
								"up": {"uv": [83, 100], "uv_size": [-1, -1]},
								"down": {"uv": [83, 99], "uv_size": [-1, 1]}
							}
						},
						{
							"origin": [-18.56, 12.5, 0.74],
							"size": [0.69333, 0.69333, 0.69333],
							"uv": {
								"north": {"uv": [96, 99], "uv_size": [-1, 1]},
								"east": {"uv": [95, 99], "uv_size": [1, 1]},
								"south": {"uv": [95, 99], "uv_size": [1, 1]},
								"west": {"uv": [95, 99], "uv_size": [1, 1]},
								"up": {"uv": [96, 100], "uv_size": [-1, -1]},
								"down": {"uv": [96, 99], "uv_size": [-1, 1]}
							}
						},
						{
							"origin": [-19.25333, 12.5, 0.74],
							"size": [0.69333, 0.69333, 0.69333],
							"uv": {
								"north": {"uv": [97, 99], "uv_size": [-1, 1]},
								"east": {"uv": [96, 99], "uv_size": [1, 1]},
								"south": {"uv": [96, 99], "uv_size": [1, 1]},
								"west": {"uv": [96, 99], "uv_size": [1, 1]},
								"up": {"uv": [97, 100], "uv_size": [-1, -1]},
								"down": {"uv": [97, 99], "uv_size": [-1, 1]}
							}
						},
						{
							"origin": [-6.77333, 12.5, 1.43333],
							"size": [0.69333, 0.69333, 0.69333],
							"uv": {
								"north": {"uv": [79, 100], "uv_size": [-1, 1]},
								"east": {"uv": [78, 100], "uv_size": [1, 1]},
								"south": {"uv": [78, 100], "uv_size": [1, 1]},
								"west": {"uv": [78, 100], "uv_size": [1, 1]},
								"up": {"uv": [79, 101], "uv_size": [-1, -1]},
								"down": {"uv": [79, 100], "uv_size": [-1, 1]}
							}
						},
						{
							"origin": [-7.46667, 12.5, 1.43333],
							"size": [0.69333, 0.69333, 0.69333],
							"uv": {
								"north": {"uv": [80, 100], "uv_size": [-1, 1]},
								"east": {"uv": [79, 100], "uv_size": [1, 1]},
								"south": {"uv": [79, 100], "uv_size": [1, 1]},
								"west": {"uv": [79, 100], "uv_size": [1, 1]},
								"up": {"uv": [80, 101], "uv_size": [-1, -1]},
								"down": {"uv": [80, 100], "uv_size": [-1, 1]}
							}
						},
						{
							"origin": [-8.16, 12.5, 1.43333],
							"size": [0.69333, 0.69333, 0.69333],
							"uv": {
								"north": {"uv": [81, 100], "uv_size": [-1, 1]},
								"east": {"uv": [80, 100], "uv_size": [1, 1]},
								"south": {"uv": [80, 100], "uv_size": [1, 1]},
								"west": {"uv": [80, 100], "uv_size": [1, 1]},
								"up": {"uv": [81, 101], "uv_size": [-1, -1]},
								"down": {"uv": [81, 100], "uv_size": [-1, 1]}
							}
						},
						{
							"origin": [-8.85333, 12.5, 1.43333],
							"size": [0.69333, 0.69333, 0.69333],
							"uv": {
								"north": {"uv": [82, 100], "uv_size": [-1, 1]},
								"east": {"uv": [81, 100], "uv_size": [1, 1]},
								"south": {"uv": [81, 100], "uv_size": [1, 1]},
								"west": {"uv": [81, 100], "uv_size": [1, 1]},
								"up": {"uv": [82, 101], "uv_size": [-1, -1]},
								"down": {"uv": [82, 100], "uv_size": [-1, 1]}
							}
						},
						{
							"origin": [-18.56, 12.5, 1.43333],
							"size": [0.69333, 0.69333, 0.69333],
							"uv": {
								"north": {"uv": [96, 100], "uv_size": [-1, 1]},
								"east": {"uv": [95, 100], "uv_size": [1, 1]},
								"south": {"uv": [95, 100], "uv_size": [1, 1]},
								"west": {"uv": [95, 100], "uv_size": [1, 1]},
								"up": {"uv": [96, 101], "uv_size": [-1, -1]},
								"down": {"uv": [96, 100], "uv_size": [-1, 1]}
							}
						},
						{
							"origin": [-19.25333, 12.5, 1.43333],
							"size": [0.69333, 0.69333, 0.69333],
							"uv": {
								"north": {"uv": [97, 100], "uv_size": [-1, 1]},
								"east": {"uv": [96, 100], "uv_size": [1, 1]},
								"south": {"uv": [96, 100], "uv_size": [1, 1]},
								"west": {"uv": [96, 100], "uv_size": [1, 1]},
								"up": {"uv": [97, 101], "uv_size": [-1, -1]},
								"down": {"uv": [97, 100], "uv_size": [-1, 1]}
							}
						},
						{
							"origin": [-6.77333, 12.5, 2.12667],
							"size": [0.69333, 0.69333, 0.69333],
							"uv": {
								"north": {"uv": [79, 101], "uv_size": [-1, 1]},
								"east": {"uv": [78, 101], "uv_size": [1, 1]},
								"south": {"uv": [78, 101], "uv_size": [1, 1]},
								"west": {"uv": [78, 101], "uv_size": [1, 1]},
								"up": {"uv": [79, 102], "uv_size": [-1, -1]},
								"down": {"uv": [79, 101], "uv_size": [-1, 1]}
							}
						},
						{
							"origin": [-7.46667, 12.5, 2.12667],
							"size": [0.69333, 0.69333, 0.69333],
							"uv": {
								"north": {"uv": [80, 101], "uv_size": [-1, 1]},
								"east": {"uv": [79, 101], "uv_size": [1, 1]},
								"south": {"uv": [79, 101], "uv_size": [1, 1]},
								"west": {"uv": [79, 101], "uv_size": [1, 1]},
								"up": {"uv": [80, 102], "uv_size": [-1, -1]},
								"down": {"uv": [80, 101], "uv_size": [-1, 1]}
							}
						},
						{
							"origin": [-8.16, 12.5, 2.12667],
							"size": [0.69333, 0.69333, 0.69333],
							"uv": {
								"north": {"uv": [81, 101], "uv_size": [-1, 1]},
								"east": {"uv": [80, 101], "uv_size": [1, 1]},
								"south": {"uv": [80, 101], "uv_size": [1, 1]},
								"west": {"uv": [80, 101], "uv_size": [1, 1]},
								"up": {"uv": [81, 102], "uv_size": [-1, -1]},
								"down": {"uv": [81, 101], "uv_size": [-1, 1]}
							}
						},
						{
							"origin": [-18.56, 12.5, 2.12667],
							"size": [0.69333, 0.69333, 0.69333],
							"uv": {
								"north": {"uv": [96, 101], "uv_size": [-1, 1]},
								"east": {"uv": [95, 101], "uv_size": [1, 1]},
								"south": {"uv": [95, 101], "uv_size": [1, 1]},
								"west": {"uv": [95, 101], "uv_size": [1, 1]},
								"up": {"uv": [96, 102], "uv_size": [-1, -1]},
								"down": {"uv": [96, 101], "uv_size": [-1, 1]}
							}
						},
						{
							"origin": [-19.25333, 12.5, 2.12667],
							"size": [0.69333, 0.69333, 0.69333],
							"uv": {
								"north": {"uv": [97, 101], "uv_size": [-1, 1]},
								"east": {"uv": [96, 101], "uv_size": [1, 1]},
								"south": {"uv": [96, 101], "uv_size": [1, 1]},
								"west": {"uv": [96, 101], "uv_size": [1, 1]},
								"up": {"uv": [97, 102], "uv_size": [-1, -1]},
								"down": {"uv": [97, 101], "uv_size": [-1, 1]}
							}
						},
						{
							"origin": [-6.77333, 12.5, 2.82],
							"size": [0.69333, 0.69333, 0.69333],
							"uv": {
								"north": {"uv": [79, 102], "uv_size": [-1, 1]},
								"east": {"uv": [78, 102], "uv_size": [1, 1]},
								"south": {"uv": [78, 102], "uv_size": [1, 1]},
								"west": {"uv": [78, 102], "uv_size": [1, 1]},
								"up": {"uv": [79, 103], "uv_size": [-1, -1]},
								"down": {"uv": [79, 102], "uv_size": [-1, 1]}
							}
						},
						{
							"origin": [-7.46667, 12.5, 2.82],
							"size": [0.69333, 0.69333, 0.69333],
							"uv": {
								"north": {"uv": [80, 102], "uv_size": [-1, 1]},
								"east": {"uv": [79, 102], "uv_size": [1, 1]},
								"south": {"uv": [79, 102], "uv_size": [1, 1]},
								"west": {"uv": [79, 102], "uv_size": [1, 1]},
								"up": {"uv": [80, 103], "uv_size": [-1, -1]},
								"down": {"uv": [80, 102], "uv_size": [-1, 1]}
							}
						},
						{
							"origin": [-8.16, 12.5, 2.82],
							"size": [0.69333, 0.69333, 0.69333],
							"uv": {
								"north": {"uv": [81, 102], "uv_size": [-1, 1]},
								"east": {"uv": [80, 102], "uv_size": [1, 1]},
								"south": {"uv": [80, 102], "uv_size": [1, 1]},
								"west": {"uv": [80, 102], "uv_size": [1, 1]},
								"up": {"uv": [81, 103], "uv_size": [-1, -1]},
								"down": {"uv": [81, 102], "uv_size": [-1, 1]}
							}
						},
						{
							"origin": [-17.86667, 12.5, 2.82],
							"size": [0.69333, 0.69333, 0.69333],
							"uv": {
								"north": {"uv": [95, 102], "uv_size": [-1, 1]},
								"east": {"uv": [94, 102], "uv_size": [1, 1]},
								"south": {"uv": [94, 102], "uv_size": [1, 1]},
								"west": {"uv": [94, 102], "uv_size": [1, 1]},
								"up": {"uv": [95, 103], "uv_size": [-1, -1]},
								"down": {"uv": [95, 102], "uv_size": [-1, 1]}
							}
						},
						{
							"origin": [-18.56, 12.5, 2.82],
							"size": [0.69333, 0.69333, 0.69333],
							"uv": {
								"north": {"uv": [96, 102], "uv_size": [-1, 1]},
								"east": {"uv": [95, 102], "uv_size": [1, 1]},
								"south": {"uv": [95, 102], "uv_size": [1, 1]},
								"west": {"uv": [95, 102], "uv_size": [1, 1]},
								"up": {"uv": [96, 103], "uv_size": [-1, -1]},
								"down": {"uv": [96, 102], "uv_size": [-1, 1]}
							}
						},
						{
							"origin": [-17.86667, 12.5, 3.51333],
							"size": [0.69333, 0.69333, 0.69333],
							"uv": {
								"north": {"uv": [95, 103], "uv_size": [-1, 1]},
								"east": {"uv": [94, 103], "uv_size": [1, 1]},
								"south": {"uv": [94, 103], "uv_size": [1, 1]},
								"west": {"uv": [94, 103], "uv_size": [1, 1]},
								"up": {"uv": [95, 104], "uv_size": [-1, -1]},
								"down": {"uv": [95, 103], "uv_size": [-1, 1]}
							}
						},
						{
							"origin": [-18.56, 12.5, 3.51333],
							"size": [0.69333, 0.69333, 0.69333],
							"uv": {
								"north": {"uv": [96, 103], "uv_size": [-1, 1]},
								"east": {"uv": [95, 103], "uv_size": [1, 1]},
								"south": {"uv": [95, 103], "uv_size": [1, 1]},
								"west": {"uv": [95, 103], "uv_size": [1, 1]},
								"up": {"uv": [96, 104], "uv_size": [-1, -1]},
								"down": {"uv": [96, 103], "uv_size": [-1, 1]}
							}
						},
						{
							"origin": [-17.86667, 12.5, 4.20667],
							"size": [0.69333, 0.69333, 0.69333],
							"uv": {
								"north": {"uv": [95, 104], "uv_size": [-1, 1]},
								"east": {"uv": [94, 104], "uv_size": [1, 1]},
								"south": {"uv": [94, 104], "uv_size": [1, 1]},
								"west": {"uv": [94, 104], "uv_size": [1, 1]},
								"up": {"uv": [95, 105], "uv_size": [-1, -1]},
								"down": {"uv": [95, 104], "uv_size": [-1, 1]}
							}
						},
						{
							"origin": [-18.56, 12.5, 4.20667],
							"size": [0.69333, 0.69333, 0.69333],
							"uv": {
								"north": {"uv": [96, 104], "uv_size": [-1, 1]},
								"east": {"uv": [95, 104], "uv_size": [1, 1]},
								"south": {"uv": [95, 104], "uv_size": [1, 1]},
								"west": {"uv": [95, 104], "uv_size": [1, 1]},
								"up": {"uv": [96, 105], "uv_size": [-1, -1]},
								"down": {"uv": [96, 104], "uv_size": [-1, 1]}
							}
						},
						{
							"origin": [-17.17333, 12.5, 4.9],
							"size": [0.69333, 0.69333, 0.69333],
							"uv": {
								"north": {"uv": [94, 105], "uv_size": [-1, 1]},
								"east": {"uv": [93, 105], "uv_size": [1, 1]},
								"south": {"uv": [93, 105], "uv_size": [1, 1]},
								"west": {"uv": [93, 105], "uv_size": [1, 1]},
								"up": {"uv": [94, 106], "uv_size": [-1, -1]},
								"down": {"uv": [94, 105], "uv_size": [-1, 1]}
							}
						},
						{
							"origin": [-17.86667, 12.5, 4.9],
							"size": [0.69333, 0.69333, 0.69333],
							"uv": {
								"north": {"uv": [95, 105], "uv_size": [-1, 1]},
								"east": {"uv": [94, 105], "uv_size": [1, 1]},
								"south": {"uv": [94, 105], "uv_size": [1, 1]},
								"west": {"uv": [94, 105], "uv_size": [1, 1]},
								"up": {"uv": [95, 106], "uv_size": [-1, -1]},
								"down": {"uv": [95, 105], "uv_size": [-1, 1]}
							}
						},
						{
							"origin": [-17.17333, 12.5, 5.59333],
							"size": [0.69333, 0.69333, 0.69333],
							"uv": {
								"north": {"uv": [94, 106], "uv_size": [-1, 1]},
								"east": {"uv": [93, 106], "uv_size": [1, 1]},
								"south": {"uv": [93, 106], "uv_size": [1, 1]},
								"west": {"uv": [93, 106], "uv_size": [1, 1]},
								"up": {"uv": [94, 107], "uv_size": [-1, -1]},
								"down": {"uv": [94, 106], "uv_size": [-1, 1]}
							}
						},
						{
							"origin": [-17.86667, 12.5, 5.59333],
							"size": [0.69333, 0.69333, 0.69333],
							"uv": {
								"north": {"uv": [95, 106], "uv_size": [-1, 1]},
								"east": {"uv": [94, 106], "uv_size": [1, 1]},
								"south": {"uv": [94, 106], "uv_size": [1, 1]},
								"west": {"uv": [94, 106], "uv_size": [1, 1]},
								"up": {"uv": [95, 107], "uv_size": [-1, -1]},
								"down": {"uv": [95, 106], "uv_size": [-1, 1]}
							}
						},
						{
							"origin": [7.09333, 12.5, 6.28667],
							"size": [0.69333, 0.69333, 0.69333],
							"uv": {
								"north": {"uv": [59, 107], "uv_size": [-1, 1]},
								"east": {"uv": [58, 107], "uv_size": [1, 1]},
								"south": {"uv": [58, 107], "uv_size": [1, 1]},
								"west": {"uv": [58, 107], "uv_size": [1, 1]},
								"up": {"uv": [59, 108], "uv_size": [-1, -1]},
								"down": {"uv": [59, 107], "uv_size": [-1, 1]}
							}
						},
						{
							"origin": [-16.48, 12.5, 6.28667],
							"size": [0.69333, 0.69333, 0.69333],
							"uv": {
								"north": {"uv": [93, 107], "uv_size": [-1, 1]},
								"east": {"uv": [92, 107], "uv_size": [1, 1]},
								"south": {"uv": [92, 107], "uv_size": [1, 1]},
								"west": {"uv": [92, 107], "uv_size": [1, 1]},
								"up": {"uv": [93, 108], "uv_size": [-1, -1]},
								"down": {"uv": [93, 107], "uv_size": [-1, 1]}
							}
						},
						{
							"origin": [-17.17333, 12.5, 6.28667],
							"size": [0.69333, 0.69333, 0.69333],
							"uv": {
								"north": {"uv": [94, 107], "uv_size": [-1, 1]},
								"east": {"uv": [93, 107], "uv_size": [1, 1]},
								"south": {"uv": [93, 107], "uv_size": [1, 1]},
								"west": {"uv": [93, 107], "uv_size": [1, 1]},
								"up": {"uv": [94, 108], "uv_size": [-1, -1]},
								"down": {"uv": [94, 107], "uv_size": [-1, 1]}
							}
						},
						{
							"origin": [6.4, 12.5, 6.98],
							"size": [0.69333, 0.69333, 0.69333],
							"uv": {
								"north": {"uv": [60, 108], "uv_size": [-1, 1]},
								"east": {"uv": [59, 108], "uv_size": [1, 1]},
								"south": {"uv": [59, 108], "uv_size": [1, 1]},
								"west": {"uv": [59, 108], "uv_size": [1, 1]},
								"up": {"uv": [60, 109], "uv_size": [-1, -1]},
								"down": {"uv": [60, 108], "uv_size": [-1, 1]}
							}
						},
						{
							"origin": [-16.48, 12.5, 6.98],
							"size": [0.69333, 0.69333, 0.69333],
							"uv": {
								"north": {"uv": [93, 108], "uv_size": [-1, 1]},
								"east": {"uv": [92, 108], "uv_size": [1, 1]},
								"south": {"uv": [92, 108], "uv_size": [1, 1]},
								"west": {"uv": [92, 108], "uv_size": [1, 1]},
								"up": {"uv": [93, 109], "uv_size": [-1, -1]},
								"down": {"uv": [93, 108], "uv_size": [-1, 1]}
							}
						},
						{
							"origin": [-17.17333, 12.5, 6.98],
							"size": [0.69333, 0.69333, 0.69333],
							"uv": {
								"north": {"uv": [94, 108], "uv_size": [-1, 1]},
								"east": {"uv": [93, 108], "uv_size": [1, 1]},
								"south": {"uv": [93, 108], "uv_size": [1, 1]},
								"west": {"uv": [93, 108], "uv_size": [1, 1]},
								"up": {"uv": [94, 109], "uv_size": [-1, -1]},
								"down": {"uv": [94, 108], "uv_size": [-1, 1]}
							}
						},
						{
							"origin": [6.4, 12.5, 7.67333],
							"size": [0.69333, 0.69333, 0.69333],
							"uv": {
								"north": {"uv": [60, 109], "uv_size": [-1, 1]},
								"east": {"uv": [59, 109], "uv_size": [1, 1]},
								"south": {"uv": [59, 109], "uv_size": [1, 1]},
								"west": {"uv": [59, 109], "uv_size": [1, 1]},
								"up": {"uv": [60, 110], "uv_size": [-1, -1]},
								"down": {"uv": [60, 109], "uv_size": [-1, 1]}
							}
						},
						{
							"origin": [-15.78667, 12.5, 7.67333],
							"size": [0.69333, 0.69333, 0.69333],
							"uv": {
								"north": {"uv": [92, 109], "uv_size": [-1, 1]},
								"east": {"uv": [91, 109], "uv_size": [1, 1]},
								"south": {"uv": [91, 109], "uv_size": [1, 1]},
								"west": {"uv": [91, 109], "uv_size": [1, 1]},
								"up": {"uv": [92, 110], "uv_size": [-1, -1]},
								"down": {"uv": [92, 109], "uv_size": [-1, 1]}
							}
						},
						{
							"origin": [-16.48, 12.5, 7.67333],
							"size": [0.69333, 0.69333, 0.69333],
							"uv": {
								"north": {"uv": [93, 109], "uv_size": [-1, 1]},
								"east": {"uv": [92, 109], "uv_size": [1, 1]},
								"south": {"uv": [92, 109], "uv_size": [1, 1]},
								"west": {"uv": [92, 109], "uv_size": [1, 1]},
								"up": {"uv": [93, 110], "uv_size": [-1, -1]},
								"down": {"uv": [93, 109], "uv_size": [-1, 1]}
							}
						},
						{
							"origin": [5.70667, 12.5, 8.36667],
							"size": [0.69333, 0.69333, 0.69333],
							"uv": {
								"north": {"uv": [61, 110], "uv_size": [-1, 1]},
								"east": {"uv": [60, 110], "uv_size": [1, 1]},
								"south": {"uv": [60, 110], "uv_size": [1, 1]},
								"west": {"uv": [60, 110], "uv_size": [1, 1]},
								"up": {"uv": [61, 111], "uv_size": [-1, -1]},
								"down": {"uv": [61, 110], "uv_size": [-1, 1]}
							}
						},
						{
							"origin": [5.01333, 12.5, 8.36667],
							"size": [0.69333, 0.69333, 0.69333],
							"uv": {
								"north": {"uv": [62, 110], "uv_size": [-1, 1]},
								"east": {"uv": [61, 110], "uv_size": [1, 1]},
								"south": {"uv": [61, 110], "uv_size": [1, 1]},
								"west": {"uv": [61, 110], "uv_size": [1, 1]},
								"up": {"uv": [62, 111], "uv_size": [-1, -1]},
								"down": {"uv": [62, 110], "uv_size": [-1, 1]}
							}
						},
						{
							"origin": [4.32, 12.5, 8.36667],
							"size": [0.69333, 0.69333, 0.69333],
							"uv": {
								"north": {"uv": [63, 110], "uv_size": [-1, 1]},
								"east": {"uv": [62, 110], "uv_size": [1, 1]},
								"south": {"uv": [62, 110], "uv_size": [1, 1]},
								"west": {"uv": [62, 110], "uv_size": [1, 1]},
								"up": {"uv": [63, 111], "uv_size": [-1, -1]},
								"down": {"uv": [63, 110], "uv_size": [-1, 1]}
							}
						},
						{
							"origin": [-14.4, 12.5, 8.36667],
							"size": [0.69333, 0.69333, 0.69333],
							"uv": {
								"north": {"uv": [90, 110], "uv_size": [-1, 1]},
								"east": {"uv": [89, 110], "uv_size": [1, 1]},
								"south": {"uv": [89, 110], "uv_size": [1, 1]},
								"west": {"uv": [89, 110], "uv_size": [1, 1]},
								"up": {"uv": [90, 111], "uv_size": [-1, -1]},
								"down": {"uv": [90, 110], "uv_size": [-1, 1]}
							}
						},
						{
							"origin": [-15.09333, 12.5, 8.36667],
							"size": [0.69333, 0.69333, 0.69333],
							"uv": {
								"north": {"uv": [91, 110], "uv_size": [-1, 1]},
								"east": {"uv": [90, 110], "uv_size": [1, 1]},
								"south": {"uv": [90, 110], "uv_size": [1, 1]},
								"west": {"uv": [90, 110], "uv_size": [1, 1]},
								"up": {"uv": [91, 111], "uv_size": [-1, -1]},
								"down": {"uv": [91, 110], "uv_size": [-1, 1]}
							}
						},
						{
							"origin": [-15.78667, 12.5, 8.36667],
							"size": [0.69333, 0.69333, 0.69333],
							"uv": {
								"north": {"uv": [92, 110], "uv_size": [-1, 1]},
								"east": {"uv": [91, 110], "uv_size": [1, 1]},
								"south": {"uv": [91, 110], "uv_size": [1, 1]},
								"west": {"uv": [91, 110], "uv_size": [1, 1]},
								"up": {"uv": [92, 111], "uv_size": [-1, -1]},
								"down": {"uv": [92, 110], "uv_size": [-1, 1]}
							}
						},
						{
							"origin": [3.62667, 12.5, 9.06],
							"size": [0.69333, 0.69333, 0.69333],
							"uv": {
								"north": {"uv": [64, 111], "uv_size": [-1, 1]},
								"east": {"uv": [63, 111], "uv_size": [1, 1]},
								"south": {"uv": [63, 111], "uv_size": [1, 1]},
								"west": {"uv": [63, 111], "uv_size": [1, 1]},
								"up": {"uv": [64, 112], "uv_size": [-1, -1]},
								"down": {"uv": [64, 111], "uv_size": [-1, 1]}
							}
						},
						{
							"origin": [-12.32, 12.5, 9.06],
							"size": [0.69333, 0.69333, 0.69333],
							"uv": {
								"north": {"uv": [87, 111], "uv_size": [-1, 1]},
								"east": {"uv": [86, 111], "uv_size": [1, 1]},
								"south": {"uv": [86, 111], "uv_size": [1, 1]},
								"west": {"uv": [86, 111], "uv_size": [1, 1]},
								"up": {"uv": [87, 112], "uv_size": [-1, -1]},
								"down": {"uv": [87, 111], "uv_size": [-1, 1]}
							}
						},
						{
							"origin": [-13.01333, 12.5, 9.06],
							"size": [0.69333, 0.69333, 0.69333],
							"uv": {
								"north": {"uv": [88, 111], "uv_size": [-1, 1]},
								"east": {"uv": [87, 111], "uv_size": [1, 1]},
								"south": {"uv": [87, 111], "uv_size": [1, 1]},
								"west": {"uv": [87, 111], "uv_size": [1, 1]},
								"up": {"uv": [88, 112], "uv_size": [-1, -1]},
								"down": {"uv": [88, 111], "uv_size": [-1, 1]}
							}
						},
						{
							"origin": [-13.70667, 12.5, 9.06],
							"size": [0.69333, 0.69333, 0.69333],
							"uv": {
								"north": {"uv": [89, 111], "uv_size": [-1, 1]},
								"east": {"uv": [88, 111], "uv_size": [1, 1]},
								"south": {"uv": [88, 111], "uv_size": [1, 1]},
								"west": {"uv": [88, 111], "uv_size": [1, 1]},
								"up": {"uv": [89, 112], "uv_size": [-1, -1]},
								"down": {"uv": [89, 111], "uv_size": [-1, 1]}
							}
						},
						{
							"origin": [-14.4, 12.5, 9.06],
							"size": [0.69333, 0.69333, 0.69333],
							"uv": {
								"north": {"uv": [90, 111], "uv_size": [-1, 1]},
								"east": {"uv": [89, 111], "uv_size": [1, 1]},
								"south": {"uv": [89, 111], "uv_size": [1, 1]},
								"west": {"uv": [89, 111], "uv_size": [1, 1]},
								"up": {"uv": [90, 112], "uv_size": [-1, -1]},
								"down": {"uv": [90, 111], "uv_size": [-1, 1]}
							}
						},
						{
							"origin": [-15.09333, 12.5, 9.06],
							"size": [0.69333, 0.69333, 0.69333],
							"uv": {
								"north": {"uv": [91, 111], "uv_size": [-1, 1]},
								"east": {"uv": [90, 111], "uv_size": [1, 1]},
								"south": {"uv": [90, 111], "uv_size": [1, 1]},
								"west": {"uv": [90, 111], "uv_size": [1, 1]},
								"up": {"uv": [91, 112], "uv_size": [-1, -1]},
								"down": {"uv": [91, 111], "uv_size": [-1, 1]}
							}
						},
						{
							"origin": [2.93333, 12.5, 9.75333],
							"size": [0.69333, 0.69333, 0.69333],
							"uv": {
								"north": {"uv": [65, 112], "uv_size": [-1, 1]},
								"east": {"uv": [64, 112], "uv_size": [1, 1]},
								"south": {"uv": [64, 112], "uv_size": [1, 1]},
								"west": {"uv": [64, 112], "uv_size": [1, 1]},
								"up": {"uv": [65, 113], "uv_size": [-1, -1]},
								"down": {"uv": [65, 112], "uv_size": [-1, 1]}
							}
						},
						{
							"origin": [2.24, 12.5, 9.75333],
							"size": [0.69333, 0.69333, 0.69333],
							"uv": {
								"north": {"uv": [66, 112], "uv_size": [-1, 1]},
								"east": {"uv": [65, 112], "uv_size": [1, 1]},
								"south": {"uv": [65, 112], "uv_size": [1, 1]},
								"west": {"uv": [65, 112], "uv_size": [1, 1]},
								"up": {"uv": [66, 113], "uv_size": [-1, -1]},
								"down": {"uv": [66, 112], "uv_size": [-1, 1]}
							}
						},
						{
							"origin": [1.54667, 12.5, 9.75333],
							"size": [0.69333, 0.69333, 0.69333],
							"uv": {
								"north": {"uv": [67, 112], "uv_size": [-1, 1]},
								"east": {"uv": [66, 112], "uv_size": [1, 1]},
								"south": {"uv": [66, 112], "uv_size": [1, 1]},
								"west": {"uv": [66, 112], "uv_size": [1, 1]},
								"up": {"uv": [67, 113], "uv_size": [-1, -1]},
								"down": {"uv": [67, 112], "uv_size": [-1, 1]}
							}
						},
						{
							"origin": [0.85333, 12.5, 9.75333],
							"size": [0.69333, 0.69333, 0.69333],
							"uv": {
								"north": {"uv": [68, 112], "uv_size": [-1, 1]},
								"east": {"uv": [67, 112], "uv_size": [1, 1]},
								"south": {"uv": [67, 112], "uv_size": [1, 1]},
								"west": {"uv": [67, 112], "uv_size": [1, 1]},
								"up": {"uv": [68, 113], "uv_size": [-1, -1]},
								"down": {"uv": [68, 112], "uv_size": [-1, 1]}
							}
						},
						{
							"origin": [0.16, 12.5, 9.75333],
							"size": [0.69333, 0.69333, 0.69333],
							"uv": {
								"north": {"uv": [69, 112], "uv_size": [-1, 1]},
								"east": {"uv": [68, 112], "uv_size": [1, 1]},
								"south": {"uv": [68, 112], "uv_size": [1, 1]},
								"west": {"uv": [68, 112], "uv_size": [1, 1]},
								"up": {"uv": [69, 113], "uv_size": [-1, -1]},
								"down": {"uv": [69, 112], "uv_size": [-1, 1]}
							}
						},
						{
							"origin": [-0.53333, 12.5, 9.75333],
							"size": [0.69333, 0.69333, 0.69333],
							"uv": {
								"north": {"uv": [70, 112], "uv_size": [-1, 1]},
								"east": {"uv": [69, 112], "uv_size": [1, 1]},
								"south": {"uv": [69, 112], "uv_size": [1, 1]},
								"west": {"uv": [69, 112], "uv_size": [1, 1]},
								"up": {"uv": [70, 113], "uv_size": [-1, -1]},
								"down": {"uv": [70, 112], "uv_size": [-1, 1]}
							}
						},
						{
							"origin": [-1.22667, 12.5, 9.75333],
							"size": [0.69333, 0.69333, 0.69333],
							"uv": {
								"north": {"uv": [71, 112], "uv_size": [-1, 1]},
								"east": {"uv": [70, 112], "uv_size": [1, 1]},
								"south": {"uv": [70, 112], "uv_size": [1, 1]},
								"west": {"uv": [70, 112], "uv_size": [1, 1]},
								"up": {"uv": [71, 113], "uv_size": [-1, -1]},
								"down": {"uv": [71, 112], "uv_size": [-1, 1]}
							}
						},
						{
							"origin": [-1.92, 12.5, 9.75333],
							"size": [0.69333, 0.69333, 0.69333],
							"uv": {
								"north": {"uv": [72, 112], "uv_size": [-1, 1]},
								"east": {"uv": [71, 112], "uv_size": [1, 1]},
								"south": {"uv": [71, 112], "uv_size": [1, 1]},
								"west": {"uv": [71, 112], "uv_size": [1, 1]},
								"up": {"uv": [72, 113], "uv_size": [-1, -1]},
								"down": {"uv": [72, 112], "uv_size": [-1, 1]}
							}
						},
						{
							"origin": [-2.61333, 12.5, 9.75333],
							"size": [0.69333, 0.69333, 0.69333],
							"uv": {
								"north": {"uv": [73, 112], "uv_size": [-1, 1]},
								"east": {"uv": [72, 112], "uv_size": [1, 1]},
								"south": {"uv": [72, 112], "uv_size": [1, 1]},
								"west": {"uv": [72, 112], "uv_size": [1, 1]},
								"up": {"uv": [73, 113], "uv_size": [-1, -1]},
								"down": {"uv": [73, 112], "uv_size": [-1, 1]}
							}
						},
						{
							"origin": [-3.30667, 12.5, 9.75333],
							"size": [0.69333, 0.69333, 0.69333],
							"uv": {
								"north": {"uv": [74, 112], "uv_size": [-1, 1]},
								"east": {"uv": [73, 112], "uv_size": [1, 1]},
								"south": {"uv": [73, 112], "uv_size": [1, 1]},
								"west": {"uv": [73, 112], "uv_size": [1, 1]},
								"up": {"uv": [74, 113], "uv_size": [-1, -1]},
								"down": {"uv": [74, 112], "uv_size": [-1, 1]}
							}
						},
						{
							"origin": [-4, 12.5, 9.75333],
							"size": [0.69333, 0.69333, 0.69333],
							"uv": {
								"north": {"uv": [75, 112], "uv_size": [-1, 1]},
								"east": {"uv": [74, 112], "uv_size": [1, 1]},
								"south": {"uv": [74, 112], "uv_size": [1, 1]},
								"west": {"uv": [74, 112], "uv_size": [1, 1]},
								"up": {"uv": [75, 113], "uv_size": [-1, -1]},
								"down": {"uv": [75, 112], "uv_size": [-1, 1]}
							}
						},
						{
							"origin": [-10.24, 12.5, 9.75333],
							"size": [0.69333, 0.69333, 0.69333],
							"uv": {
								"north": {"uv": [84, 112], "uv_size": [-1, 1]},
								"east": {"uv": [83, 112], "uv_size": [1, 1]},
								"south": {"uv": [83, 112], "uv_size": [1, 1]},
								"west": {"uv": [83, 112], "uv_size": [1, 1]},
								"up": {"uv": [84, 113], "uv_size": [-1, -1]},
								"down": {"uv": [84, 112], "uv_size": [-1, 1]}
							}
						},
						{
							"origin": [-10.93333, 12.5, 9.75333],
							"size": [0.69333, 0.69333, 0.69333],
							"uv": {
								"north": {"uv": [85, 112], "uv_size": [-1, 1]},
								"east": {"uv": [84, 112], "uv_size": [1, 1]},
								"south": {"uv": [84, 112], "uv_size": [1, 1]},
								"west": {"uv": [84, 112], "uv_size": [1, 1]},
								"up": {"uv": [85, 113], "uv_size": [-1, -1]},
								"down": {"uv": [85, 112], "uv_size": [-1, 1]}
							}
						},
						{
							"origin": [-11.62667, 12.5, 9.75333],
							"size": [0.69333, 0.69333, 0.69333],
							"uv": {
								"north": {"uv": [86, 112], "uv_size": [-1, 1]},
								"east": {"uv": [85, 112], "uv_size": [1, 1]},
								"south": {"uv": [85, 112], "uv_size": [1, 1]},
								"west": {"uv": [85, 112], "uv_size": [1, 1]},
								"up": {"uv": [86, 113], "uv_size": [-1, -1]},
								"down": {"uv": [86, 112], "uv_size": [-1, 1]}
							}
						},
						{
							"origin": [-12.32, 12.5, 9.75333],
							"size": [0.69333, 0.69333, 0.69333],
							"uv": {
								"north": {"uv": [87, 112], "uv_size": [-1, 1]},
								"east": {"uv": [86, 112], "uv_size": [1, 1]},
								"south": {"uv": [86, 112], "uv_size": [1, 1]},
								"west": {"uv": [86, 112], "uv_size": [1, 1]},
								"up": {"uv": [87, 113], "uv_size": [-1, -1]},
								"down": {"uv": [87, 112], "uv_size": [-1, 1]}
							}
						},
						{
							"origin": [-13.01333, 12.5, 9.75333],
							"size": [0.69333, 0.69333, 0.69333],
							"uv": {
								"north": {"uv": [88, 112], "uv_size": [-1, 1]},
								"east": {"uv": [87, 112], "uv_size": [1, 1]},
								"south": {"uv": [87, 112], "uv_size": [1, 1]},
								"west": {"uv": [87, 112], "uv_size": [1, 1]},
								"up": {"uv": [88, 113], "uv_size": [-1, -1]},
								"down": {"uv": [88, 112], "uv_size": [-1, 1]}
							}
						},
						{
							"origin": [-13.70667, 12.5, 9.75333],
							"size": [0.69333, 0.69333, 0.69333],
							"uv": {
								"north": {"uv": [89, 112], "uv_size": [-1, 1]},
								"east": {"uv": [88, 112], "uv_size": [1, 1]},
								"south": {"uv": [88, 112], "uv_size": [1, 1]},
								"west": {"uv": [88, 112], "uv_size": [1, 1]},
								"up": {"uv": [89, 113], "uv_size": [-1, -1]},
								"down": {"uv": [89, 112], "uv_size": [-1, 1]}
							}
						},
						{
							"origin": [0.16, 12.5, 10.44667],
							"size": [0.69333, 0.69333, 0.69333],
							"uv": {
								"north": {"uv": [69, 113], "uv_size": [-1, 1]},
								"east": {"uv": [68, 113], "uv_size": [1, 1]},
								"south": {"uv": [68, 113], "uv_size": [1, 1]},
								"west": {"uv": [68, 113], "uv_size": [1, 1]},
								"up": {"uv": [69, 114], "uv_size": [-1, -1]},
								"down": {"uv": [69, 113], "uv_size": [-1, 1]}
							}
						},
						{
							"origin": [-0.53333, 12.5, 10.44667],
							"size": [0.69333, 0.69333, 0.69333],
							"uv": {
								"north": {"uv": [70, 113], "uv_size": [-1, 1]},
								"east": {"uv": [69, 113], "uv_size": [1, 1]},
								"south": {"uv": [69, 113], "uv_size": [1, 1]},
								"west": {"uv": [69, 113], "uv_size": [1, 1]},
								"up": {"uv": [70, 114], "uv_size": [-1, -1]},
								"down": {"uv": [70, 113], "uv_size": [-1, 1]}
							}
						},
						{
							"origin": [-1.22667, 12.5, 10.44667],
							"size": [0.69333, 0.69333, 0.69333],
							"uv": {
								"north": {"uv": [71, 113], "uv_size": [-1, 1]},
								"east": {"uv": [70, 113], "uv_size": [1, 1]},
								"south": {"uv": [70, 113], "uv_size": [1, 1]},
								"west": {"uv": [70, 113], "uv_size": [1, 1]},
								"up": {"uv": [71, 114], "uv_size": [-1, -1]},
								"down": {"uv": [71, 113], "uv_size": [-1, 1]}
							}
						},
						{
							"origin": [-1.92, 12.5, 10.44667],
							"size": [0.69333, 0.69333, 0.69333],
							"uv": {
								"north": {"uv": [72, 113], "uv_size": [-1, 1]},
								"east": {"uv": [71, 113], "uv_size": [1, 1]},
								"south": {"uv": [71, 113], "uv_size": [1, 1]},
								"west": {"uv": [71, 113], "uv_size": [1, 1]},
								"up": {"uv": [72, 114], "uv_size": [-1, -1]},
								"down": {"uv": [72, 113], "uv_size": [-1, 1]}
							}
						},
						{
							"origin": [-2.61333, 12.5, 10.44667],
							"size": [0.69333, 0.69333, 0.69333],
							"uv": {
								"north": {"uv": [73, 113], "uv_size": [-1, 1]},
								"east": {"uv": [72, 113], "uv_size": [1, 1]},
								"south": {"uv": [72, 113], "uv_size": [1, 1]},
								"west": {"uv": [72, 113], "uv_size": [1, 1]},
								"up": {"uv": [73, 114], "uv_size": [-1, -1]},
								"down": {"uv": [73, 113], "uv_size": [-1, 1]}
							}
						},
						{
							"origin": [-3.30667, 12.5, 10.44667],
							"size": [0.69333, 0.69333, 0.69333],
							"uv": {
								"north": {"uv": [74, 113], "uv_size": [-1, 1]},
								"east": {"uv": [73, 113], "uv_size": [1, 1]},
								"south": {"uv": [73, 113], "uv_size": [1, 1]},
								"west": {"uv": [73, 113], "uv_size": [1, 1]},
								"up": {"uv": [74, 114], "uv_size": [-1, -1]},
								"down": {"uv": [74, 113], "uv_size": [-1, 1]}
							}
						},
						{
							"origin": [-4, 12.5, 10.44667],
							"size": [0.69333, 0.69333, 0.69333],
							"uv": {
								"north": {"uv": [75, 113], "uv_size": [-1, 1]},
								"east": {"uv": [74, 113], "uv_size": [1, 1]},
								"south": {"uv": [74, 113], "uv_size": [1, 1]},
								"west": {"uv": [74, 113], "uv_size": [1, 1]},
								"up": {"uv": [75, 114], "uv_size": [-1, -1]},
								"down": {"uv": [75, 113], "uv_size": [-1, 1]}
							}
						},
						{
							"origin": [-4.69333, 12.5, 10.44667],
							"size": [0.69333, 0.69333, 0.69333],
							"uv": {
								"north": {"uv": [76, 113], "uv_size": [-1, 1]},
								"east": {"uv": [75, 113], "uv_size": [1, 1]},
								"south": {"uv": [75, 113], "uv_size": [1, 1]},
								"west": {"uv": [75, 113], "uv_size": [1, 1]},
								"up": {"uv": [76, 114], "uv_size": [-1, -1]},
								"down": {"uv": [76, 113], "uv_size": [-1, 1]}
							}
						},
						{
							"origin": [-5.38667, 12.5, 10.44667],
							"size": [0.69333, 0.69333, 0.69333],
							"uv": {
								"north": {"uv": [77, 113], "uv_size": [-1, 1]},
								"east": {"uv": [76, 113], "uv_size": [1, 1]},
								"south": {"uv": [76, 113], "uv_size": [1, 1]},
								"west": {"uv": [76, 113], "uv_size": [1, 1]},
								"up": {"uv": [77, 114], "uv_size": [-1, -1]},
								"down": {"uv": [77, 113], "uv_size": [-1, 1]}
							}
						},
						{
							"origin": [-6.08, 12.5, 10.44667],
							"size": [0.69333, 0.69333, 0.69333],
							"uv": {
								"north": {"uv": [78, 113], "uv_size": [-1, 1]},
								"east": {"uv": [77, 113], "uv_size": [1, 1]},
								"south": {"uv": [77, 113], "uv_size": [1, 1]},
								"west": {"uv": [77, 113], "uv_size": [1, 1]},
								"up": {"uv": [78, 114], "uv_size": [-1, -1]},
								"down": {"uv": [78, 113], "uv_size": [-1, 1]}
							}
						},
						{
							"origin": [-6.77333, 12.5, 10.44667],
							"size": [0.69333, 0.69333, 0.69333],
							"uv": {
								"north": {"uv": [79, 113], "uv_size": [-1, 1]},
								"east": {"uv": [78, 113], "uv_size": [1, 1]},
								"south": {"uv": [78, 113], "uv_size": [1, 1]},
								"west": {"uv": [78, 113], "uv_size": [1, 1]},
								"up": {"uv": [79, 114], "uv_size": [-1, -1]},
								"down": {"uv": [79, 113], "uv_size": [-1, 1]}
							}
						},
						{
							"origin": [-7.46667, 12.5, 10.44667],
							"size": [0.69333, 0.69333, 0.69333],
							"uv": {
								"north": {"uv": [80, 113], "uv_size": [-1, 1]},
								"east": {"uv": [79, 113], "uv_size": [1, 1]},
								"south": {"uv": [79, 113], "uv_size": [1, 1]},
								"west": {"uv": [79, 113], "uv_size": [1, 1]},
								"up": {"uv": [80, 114], "uv_size": [-1, -1]},
								"down": {"uv": [80, 113], "uv_size": [-1, 1]}
							}
						},
						{
							"origin": [-8.16, 12.5, 10.44667],
							"size": [0.69333, 0.69333, 0.69333],
							"uv": {
								"north": {"uv": [81, 113], "uv_size": [-1, 1]},
								"east": {"uv": [80, 113], "uv_size": [1, 1]},
								"south": {"uv": [80, 113], "uv_size": [1, 1]},
								"west": {"uv": [80, 113], "uv_size": [1, 1]},
								"up": {"uv": [81, 114], "uv_size": [-1, -1]},
								"down": {"uv": [81, 113], "uv_size": [-1, 1]}
							}
						},
						{
							"origin": [-8.85333, 12.5, 10.44667],
							"size": [0.69333, 0.69333, 0.69333],
							"uv": {
								"north": {"uv": [82, 113], "uv_size": [-1, 1]},
								"east": {"uv": [81, 113], "uv_size": [1, 1]},
								"south": {"uv": [81, 113], "uv_size": [1, 1]},
								"west": {"uv": [81, 113], "uv_size": [1, 1]},
								"up": {"uv": [82, 114], "uv_size": [-1, -1]},
								"down": {"uv": [82, 113], "uv_size": [-1, 1]}
							}
						},
						{
							"origin": [-9.54667, 12.5, 10.44667],
							"size": [0.69333, 0.69333, 0.69333],
							"uv": {
								"north": {"uv": [83, 113], "uv_size": [-1, 1]},
								"east": {"uv": [82, 113], "uv_size": [1, 1]},
								"south": {"uv": [82, 113], "uv_size": [1, 1]},
								"west": {"uv": [82, 113], "uv_size": [1, 1]},
								"up": {"uv": [83, 114], "uv_size": [-1, -1]},
								"down": {"uv": [83, 113], "uv_size": [-1, 1]}
							}
						},
						{
							"origin": [-10.24, 12.5, 10.44667],
							"size": [0.69333, 0.69333, 0.69333],
							"uv": {
								"north": {"uv": [84, 113], "uv_size": [-1, 1]},
								"east": {"uv": [83, 113], "uv_size": [1, 1]},
								"south": {"uv": [83, 113], "uv_size": [1, 1]},
								"west": {"uv": [83, 113], "uv_size": [1, 1]},
								"up": {"uv": [84, 114], "uv_size": [-1, -1]},
								"down": {"uv": [84, 113], "uv_size": [-1, 1]}
							}
						},
						{
							"origin": [-10.93333, 12.5, 10.44667],
							"size": [0.69333, 0.69333, 0.69333],
							"uv": {
								"north": {"uv": [85, 113], "uv_size": [-1, 1]},
								"east": {"uv": [84, 113], "uv_size": [1, 1]},
								"south": {"uv": [84, 113], "uv_size": [1, 1]},
								"west": {"uv": [84, 113], "uv_size": [1, 1]},
								"up": {"uv": [85, 114], "uv_size": [-1, -1]},
								"down": {"uv": [85, 113], "uv_size": [-1, 1]}
							}
						},
						{
							"origin": [-11.62667, 12.5, 10.44667],
							"size": [0.69333, 0.69333, 0.69333],
							"uv": {
								"north": {"uv": [86, 113], "uv_size": [-1, 1]},
								"east": {"uv": [85, 113], "uv_size": [1, 1]},
								"south": {"uv": [85, 113], "uv_size": [1, 1]},
								"west": {"uv": [85, 113], "uv_size": [1, 1]},
								"up": {"uv": [86, 114], "uv_size": [-1, -1]},
								"down": {"uv": [86, 113], "uv_size": [-1, 1]}
							}
						},
						{
							"origin": [-4.69333, 12.5, 11.14],
							"size": [0.69333, 0.69333, 0.69333],
							"uv": {
								"north": {"uv": [76, 114], "uv_size": [-1, 1]},
								"east": {"uv": [75, 114], "uv_size": [1, 1]},
								"south": {"uv": [75, 114], "uv_size": [1, 1]},
								"west": {"uv": [75, 114], "uv_size": [1, 1]},
								"up": {"uv": [76, 115], "uv_size": [-1, -1]},
								"down": {"uv": [76, 114], "uv_size": [-1, 1]}
							}
						},
						{
							"origin": [-5.38667, 12.5, 11.14],
							"size": [0.69333, 0.69333, 0.69333],
							"uv": {
								"north": {"uv": [77, 114], "uv_size": [-1, 1]},
								"east": {"uv": [76, 114], "uv_size": [1, 1]},
								"south": {"uv": [76, 114], "uv_size": [1, 1]},
								"west": {"uv": [76, 114], "uv_size": [1, 1]},
								"up": {"uv": [77, 115], "uv_size": [-1, -1]},
								"down": {"uv": [77, 114], "uv_size": [-1, 1]}
							}
						},
						{
							"origin": [-6.08, 12.5, 11.14],
							"size": [0.69333, 0.69333, 0.69333],
							"uv": {
								"north": {"uv": [78, 114], "uv_size": [-1, 1]},
								"east": {"uv": [77, 114], "uv_size": [1, 1]},
								"south": {"uv": [77, 114], "uv_size": [1, 1]},
								"west": {"uv": [77, 114], "uv_size": [1, 1]},
								"up": {"uv": [78, 115], "uv_size": [-1, -1]},
								"down": {"uv": [78, 114], "uv_size": [-1, 1]}
							}
						},
						{
							"origin": [-6.77333, 12.5, 11.14],
							"size": [0.69333, 0.69333, 0.69333],
							"uv": {
								"north": {"uv": [79, 114], "uv_size": [-1, 1]},
								"east": {"uv": [78, 114], "uv_size": [1, 1]},
								"south": {"uv": [78, 114], "uv_size": [1, 1]},
								"west": {"uv": [78, 114], "uv_size": [1, 1]},
								"up": {"uv": [79, 115], "uv_size": [-1, -1]},
								"down": {"uv": [79, 114], "uv_size": [-1, 1]}
							}
						},
						{
							"origin": [-7.46667, 12.5, 11.14],
							"size": [0.69333, 0.69333, 0.69333],
							"uv": {
								"north": {"uv": [80, 114], "uv_size": [-1, 1]},
								"east": {"uv": [79, 114], "uv_size": [1, 1]},
								"south": {"uv": [79, 114], "uv_size": [1, 1]},
								"west": {"uv": [79, 114], "uv_size": [1, 1]},
								"up": {"uv": [80, 115], "uv_size": [-1, -1]},
								"down": {"uv": [80, 114], "uv_size": [-1, 1]}
							}
						},
						{
							"origin": [-8.16, 12.5, 11.14],
							"size": [0.69333, 0.69333, 0.69333],
							"uv": {
								"north": {"uv": [81, 114], "uv_size": [-1, 1]},
								"east": {"uv": [80, 114], "uv_size": [1, 1]},
								"south": {"uv": [80, 114], "uv_size": [1, 1]},
								"west": {"uv": [80, 114], "uv_size": [1, 1]},
								"up": {"uv": [81, 115], "uv_size": [-1, -1]},
								"down": {"uv": [81, 114], "uv_size": [-1, 1]}
							}
						},
						{
							"origin": [-8.85333, 12.5, 11.14],
							"size": [0.69333, 0.69333, 0.69333],
							"uv": {
								"north": {"uv": [82, 114], "uv_size": [-1, 1]},
								"east": {"uv": [81, 114], "uv_size": [1, 1]},
								"south": {"uv": [81, 114], "uv_size": [1, 1]},
								"west": {"uv": [81, 114], "uv_size": [1, 1]},
								"up": {"uv": [82, 115], "uv_size": [-1, -1]},
								"down": {"uv": [82, 114], "uv_size": [-1, 1]}
							}
						},
						{
							"origin": [-9.54667, 12.5, 11.14],
							"size": [0.69333, 0.69333, 0.69333],
							"uv": {
								"north": {"uv": [83, 114], "uv_size": [-1, 1]},
								"east": {"uv": [82, 114], "uv_size": [1, 1]},
								"south": {"uv": [82, 114], "uv_size": [1, 1]},
								"west": {"uv": [82, 114], "uv_size": [1, 1]},
								"up": {"uv": [83, 115], "uv_size": [-1, -1]},
								"down": {"uv": [83, 114], "uv_size": [-1, 1]}
							}
						}
					]
				},
				{
					"name": "jacket",
					"parent": "body",
					"pivot": [0, 24, 0]
				},
				{
					"name": "leftLeg",
					"parent": "root",
					"pivot": [1.9, 12, 0]
				},
				{
					"name": "leftPants",
					"parent": "leftLeg",
					"pivot": [1.9, 12, 0]
				},
				{
					"name": "rightLeg",
					"parent": "root",
					"pivot": [-1.9, 12, 0]
				},
				{
					"name": "rightPants",
					"parent": "rightLeg",
					"pivot": [-1.9, 12, 0]
				}
			]
		}
	]
}