{
	"format_version": "1.12.0",
	"minecraft:geometry": [
		{
			"description": {
				"identifier": "geometry.phantom_whip7",
				"texture_width": 180,
				"texture_height": 180,
				"visible_bounds_width": 7,
				"visible_bounds_height": 10,
				"visible_bounds_offset": [0, 3, 0]
			},
			"bones": [
				{
					"name": "root",
					"pivot": [0, 0, 0]
				},
				{
					"name": "waist",
					"parent": "root",
					"pivot": [0, 12, 0]
				},
				{
					"name": "body",
					"parent": "waist",
					"pivot": [0, 24, 0]
				},
				{
					"name": "head",
					"parent": "body",
					"pivot": [0, 24, 0]
				},
				{
					"name": "hat",
					"parent": "head",
					"pivot": [0, 24, 0]
				},
				{
					"name": "cape",
					"parent": "body",
					"pivot": [0, 24, 3]
				},
				{
					"name": "leftArm",
					"parent": "body",
					"pivot": [5, 22, 0]
				},
				{
					"name": "leftSleeve",
					"parent": "leftArm",
					"pivot": [5, 22, 0]
				},
				{
					"name": "leftItem",
					"parent": "leftArm",
					"pivot": [6, 15, 1]
				},
				{
					"name": "rightArm",
					"parent": "body",
					"pivot": [-5, 22, 0]
				},
				{
					"name": "rightSleeve",
					"parent": "rightArm",
					"pivot": [-5, 22, 0]
				},
				{
					"name": "rightItem",
					"parent": "rightArm",
					"pivot": [-6, 15, 1],
					"locators": {
						"lead_hold": [-6, 15, 1]
					}
				},
				{
					"name": "Whip_animation7",
					"parent": "rightItem",
					"pivot": [-6, 13.4, 1.4],
					"rotation": [-2.5, -52.5, -90],
					"cubes": [
						{
							"origin": [-34.864, 13.4, -35.16107],
							"size": [0.69973, 0.69973, 0.69973],
							"uv": {
								"north": {"uv": [120, 49], "uv_size": [-1, 1]},
								"east": {"uv": [119, 49], "uv_size": [1, 1]},
								"south": {"uv": [119, 49], "uv_size": [1, 1]},
								"west": {"uv": [119, 49], "uv_size": [1, 1]},
								"up": {"uv": [120, 50], "uv_size": [-1, -1]},
								"down": {"uv": [120, 49], "uv_size": [-1, 1]}
							}
						},
						{
							"origin": [-34.864, 13.4, -34.46133],
							"size": [0.69973, 0.69973, 0.69973],
							"uv": {
								"north": {"uv": [120, 50], "uv_size": [-1, 1]},
								"east": {"uv": [119, 50], "uv_size": [1, 1]},
								"south": {"uv": [119, 50], "uv_size": [1, 1]},
								"west": {"uv": [119, 50], "uv_size": [1, 1]},
								"up": {"uv": [120, 51], "uv_size": [-1, -1]},
								"down": {"uv": [120, 50], "uv_size": [-1, 1]}
							}
						},
						{
							"origin": [-34.864, 13.4, -33.7616],
							"size": [0.69973, 0.69973, 0.69973],
							"uv": {
								"north": {"uv": [120, 51], "uv_size": [-1, 1]},
								"east": {"uv": [119, 51], "uv_size": [1, 1]},
								"south": {"uv": [119, 51], "uv_size": [1, 1]},
								"west": {"uv": [119, 51], "uv_size": [1, 1]},
								"up": {"uv": [120, 52], "uv_size": [-1, -1]},
								"down": {"uv": [120, 51], "uv_size": [-1, 1]}
							}
						},
						{
							"origin": [-34.16427, 13.4, -33.06187],
							"size": [0.69973, 0.69973, 0.69973],
							"uv": {
								"north": {"uv": [119, 52], "uv_size": [-1, 1]},
								"east": {"uv": [118, 52], "uv_size": [1, 1]},
								"south": {"uv": [118, 52], "uv_size": [1, 1]},
								"west": {"uv": [118, 52], "uv_size": [1, 1]},
								"up": {"uv": [119, 53], "uv_size": [-1, -1]},
								"down": {"uv": [119, 52], "uv_size": [-1, 1]}
							}
						},
						{
							"origin": [-34.16427, 13.4, -32.36213],
							"size": [0.69973, 0.69973, 0.69973],
							"uv": {
								"north": {"uv": [119, 53], "uv_size": [-1, 1]},
								"east": {"uv": [118, 53], "uv_size": [1, 1]},
								"south": {"uv": [118, 53], "uv_size": [1, 1]},
								"west": {"uv": [118, 53], "uv_size": [1, 1]},
								"up": {"uv": [119, 54], "uv_size": [-1, -1]},
								"down": {"uv": [119, 53], "uv_size": [-1, 1]}
							}
						},
						{
							"origin": [-33.46453, 13.4, -31.6624],
							"size": [0.69973, 0.69973, 0.69973],
							"uv": {
								"north": {"uv": [118, 54], "uv_size": [-1, 1]},
								"east": {"uv": [117, 54], "uv_size": [1, 1]},
								"south": {"uv": [117, 54], "uv_size": [1, 1]},
								"west": {"uv": [117, 54], "uv_size": [1, 1]},
								"up": {"uv": [118, 55], "uv_size": [-1, -1]},
								"down": {"uv": [118, 54], "uv_size": [-1, 1]}
							}
						},
						{
							"origin": [-32.7648, 13.4, -30.96267],
							"size": [0.69973, 0.69973, 0.69973],
							"uv": {
								"north": {"uv": [117, 55], "uv_size": [-1, 1]},
								"east": {"uv": [116, 55], "uv_size": [1, 1]},
								"south": {"uv": [116, 55], "uv_size": [1, 1]},
								"west": {"uv": [116, 55], "uv_size": [1, 1]},
								"up": {"uv": [117, 56], "uv_size": [-1, -1]},
								"down": {"uv": [117, 55], "uv_size": [-1, 1]}
							}
						},
						{
							"origin": [-32.06507, 13.4, -30.26293],
							"size": [0.69973, 0.69973, 0.69973],
							"uv": {
								"north": {"uv": [116, 56], "uv_size": [-1, 1]},
								"east": {"uv": [115, 56], "uv_size": [1, 1]},
								"south": {"uv": [115, 56], "uv_size": [1, 1]},
								"west": {"uv": [115, 56], "uv_size": [1, 1]},
								"up": {"uv": [116, 57], "uv_size": [-1, -1]},
								"down": {"uv": [116, 56], "uv_size": [-1, 1]}
							}
						},
						{
							"origin": [-32.7648, 13.4, -30.26293],
							"size": [0.69973, 0.69973, 0.69973],
							"uv": {
								"north": {"uv": [117, 56], "uv_size": [-1, 1]},
								"east": {"uv": [116, 56], "uv_size": [1, 1]},
								"south": {"uv": [116, 56], "uv_size": [1, 1]},
								"west": {"uv": [116, 56], "uv_size": [1, 1]},
								"up": {"uv": [117, 57], "uv_size": [-1, -1]},
								"down": {"uv": [117, 56], "uv_size": [-1, 1]}
							}
						},
						{
							"origin": [-32.06507, 13.4, -29.5632],
							"size": [0.69973, 0.69973, 0.69973],
							"uv": {
								"north": {"uv": [116, 57], "uv_size": [-1, 1]},
								"east": {"uv": [115, 57], "uv_size": [1, 1]},
								"south": {"uv": [115, 57], "uv_size": [1, 1]},
								"west": {"uv": [115, 57], "uv_size": [1, 1]},
								"up": {"uv": [116, 58], "uv_size": [-1, -1]},
								"down": {"uv": [116, 57], "uv_size": [-1, 1]}
							}
						},
						{
							"origin": [-32.7648, 13.4, -29.5632],
							"size": [0.69973, 0.69973, 0.69973],
							"uv": {
								"north": {"uv": [117, 57], "uv_size": [-1, 1]},
								"east": {"uv": [116, 57], "uv_size": [1, 1]},
								"south": {"uv": [116, 57], "uv_size": [1, 1]},
								"west": {"uv": [116, 57], "uv_size": [1, 1]},
								"up": {"uv": [117, 58], "uv_size": [-1, -1]},
								"down": {"uv": [117, 57], "uv_size": [-1, 1]}
							}
						},
						{
							"origin": [-31.36533, 13.4, -28.86347],
							"size": [0.69973, 0.69973, 0.69973],
							"uv": {
								"north": {"uv": [115, 58], "uv_size": [-1, 1]},
								"east": {"uv": [114, 58], "uv_size": [1, 1]},
								"south": {"uv": [114, 58], "uv_size": [1, 1]},
								"west": {"uv": [114, 58], "uv_size": [1, 1]},
								"up": {"uv": [115, 59], "uv_size": [-1, -1]},
								"down": {"uv": [115, 58], "uv_size": [-1, 1]}
							}
						},
						{
							"origin": [-32.06507, 13.4, -28.86347],
							"size": [0.69973, 0.69973, 0.69973],
							"uv": {
								"north": {"uv": [116, 58], "uv_size": [-1, 1]},
								"east": {"uv": [115, 58], "uv_size": [1, 1]},
								"south": {"uv": [115, 58], "uv_size": [1, 1]},
								"west": {"uv": [115, 58], "uv_size": [1, 1]},
								"up": {"uv": [116, 59], "uv_size": [-1, -1]},
								"down": {"uv": [116, 58], "uv_size": [-1, 1]}
							}
						},
						{
							"origin": [-31.36533, 13.4, -28.16373],
							"size": [0.69973, 0.69973, 0.69973],
							"uv": {
								"north": {"uv": [115, 59], "uv_size": [-1, 1]},
								"east": {"uv": [114, 59], "uv_size": [1, 1]},
								"south": {"uv": [114, 59], "uv_size": [1, 1]},
								"west": {"uv": [114, 59], "uv_size": [1, 1]},
								"up": {"uv": [115, 60], "uv_size": [-1, -1]},
								"down": {"uv": [115, 59], "uv_size": [-1, 1]}
							}
						},
						{
							"origin": [-32.06507, 13.4, -28.16373],
							"size": [0.69973, 0.69973, 0.69973],
							"uv": {
								"north": {"uv": [116, 59], "uv_size": [-1, 1]},
								"east": {"uv": [115, 59], "uv_size": [1, 1]},
								"south": {"uv": [115, 59], "uv_size": [1, 1]},
								"west": {"uv": [115, 59], "uv_size": [1, 1]},
								"up": {"uv": [116, 60], "uv_size": [-1, -1]},
								"down": {"uv": [116, 59], "uv_size": [-1, 1]}
							}
						},
						{
							"origin": [-30.6656, 13.4, -27.464],
							"size": [0.69973, 0.69973, 0.69973],
							"uv": {
								"north": {"uv": [114, 60], "uv_size": [-1, 1]},
								"east": {"uv": [113, 60], "uv_size": [1, 1]},
								"south": {"uv": [113, 60], "uv_size": [1, 1]},
								"west": {"uv": [113, 60], "uv_size": [1, 1]},
								"up": {"uv": [114, 61], "uv_size": [-1, -1]},
								"down": {"uv": [114, 60], "uv_size": [-1, 1]}
							}
						},
						{
							"origin": [-31.36533, 13.4, -27.464],
							"size": [0.69973, 0.69973, 0.69973],
							"uv": {
								"north": {"uv": [115, 60], "uv_size": [-1, 1]},
								"east": {"uv": [114, 60], "uv_size": [1, 1]},
								"south": {"uv": [114, 60], "uv_size": [1, 1]},
								"west": {"uv": [114, 60], "uv_size": [1, 1]},
								"up": {"uv": [115, 61], "uv_size": [-1, -1]},
								"down": {"uv": [115, 60], "uv_size": [-1, 1]}
							}
						},
						{
							"origin": [-30.6656, 13.4, -26.76427],
							"size": [0.69973, 0.69973, 0.69973],
							"uv": {
								"north": {"uv": [114, 61], "uv_size": [-1, 1]},
								"east": {"uv": [113, 61], "uv_size": [1, 1]},
								"south": {"uv": [113, 61], "uv_size": [1, 1]},
								"west": {"uv": [113, 61], "uv_size": [1, 1]},
								"up": {"uv": [114, 62], "uv_size": [-1, -1]},
								"down": {"uv": [114, 61], "uv_size": [-1, 1]}
							}
						},
						{
							"origin": [-31.36533, 13.4, -26.76427],
							"size": [0.69973, 0.69973, 0.69973],
							"uv": {
								"north": {"uv": [115, 61], "uv_size": [-1, 1]},
								"east": {"uv": [114, 61], "uv_size": [1, 1]},
								"south": {"uv": [114, 61], "uv_size": [1, 1]},
								"west": {"uv": [114, 61], "uv_size": [1, 1]},
								"up": {"uv": [115, 62], "uv_size": [-1, -1]},
								"down": {"uv": [115, 61], "uv_size": [-1, 1]}
							}
						},
						{
							"origin": [-30.6656, 13.4, -26.06453],
							"size": [0.69973, 0.69973, 0.69973],
							"uv": {
								"north": {"uv": [114, 62], "uv_size": [-1, 1]},
								"east": {"uv": [113, 62], "uv_size": [1, 1]},
								"south": {"uv": [113, 62], "uv_size": [1, 1]},
								"west": {"uv": [113, 62], "uv_size": [1, 1]},
								"up": {"uv": [114, 63], "uv_size": [-1, -1]},
								"down": {"uv": [114, 62], "uv_size": [-1, 1]}
							}
						},
						{
							"origin": [-31.36533, 13.4, -26.06453],
							"size": [0.69973, 0.69973, 0.69973],
							"uv": {
								"north": {"uv": [115, 62], "uv_size": [-1, 1]},
								"east": {"uv": [114, 62], "uv_size": [1, 1]},
								"south": {"uv": [114, 62], "uv_size": [1, 1]},
								"west": {"uv": [114, 62], "uv_size": [1, 1]},
								"up": {"uv": [115, 63], "uv_size": [-1, -1]},
								"down": {"uv": [115, 62], "uv_size": [-1, 1]}
							}
						},
						{
							"origin": [-29.96587, 13.4, -25.3648],
							"size": [0.69973, 0.69973, 0.69973],
							"uv": {
								"north": {"uv": [113, 63], "uv_size": [-1, 1]},
								"east": {"uv": [112, 63], "uv_size": [1, 1]},
								"south": {"uv": [112, 63], "uv_size": [1, 1]},
								"west": {"uv": [112, 63], "uv_size": [1, 1]},
								"up": {"uv": [113, 64], "uv_size": [-1, -1]},
								"down": {"uv": [113, 63], "uv_size": [-1, 1]}
							}
						},
						{
							"origin": [-30.6656, 13.4, -25.3648],
							"size": [0.69973, 0.69973, 0.69973],
							"uv": {
								"north": {"uv": [114, 63], "uv_size": [-1, 1]},
								"east": {"uv": [113, 63], "uv_size": [1, 1]},
								"south": {"uv": [113, 63], "uv_size": [1, 1]},
								"west": {"uv": [113, 63], "uv_size": [1, 1]},
								"up": {"uv": [114, 64], "uv_size": [-1, -1]},
								"down": {"uv": [114, 63], "uv_size": [-1, 1]}
							}
						},
						{
							"origin": [-29.96587, 13.4, -24.66507],
							"size": [0.69973, 0.69973, 0.69973],
							"uv": {
								"north": {"uv": [113, 64], "uv_size": [-1, 1]},
								"east": {"uv": [112, 64], "uv_size": [1, 1]},
								"south": {"uv": [112, 64], "uv_size": [1, 1]},
								"west": {"uv": [112, 64], "uv_size": [1, 1]},
								"up": {"uv": [113, 65], "uv_size": [-1, -1]},
								"down": {"uv": [113, 64], "uv_size": [-1, 1]}
							}
						},
						{
							"origin": [-30.6656, 13.4, -24.66507],
							"size": [0.69973, 0.69973, 0.69973],
							"uv": {
								"north": {"uv": [114, 64], "uv_size": [-1, 1]},
								"east": {"uv": [113, 64], "uv_size": [1, 1]},
								"south": {"uv": [113, 64], "uv_size": [1, 1]},
								"west": {"uv": [113, 64], "uv_size": [1, 1]},
								"up": {"uv": [114, 65], "uv_size": [-1, -1]},
								"down": {"uv": [114, 64], "uv_size": [-1, 1]}
							}
						},
						{
							"origin": [-29.96587, 13.4, -23.96533],
							"size": [0.69973, 0.69973, 0.69973],
							"uv": {
								"north": {"uv": [113, 65], "uv_size": [-1, 1]},
								"east": {"uv": [112, 65], "uv_size": [1, 1]},
								"south": {"uv": [112, 65], "uv_size": [1, 1]},
								"west": {"uv": [112, 65], "uv_size": [1, 1]},
								"up": {"uv": [113, 66], "uv_size": [-1, -1]},
								"down": {"uv": [113, 65], "uv_size": [-1, 1]}
							}
						},
						{
							"origin": [-30.6656, 13.4, -23.96533],
							"size": [0.69973, 0.69973, 0.69973],
							"uv": {
								"north": {"uv": [114, 65], "uv_size": [-1, 1]},
								"east": {"uv": [113, 65], "uv_size": [1, 1]},
								"south": {"uv": [113, 65], "uv_size": [1, 1]},
								"west": {"uv": [113, 65], "uv_size": [1, 1]},
								"up": {"uv": [114, 66], "uv_size": [-1, -1]},
								"down": {"uv": [114, 65], "uv_size": [-1, 1]}
							}
						},
						{
							"origin": [-29.96587, 13.4, -23.2656],
							"size": [0.69973, 0.69973, 0.69973],
							"uv": {
								"north": {"uv": [113, 66], "uv_size": [-1, 1]},
								"east": {"uv": [112, 66], "uv_size": [1, 1]},
								"south": {"uv": [112, 66], "uv_size": [1, 1]},
								"west": {"uv": [112, 66], "uv_size": [1, 1]},
								"up": {"uv": [113, 67], "uv_size": [-1, -1]},
								"down": {"uv": [113, 66], "uv_size": [-1, 1]}
							}
						},
						{
							"origin": [-30.6656, 13.4, -23.2656],
							"size": [0.69973, 0.69973, 0.69973],
							"uv": {
								"north": {"uv": [114, 66], "uv_size": [-1, 1]},
								"east": {"uv": [113, 66], "uv_size": [1, 1]},
								"south": {"uv": [113, 66], "uv_size": [1, 1]},
								"west": {"uv": [113, 66], "uv_size": [1, 1]},
								"up": {"uv": [114, 67], "uv_size": [-1, -1]},
								"down": {"uv": [114, 66], "uv_size": [-1, 1]}
							}
						},
						{
							"origin": [-29.26613, 13.4, -22.56587],
							"size": [0.69973, 0.69973, 0.69973],
							"uv": {
								"north": {"uv": [112, 67], "uv_size": [-1, 1]},
								"east": {"uv": [111, 67], "uv_size": [1, 1]},
								"south": {"uv": [111, 67], "uv_size": [1, 1]},
								"west": {"uv": [111, 67], "uv_size": [1, 1]},
								"up": {"uv": [112, 68], "uv_size": [-1, -1]},
								"down": {"uv": [112, 67], "uv_size": [-1, 1]}
							}
						},
						{
							"origin": [-29.96587, 13.4, -22.56587],
							"size": [0.69973, 0.69973, 0.69973],
							"uv": {
								"north": {"uv": [113, 67], "uv_size": [-1, 1]},
								"east": {"uv": [112, 67], "uv_size": [1, 1]},
								"south": {"uv": [112, 67], "uv_size": [1, 1]},
								"west": {"uv": [112, 67], "uv_size": [1, 1]},
								"up": {"uv": [113, 68], "uv_size": [-1, -1]},
								"down": {"uv": [113, 67], "uv_size": [-1, 1]}
							}
						},
						{
							"origin": [-29.26613, 13.4, -21.86613],
							"size": [0.69973, 0.69973, 0.69973],
							"uv": {
								"north": {"uv": [112, 68], "uv_size": [-1, 1]},
								"east": {"uv": [111, 68], "uv_size": [1, 1]},
								"south": {"uv": [111, 68], "uv_size": [1, 1]},
								"west": {"uv": [111, 68], "uv_size": [1, 1]},
								"up": {"uv": [112, 69], "uv_size": [-1, -1]},
								"down": {"uv": [112, 68], "uv_size": [-1, 1]}
							}
						},
						{
							"origin": [-29.96587, 13.4, -21.86613],
							"size": [0.69973, 0.69973, 0.69973],
							"uv": {
								"north": {"uv": [113, 68], "uv_size": [-1, 1]},
								"east": {"uv": [112, 68], "uv_size": [1, 1]},
								"south": {"uv": [112, 68], "uv_size": [1, 1]},
								"west": {"uv": [112, 68], "uv_size": [1, 1]},
								"up": {"uv": [113, 69], "uv_size": [-1, -1]},
								"down": {"uv": [113, 68], "uv_size": [-1, 1]}
							}
						},
						{
							"origin": [-28.5664, 13.4, -21.1664],
							"size": [0.69973, 0.69973, 0.69973],
							"uv": {
								"north": {"uv": [111, 69], "uv_size": [-1, 1]},
								"east": {"uv": [110, 69], "uv_size": [1, 1]},
								"south": {"uv": [110, 69], "uv_size": [1, 1]},
								"west": {"uv": [110, 69], "uv_size": [1, 1]},
								"up": {"uv": [111, 70], "uv_size": [-1, -1]},
								"down": {"uv": [111, 69], "uv_size": [-1, 1]}
							}
						},
						{
							"origin": [-29.26613, 13.4, -21.1664],
							"size": [0.69973, 0.69973, 0.69973],
							"uv": {
								"north": {"uv": [112, 69], "uv_size": [-1, 1]},
								"east": {"uv": [111, 69], "uv_size": [1, 1]},
								"south": {"uv": [111, 69], "uv_size": [1, 1]},
								"west": {"uv": [111, 69], "uv_size": [1, 1]},
								"up": {"uv": [112, 70], "uv_size": [-1, -1]},
								"down": {"uv": [112, 69], "uv_size": [-1, 1]}
							}
						},
						{
							"origin": [-28.5664, 13.4, -20.46667],
							"size": [0.69973, 0.69973, 0.69973],
							"uv": {
								"north": {"uv": [111, 70], "uv_size": [-1, 1]},
								"east": {"uv": [110, 70], "uv_size": [1, 1]},
								"south": {"uv": [110, 70], "uv_size": [1, 1]},
								"west": {"uv": [110, 70], "uv_size": [1, 1]},
								"up": {"uv": [111, 71], "uv_size": [-1, -1]},
								"down": {"uv": [111, 70], "uv_size": [-1, 1]}
							}
						},
						{
							"origin": [-29.26613, 13.4, -20.46667],
							"size": [0.69973, 0.69973, 0.69973],
							"uv": {
								"north": {"uv": [112, 70], "uv_size": [-1, 1]},
								"east": {"uv": [111, 70], "uv_size": [1, 1]},
								"south": {"uv": [111, 70], "uv_size": [1, 1]},
								"west": {"uv": [111, 70], "uv_size": [1, 1]},
								"up": {"uv": [112, 71], "uv_size": [-1, -1]},
								"down": {"uv": [112, 70], "uv_size": [-1, 1]}
							}
						},
						{
							"origin": [-27.86667, 13.4, -19.76693],
							"size": [0.69973, 0.69973, 0.69973],
							"uv": {
								"north": {"uv": [110, 71], "uv_size": [-1, 1]},
								"east": {"uv": [109, 71], "uv_size": [1, 1]},
								"south": {"uv": [109, 71], "uv_size": [1, 1]},
								"west": {"uv": [109, 71], "uv_size": [1, 1]},
								"up": {"uv": [110, 72], "uv_size": [-1, -1]},
								"down": {"uv": [110, 71], "uv_size": [-1, 1]}
							}
						},
						{
							"origin": [-28.5664, 13.4, -19.76693],
							"size": [0.69973, 0.69973, 0.69973],
							"uv": {
								"north": {"uv": [111, 71], "uv_size": [-1, 1]},
								"east": {"uv": [110, 71], "uv_size": [1, 1]},
								"south": {"uv": [110, 71], "uv_size": [1, 1]},
								"west": {"uv": [110, 71], "uv_size": [1, 1]},
								"up": {"uv": [111, 72], "uv_size": [-1, -1]},
								"down": {"uv": [111, 71], "uv_size": [-1, 1]}
							}
						},
						{
							"origin": [-27.16693, 13.4, -19.0672],
							"size": [0.69973, 0.69973, 0.69973],
							"uv": {
								"north": {"uv": [109, 72], "uv_size": [-1, 1]},
								"east": {"uv": [108, 72], "uv_size": [1, 1]},
								"south": {"uv": [108, 72], "uv_size": [1, 1]},
								"west": {"uv": [108, 72], "uv_size": [1, 1]},
								"up": {"uv": [109, 73], "uv_size": [-1, -1]},
								"down": {"uv": [109, 72], "uv_size": [-1, 1]}
							}
						},
						{
							"origin": [-27.86667, 13.4, -19.0672],
							"size": [0.69973, 0.69973, 0.69973],
							"uv": {
								"north": {"uv": [110, 72], "uv_size": [-1, 1]},
								"east": {"uv": [109, 72], "uv_size": [1, 1]},
								"south": {"uv": [109, 72], "uv_size": [1, 1]},
								"west": {"uv": [109, 72], "uv_size": [1, 1]},
								"up": {"uv": [110, 73], "uv_size": [-1, -1]},
								"down": {"uv": [110, 72], "uv_size": [-1, 1]}
							}
						},
						{
							"origin": [-25.76747, 13.4, -18.36747],
							"size": [0.69973, 0.69973, 0.69973],
							"uv": {
								"north": {"uv": [107, 73], "uv_size": [-1, 1]},
								"east": {"uv": [106, 73], "uv_size": [1, 1]},
								"south": {"uv": [106, 73], "uv_size": [1, 1]},
								"west": {"uv": [106, 73], "uv_size": [1, 1]},
								"up": {"uv": [107, 74], "uv_size": [-1, -1]},
								"down": {"uv": [107, 73], "uv_size": [-1, 1]}
							}
						},
						{
							"origin": [-26.4672, 13.4, -18.36747],
							"size": [0.69973, 0.69973, 0.69973],
							"uv": {
								"north": {"uv": [108, 73], "uv_size": [-1, 1]},
								"east": {"uv": [107, 73], "uv_size": [1, 1]},
								"south": {"uv": [107, 73], "uv_size": [1, 1]},
								"west": {"uv": [107, 73], "uv_size": [1, 1]},
								"up": {"uv": [108, 74], "uv_size": [-1, -1]},
								"down": {"uv": [108, 73], "uv_size": [-1, 1]}
							}
						},
						{
							"origin": [-27.16693, 13.4, -18.36747],
							"size": [0.69973, 0.69973, 0.69973],
							"uv": {
								"north": {"uv": [109, 73], "uv_size": [-1, 1]},
								"east": {"uv": [108, 73], "uv_size": [1, 1]},
								"south": {"uv": [108, 73], "uv_size": [1, 1]},
								"west": {"uv": [108, 73], "uv_size": [1, 1]},
								"up": {"uv": [109, 74], "uv_size": [-1, -1]},
								"down": {"uv": [109, 73], "uv_size": [-1, 1]}
							}
						},
						{
							"origin": [-24.368, 13.4, -17.66773],
							"size": [0.69973, 0.69973, 0.69973],
							"uv": {
								"north": {"uv": [105, 74], "uv_size": [-1, 1]},
								"east": {"uv": [104, 74], "uv_size": [1, 1]},
								"south": {"uv": [104, 74], "uv_size": [1, 1]},
								"west": {"uv": [104, 74], "uv_size": [1, 1]},
								"up": {"uv": [105, 75], "uv_size": [-1, -1]},
								"down": {"uv": [105, 74], "uv_size": [-1, 1]}
							}
						},
						{
							"origin": [-25.06773, 13.4, -17.66773],
							"size": [0.69973, 0.69973, 0.69973],
							"uv": {
								"north": {"uv": [106, 74], "uv_size": [-1, 1]},
								"east": {"uv": [105, 74], "uv_size": [1, 1]},
								"south": {"uv": [105, 74], "uv_size": [1, 1]},
								"west": {"uv": [105, 74], "uv_size": [1, 1]},
								"up": {"uv": [106, 75], "uv_size": [-1, -1]},
								"down": {"uv": [106, 74], "uv_size": [-1, 1]}
							}
						},
						{
							"origin": [-25.76747, 13.4, -17.66773],
							"size": [0.69973, 0.69973, 0.69973],
							"uv": {
								"north": {"uv": [107, 74], "uv_size": [-1, 1]},
								"east": {"uv": [106, 74], "uv_size": [1, 1]},
								"south": {"uv": [106, 74], "uv_size": [1, 1]},
								"west": {"uv": [106, 74], "uv_size": [1, 1]},
								"up": {"uv": [107, 75], "uv_size": [-1, -1]},
								"down": {"uv": [107, 74], "uv_size": [-1, 1]}
							}
						},
						{
							"origin": [-26.4672, 13.4, -17.66773],
							"size": [0.69973, 0.69973, 0.69973],
							"uv": {
								"north": {"uv": [108, 74], "uv_size": [-1, 1]},
								"east": {"uv": [107, 74], "uv_size": [1, 1]},
								"south": {"uv": [107, 74], "uv_size": [1, 1]},
								"west": {"uv": [107, 74], "uv_size": [1, 1]},
								"up": {"uv": [108, 75], "uv_size": [-1, -1]},
								"down": {"uv": [108, 74], "uv_size": [-1, 1]}
							}
						},
						{
							"origin": [-22.2688, 13.4, -16.968],
							"size": [0.69973, 0.69973, 0.69973],
							"uv": {
								"north": {"uv": [102, 75], "uv_size": [-1, 1]},
								"east": {"uv": [101, 75], "uv_size": [1, 1]},
								"south": {"uv": [101, 75], "uv_size": [1, 1]},
								"west": {"uv": [101, 75], "uv_size": [1, 1]},
								"up": {"uv": [102, 76], "uv_size": [-1, -1]},
								"down": {"uv": [102, 75], "uv_size": [-1, 1]}
							}
						},
						{
							"origin": [-22.96853, 13.4, -16.968],
							"size": [0.69973, 0.69973, 0.69973],
							"uv": {
								"north": {"uv": [103, 75], "uv_size": [-1, 1]},
								"east": {"uv": [102, 75], "uv_size": [1, 1]},
								"south": {"uv": [102, 75], "uv_size": [1, 1]},
								"west": {"uv": [102, 75], "uv_size": [1, 1]},
								"up": {"uv": [103, 76], "uv_size": [-1, -1]},
								"down": {"uv": [103, 75], "uv_size": [-1, 1]}
							}
						},
						{
							"origin": [-23.66827, 13.4, -16.968],
							"size": [0.69973, 0.69973, 0.69973],
							"uv": {
								"north": {"uv": [104, 75], "uv_size": [-1, 1]},
								"east": {"uv": [103, 75], "uv_size": [1, 1]},
								"south": {"uv": [103, 75], "uv_size": [1, 1]},
								"west": {"uv": [103, 75], "uv_size": [1, 1]},
								"up": {"uv": [104, 76], "uv_size": [-1, -1]},
								"down": {"uv": [104, 75], "uv_size": [-1, 1]}
							}
						},
						{
							"origin": [-24.368, 13.4, -16.968],
							"size": [0.69973, 0.69973, 0.69973],
							"uv": {
								"north": {"uv": [105, 75], "uv_size": [-1, 1]},
								"east": {"uv": [104, 75], "uv_size": [1, 1]},
								"south": {"uv": [104, 75], "uv_size": [1, 1]},
								"west": {"uv": [104, 75], "uv_size": [1, 1]},
								"up": {"uv": [105, 76], "uv_size": [-1, -1]},
								"down": {"uv": [105, 75], "uv_size": [-1, 1]}
							}
						},
						{
							"origin": [-25.06773, 13.4, -16.968],
							"size": [0.69973, 0.69973, 0.69973],
							"uv": {
								"north": {"uv": [106, 75], "uv_size": [-1, 1]},
								"east": {"uv": [105, 75], "uv_size": [1, 1]},
								"south": {"uv": [105, 75], "uv_size": [1, 1]},
								"west": {"uv": [105, 75], "uv_size": [1, 1]},
								"up": {"uv": [106, 76], "uv_size": [-1, -1]},
								"down": {"uv": [106, 75], "uv_size": [-1, 1]}
							}
						},
						{
							"origin": [-20.86933, 13.4, -16.26827],
							"size": [0.69973, 0.69973, 0.69973],
							"uv": {
								"north": {"uv": [100, 76], "uv_size": [-1, 1]},
								"east": {"uv": [99, 76], "uv_size": [1, 1]},
								"south": {"uv": [99, 76], "uv_size": [1, 1]},
								"west": {"uv": [99, 76], "uv_size": [1, 1]},
								"up": {"uv": [100, 77], "uv_size": [-1, -1]},
								"down": {"uv": [100, 76], "uv_size": [-1, 1]}
							}
						},
						{
							"origin": [-21.56907, 13.4, -16.26827],
							"size": [0.69973, 0.69973, 0.69973],
							"uv": {
								"north": {"uv": [101, 76], "uv_size": [-1, 1]},
								"east": {"uv": [100, 76], "uv_size": [1, 1]},
								"south": {"uv": [100, 76], "uv_size": [1, 1]},
								"west": {"uv": [100, 76], "uv_size": [1, 1]},
								"up": {"uv": [101, 77], "uv_size": [-1, -1]},
								"down": {"uv": [101, 76], "uv_size": [-1, 1]}
							}
						},
						{
							"origin": [-22.2688, 13.4, -16.26827],
							"size": [0.69973, 0.69973, 0.69973],
							"uv": {
								"north": {"uv": [102, 76], "uv_size": [-1, 1]},
								"east": {"uv": [101, 76], "uv_size": [1, 1]},
								"south": {"uv": [101, 76], "uv_size": [1, 1]},
								"west": {"uv": [101, 76], "uv_size": [1, 1]},
								"up": {"uv": [102, 77], "uv_size": [-1, -1]},
								"down": {"uv": [102, 76], "uv_size": [-1, 1]}
							}
						},
						{
							"origin": [-22.96853, 13.4, -16.26827],
							"size": [0.69973, 0.69973, 0.69973],
							"uv": {
								"north": {"uv": [103, 76], "uv_size": [-1, 1]},
								"east": {"uv": [102, 76], "uv_size": [1, 1]},
								"south": {"uv": [102, 76], "uv_size": [1, 1]},
								"west": {"uv": [102, 76], "uv_size": [1, 1]},
								"up": {"uv": [103, 77], "uv_size": [-1, -1]},
								"down": {"uv": [103, 76], "uv_size": [-1, 1]}
							}
						},
						{
							"origin": [-23.66827, 13.4, -16.26827],
							"size": [0.69973, 0.69973, 0.69973],
							"uv": {
								"north": {"uv": [104, 76], "uv_size": [-1, 1]},
								"east": {"uv": [103, 76], "uv_size": [1, 1]},
								"south": {"uv": [103, 76], "uv_size": [1, 1]},
								"west": {"uv": [103, 76], "uv_size": [1, 1]},
								"up": {"uv": [104, 77], "uv_size": [-1, -1]},
								"down": {"uv": [104, 76], "uv_size": [-1, 1]}
							}
						},
						{
							"origin": [-19.46987, 13.4, -15.56853],
							"size": [0.69973, 0.69973, 0.69973],
							"uv": {
								"north": {"uv": [98, 77], "uv_size": [-1, 1]},
								"east": {"uv": [97, 77], "uv_size": [1, 1]},
								"south": {"uv": [97, 77], "uv_size": [1, 1]},
								"west": {"uv": [97, 77], "uv_size": [1, 1]},
								"up": {"uv": [98, 78], "uv_size": [-1, -1]},
								"down": {"uv": [98, 77], "uv_size": [-1, 1]}
							}
						},
						{
							"origin": [-20.1696, 13.4, -15.56853],
							"size": [0.69973, 0.69973, 0.69973],
							"uv": {
								"north": {"uv": [99, 77], "uv_size": [-1, 1]},
								"east": {"uv": [98, 77], "uv_size": [1, 1]},
								"south": {"uv": [98, 77], "uv_size": [1, 1]},
								"west": {"uv": [98, 77], "uv_size": [1, 1]},
								"up": {"uv": [99, 78], "uv_size": [-1, -1]},
								"down": {"uv": [99, 77], "uv_size": [-1, 1]}
							}
						},
						{
							"origin": [-20.86933, 13.4, -15.56853],
							"size": [0.69973, 0.69973, 0.69973],
							"uv": {
								"north": {"uv": [100, 77], "uv_size": [-1, 1]},
								"east": {"uv": [99, 77], "uv_size": [1, 1]},
								"south": {"uv": [99, 77], "uv_size": [1, 1]},
								"west": {"uv": [99, 77], "uv_size": [1, 1]},
								"up": {"uv": [100, 78], "uv_size": [-1, -1]},
								"down": {"uv": [100, 77], "uv_size": [-1, 1]}
							}
						},
						{
							"origin": [-21.56907, 13.4, -15.56853],
							"size": [0.69973, 0.69973, 0.69973],
							"uv": {
								"north": {"uv": [101, 77], "uv_size": [-1, 1]},
								"east": {"uv": [100, 77], "uv_size": [1, 1]},
								"south": {"uv": [100, 77], "uv_size": [1, 1]},
								"west": {"uv": [100, 77], "uv_size": [1, 1]},
								"up": {"uv": [101, 78], "uv_size": [-1, -1]},
								"down": {"uv": [101, 77], "uv_size": [-1, 1]}
							}
						},
						{
							"origin": [-18.77013, 13.4, -14.8688],
							"size": [0.69973, 0.69973, 0.69973],
							"uv": {
								"north": {"uv": [97, 78], "uv_size": [-1, 1]},
								"east": {"uv": [96, 78], "uv_size": [1, 1]},
								"south": {"uv": [96, 78], "uv_size": [1, 1]},
								"west": {"uv": [96, 78], "uv_size": [1, 1]},
								"up": {"uv": [97, 79], "uv_size": [-1, -1]},
								"down": {"uv": [97, 78], "uv_size": [-1, 1]}
							}
						},
						{
							"origin": [-19.46987, 13.4, -14.8688],
							"size": [0.69973, 0.69973, 0.69973],
							"uv": {
								"north": {"uv": [98, 78], "uv_size": [-1, 1]},
								"east": {"uv": [97, 78], "uv_size": [1, 1]},
								"south": {"uv": [97, 78], "uv_size": [1, 1]},
								"west": {"uv": [97, 78], "uv_size": [1, 1]},
								"up": {"uv": [98, 79], "uv_size": [-1, -1]},
								"down": {"uv": [98, 78], "uv_size": [-1, 1]}
							}
						},
						{
							"origin": [-20.1696, 13.4, -14.8688],
							"size": [0.69973, 0.69973, 0.69973],
							"uv": {
								"north": {"uv": [99, 78], "uv_size": [-1, 1]},
								"east": {"uv": [98, 78], "uv_size": [1, 1]},
								"south": {"uv": [98, 78], "uv_size": [1, 1]},
								"west": {"uv": [98, 78], "uv_size": [1, 1]},
								"up": {"uv": [99, 79], "uv_size": [-1, -1]},
								"down": {"uv": [99, 78], "uv_size": [-1, 1]}
							}
						},
						{
							"origin": [-18.0704, 13.4, -14.16907],
							"size": [0.69973, 0.69973, 0.69973],
							"uv": {
								"north": {"uv": [96, 79], "uv_size": [-1, 1]},
								"east": {"uv": [95, 79], "uv_size": [1, 1]},
								"south": {"uv": [95, 79], "uv_size": [1, 1]},
								"west": {"uv": [95, 79], "uv_size": [1, 1]},
								"up": {"uv": [96, 80], "uv_size": [-1, -1]},
								"down": {"uv": [96, 79], "uv_size": [-1, 1]}
							}
						},
						{
							"origin": [-18.77013, 13.4, -14.16907],
							"size": [0.69973, 0.69973, 0.69973],
							"uv": {
								"north": {"uv": [97, 79], "uv_size": [-1, 1]},
								"east": {"uv": [96, 79], "uv_size": [1, 1]},
								"south": {"uv": [96, 79], "uv_size": [1, 1]},
								"west": {"uv": [96, 79], "uv_size": [1, 1]},
								"up": {"uv": [97, 80], "uv_size": [-1, -1]},
								"down": {"uv": [97, 79], "uv_size": [-1, 1]}
							}
						},
						{
							"origin": [-17.37067, 13.4, -13.46933],
							"size": [0.69973, 0.69973, 0.69973],
							"uv": {
								"north": {"uv": [95, 80], "uv_size": [-1, 1]},
								"east": {"uv": [94, 80], "uv_size": [1, 1]},
								"south": {"uv": [94, 80], "uv_size": [1, 1]},
								"west": {"uv": [94, 80], "uv_size": [1, 1]},
								"up": {"uv": [95, 81], "uv_size": [-1, -1]},
								"down": {"uv": [95, 80], "uv_size": [-1, 1]}
							}
						},
						{
							"origin": [-18.0704, 13.4, -13.46933],
							"size": [0.69973, 0.69973, 0.69973],
							"uv": {
								"north": {"uv": [96, 80], "uv_size": [-1, 1]},
								"east": {"uv": [95, 80], "uv_size": [1, 1]},
								"south": {"uv": [95, 80], "uv_size": [1, 1]},
								"west": {"uv": [95, 80], "uv_size": [1, 1]},
								"up": {"uv": [96, 81], "uv_size": [-1, -1]},
								"down": {"uv": [96, 80], "uv_size": [-1, 1]}
							}
						},
						{
							"origin": [-16.67093, 13.4, -12.7696],
							"size": [0.69973, 0.69973, 0.69973],
							"uv": {
								"north": {"uv": [94, 81], "uv_size": [-1, 1]},
								"east": {"uv": [93, 81], "uv_size": [1, 1]},
								"south": {"uv": [93, 81], "uv_size": [1, 1]},
								"west": {"uv": [93, 81], "uv_size": [1, 1]},
								"up": {"uv": [94, 82], "uv_size": [-1, -1]},
								"down": {"uv": [94, 81], "uv_size": [-1, 1]}
							}
						},
						{
							"origin": [-17.37067, 13.4, -12.7696],
							"size": [0.69973, 0.69973, 0.69973],
							"uv": {
								"north": {"uv": [95, 81], "uv_size": [-1, 1]},
								"east": {"uv": [94, 81], "uv_size": [1, 1]},
								"south": {"uv": [94, 81], "uv_size": [1, 1]},
								"west": {"uv": [94, 81], "uv_size": [1, 1]},
								"up": {"uv": [95, 82], "uv_size": [-1, -1]},
								"down": {"uv": [95, 81], "uv_size": [-1, 1]}
							}
						},
						{
							"origin": [-15.9712, 13.4, -12.06987],
							"size": [0.69973, 0.69973, 0.69973],
							"uv": {
								"north": {"uv": [93, 82], "uv_size": [-1, 1]},
								"east": {"uv": [92, 82], "uv_size": [1, 1]},
								"south": {"uv": [92, 82], "uv_size": [1, 1]},
								"west": {"uv": [92, 82], "uv_size": [1, 1]},
								"up": {"uv": [93, 83], "uv_size": [-1, -1]},
								"down": {"uv": [93, 82], "uv_size": [-1, 1]}
							}
						},
						{
							"origin": [-16.67093, 13.4, -12.06987],
							"size": [0.69973, 0.69973, 0.69973],
							"uv": {
								"north": {"uv": [94, 82], "uv_size": [-1, 1]},
								"east": {"uv": [93, 82], "uv_size": [1, 1]},
								"south": {"uv": [93, 82], "uv_size": [1, 1]},
								"west": {"uv": [93, 82], "uv_size": [1, 1]},
								"up": {"uv": [94, 83], "uv_size": [-1, -1]},
								"down": {"uv": [94, 82], "uv_size": [-1, 1]}
							}
						},
						{
							"origin": [-15.9712, 13.4, -11.37013],
							"size": [0.69973, 0.69973, 0.69973],
							"uv": {
								"north": {"uv": [93, 83], "uv_size": [-1, 1]},
								"east": {"uv": [92, 83], "uv_size": [1, 1]},
								"south": {"uv": [92, 83], "uv_size": [1, 1]},
								"west": {"uv": [92, 83], "uv_size": [1, 1]},
								"up": {"uv": [93, 84], "uv_size": [-1, -1]},
								"down": {"uv": [93, 83], "uv_size": [-1, 1]}
							}
						},
						{
							"origin": [-16.67093, 13.4, -11.37013],
							"size": [0.69973, 0.69973, 0.69973],
							"uv": {
								"north": {"uv": [94, 83], "uv_size": [-1, 1]},
								"east": {"uv": [93, 83], "uv_size": [1, 1]},
								"south": {"uv": [93, 83], "uv_size": [1, 1]},
								"west": {"uv": [93, 83], "uv_size": [1, 1]},
								"up": {"uv": [94, 84], "uv_size": [-1, -1]},
								"down": {"uv": [94, 83], "uv_size": [-1, 1]}
							}
						},
						{
							"origin": [-15.27147, 13.4, -10.6704],
							"size": [0.69973, 0.69973, 0.69973],
							"uv": {
								"north": {"uv": [92, 84], "uv_size": [-1, 1]},
								"east": {"uv": [91, 84], "uv_size": [1, 1]},
								"south": {"uv": [91, 84], "uv_size": [1, 1]},
								"west": {"uv": [91, 84], "uv_size": [1, 1]},
								"up": {"uv": [92, 85], "uv_size": [-1, -1]},
								"down": {"uv": [92, 84], "uv_size": [-1, 1]}
							}
						},
						{
							"origin": [-15.9712, 13.4, -10.6704],
							"size": [0.69973, 0.69973, 0.69973],
							"uv": {
								"north": {"uv": [93, 84], "uv_size": [-1, 1]},
								"east": {"uv": [92, 84], "uv_size": [1, 1]},
								"south": {"uv": [92, 84], "uv_size": [1, 1]},
								"west": {"uv": [92, 84], "uv_size": [1, 1]},
								"up": {"uv": [93, 85], "uv_size": [-1, -1]},
								"down": {"uv": [93, 84], "uv_size": [-1, 1]}
							}
						},
						{
							"origin": [-15.27147, 13.4, -9.97067],
							"size": [0.69973, 0.69973, 0.69973],
							"uv": {
								"north": {"uv": [92, 85], "uv_size": [-1, 1]},
								"east": {"uv": [91, 85], "uv_size": [1, 1]},
								"south": {"uv": [91, 85], "uv_size": [1, 1]},
								"west": {"uv": [91, 85], "uv_size": [1, 1]},
								"up": {"uv": [92, 86], "uv_size": [-1, -1]},
								"down": {"uv": [92, 85], "uv_size": [-1, 1]}
							}
						},
						{
							"origin": [-15.9712, 13.4, -9.97067],
							"size": [0.69973, 0.69973, 0.69973],
							"uv": {
								"north": {"uv": [93, 85], "uv_size": [-1, 1]},
								"east": {"uv": [92, 85], "uv_size": [1, 1]},
								"south": {"uv": [92, 85], "uv_size": [1, 1]},
								"west": {"uv": [92, 85], "uv_size": [1, 1]},
								"up": {"uv": [93, 86], "uv_size": [-1, -1]},
								"down": {"uv": [93, 85], "uv_size": [-1, 1]}
							}
						},
						{
							"origin": [-14.57173, 13.4, -9.27093],
							"size": [0.69973, 0.69973, 0.69973],
							"uv": {
								"north": {"uv": [91, 86], "uv_size": [-1, 1]},
								"east": {"uv": [90, 86], "uv_size": [1, 1]},
								"south": {"uv": [90, 86], "uv_size": [1, 1]},
								"west": {"uv": [90, 86], "uv_size": [1, 1]},
								"up": {"uv": [91, 87], "uv_size": [-1, -1]},
								"down": {"uv": [91, 86], "uv_size": [-1, 1]}
							}
						},
						{
							"origin": [-15.27147, 13.4, -9.27093],
							"size": [0.69973, 0.69973, 0.69973],
							"uv": {
								"north": {"uv": [92, 86], "uv_size": [-1, 1]},
								"east": {"uv": [91, 86], "uv_size": [1, 1]},
								"south": {"uv": [91, 86], "uv_size": [1, 1]},
								"west": {"uv": [91, 86], "uv_size": [1, 1]},
								"up": {"uv": [92, 87], "uv_size": [-1, -1]},
								"down": {"uv": [92, 86], "uv_size": [-1, 1]}
							}
						},
						{
							"origin": [-13.872, 13.4, -8.5712],
							"size": [0.69973, 0.69973, 0.69973],
							"uv": {
								"north": {"uv": [90, 87], "uv_size": [-1, 1]},
								"east": {"uv": [89, 87], "uv_size": [1, 1]},
								"south": {"uv": [89, 87], "uv_size": [1, 1]},
								"west": {"uv": [89, 87], "uv_size": [1, 1]},
								"up": {"uv": [90, 88], "uv_size": [-1, -1]},
								"down": {"uv": [90, 87], "uv_size": [-1, 1]}
							}
						},
						{
							"origin": [-14.57173, 13.4, -8.5712],
							"size": [0.69973, 0.69973, 0.69973],
							"uv": {
								"north": {"uv": [91, 87], "uv_size": [-1, 1]},
								"east": {"uv": [90, 87], "uv_size": [1, 1]},
								"south": {"uv": [90, 87], "uv_size": [1, 1]},
								"west": {"uv": [90, 87], "uv_size": [1, 1]},
								"up": {"uv": [91, 88], "uv_size": [-1, -1]},
								"down": {"uv": [91, 87], "uv_size": [-1, 1]}
							}
						},
						{
							"origin": [-15.27147, 13.4, -8.5712],
							"size": [0.69973, 0.69973, 0.69973],
							"uv": {
								"north": {"uv": [92, 87], "uv_size": [-1, 1]},
								"east": {"uv": [91, 87], "uv_size": [1, 1]},
								"south": {"uv": [91, 87], "uv_size": [1, 1]},
								"west": {"uv": [91, 87], "uv_size": [1, 1]},
								"up": {"uv": [92, 88], "uv_size": [-1, -1]},
								"down": {"uv": [92, 87], "uv_size": [-1, 1]}
							}
						},
						{
							"origin": [-13.872, 13.4, -7.87147],
							"size": [0.69973, 0.69973, 0.69973],
							"uv": {
								"north": {"uv": [90, 88], "uv_size": [-1, 1]},
								"east": {"uv": [89, 88], "uv_size": [1, 1]},
								"south": {"uv": [89, 88], "uv_size": [1, 1]},
								"west": {"uv": [89, 88], "uv_size": [1, 1]},
								"up": {"uv": [90, 89], "uv_size": [-1, -1]},
								"down": {"uv": [90, 88], "uv_size": [-1, 1]}
							}
						},
						{
							"origin": [-14.57173, 13.4, -7.87147],
							"size": [0.69973, 0.69973, 0.69973],
							"uv": {
								"north": {"uv": [91, 88], "uv_size": [-1, 1]},
								"east": {"uv": [90, 88], "uv_size": [1, 1]},
								"south": {"uv": [90, 88], "uv_size": [1, 1]},
								"west": {"uv": [90, 88], "uv_size": [1, 1]},
								"up": {"uv": [91, 89], "uv_size": [-1, -1]},
								"down": {"uv": [91, 88], "uv_size": [-1, 1]}
							}
						},
						{
							"origin": [-15.27147, 13.4, -7.87147],
							"size": [0.69973, 0.69973, 0.69973],
							"uv": {
								"north": {"uv": [92, 88], "uv_size": [-1, 1]},
								"east": {"uv": [91, 88], "uv_size": [1, 1]},
								"south": {"uv": [91, 88], "uv_size": [1, 1]},
								"west": {"uv": [91, 88], "uv_size": [1, 1]},
								"up": {"uv": [92, 89], "uv_size": [-1, -1]},
								"down": {"uv": [92, 88], "uv_size": [-1, 1]}
							}
						},
						{
							"origin": [-13.17227, 13.4, -7.17173],
							"size": [0.69973, 0.69973, 0.69973],
							"uv": {
								"north": {"uv": [89, 89], "uv_size": [-1, 1]},
								"east": {"uv": [88, 89], "uv_size": [1, 1]},
								"south": {"uv": [88, 89], "uv_size": [1, 1]},
								"west": {"uv": [88, 89], "uv_size": [1, 1]},
								"up": {"uv": [89, 90], "uv_size": [-1, -1]},
								"down": {"uv": [89, 89], "uv_size": [-1, 1]}
							}
						},
						{
							"origin": [-13.872, 13.4, -7.17173],
							"size": [0.69973, 0.69973, 0.69973],
							"uv": {
								"north": {"uv": [90, 89], "uv_size": [-1, 1]},
								"east": {"uv": [89, 89], "uv_size": [1, 1]},
								"south": {"uv": [89, 89], "uv_size": [1, 1]},
								"west": {"uv": [89, 89], "uv_size": [1, 1]},
								"up": {"uv": [90, 90], "uv_size": [-1, -1]},
								"down": {"uv": [90, 89], "uv_size": [-1, 1]}
							}
						},
						{
							"origin": [-14.57173, 13.4, -7.17173],
							"size": [0.69973, 0.69973, 0.69973],
							"uv": {
								"north": {"uv": [91, 89], "uv_size": [-1, 1]},
								"east": {"uv": [90, 89], "uv_size": [1, 1]},
								"south": {"uv": [90, 89], "uv_size": [1, 1]},
								"west": {"uv": [90, 89], "uv_size": [1, 1]},
								"up": {"uv": [91, 90], "uv_size": [-1, -1]},
								"down": {"uv": [91, 89], "uv_size": [-1, 1]}
							}
						},
						{
							"origin": [-13.17227, 13.4, -6.472],
							"size": [0.69973, 0.69973, 0.69973],
							"uv": {
								"north": {"uv": [89, 90], "uv_size": [-1, 1]},
								"east": {"uv": [88, 90], "uv_size": [1, 1]},
								"south": {"uv": [88, 90], "uv_size": [1, 1]},
								"west": {"uv": [88, 90], "uv_size": [1, 1]},
								"up": {"uv": [89, 91], "uv_size": [-1, -1]},
								"down": {"uv": [89, 90], "uv_size": [-1, 1]}
							}
						},
						{
							"origin": [-13.872, 13.4, -6.472],
							"size": [0.69973, 0.69973, 0.69973],
							"uv": {
								"north": {"uv": [90, 90], "uv_size": [-1, 1]},
								"east": {"uv": [89, 90], "uv_size": [1, 1]},
								"south": {"uv": [89, 90], "uv_size": [1, 1]},
								"west": {"uv": [89, 90], "uv_size": [1, 1]},
								"up": {"uv": [90, 91], "uv_size": [-1, -1]},
								"down": {"uv": [90, 90], "uv_size": [-1, 1]}
							}
						},
						{
							"origin": [-14.57173, 13.4, -6.472],
							"size": [0.69973, 0.69973, 0.69973],
							"uv": {
								"north": {"uv": [91, 90], "uv_size": [-1, 1]},
								"east": {"uv": [90, 90], "uv_size": [1, 1]},
								"south": {"uv": [90, 90], "uv_size": [1, 1]},
								"west": {"uv": [90, 90], "uv_size": [1, 1]},
								"up": {"uv": [91, 91], "uv_size": [-1, -1]},
								"down": {"uv": [91, 90], "uv_size": [-1, 1]}
							}
						},
						{
							"origin": [-12.47253, 13.4, -5.77227],
							"size": [0.69973, 0.69973, 0.69973],
							"uv": {
								"north": {"uv": [88, 91], "uv_size": [-1, 1]},
								"east": {"uv": [87, 91], "uv_size": [1, 1]},
								"south": {"uv": [87, 91], "uv_size": [1, 1]},
								"west": {"uv": [87, 91], "uv_size": [1, 1]},
								"up": {"uv": [88, 92], "uv_size": [-1, -1]},
								"down": {"uv": [88, 91], "uv_size": [-1, 1]}
							}
						},
						{
							"origin": [-13.17227, 13.4, -5.77227],
							"size": [0.69973, 0.69973, 0.69973],
							"uv": {
								"north": {"uv": [89, 91], "uv_size": [-1, 1]},
								"east": {"uv": [88, 91], "uv_size": [1, 1]},
								"south": {"uv": [88, 91], "uv_size": [1, 1]},
								"west": {"uv": [88, 91], "uv_size": [1, 1]},
								"up": {"uv": [89, 92], "uv_size": [-1, -1]},
								"down": {"uv": [89, 91], "uv_size": [-1, 1]}
							}
						},
						{
							"origin": [-13.872, 13.4, -5.77227],
							"size": [0.69973, 0.69973, 0.69973],
							"uv": {
								"north": {"uv": [90, 91], "uv_size": [-1, 1]},
								"east": {"uv": [89, 91], "uv_size": [1, 1]},
								"south": {"uv": [89, 91], "uv_size": [1, 1]},
								"west": {"uv": [89, 91], "uv_size": [1, 1]},
								"up": {"uv": [90, 92], "uv_size": [-1, -1]},
								"down": {"uv": [90, 91], "uv_size": [-1, 1]}
							}
						},
						{
							"origin": [-12.47253, 13.4, -5.07253],
							"size": [0.69973, 0.69973, 0.69973],
							"uv": {
								"north": {"uv": [88, 92], "uv_size": [-1, 1]},
								"east": {"uv": [87, 92], "uv_size": [1, 1]},
								"south": {"uv": [87, 92], "uv_size": [1, 1]},
								"west": {"uv": [87, 92], "uv_size": [1, 1]},
								"up": {"uv": [88, 93], "uv_size": [-1, -1]},
								"down": {"uv": [88, 92], "uv_size": [-1, 1]}
							}
						},
						{
							"origin": [-13.17227, 13.4, -5.07253],
							"size": [0.69973, 0.69973, 0.69973],
							"uv": {
								"north": {"uv": [89, 92], "uv_size": [-1, 1]},
								"east": {"uv": [88, 92], "uv_size": [1, 1]},
								"south": {"uv": [88, 92], "uv_size": [1, 1]},
								"west": {"uv": [88, 92], "uv_size": [1, 1]},
								"up": {"uv": [89, 93], "uv_size": [-1, -1]},
								"down": {"uv": [89, 92], "uv_size": [-1, 1]}
							}
						},
						{
							"origin": [-13.872, 13.4, -5.07253],
							"size": [0.69973, 0.69973, 0.69973],
							"uv": {
								"north": {"uv": [90, 92], "uv_size": [-1, 1]},
								"east": {"uv": [89, 92], "uv_size": [1, 1]},
								"south": {"uv": [89, 92], "uv_size": [1, 1]},
								"west": {"uv": [89, 92], "uv_size": [1, 1]},
								"up": {"uv": [90, 93], "uv_size": [-1, -1]},
								"down": {"uv": [90, 92], "uv_size": [-1, 1]}
							}
						},
						{
							"origin": [-11.7728, 13.4, -4.3728],
							"size": [0.69973, 0.69973, 0.69973],
							"uv": {
								"north": {"uv": [87, 93], "uv_size": [-1, 1]},
								"east": {"uv": [86, 93], "uv_size": [1, 1]},
								"south": {"uv": [86, 93], "uv_size": [1, 1]},
								"west": {"uv": [86, 93], "uv_size": [1, 1]},
								"up": {"uv": [87, 94], "uv_size": [-1, -1]},
								"down": {"uv": [87, 93], "uv_size": [-1, 1]}
							}
						},
						{
							"origin": [-12.47253, 13.4, -4.3728],
							"size": [0.69973, 0.69973, 0.69973],
							"uv": {
								"north": {"uv": [88, 93], "uv_size": [-1, 1]},
								"east": {"uv": [87, 93], "uv_size": [1, 1]},
								"south": {"uv": [87, 93], "uv_size": [1, 1]},
								"west": {"uv": [87, 93], "uv_size": [1, 1]},
								"up": {"uv": [88, 94], "uv_size": [-1, -1]},
								"down": {"uv": [88, 93], "uv_size": [-1, 1]}
							}
						},
						{
							"origin": [-13.17227, 13.4, -4.3728],
							"size": [0.69973, 0.69973, 0.69973],
							"uv": {
								"north": {"uv": [89, 93], "uv_size": [-1, 1]},
								"east": {"uv": [88, 93], "uv_size": [1, 1]},
								"south": {"uv": [88, 93], "uv_size": [1, 1]},
								"west": {"uv": [88, 93], "uv_size": [1, 1]},
								"up": {"uv": [89, 94], "uv_size": [-1, -1]},
								"down": {"uv": [89, 93], "uv_size": [-1, 1]}
							}
						},
						{
							"origin": [-11.07307, 13.4, -3.67307],
							"size": [0.69973, 0.69973, 0.69973],
							"uv": {
								"north": {"uv": [86, 94], "uv_size": [-1, 1]},
								"east": {"uv": [85, 94], "uv_size": [1, 1]},
								"south": {"uv": [85, 94], "uv_size": [1, 1]},
								"west": {"uv": [85, 94], "uv_size": [1, 1]},
								"up": {"uv": [86, 95], "uv_size": [-1, -1]},
								"down": {"uv": [86, 94], "uv_size": [-1, 1]}
							}
						},
						{
							"origin": [-11.7728, 13.4, -3.67307],
							"size": [0.69973, 0.69973, 0.69973],
							"uv": {
								"north": {"uv": [87, 94], "uv_size": [-1, 1]},
								"east": {"uv": [86, 94], "uv_size": [1, 1]},
								"south": {"uv": [86, 94], "uv_size": [1, 1]},
								"west": {"uv": [86, 94], "uv_size": [1, 1]},
								"up": {"uv": [87, 95], "uv_size": [-1, -1]},
								"down": {"uv": [87, 94], "uv_size": [-1, 1]}
							}
						},
						{
							"origin": [-12.47253, 13.4, -3.67307],
							"size": [0.69973, 0.69973, 0.69973],
							"uv": {
								"north": {"uv": [88, 94], "uv_size": [-1, 1]},
								"east": {"uv": [87, 94], "uv_size": [1, 1]},
								"south": {"uv": [87, 94], "uv_size": [1, 1]},
								"west": {"uv": [87, 94], "uv_size": [1, 1]},
								"up": {"uv": [88, 95], "uv_size": [-1, -1]},
								"down": {"uv": [88, 94], "uv_size": [-1, 1]}
							}
						},
						{
							"origin": [-10.37333, 13.4, -2.97333],
							"size": [0.69973, 0.69973, 0.69973],
							"uv": {
								"north": {"uv": [85, 95], "uv_size": [-1, 1]},
								"east": {"uv": [84, 95], "uv_size": [1, 1]},
								"south": {"uv": [84, 95], "uv_size": [1, 1]},
								"west": {"uv": [84, 95], "uv_size": [1, 1]},
								"up": {"uv": [85, 96], "uv_size": [-1, -1]},
								"down": {"uv": [85, 95], "uv_size": [-1, 1]}
							}
						},
						{
							"origin": [-11.07307, 13.4, -2.97333],
							"size": [0.69973, 0.69973, 0.69973],
							"uv": {
								"north": {"uv": [86, 95], "uv_size": [-1, 1]},
								"east": {"uv": [85, 95], "uv_size": [1, 1]},
								"south": {"uv": [85, 95], "uv_size": [1, 1]},
								"west": {"uv": [85, 95], "uv_size": [1, 1]},
								"up": {"uv": [86, 96], "uv_size": [-1, -1]},
								"down": {"uv": [86, 95], "uv_size": [-1, 1]}
							}
						},
						{
							"origin": [-11.7728, 13.4, -2.97333],
							"size": [0.69973, 0.69973, 0.69973],
							"uv": {
								"north": {"uv": [87, 95], "uv_size": [-1, 1]},
								"east": {"uv": [86, 95], "uv_size": [1, 1]},
								"south": {"uv": [86, 95], "uv_size": [1, 1]},
								"west": {"uv": [86, 95], "uv_size": [1, 1]},
								"up": {"uv": [87, 96], "uv_size": [-1, -1]},
								"down": {"uv": [87, 95], "uv_size": [-1, 1]}
							}
						},
						{
							"origin": [-9.6736, 13.4, -2.2736],
							"size": [0.69973, 0.69973, 0.69973],
							"uv": {
								"north": {"uv": [84, 96], "uv_size": [-1, 1]},
								"east": {"uv": [83, 96], "uv_size": [1, 1]},
								"south": {"uv": [83, 96], "uv_size": [1, 1]},
								"west": {"uv": [83, 96], "uv_size": [1, 1]},
								"up": {"uv": [84, 97], "uv_size": [-1, -1]},
								"down": {"uv": [84, 96], "uv_size": [-1, 1]}
							}
						},
						{
							"origin": [-10.37333, 13.4, -2.2736],
							"size": [0.69973, 0.69973, 0.69973],
							"uv": {
								"north": {"uv": [85, 96], "uv_size": [-1, 1]},
								"east": {"uv": [84, 96], "uv_size": [1, 1]},
								"south": {"uv": [84, 96], "uv_size": [1, 1]},
								"west": {"uv": [84, 96], "uv_size": [1, 1]},
								"up": {"uv": [85, 97], "uv_size": [-1, -1]},
								"down": {"uv": [85, 96], "uv_size": [-1, 1]}
							}
						},
						{
							"origin": [-11.07307, 13.4, -2.2736],
							"size": [0.69973, 0.69973, 0.69973],
							"uv": {
								"north": {"uv": [86, 96], "uv_size": [-1, 1]},
								"east": {"uv": [85, 96], "uv_size": [1, 1]},
								"south": {"uv": [85, 96], "uv_size": [1, 1]},
								"west": {"uv": [85, 96], "uv_size": [1, 1]},
								"up": {"uv": [86, 97], "uv_size": [-1, -1]},
								"down": {"uv": [86, 96], "uv_size": [-1, 1]}
							}
						},
						{
							"origin": [-8.97387, 13.4, -1.57387],
							"size": [0.69973, 0.69973, 0.69973],
							"uv": {
								"north": {"uv": [83, 97], "uv_size": [-1, 1]},
								"east": {"uv": [82, 97], "uv_size": [1, 1]},
								"south": {"uv": [82, 97], "uv_size": [1, 1]},
								"west": {"uv": [82, 97], "uv_size": [1, 1]},
								"up": {"uv": [83, 98], "uv_size": [-1, -1]},
								"down": {"uv": [83, 97], "uv_size": [-1, 1]}
							}
						},
						{
							"origin": [-9.6736, 13.4, -1.57387],
							"size": [0.69973, 0.69973, 0.69973],
							"uv": {
								"north": {"uv": [84, 97], "uv_size": [-1, 1]},
								"east": {"uv": [83, 97], "uv_size": [1, 1]},
								"south": {"uv": [83, 97], "uv_size": [1, 1]},
								"west": {"uv": [83, 97], "uv_size": [1, 1]},
								"up": {"uv": [84, 98], "uv_size": [-1, -1]},
								"down": {"uv": [84, 97], "uv_size": [-1, 1]}
							}
						},
						{
							"origin": [-10.37333, 13.4, -1.57387],
							"size": [0.69973, 0.69973, 0.69973],
							"uv": {
								"north": {"uv": [85, 97], "uv_size": [-1, 1]},
								"east": {"uv": [84, 97], "uv_size": [1, 1]},
								"south": {"uv": [84, 97], "uv_size": [1, 1]},
								"west": {"uv": [84, 97], "uv_size": [1, 1]},
								"up": {"uv": [85, 98], "uv_size": [-1, -1]},
								"down": {"uv": [85, 97], "uv_size": [-1, 1]}
							}
						},
						{
							"origin": [-8.27413, 13.4, -0.87413],
							"size": [0.69973, 0.69973, 0.69973],
							"uv": {
								"north": {"uv": [82, 98], "uv_size": [-1, 1]},
								"east": {"uv": [81, 98], "uv_size": [1, 1]},
								"south": {"uv": [81, 98], "uv_size": [1, 1]},
								"west": {"uv": [81, 98], "uv_size": [1, 1]},
								"up": {"uv": [82, 99], "uv_size": [-1, -1]},
								"down": {"uv": [82, 98], "uv_size": [-1, 1]}
							}
						},
						{
							"origin": [-8.97387, 13.4, -0.87413],
							"size": [0.69973, 0.69973, 0.69973],
							"uv": {
								"north": {"uv": [83, 98], "uv_size": [-1, 1]},
								"east": {"uv": [82, 98], "uv_size": [1, 1]},
								"south": {"uv": [82, 98], "uv_size": [1, 1]},
								"west": {"uv": [82, 98], "uv_size": [1, 1]},
								"up": {"uv": [83, 99], "uv_size": [-1, -1]},
								"down": {"uv": [83, 98], "uv_size": [-1, 1]}
							}
						},
						{
							"origin": [-9.6736, 13.4, -0.87413],
							"size": [0.69973, 0.69973, 0.69973],
							"uv": {
								"north": {"uv": [84, 98], "uv_size": [-1, 1]},
								"east": {"uv": [83, 98], "uv_size": [1, 1]},
								"south": {"uv": [83, 98], "uv_size": [1, 1]},
								"west": {"uv": [83, 98], "uv_size": [1, 1]},
								"up": {"uv": [84, 99], "uv_size": [-1, -1]},
								"down": {"uv": [84, 98], "uv_size": [-1, 1]}
							}
						},
						{
							"origin": [-7.5744, 13.4, -0.1744],
							"size": [0.69973, 0.69973, 0.69973],
							"uv": {
								"north": {"uv": [81, 99], "uv_size": [-1, 1]},
								"east": {"uv": [80, 99], "uv_size": [1, 1]},
								"south": {"uv": [80, 99], "uv_size": [1, 1]},
								"west": {"uv": [80, 99], "uv_size": [1, 1]},
								"up": {"uv": [81, 100], "uv_size": [-1, -1]},
								"down": {"uv": [81, 99], "uv_size": [-1, 1]}
							}
						},
						{
							"origin": [-8.27413, 13.4, -0.1744],
							"size": [0.69973, 0.69973, 0.69973],
							"uv": {
								"north": {"uv": [82, 99], "uv_size": [-1, 1]},
								"east": {"uv": [81, 99], "uv_size": [1, 1]},
								"south": {"uv": [81, 99], "uv_size": [1, 1]},
								"west": {"uv": [81, 99], "uv_size": [1, 1]},
								"up": {"uv": [82, 100], "uv_size": [-1, -1]},
								"down": {"uv": [82, 99], "uv_size": [-1, 1]}
							}
						},
						{
							"origin": [-8.97387, 13.4, -0.1744],
							"size": [0.69973, 0.69973, 0.69973],
							"uv": {
								"north": {"uv": [83, 99], "uv_size": [-1, 1]},
								"east": {"uv": [82, 99], "uv_size": [1, 1]},
								"south": {"uv": [82, 99], "uv_size": [1, 1]},
								"west": {"uv": [82, 99], "uv_size": [1, 1]},
								"up": {"uv": [83, 100], "uv_size": [-1, -1]},
								"down": {"uv": [83, 99], "uv_size": [-1, 1]}
							}
						},
						{
							"origin": [-6.87467, 13.4, 0.52533],
							"size": [0.69973, 0.69973, 0.69973],
							"uv": {
								"north": {"uv": [80, 100], "uv_size": [-1, 1]},
								"east": {"uv": [79, 100], "uv_size": [1, 1]},
								"south": {"uv": [79, 100], "uv_size": [1, 1]},
								"west": {"uv": [79, 100], "uv_size": [1, 1]},
								"up": {"uv": [80, 101], "uv_size": [-1, -1]},
								"down": {"uv": [80, 100], "uv_size": [-1, 1]}
							}
						},
						{
							"origin": [-7.5744, 13.4, 0.52533],
							"size": [0.69973, 0.69973, 0.69973],
							"uv": {
								"north": {"uv": [81, 100], "uv_size": [-1, 1]},
								"east": {"uv": [80, 100], "uv_size": [1, 1]},
								"south": {"uv": [80, 100], "uv_size": [1, 1]},
								"west": {"uv": [80, 100], "uv_size": [1, 1]},
								"up": {"uv": [81, 101], "uv_size": [-1, -1]},
								"down": {"uv": [81, 100], "uv_size": [-1, 1]}
							}
						},
						{
							"origin": [-8.27413, 13.4, 0.52533],
							"size": [0.69973, 0.69973, 0.69973],
							"uv": {
								"north": {"uv": [82, 100], "uv_size": [-1, 1]},
								"east": {"uv": [81, 100], "uv_size": [1, 1]},
								"south": {"uv": [81, 100], "uv_size": [1, 1]},
								"west": {"uv": [81, 100], "uv_size": [1, 1]},
								"up": {"uv": [82, 101], "uv_size": [-1, -1]},
								"down": {"uv": [82, 100], "uv_size": [-1, 1]}
							}
						},
						{
							"origin": [-5.4752, 13.4, 1.22507],
							"size": [0.69973, 0.69973, 0.69973],
							"uv": {
								"north": {"uv": [78, 101], "uv_size": [-1, 1]},
								"east": {"uv": [77, 101], "uv_size": [1, 1]},
								"south": {"uv": [77, 101], "uv_size": [1, 1]},
								"west": {"uv": [77, 101], "uv_size": [1, 1]},
								"up": {"uv": [78, 102], "uv_size": [-1, -1]},
								"down": {"uv": [78, 101], "uv_size": [-1, 1]}
							}
						},
						{
							"origin": [-6.17493, 13.4, 1.22507],
							"size": [0.69973, 0.69973, 0.69973],
							"uv": {
								"north": {"uv": [79, 101], "uv_size": [-1, 1]},
								"east": {"uv": [78, 101], "uv_size": [1, 1]},
								"south": {"uv": [78, 101], "uv_size": [1, 1]},
								"west": {"uv": [78, 101], "uv_size": [1, 1]},
								"up": {"uv": [79, 102], "uv_size": [-1, -1]},
								"down": {"uv": [79, 101], "uv_size": [-1, 1]}
							}
						},
						{
							"origin": [-6.87467, 13.4, 1.22507],
							"size": [0.69973, 0.69973, 0.69973],
							"uv": {
								"north": {"uv": [80, 101], "uv_size": [-1, 1]},
								"east": {"uv": [79, 101], "uv_size": [1, 1]},
								"south": {"uv": [79, 101], "uv_size": [1, 1]},
								"west": {"uv": [79, 101], "uv_size": [1, 1]},
								"up": {"uv": [80, 102], "uv_size": [-1, -1]},
								"down": {"uv": [80, 101], "uv_size": [-1, 1]}
							}
						},
						{
							"origin": [-7.5744, 13.4, 1.22507],
							"size": [0.69973, 0.69973, 0.69973],
							"uv": {
								"north": {"uv": [81, 101], "uv_size": [-1, 1]},
								"east": {"uv": [80, 101], "uv_size": [1, 1]},
								"south": {"uv": [80, 101], "uv_size": [1, 1]},
								"west": {"uv": [80, 101], "uv_size": [1, 1]},
								"up": {"uv": [81, 102], "uv_size": [-1, -1]},
								"down": {"uv": [81, 101], "uv_size": [-1, 1]}
							}
						},
						{
							"origin": [-5.4752, 13.4, 1.9248],
							"size": [0.69973, 0.69973, 0.69973],
							"uv": {
								"north": {"uv": [78, 102], "uv_size": [-1, 1]},
								"east": {"uv": [77, 102], "uv_size": [1, 1]},
								"south": {"uv": [77, 102], "uv_size": [1, 1]},
								"west": {"uv": [77, 102], "uv_size": [1, 1]},
								"up": {"uv": [78, 103], "uv_size": [-1, -1]},
								"down": {"uv": [78, 102], "uv_size": [-1, 1]}
							}
						},
						{
							"origin": [-6.17493, 13.4, 1.9248],
							"size": [0.69973, 0.69973, 0.69973],
							"uv": {
								"north": {"uv": [79, 102], "uv_size": [-1, 1]},
								"east": {"uv": [78, 102], "uv_size": [1, 1]},
								"south": {"uv": [78, 102], "uv_size": [1, 1]},
								"west": {"uv": [78, 102], "uv_size": [1, 1]},
								"up": {"uv": [79, 103], "uv_size": [-1, -1]},
								"down": {"uv": [79, 102], "uv_size": [-1, 1]}
							}
						},
						{
							"origin": [-6.87467, 13.4, 1.9248],
							"size": [0.69973, 0.69973, 0.69973],
							"uv": {
								"north": {"uv": [80, 102], "uv_size": [-1, 1]},
								"east": {"uv": [79, 102], "uv_size": [1, 1]},
								"south": {"uv": [79, 102], "uv_size": [1, 1]},
								"west": {"uv": [79, 102], "uv_size": [1, 1]},
								"up": {"uv": [80, 103], "uv_size": [-1, -1]},
								"down": {"uv": [80, 102], "uv_size": [-1, 1]}
							}
						},
						{
							"origin": [-5.4752, 13.4, 2.62453],
							"size": [0.69973, 0.69973, 0.69973],
							"uv": {
								"north": {"uv": [78, 103], "uv_size": [-1, 1]},
								"east": {"uv": [77, 103], "uv_size": [1, 1]},
								"south": {"uv": [77, 103], "uv_size": [1, 1]},
								"west": {"uv": [77, 103], "uv_size": [1, 1]},
								"up": {"uv": [78, 104], "uv_size": [-1, -1]},
								"down": {"uv": [78, 103], "uv_size": [-1, 1]}
							}
						},
						{
							"origin": [-6.17493, 13.4, 2.62453],
							"size": [0.69973, 0.69973, 0.69973],
							"uv": {
								"north": {"uv": [79, 103], "uv_size": [-1, 1]},
								"east": {"uv": [78, 103], "uv_size": [1, 1]},
								"south": {"uv": [78, 103], "uv_size": [1, 1]},
								"west": {"uv": [78, 103], "uv_size": [1, 1]},
								"up": {"uv": [79, 104], "uv_size": [-1, -1]},
								"down": {"uv": [79, 103], "uv_size": [-1, 1]}
							}
						},
						{
							"origin": [-6.87467, 13.4, 2.62453],
							"size": [0.69973, 0.69973, 0.69973],
							"uv": {
								"north": {"uv": [80, 103], "uv_size": [-1, 1]},
								"east": {"uv": [79, 103], "uv_size": [1, 1]},
								"south": {"uv": [79, 103], "uv_size": [1, 1]},
								"west": {"uv": [79, 103], "uv_size": [1, 1]},
								"up": {"uv": [80, 104], "uv_size": [-1, -1]},
								"down": {"uv": [80, 103], "uv_size": [-1, 1]}
							}
						}
					]
				},
				{
					"name": "jacket",
					"parent": "body",
					"pivot": [0, 24, 0]
				},
				{
					"name": "leftLeg",
					"parent": "root",
					"pivot": [1.9, 12, 0]
				},
				{
					"name": "leftPants",
					"parent": "leftLeg",
					"pivot": [1.9, 12, 0]
				},
				{
					"name": "rightLeg",
					"parent": "root",
					"pivot": [-1.9, 12, 0]
				},
				{
					"name": "rightPants",
					"parent": "rightLeg",
					"pivot": [-1.9, 12, 0]
				}
			]
		}
	]
}