{
    "format_version": "1.16.100",
    "minecraft:item": {
        "description": {
            "identifier": "yes:echo_shovel",
            "category": "equipment"   
        },
        "components": {
			"minecraft:on_use_on": {
				"on_use_on": {
					"event": "yes:on_use"
				}
			},
            "minecraft:icon": {
                "texture": "echo_shovel"
            },
            "minecraft:creative_category": {
                "parent": "itemGroup.name.shovel"
            },
			       "tag:minecraft:is_shovel": {},
            "minecraft:display_name": {
  				"value": "Echo Shovel\n§l§r"
				},
            "minecraft:max_stack_size": 1,
            "minecraft:hand_equipped": true,
            "minecraft:allow_off_hand": true,
            "minecraft:render_offsets": "tools",
            "minecraft:enchantable": {
                "value": 12,
                "slot": "shovel"
            },
            "minecraft:durability": {
                "max_durability": 3122,
                "damage_chance": {
                    "min": 60,
                    "max": 100
                }
            },
            "minecraft:repairable": {
                "repair_items": [
                    {
                        "items": [
									"yes:warden_heart"
                        ],
                        "repair_amount": 3122
                    },
						 {
                        "items": [
                            "yes:echo_shovel"
                        ],
                        "repair_amount": "context.other->query.remaining_durability + 0.05 * context.other->query.max_durability"
                    },
                    {
                        "items": [
                            "minecraft:echo_shard"
                        ],
                        "repair_amount": 2081
                    },
                    {
                        "items": [
									"yes:warden_tend ril"
                        ],
                        "repair_amount": 1041
                    }
                ]
            },
            "minecraft:weapon": {
                "on_hurt_entity": {
                    "event": "yes:damage_eventb",
                    "target": "self"
                },
                "on_hit_block": {
                    "event": "yes:damage_event",
                    "target": "self"
                }
            },
            "minecraft:mining_speed": 1,
            "minecraft:damage": 5,
            "minecraft:can_destroy_in_creative": true,
            "minecraft:digger": {
                "on_dig": {
                    "event": "yes:damage_event",
                    "target": "self"
                },
                "use_efficiency": true,
                "destroy_speeds": [
					{
						"block": {
							"tags": "q.any_tag('dirt', 'sand', 'gravel', 'grass', 'snow')"
						},
						"speed": 9,
						"on_dig": {
							"event": "yes:damage_event"
						}
					},
					{
						"block": "minecraft:soul_sand",
						"speed": 9,
						"on_dig": {
							"event": "yes:damage_event"
						}
					},
					{
						"block": "minecraft:soul_soil",
						"speed": 9,
						"on_dig": {
							"event": "yes:damage_event"
						}
					},
						  {
                        "block": "minecraft:dirt_with_roots",
                        "speed": 9,
                        "on_dig": {
                            "event": "yes:damage_event",
                            "target": "self"
                        }
                    },
						  {
                        "block": "minecraft:mycelium",
                        "speed": 9,
                        "on_dig": {
                            "event": "yes:damage_event",
                            "target": "self"
                        }
                    },
						  {
                        "block": "minecraft:podzol",
                        "speed": 9,
                        "on_dig": {
                            "event": "yes:damage_event",
                            "target": "self"
                        }
                    },
					{
                        "block": "minecraft:dirt",
                        "speed": 9,
                        "on_dig": {
                            "event": "yes:damage_event",
                            "target": "self"
                        }
                    },
					{
                        "block": "minecraft:farmland",
                        "speed": 9,
                        "on_dig": {
                            "event": "yes:damage_event",
                            "target": "self"
                        }
                    },
					{
                        "block": "minecraft:sand",
                        "speed": 9,
                        "on_dig": {
                            "event": "yes:damage_event",
                            "target": "self"
                        }
                    },
					{
                        "block": "minecraft:gravel",
                        "speed": 9,
                        "on_dig": {
                            "event": "yes:damage_event",
                            "target": "self"
                        }
                    },
					{
                        "block": "minecraft:grass",
                        "speed": 9,
                        "on_dig": {
                            "event": "yes:damage_event",
                            "target": "self"
                        }
                    },
					{
                        "block": "minecraft:grass_path",
                        "speed": 9,
                        "on_dig": {
                            "event": "yes:damage_event",
                            "target": "self"
                        }
                    },
					{
                        "block": "minecraft:snow",
                        "speed": 9,
                        "on_dig": {
                            "event": "yes:damage_event",
                            "target": "self"
                        }
                    },
					{
                        "block": "minecraft:mud",
                        "speed": 9,
                        "on_dig": {
                            "event": "yes:damage_event",
                            "target": "self"
                        }
                    },
					{
                        "block": "minecraft:packed_mud",
                        "speed": 9,
                        "on_dig": {
                            "event": "yes:damage_event",
                            "target": "self"
                        }
                    },
					{
                        "block": "minecraft:muddy_mangrove_roots",
                        "speed": 9,
                        "on_dig": {
                            "event": "yes:damage_event",
                            "target": "self"
                        }
                    },
					{
                        "block": "minecraft:clay",
                        "speed": 9,
                        "on_dig": {
                            "event": "yes:damage_event",
                            "target": "self"
                        }
                    }
				]
            }
        },
        "events": {
            "yes:damage_event": {
                "damage": {
                    "type": "durability",
                    "amount": 1
                }
            },
            "yes:damage_eventb": {
                "damage": {
                    "type": "durability",
                    "amount": 2
                }
            },
            "on_tool_used": {
                "damage": {
                    "type": "durability",
                    "amount": 1
                }
            },
			"yes:on_use": {
				"sequence": [
					{
						"damage": {
							"type": "durability",
							"amount": 1,
							"target": "item"
						}
					},
					{
						"run_command": {
							"command": [
								"function use_shovel"
							  ]
						  }
					  }
				  ]
			  }
        }
    }
}