{
    "format_version": "1.16.100",
    "minecraft:item": {
        "description": {
            "identifier": "yes:aetherite_axe",
            "category": "equipment"   
        },
        "components": {
			"minecraft:on_use_on": {
				"on_use_on": {
					"event": "yes:on_use"
				}
			},
				"minecraft:explodable": false,
            "minecraft:icon": {
                "texture": "aetherite_axe"
            },
            "minecraft:creative_category": {
                "parent": "itemGroup.name.axe"
            },
			       "tag:minecraft:is_axe": {},
                  "minecraft:display_name": { "value": "Aetherite Axe\n§l§r"},
            "minecraft:max_stack_size": 1,
            "minecraft:hand_equipped": true,
            "minecraft:allow_off_hand": true,
            "minecraft:render_offsets": "tools",
            "minecraft:enchantable": {
                "value": 12,
                "slot": "axe"
            },
            "minecraft:durability": {
                "max_durability": 1929,
                "damage_chance": {
                    "min": 60,
                    "max": 100
                }
            },
            "minecraft:repairable": {
                "repair_items": [
                    {
                        "items": [
                            "yes:aetherite_axe",
                            "yes:aetherite_ingot"
                        ],
                        "repair_amount": 1929
                    }
                ]
            },
            "minecraft:weapon": {
                "on_hurt_entity": {
                    "event": "yes:damage_eventb",
                    "target": "self"
                },
                "on_hit_block": {
                    "event": "yes:damage_event",
                    "target": "self"
                }
            },
            "minecraft:mining_speed": 1,
            "minecraft:damage": 7,
            "minecraft:can_destroy_in_creative": true,
            "minecraft:digger": {
                "on_dig": {
                    "event": "yes:damage_event",
                    "target": "self"
                },
                "use_efficiency": true,
                "destroy_speeds": [
 					{
						"block": {
							"tags": "q.any_tag('wood', 'pumpkin', 'plant')"
						},
						"speed": 10,
						"on_dig": {
							"event": "yes:damage_event"
						}
					},
					{
						"block": "minecraft:chest",
						"speed": 10,
						"on_dig": {
							"event": "yes:damage_event"
						}
					},
					{
						"block": "minecraft:bookshelf",
						"speed": 10,
						"on_dig": {
							"event": "yes:damage_event"
						}
					},
					{
						"block": "minecraft:melon_block",
						"speed": 10,
						"on_dig": {
							"event": "yes:damage_event"
						}
					},
					{
						"block": "minecraft:warped_stem",
						"speed": 10,
						"on_dig": {
							"event": "yes:damage_event"
						}
					},
					{
						"block": "minecraft:crimson_stem",
						"speed": 10,
						"on_dig": {
							"event": "yes:damage_event"
						}
					},
					{
						"block": "minecraft:warped_stem",
						"speed": 10,
						"on_dig": {
							"event": "yes:damage_event"
						}
					},
					{
						"block": "minecraft:crimson_stem",
						"speed": 10,
						"on_dig": {
							"event": "yes:damage_event"
						}
					},
					{
						"block": "minecraft:crafting_table",
						"speed": 10,
						"on_dig": {
							"event": "yes:damage_event"
						}
					},
					{
						"block": "minecraft:crimson_planks",
						"speed": 10,
						"on_dig": {
							"event": "yes:damage_event"
						}
					},
					{
						"block": "minecraft:warped_planks",
						"speed": 10,
						"on_dig": {
							"event": "yes:damage_event"
						}
					},
					{
						"block": "minecraft:warped_stairs",
						"speed": 10,
						"on_dig": {
							"event": "yes:damage_event"
						}
					},
					{
						"block": "minecraft:warped_trapdoor",
						"speed": 10,
						"on_dig": {
							"event": "yes:damage_event"
						}
					},
					{
						"block": "minecraft:crimson_stairs",
						"speed": 10,
						"on_dig": {
							"event": "yes:damage_event"
						}
					},
					{
						"block": "minecraft:crimson_trapdoor",
						"speed": 10,
						"on_dig": {
							"event": "yes:damage_event"
						}
					},
					{
						"block": "minecraft:crimson_door",
						"speed": 10,
						"on_dig": {
							"event": "yes:damage_event"
						}
					},
					{
						"block": "minecraft:crimson_double_slab",
						"speed": 10,
						"on_dig": {
							"event": "yes:damage_event"
						}
					},
					{
						"block": "minecraft:warped_door",
						"speed": 10,
						"on_dig": {
							"event": "yes:damage_event"
						}
					},
					{
						"block": "minecraft:warped_double_slab",
						"speed": 10,
						"on_dig": {
							"event": "yes:damage_event"
						}
					},
					{
						"block": "minecraft:crafting_table",
						"speed": 10,
						"on_dig": {
							"event": "yes:damage_event"
						}
					},
					{
						"block": "minecraft:composter",
						"speed": 10,
						"on_dig": {
							"event": "yes:damage_event"
						}
					},
					{
						"block": "minecraft:cartography_table",
						"speed": 10,
						"on_dig": {
							"event": "yes:damage_event"
						}
					},
					{
						"block": "minecraft:lectern",
						"speed": 10,
						"on_dig": {
							"event": "yes:damage_event"
						}
					},
					{
						"block": "minecraft:stripped_crimson_stem",
						"speed": 10,
						"on_dig": {
							"event": "yes:damage_event"
						}
					},
					{
						"block": "minecraft:stripped_warped_stem",
						"speed": 10,
						"on_dig": {
							"event": "yes:damage_event"
						}
					},
					{
						"block": "minecraft:trapdoor",
						"speed": 10,
						"on_dig": {
							"event": "yes:damage_event"
						}
					},
					{
						"block": "minecraft:spruce_trapdoor",
						"speed": 10,
						"on_dig": {
							"event": "yes:damage_event"
						}
					},
					{
						"block": "minecraft:birch_trapdoor",
						"speed": 10,
						"on_dig": {
							"event": "yes:damage_event"
						}
					},
					{
						"block": "minecraft:jungle_trapdoor",
						"speed": 10,
						"on_dig": {
							"event": "yes:damage_event"
						}
					},
					{
						"block": "minecraft:acacia_trapdoor",
						"speed": 10,
						"on_dig": {
							"event": "yes:damage_event"
						}
					},
					{
						"block": "minecraft:dark_oak_trapdoor",
						"speed": 10,
						"on_dig": {
							"event": "yes:damage_event"
						}
					},
					{
						"block": "minecraft:wooden_door",
						"speed": 10,
						"on_dig": {
							"event": "yes:damage_event"
						}
					},
					{
						"block": "minecraft:spruce_door",
						"speed": 10,
						"on_dig": {
							"event": "yes:damage_event"
						}
					},
					{
						"block": "minecraft:birch_door",
						"speed": 10,
						"on_dig": {
							"event": "yes:damage_event"
						}
					},
					{
						"block": "minecraft:jungle_door",
						"speed": 10,
						"on_dig": {
							"event": "yes:damage_event"
						}
					},
					{
						"block": "minecraft:acacia_door",
						"speed": 10,
						"on_dig": {
							"event": "yes:damage_event"
						}
					},
					{
						"block": "minecraft:dark_oak_door",
						"speed": 10,
						"on_dig": {
							"event": "yes:damage_event"
						}
					},
					{
						"block": "minecraft:fence",
						"speed": 10,
						"on_dig": {
							"event": "yes:damage_event"
						}
					},
					{
						"block": "minecraft:fence_gate",
						"speed": 10,
						"on_dig": {
							"event": "yes:damage_event"
						}
					},
					{
						"block": "minecraft:spruce_fence_gate",
						"speed": 10,
						"on_dig": {
							"event": "yes:damage_event"
						}
					},
					{
						"block": "minecraft:birch_fence_gate",
						"speed": 10,
						"on_dig": {
							"event": "yes:damage_event"
						}
					},
					{
						"block": "minecraft:jungle_fence_gate",
						"speed": 10,
						"on_dig": {
							"event": "yes:damage_event"
						}
					},
					{
						"block": "minecraft:acacia_fence_gate",
						"speed": 10,
						"on_dig": {
							"event": "yes:damage_event"
						}
					},
					{
						"block": "minecraft:dark_oak_fence_gate",
						"speed": 10,
						"on_dig": {
							"event": "yes:damage_event"
						}
					},
					{
						"block": "minecraft:log",
						"speed": 10,
						"on_dig": {
							"event": "yes:damage_event"
						}
					},
					{
						"block": "minecraft:log2",
						"speed": 10,
						"on_dig": {
							"event": "yes:damage_event"
						}
					},
					{
						"block": "minecraft:wood",
						"speed": 10,
						"on_dig": {
							"event": "yes:damage_event"
						}
					},
					{
						"block": "minecraft:planks",
						"speed": 10,
						"on_dig": {
							"event": "yes:damage_event"
						}
					},
					{
						"block": "minecraft:wooden_slab",
						"speed": 10,
						"on_dig": {
							"event": "yes:damage_event"
						}
					},
					{
						"block": "minecraft:double_wooden_slab",
						"speed": 10,
						"on_dig": {
							"event": "yes:damage_event"
						}
					},
					{
						"block": "minecraft:oak_stairs",
						"speed": 10,
						"on_dig": {
							"event": "yes:damage_event"
						}
					},
					{
						"block": "minecraft:spruce_stairs",
						"speed": 10,
						"on_dig": {
							"event": "yes:damage_event"
						}
					},
					{
						"block": "minecraft:birch_stairs",
						"speed": 10,
						"on_dig": {
							"event": "yes:damage_event"
						}
					},
					{
						"block": "minecraft:jungle_stairs",
						"speed": 10,
						"on_dig": {
							"event": "yes:damage_event"
						}
					},
					{
						"block": "minecraft:acacia_stairs",
						"speed": 10,
						"on_dig": {
							"event": "yes:damage_event"
						}
					},
					{
						"block": "minecraft:dark_oak_stairs",
						"speed": 10,
						"on_dig": {
							"event": "yes:damage_event"
						}
					},
					{
						"block": "minecraft:wall_sign",
						"speed": 10,
						"on_dig": {
							"event": "yes:damage_event"
						}
					},
					{
						"block": "minecraft:spruce_wall_sign",
						"speed": 10,
						"on_dig": {
							"event": "yes:damage_event"
						}
					},
					{
						"block": "minecraft:birch_wall_sign",
						"speed": 10,
						"on_dig": {
							"event": "yes:damage_event"
						}
					},
					{
						"block": "minecraft:jungle_wall_sign",
						"speed": 10,
						"on_dig": {
							"event": "yes:damage_event"
						}
					},
					{
						"block": "minecraft:acacia_wall_sign",
						"speed": 10,
						"on_dig": {
							"event": "yes:damage_event"
						}
					},
					{
						"block": "minecraft:darkoak_wall_sign",
						"speed": 10,
						"on_dig": {
							"event": "yes:damage_event"
						}
					},
					{
						"block": "minecraft:wooden_pressure_plate",
						"speed": 10,
						"on_dig": {
							"event": "yes:damage_event"
						}
					},
					{
						"block": "minecraft:spruce_pressure_plate",
						"speed": 10,
						"on_dig": {
							"event": "yes:damage_event"
						}
					},
					{
						"block": "minecraft:birch_pressure_plate",
						"speed": 10,
						"on_dig": {
							"event": "yes:damage_event"
						}
					},
					{
						"block": "minecraft:jungle_pressure_plate",
						"speed": 10,
						"on_dig": {
							"event": "yes:damage_event"
						}
					},
					{
						"block": "minecraft:acacia_pressure_plate",
						"speed": 10,
						"on_dig": {
							"event": "yes:damage_event"
						}
					},
					{
						"block": "minecraft:dark_oak_pressure_plate",
						"speed": 10,
						"on_dig": {
							"event": "yes:damage_event"
						}
					},
					{
						"block": "minecraft:smithing_table",
						"speed": 10,
						"on_dig": {
							"event": "yes:damage_event"
						}
					},
					{
						"block": "minecraft:fletching_table",
						"speed": 10,
						"on_dig": {
							"event": "yes:damage_event"
						}
					},
					{
						"block": "minecraft:barrel",
						"speed": 10,
						"on_dig": {
							"event": "yes:damage_event"
						}
					},
					{
						"block": "minecraft:beehive",
						"speed": 10,
						"on_dig": {
							"event": "yes:damage_event"
						}
					},
					{
						"block": "minecraft:bee_nest",
						"speed": 10,
						"on_dig": {
							"event": "yes:damage_event"
						}
					},
					{
						"block": "minecraft:ladder",
						"speed": 10,
						"on_dig": {
							"event": "yes:damage_event"
						}
					},
					{
						"block": "minecraft:pumpkin",
						"speed": 10,
						"on_dig": {
							"event": "yes:damage_event"
						}
					},
					{
						"block": "minecraft:carved_pumpkin",
						"speed": 10,
						"on_dig": {
							"event": "yes:damage_event"
						}
					},
					{
						"block": "minecraft:lit_pumpkin",
						"speed": 10,
						"on_dig": {
							"event": "yes:damage_event"
						}
					},
					{
						"block": "minecraft:mangrove_door",
						"speed": 10,
						"on_dig": {
							"event": "yes:damage_event"
						}
					},
					{
						"block": "minecraft:mangrove_double_slab",
						"speed": 10,
						"on_dig": {
							"event": "yes:damage_event"
						}
					},
					{
						"block": "minecraft:mangrove_fence",
						"speed": 10,
						"on_dig": {
							"event": "yes:damage_event"
						}
					},
					{
						"block": "minecraft:mangrove_fence_gate",
						"speed": 10,
						"on_dig": {
							"event": "yes:damage_event"
						}
					},
					{
						"block": "minecraft:mangrove_log",
						"speed": 10,
						"on_dig": {
							"event": "yes:damage_event"
						}
					},
					{
						"block": "minecraft:mangrove_planks",
						"speed": 10,
						"on_dig": {
							"event": "yes:damage_event"
						}
					},
					{
						"block": "minecraft:mangrove_pressure_plate",
						"speed": 10,
						"on_dig": {
							"event": "yes:damage_event"
						}
					},
					{
						"block": "minecraft:mangrove_slab",
						"speed": 10,
						"on_dig": {
							"event": "yes:damage_event"
						}
					},
					{
						"block": "minecraft:mangrove_stairs",
						"speed": 10,
						"on_dig": {
							"event": "yes:damage_event"
						}
					},
					{
						"block": "minecraft:mangrove_wall_sign",
						"speed": 10,
						"on_dig": {
							"event": "yes:damage_event"
						}
					},
					{
						"block": "minecraft:mangrove_wood",
						"speed": 10,
						"on_dig": {
							"event": "yes:damage_event"
						}
					},
					{
						"block": "minecraft:wooden_button",
						"speed": 10,
						"on_dig": {
							"event": "yes:damage_event"
						}
					},
					{
						"block": "minecraft:spruce_button",
						"speed": 10,
						"on_dig": {
							"event": "yes:damage_event"
						}
					},
					{
						"block": "minecraft:birch_button",
						"speed": 10,
						"on_dig": {
							"event": "yes:damage_event"
						}
					},
					{
						"block": "minecraft:jungle_button",
						"speed": 10,
						"on_dig": {
							"event": "yes:damage_event"
						}
					},
					{
						"block": "minecraft:acacia_button",
						"speed": 10,
						"on_dig": {
							"event": "yes:damage_event"
						}
					},
					{
						"block": "minecraft:dark_oak_button",
						"speed": 10,
						"on_dig": {
							"event": "yes:damage_event"
						}
					},
					{
						"block": "minecraft:mangrove_button",
						"speed": 10,
						"on_dig": {
							"event": "yes:damage_event"
						}
					},
					{
						"block": "minecraft:stripped_oak_wood",
						"speed": 10,
						"on_dig": {
							"event": "yes:damage_event"
						}
					},
					{
						"block": "minecraft:stripped_spruce_wood",
						"speed": 10,
						"on_dig": {
							"event": "yes:damage_event"
						}
					},
					{
						"block": "minecraft:stripped_birch_wood",
						"speed": 10,
						"on_dig": {
							"event": "yes:damage_event"
						}
					},
					{
						"block": "minecraft:stripped_jungle_wood",
						"speed": 10,
						"on_dig": {
							"event": "yes:damage_event"
						}
					},
					{
						"block": "minecraft:stripped_acacia_wood",
						"speed": 10,
						"on_dig": {
							"event": "yes:damage_event"
						}
					},
					{
						"block": "minecraft:stripped_dark_oak_wood",
						"speed": 10,
						"on_dig": {
							"event": "yes:damage_event"
						}
					},
					{
						"block": "minecraft:stripped_mangrove_wood",
						"speed": 10,
						"on_dig": {
							"event": "yes:damage_event"
						}
					},
					{
						"block": "minecraft:stripped_oak_log",
						"speed": 10,
						"on_dig": {
							"event": "yes:damage_event"
						}
					},
					{
						"block": "minecraft:stripped_spruce_log",
						"speed": 10,
						"on_dig": {
							"event": "yes:damage_event"
						}
					},
					{
						"block": "minecraft:stripped_birch_log",
						"speed": 10,
						"on_dig": {
							"event": "yes:damage_event"
						}
					},
					{
						"block": "minecraft:stripped_jungle_log",
						"speed": 10,
						"on_dig": {
							"event": "yes:damage_event"
						}
					},
					{
						"block": "minecraft:stripped_acacia_log",
						"speed": 10,
						"on_dig": {
							"event": "yes:damage_event"
						}
					},
					{
						"block": "minecraft:stripped_dark_oak_log",
						"speed": 10,
						"on_dig": {
							"event": "yes:damage_event"
						}
					},
					{
						"block": "minecraft:stripped_mangrove_log",
						"speed": 10,
						"on_dig": {
							"event": "yes:damage_event"
						}
					},
					{
						"block": "minecraft:standing_sign",
						"speed": 10,
						"on_dig": {
							"event": "yes:damage_event"
						}
					},
					{
						"block": "minecraft:spruce_standing_sign",
						"speed": 10,
						"on_dig": {
							"event": "yes:damage_event"
						}
					},
					{
						"block": "minecraft:birch_standing_sign",
						"speed": 10,
						"on_dig": {
							"event": "yes:damage_event"
						}
					},
					{
						"block": "minecraft:jungle_standing_sign",
						"speed": 10,
						"on_dig": {
							"event": "yes:damage_event"
						}
					},
					{
						"block": "minecraft:acacia_standing_sign",
						"speed": 10,
						"on_dig": {
							"event": "yes:damage_event"
						}
					},
					{
						"block": "minecraft:darkoak_standing_sign",
						"speed": 10,
						"on_dig": {
							"event": "yes:damage_event"
						}
					},
					{
						"block": "minecraft:mangrove_standing_sign",
						"speed": 10,
						"on_dig": {
							"event": "yes:damage_event"
						}
					},
					{
						"block": "minecraft:mangrove_trapdoor",
						"speed": 10,
						"on_dig": {
							"event": "yes:damage_event"
						}
					},
					{
						"block": "minecraft:warped_standing_sign",
						"speed": 10,
						"on_dig": {
							"event": "yes:damage_event"
						}
					},
					{
						"block": "minecraft:warped_wall_sign",
						"speed": 10,
						"on_dig": {
							"event": "yes:damage_event"
						}
					},
					{
						"block": "minecraft:crimson_standing_sign",
						"speed": 10,
						"on_dig": {
							"event": "yes:damage_event"
						}
					},
					{
						"block": "minecraft:crimson_wall_sign",
						"speed": 10,
						"on_dig": {
							"event": "yes:damage_event"
						}
					}
				]
          }
        },
        "events": {
            "yes:damage_event": {
                "damage": {
                    "type": "durability",
                    "amount": 1
                }
            },
            "yes:damage_eventb": {
                "damage": {
                    "type": "durability",
                    "amount": 2
                }
            },
            "on_tool_used": {
                "damage": {
                    "type": "durability",
                    "amount": 1
                }
            },
			"yes:on_use": {
				"sequence": [
					{
						"damage": {
							"type": "durability",
							"amount": 1,
							"target": "item"
						}
					},
					{
						"run_command": {
							"command": [
								"function use_axe"
							  ]
						  }
					  }
				  ]
			  }	
        }
    }
}