{
    "format_version": "1.16.100",
    "minecraft:item": {
        "description": {
            "identifier": "yes:aetherite_hoe",
            "category": "equipment"
        },
        "components": {
			"minecraft:on_use_on": {
				"on_use_on": {
					"event": "yes:on_use"
				}
			},
			  "minecraft:explodable": false,
            "minecraft:icon": {
                "texture": "aetherite_hoe"
            },
                  "minecraft:display_name": { "value": "Aetherite Hoe\n§l§r"},
            "minecraft:creative_category": {
                "parent": "itemGroup.name.hoe"
            },
            "minecraft:hand_equipped": true,
            "minecraft:max_stack_size": 1,
				"tag:minecraft:is_hoe": {},
            "minecraft:allow_off_hand": true,
            "minecraft:render_offsets": "tools",
            "minecraft:enchantable": {
                "value": 12,
                "slot": "hoe"
            },
            "minecraft:durability": {
                "max_durability": 1929,
                "damage_chance": {
                    "min": 60,
                    "max": 100
                }
            },
            "minecraft:repairable": {
                "repair_items": [
                    {
                        "items": [
                            "yes:aetherite_hoe",
                            "yes:aetherite_ingot"
                        ],
                        "repair_amount": 1929
                    }
                ]
            },
            "minecraft:weapon": {
                "on_hurt_entity": {
                    "event": "yes:damage_eventb",
                    "target": "self"
                }
            },
            "minecraft:mining_speed": 1,
            "minecraft:damage": 6,
            "minecraft:can_destroy_in_creative": true,
            "minecraft:digger": {
                "on_dig": {
                    "event": "yes:damage_event",
                    "target": "self"
                },
                "use_efficiency": true,
                "destroy_speeds": [
					{
						"block": "minecraft:nether_wart_block",
						"speed": 10,
						"on_dig": {
							"event": "yes:damage_event"
						}
					},
					{
						"block": "minecraft:hay_block",
						"speed": 10,
						"on_dig": {
							"event": "yes:damage_event"
						}
					},
					{
						"block": "minecraft:target",
						"speed": 10,
						"on_dig": {
							"event": "yes:damage_event"
						}
					},
					{
						"block": "minecraft:shroomlight",
						"speed": 10,
						"on_dig": {
							"event": "yes:damage_event"
						}
					},
					{
						"block": "minecraft:leaves",
						"speed": 10,
						"on_dig": {
							"event": "yes:damage_event"
						}
					},
					{
						"block": "minecraft:leaves2",
						"speed": 10,
						"on_dig": {
							"event": "yes:damage_event"
						}
					},
					{
						"block": "minecraft:warped_wart_block",
						"speed": 10,
						"on_dig": {
							"event": "yes:damage_event"
						}
					}
				]
          }
        },
        "events": {
            "yes:damage_event": {
                "damage": {
                    "type": "durability",
                    "amount": 1
                }
            },
            "yes:damage_eventb": {
                "damage": {
                    "type": "durability",
                    "amount": 2
                }
            },
            "on_tool_used": {
                "damage": {
                    "type": "durability",
                    "amount": 1
                }
            },
			"yes:on_use": {
				"sequence": [
					{
						"damage": {
							"type": "durability",
							"amount": 1,
							"target": "item"
						}
					},
					{
						"run_command": {
							"command": [
								"function use_hoe"
							  ]
						  }
					  }
				  ]
			  }
        }
    }
}