{
    "format_version": "1.16.100",
    "minecraft:item": {
        "description": {
            "identifier": "yes:aetherite_ingot",
            "category": "items"
        },
        "components": {
			  "minecraft:explodable": false,
            "minecraft:max_stack_size": 64,
            "minecraft:creative_category": {
                "parent": "itemGroup.name.ingot"
            },
                  "minecraft:display_name": { "value": "Aetherite Ingot\n§l§r"},
            "minecraft:icon": {
                "texture": "aetherite_ingot"
            },
            "minecraft:allow_off_hand": true,
				     		 "minecraft:render_offsets": {
      		  }
    		  }
        }
}