{
	"format_version": "1.8.0",
	"animations": {
		"animation.entity.nicothekid_myceling.attack": {
			"loop": true,
			"animation_length": 0.5,
			"bones": {
				"body": {
					"position": {
						"0.0": [0, 0, 0],
						"0.25": [0, 0, -1],
						"0.5": [0, 0, 0]
					}
				},
				"head": {
					"rotation": {
						"0.0": [0, 0, 0],
						"0.125": [0, 0, -10],
						"0.25": [0, 0, 0],
						"0.375": [0, 0, 10],
						"0.5": [0, 0, 0]
					}
				},
				"upper_mouth": {
					"rotation": {
						"0.0": [0, 0, 0],
						"0.25": [-5, 0, 0],
						"0.5": [0, 0, 0]
					}
				},
				"lower_mouth": {
					"rotation": {
						"0.0": [0, 0, 0],
						"0.25": [35, 0, 0],
						"0.5": [0, 0, 0]
					}
				}
			}
		},
		"animation.entity.nicothekid_myceling.look_at_target": {
			"loop": true,
			"bones": {
				"head": {
					"relative_to": {
						"rotation": "entity"
					},
					"rotation": [
					  "query.target_x_rotation - this",
					  "query.target_y_rotation - this",
					  0.0
					]
				}
			}
		},
		"animation.entity.nicothekid_myceling.sitting": {
			"loop": true,
			"bones": {
				"body": {
					"rotation": [ -10, 0, 0 ],
					"position": [ 0, -3, 0 ]
				},
				"head": {
					"rotation": [7.5, 0, 0]
				},
				"leg_front_l": {
					"rotation": [-10, 0, 0]
				},
				"leg_front_r": {
					"rotation": [-10, 0, 0]
				},
				"leg_back_l": {
					"rotation": [-90, 0, 0],
					"position": [0, -7, 0]
				},
				"leg_back_r": {
					"rotation": [-90, 0, 0],
					"position": [0, -7, 0]
				}
			}
		},
		"animation.entity.nicothekid_myceling.sleeping": {
			"loop": true,
			"bones": {
				"body": {
					"rotation": [5, 0, 0],
					"position": [0, -4, 0]
				},
				"leg_front_l": {
					"rotation": [-90, 10, 0],
					"position": [0, -6, 0]
				},
				"leg_front_r": {
					"rotation": [-90, 0, 0],
					"position": [0, -6, 0]
				},
				"leg_back_l": {
					"rotation": [-90, 0, 0],
					"position": [0, -7, 1]
				},
				"leg_back_r": {
					"rotation": [-90, 0, 0],
					"position": [0, -7, 1]
				}
			}
		},
		"animation.entity.nicothekid_myceling.swim": {
			"loop": true,
			"animation_length": 1.0,
			"bones": {
				"body": {
					"rotation": {
						"0.0": [0, 0, 0],
						"0.25": [10, 0, 0],
						"1.0": [0, 0, 0]
					}
				},
				"head": {
					"rotation": {
						"0.0": [0, 0, 0],
						"0.25": [-10, 0, 0],
						"1.0": [0, 0, 0]
					}
				},
				"leg_front_l": {
					"rotation": {
						"0.0": [0, 0, 0],
						"0.25": [-45, 0, 0],
						"0.5": [45, 0, 0],
						"1.0": [0, 0, 0]
					}
				},
				"leg_front_r": {
					"rotation": {
						"0.0": [0, 0, 0],
						"0.25": [-45, 0, 0],
						"0.5": [45, 0, 0],
						"1.0": [0, 0, 0]
					}
				},
				"leg_back_l": {
					"rotation": {
						"0.0": [0, 0, 0],
						"0.25": [-30, 0, 0],
						"0.5": [45, 0, 0],
						"1.0": [0, 0, 0]
					}
				},
				"leg_back_r": {
					"rotation": {
						"0.0": [0, 0, 0],
						"0.25": [-30, 0, 0],
						"0.5": [45, 0, 0],
						"1.0": [0, 0, 0]
					}
				}
			}
		},
		"animation.entity.nicothekid_myceling.swim_to_target": {
			"loop": true,
			"animation_length": 1.0,
			"bones": {
				"body": {
					"rotation": {
						"0.0": [0, 0, 0],
						"0.25": [10, 0, 0],
						"1.0": [0, 0, 0]
					}
				},
				"head": {
					"rotation": {
						"0.0": [0, 0, 0],
						"0.25": [-10, 0, 0],
						"1.0": [0, 0, 0]
					}
				},
				"leg_front_l": {
					"rotation": {
						"0.0": [0, 0, 0],
						"0.25": [-45, 0, 0],
						"0.5": [45, 0, 0],
						"1.0": [0, 0, 0]
					}
				},
				"leg_front_r": {
					"rotation": {
						"0.0": [0, 0, 0],
						"0.25": [-45, 0, 0],
						"0.5": [45, 0, 0],
						"1.0": [0, 0, 0]
					}
				},
				"leg_back_l": {
					"rotation": {
						"0.0": [0, 0, 0],
						"0.25": [-30, 0, 0],
						"0.5": [45, 0, 0],
						"1.0": [0, 0, 0]
					}
				},
				"leg_back_r": {
					"rotation": {
						"0.0": [0, 0, 0],
						"0.25": [-30, 0, 0],
						"0.5": [45, 0, 0],
						"1.0": [0, 0, 0]
					}
				}
			}
		},
		"animation.entity.nicothekid_myceling.walk": {
			"loop": true,
			"animation_length": 1.0,
			"bones": {
				"body": {
					"rotation": {
						"0.0": [12.5, 0, 0],
						"0.25": [12.5, -5, 0],
						"0.5": [12.5, 0, 0],
						"0.75": [12.5, 5, 0],
						"1.0": [12.5, 0, 0]
					}
				},
				"head": {
					"rotation": [-12.5, 0, 0]
				},
				"leg_front_l": {
					"rotation": {
						"0.0": [0, 0, 0],
						"0.25": [-30, 0, 0],
						"0.5": [0, 0, 0],
						"0.75": [30, 0, 0],
						"1.0": [0, 0, 0]
					}
				},
				"leg_front_r": {
					"rotation": {
						"0.0": [0, 0, 0],
						"0.25": [30, 0, 0],
						"0.5": [0, 0, 0],
						"0.75": [-30, 0, 0],
						"1.0": [0, 0, 0]
					}
				},
				"leg_back_l": {
					"rotation": {
						"0.0": [0, 0, 0],
						"0.25": [30, 0, 0],
						"0.5": [0, 0, 0],
						"0.75": [-30, 0, 0],
						"1.0": [0, 0, 0]
					}
				},
				"leg_back_r": {
					"rotation": {
						"0.0": [0, 0, 0],
						"0.25": [-30, 0, 0],
						"0.5": [0, 0, 0],
						"0.75": [30, 0, 0],
						"1.0": [0, 0, 0]
					}
				}
			}
		},
		"animation.entity.nicothekid_myceling.walk_to_target": {
			"loop": true,
			"animation_length": 1.0,
			"bones": {
				"body": {
					"rotation": {
						"0.0": [12.5, 0, 0],
						"0.25": [12.5, -5, 0],
						"0.5": [12.5, 0, 0],
						"0.75": [12.5, 5, 0],
						"1.0": [12.5, 0, 0]
					}
				},
				"head": {
					"rotation": [-12.5, 0, 0]
				},
				"leg_front_l": {
					"rotation": {
						"0.0": [0, 0, 0],
						"0.25": [-30, 0, 0],
						"0.5": [0, 0, 0],
						"0.75": [30, 0, 0],
						"1.0": [0, 0, 0]
					}
				},
				"leg_front_r": {
					"rotation": {
						"0.0": [0, 0, 0],
						"0.25": [30, 0, 0],
						"0.5": [0, 0, 0],
						"0.75": [-30, 0, 0],
						"1.0": [0, 0, 0]
					}
				},
				"leg_back_l": {
					"rotation": {
						"0.0": [0, 0, 0],
						"0.25": [30, 0, 0],
						"0.5": [0, 0, 0],
						"0.75": [-30, 0, 0],
						"1.0": [0, 0, 0]
					}
				},
				"leg_back_r": {
					"rotation": {
						"0.0": [0, 0, 0],
						"0.25": [-30, 0, 0],
						"0.5": [0, 0, 0],
						"0.75": [30, 0, 0],
						"1.0": [0, 0, 0]
					}
				}
			}
		}
	}
}