{
  "splashes": [
    "Now with more structures!",
    "Half zombie & skeleton?!",
    "Simply beautiful!!",
    "Interesting fact, mummies listen to wrap music!",
    "Walk the plank!",
    "iKorbon was here!",
    "Doesn't use player.json!",
    "Where are the Nether structures?!",
    "Encourages exploration!",
    "Hero- who?!",
    "Watch for spikes!",
    "Fruits fruits fruits!",
    "Look at that cool logo!",
    "Try the Expansive Biomes add-on!",
    "Structures! Structures! .... Structures!"
  ]
}