{
	"format_version": "1.10.0",
	"particle_effect": {
		"description": {
			"identifier": "nicothekid:spore_iron_particle",
			"basic_render_parameters": {
				"material": "particles_alpha",
				"texture": "textures/particle/nicos_item_expansion/nicothekid_spore_iron_particle"
			}
		},
		"components": {
			"minecraft:emitter_rate_steady": {
				"spawn_rate": 2,
				"max_particles": 100
			},
			"minecraft:emitter_lifetime_once": {
				"active_time": 3
			},
			"minecraft:emitter_shape_point": {
				"offset": [0, "Math.random(0.1, 0.5)", 0],
				"direction": ["Math.random(-1.0, 1.0)", "Math.random(-0.5, 1.0)", "Math.random(-1.0, 1.0)"]
			},
			"minecraft:particle_lifetime_expression": {
				"max_lifetime": "Math.random(10, 20)"
			},
			"minecraft:particle_initial_speed": "Math.random(1.5, 2.5)",
			"minecraft:particle_motion_dynamic": {
				"linear_acceleration": [0, -0.005, 0]
			},
			"minecraft:particle_appearance_billboard": {
				"size": [0.1, 0.1],
				"facing_camera_mode": "lookat_xyz",
				"uv": {
					"texture_width": 8,
					"texture_height": 8,
					"uv": [0, 0],
					"uv_size": [8, 8]
				}
			}
		}
	}
}