{
  "format_version": "1.10.0",
  "minecraft:client_entity": {
    "description": {
      "identifier": "nicothekid:blazing_pearl",
      "materials": {
        "default": "fireball"
      },
      "textures": {
        "default": "textures/items/nicos_item_expansion/nicothekid_blazing_pearl"
      },
      "geometry": {
        "default": "geometry.item_sprite"
      },
      "render_controllers": [
        "controller.render.item_sprite"
      ],
      "animations": {
        "flying": "animation.actor.billboard"
      },
      "particle_effects": {
        "fire_particle": "nicothekid:fire_particle"
      },
      "scripts": {
        "animate": [
          "flying"
        ]
      }
    }
  }
} 