{
	"format_version": "1.10.0",
	"animation_controllers": {
	  "controller.animation.entity.nicothekid_mossy_skeleton.attack": {
			"initial_state": "default",
			"states": {
				"default": {
					"transitions": [
						{
							"attack": "query.has_target && !query.facing_target_to_range_attack"
						}
					]
				},
				"attack": {
					"animations": [ "attack" ],
					"transitions": [
						{
							"default": "!query.has_target || query.facing_target_to_range_attack"
						}
					]
				}
			}
		},
	  "controller.animation.entity.nicothekid_mossy_skeleton.attack_rotations": {
			"initial_state": "default",
			"states": {
			  "default": {
					"transitions": [
						{
							"attack_rotations": "variable.attack_time >= 0.0"
						}
					]
				},
				"attack_rotations": {
					"animations": [ "attack_rotations" ],
					"transitions": [
						{
							"default": "variable.attack_time < 0.0"
						}
					]
				}
			}
		},
	  "controller.animation.entity.nicothekid_mossy_skeleton.base_pose": {
			"initial_state": "default",
			"states": {
				"default": {
					"animations": [ "base_pose" ]
				}
			}
		},
		"controller.animation.entity.nicothekid_mossy_skeleton.bob": {
			"initial_state": "default",
			"states": {
				"default": {
					"animations": [ "bob" ]
				}
			}
		},
		"controller.animation.entity.nicothekid_mossy_skeleton.bow_and_arrow": {
			"initial_state": "default",
			"states": {
			  "default": {
					"transitions": [
						{
							"bow_and_arrow": "query.has_target"
						}
					]
				},
				"bow_and_arrow": {
					"animations": [ "bow_and_arrow" ],
					"transitions": [
						{
							"default": "!query.has_target"
						}
					]
				}
			}
		},
		"controller.animation.entity.nicothekid_mossy_skeleton.brandish_spear": {
			"initial_state": "default",
			"states": {
			  "default": {
					"transitions": [
						{
							"brandish_spear": "variable.is_brandishing_spear"
						}
					]
				},
				"brandish_spear": {
					"animations": [ "brandish_spear" ],
					"transitions": [
						{
							"default": "!variable.is_brandishing_spear"
						}
					]
				}
			}
		},
	  "controller.animation.entity.nicothekid_mossy_skeleton.charging": {
			"initial_state": "default",
			"states": {
			  "default": {
					"transitions": [
						{
							"charging": "query.is_charging"
						}
					]
				},
				"charging": {
					"animations": [ "charging" ],
					"transitions": [
						{
							"default": "!query.is_charging"
						}
					]
				}
			}
		},
		"controller.animation.entity.nicothekid_mossy_skeleton.damage_nearby_mobs": {
			"initial_state": "default",
			"states": {
			  "default": {
					"transitions": [
						{
							"damage_nearby_mobs": "variable.damage_nearby_mobs"
						}
					]
				},
				"damage_nearby_mobs": {
					"animations": [ "damage_nearby_mobs" ],
					"transitions": [
						{
							"default": "!variable.damage_nearby_mobs"
						}
					]
				}
			}
		},
		"controller.animation.entity.nicothekid_mossy_skeleton.holding": {
			"initial_state": "default",
			"states": {
				"default": {
					"animations": [ "holding" ]
				}
			}
		},
	  "controller.animation.entity.nicothekid_mossy_skeleton.look_at_target": {
			"initial_state": "default",
			"states": {
				"default": {
					"animations": [ "look_at_target_default" ],
					"transitions": [
						{
							"gliding": "query.is_gliding"
						},
						{
							"swimming": "query.is_swimming"
						}
					]
				},
				"gliding": {
					"animations": [ "look_at_target_gliding" ],
					"transitions": [
						{
							"swimming": "query.is_swimming"
						},
						{
							"default": "!query.is_gliding"
						}
					]
				},
				"swimming": {
					"animations": [ "look_at_target_swimming" ],
					"transitions": [
						{
							"gliding": "query.is_gliding"
						},
						{
							"default": "!query.is_swimming"
						}
					]
				}
			}
		},
	  "controller.animation.entity.nicothekid_mossy_skeleton.move": {
			"initial_state": "default",
			"states": {
				"default": {
					"animations": [ "move" ]
				}
			}
		},
	  "controller.animation.entity.nicothekid_mossy_skeleton.riding": {
			"initial_state": "default",
			"states": {
				"default": {
					"transitions": [
						{
							"riding": "query.is_riding"
						}
					]
				},
				"riding": {
					"animations": [
					  "riding_arms",
					  "riding_legs"
					],
					"transitions": [
						{
							"default": "!query.is_riding"
						}
					]
				}
			}
		},
		"controller.animation.entity.nicothekid_mossy_skeleton.sitting": {
			"initial_state": "default",
			"states": {
				"default": {
				  "blend_transition": 0.3,
					"transitions": [
						{
							"sitting": "query.is_sitting"
						}
					]
				},
				"sitting": {
					"animations": [ "sitting" ],
					"blend_transition": 0.3,
					"transitions": [
						{
							"default": "!query.is_sitting"
						}
					]
				}
			}
		},
		"controller.animation.entity.nicothekid_mossy_skeleton.sleeping": {
			"initial_state": "default",
			"states": {
				"default": {
				  "blend_transition": 0.3,
					"transitions": [
						{
							"sleeping": "query.is_sleeping"
						}
					]
				},
				"sleeping": {
					"animations": [ "sleeping" ],
					"blend_transition": 0.3,
					"transitions": [
						{
							"default": "!query.is_sleeping"
						}
					]
				}
			}
		},
		"controller.animation.entity.nicothekid_mossy_skeleton.sneaking": {
			"initial_state": "default",
			"states": {
				"default": {
					"transitions": [
						{
							"sneaking": "query.is_sneaking"
						}
					]
				},
				"sneaking": {
					"animations": [ "sneaking" ],
					"transitions": [
						{
							"default": "!query.is_sneaking"
						}
					]
				}
			}
		},
	  "controller.animation.entity.nicothekid_mossy_skeleton.swimming": {
			"initial_state": "default",
			"states": {
				"default": {
					"transitions": [
						{
							"swimming": "variable.swim_amount > 0.0"
						}
					]
				},
				"swimming": {
					"animations": [ "swimming" ],
					"transitions": [
						{
							"default": "variable.swim_amount <= 0.0"
						}
					]
				}
			}
		},
	  "controller.animation.entity.nicothekid_mossy_skeleton.use_item_progress": {
			"initial_state": "default",
			"states": {
				"default": {
					"transitions": [
						{
							"use_item_progress": "( variable.use_item_interval_progress > 0.0 ) || ( variable.use_item_startup_progress > 0.0 )"
						}
					]
				},
				"use_item_progress": {
					"animations": [ "use_item_progress" ],
					"transitions": [
						{
							"default": "( variable.use_item_interval_progress <= 0.0 ) && ( variable.use_item_startup_progress <= 0.0 )"
						}
					]
				}
			}
		}
	}
}
