fill ~~1~ ~~2~ light_block 15 replace air -1
fill ~~1~ ~~2~ light_block 15 replace water 0
execute @s ~~~ detect ~~~ water 9 fill ~1~1~ ~1~1~ light_block 15 replace air -1
execute @s ~~~ detect ~~~ water 9 fill ~-1~1~ ~-1~1~ light_block 15 replace air -1
 
fill ~2~1~1 ~-2~2~3 air 0 replace light_block 15
fill ~2~1~-1 ~-2~2~-3 air 0 replace light_block 15
fill ~2~1~ ~3~2~ air 0 replace light_block 15
fill ~-2~1~ ~-3~2~ air 0 replace light_block 15
fill ~2~~2 ~-2~-1~-2 air 0 replace light_block 15
fill ~2~3~2 ~-2~4~-2 air 0 replace light_block 15
 