summon yes:on_use_entity ~~~
fill ~~~ ~~~ farmland -1 replace grass
fill ~~~ ~~~ farmland -1 replace dirt
fill ~~~ ~~~ farmland -1 replace grass_path
fill ~~~ ~~~ farmland 1 replace dirt_with_roots
execute @e[c=1,type=yes:on_use_entity] ~~~ detect ~~~ farmland -1 playsound dig.grass @p ~~1~ 1 0.9