{
	"format_version": "1.17.40",
	"minecraft:block": {
		"description": {
			"identifier": "bb:minecoin_block",
			"register_to_creative_menu": true
		},
		"components": {
			"minecraft:unit_cube": {},
			"minecraft:material_instances": {
				"*": {
					"texture": "coin_block_side",
					"render_method": "opaque"
				},
				"top": {
					"texture": "coin_block_top",
					"render_method": "opaque"
				},
				"bottom": {
					"texture": "coin_block_bottom",
					"render_method": "opaque"
				},
				"up": "top",
				"down": "bottom"
			},
			"minecraft:creative_category": {
				"category": "construction",
				"group": "itemGroup.name.moneyBlocks"
			},
			"minecraft:destroy_time": 0.8
		}
	}
}