{
  "format_version": "1.12",
  "minecraft:recipe_shapeless": {
    "description": {
      "identifier": "combo_iii_diamond_nunchaku"
    },
    "tags": [
      "crafting_table"
    ],
    "ingredients": [
      {
        "item": "btr:diamond_nunchaku"
      },
      {
        "item": "btr:combo_iii_book"
      }
    ],
    "result": {
      "item": "btr:combo_iii_diamond_nunchaku"
    }
  }
}