{
	"format_version": "1.12.0",
	"minecraft:geometry": [
		{
			"description": {
				"identifier": "geometry.cogwheel15",
				"texture_width": 64,
				"texture_height": 64,
				"visible_bounds_width": 3,
				"visible_bounds_height": 2.5,
				"visible_bounds_offset": [0, 0.75, 0]
			},
			"bones": [
				{
					"name": "wheel",
					"pivot": [0, 8, 0],
					"rotation": [0, 0, 168.75],
					"cubes": [
						{"origin": [-5, 3, -1], "size": [10, 10, 2], "uv": [0, 20]},
						{"origin": [-1.5, 0.5, -1.5], "size": [3, 15, 3], "uv": [36, 20]},
						{"origin": [-7.5, 6.5, -1.5], "size": [15, 3, 3], "uv": [11, 24]},
						{"origin": [-4, 4, -2], "size": [8, 8, 4], "uv": [24, 0]}
					]
				},
				{
					"name": "bone2",
					"parent": "wheel",
					"pivot": [0, 8, 0],
					"rotation": [0, 0, -45],
					"cubes": [
						{"origin": [-7.5, 6.5, -1.5], "size": [15, 3, 3], "uv": [11, 24]}
					]
				},
				{
					"name": "bone3",
					"parent": "wheel",
					"pivot": [0, 8, 0],
					"rotation": [0, 0, -135],
					"cubes": [
						{"origin": [-7.5, 6.5, -1.5], "size": [15, 3, 3], "uv": [11, 24]}
					]
				},
				{
					"name": "bone",
					"parent": "wheel",
					"pivot": [0, 0, 0],
					"cubes": [
						{"origin": [-2, 6, -8], "size": [4, 4, 16], "uv": [0, 0]}
					]
				}
			]
		}
	]
}