{
	"format_version": "1.12.0",
	"minecraft:geometry": [
		{
			"description": {
				"identifier": "geometry.creative_motor",
				"texture_width": 128,
				"texture_height": 128,
				"visible_bounds_width": 3,
				"visible_bounds_height": 2.5,
				"visible_bounds_offset": [0, 0.75, 0]
			},
			"bones": [
				{
					"name": "bb_main",
					"pivot": [0, 0, 0],
					"cubes": [
						{"origin": [-5, 3, -6], "size": [10, 10, 12], "uv": [0, 0]},
						{"origin": [4, 2, -7], "size": [2, 2, 14], "uv": [44, 35]},
						{"origin": [-6, 2, -7], "size": [2, 2, 14], "uv": [44, 0]},
						{"origin": [4, 12, -7], "size": [2, 2, 14], "uv": [26, 33]},
						{"origin": [-6, 12, -7], "size": [2, 2, 14], "uv": [0, 42]},
						{"origin": [-7, 0, -4], "size": [14, 3, 8], "uv": [24, 22]}
					]
				},
				{
					"name": "wheel",
					"pivot": [0, 8, 0]
				},
				{
					"name": "bone",
					"parent": "wheel",
					"pivot": [0, 0, 0],
					"cubes": [
						{"origin": [-2, 6, -8], "size": [4, 4, 16], "uv": [0, 22]}
					]
				}
			]
		}
	]
}