{
	"format_version": "1.12.0",
	"minecraft:geometry": [
		{
			"description": {
				"identifier": "geometry.mechanical_saw",
				"texture_width": 64,
				"texture_height": 64,
				"visible_bounds_width": 3,
				"visible_bounds_height": 2.5,
				"visible_bounds_offset": [0, 0.75, 0]
			},
			"bones": [
				{
					"name": "bb_main",
					"pivot": [0, 0, 0],
					"cubes": [
						{"origin": [-8, 0, -5], "size": [16, 11, 10], "uv": [0, 0]},
						{"origin": [-8, 11, 0], "size": [16, 5, 0], "uv": [24, 21]}
					]
				},
				{
					"name": "bone2",
					"parent": "bb_main",
					"pivot": [0, 8, 0],
					"rotation": [0, 0, 90]
				},
				{
					"name": "bone3",
					"parent": "bb_main",
					"pivot": [0, 8, 0],
					"rotation": [0, 0, 135]
				},
				{
					"name": "bone4",
					"parent": "bb_main",
					"pivot": [0, 8, 0],
					"rotation": [0, 0, 45]
				},
				{
					"name": "wheel",
					"pivot": [0, 8, 0]
				},
				{
					"name": "bone",
					"parent": "wheel",
					"pivot": [0, 0, 0],
					"cubes": [
						{"origin": [-2, 6, -8], "size": [4, 4, 16], "uv": [0, 21]}
					]
				}
			]
		}
	]
}