{
	"format_version": "1.12.0",
	"minecraft:geometry": [
		{
			"description": {
				"identifier": "geometry.mechanical_crank",
				"texture_width": 128,
				"texture_height": 128,
				"visible_bounds_width": 3,
				"visible_bounds_height": 2.5,
				"visible_bounds_offset": [0, 0.75, 0]
			},
			"bones": [
				{
					"name": "bb_main",
					"pivot": [0, 0, 0],
					"cubes": [
						{"origin": [-4, 4, -6], "size": [8, 8, 12], "uv": [0, 20]},
						{"origin": [-1, 12, -1], "size": [2, 4, 2], "uv": [0, 7]},
						{"origin": [-1, 14, 1], "size": [2, 2, 5], "uv": [0, 0]},
						{"origin": [3, 3, -7], "size": [2, 2, 14], "uv": [44, 12]},
						{"origin": [-5, 3, -7], "size": [2, 2, 14], "uv": [18, 42]},
						{"origin": [3, 11, -7], "size": [2, 2, 14], "uv": [0, 40]},
						{"origin": [-5, 11, -7], "size": [2, 2, 14], "uv": [26, 26]},
						{"origin": [-6, 0, -4], "size": [12, 4, 8], "uv": [24, 0]}
					]
				},
				{
					"name": "wheel",
					"pivot": [0, 8, 0]
				},
				{
					"name": "bone",
					"parent": "wheel",
					"pivot": [0, 0, 0],
					"cubes": [
						{"origin": [-2, 6, -8], "size": [4, 4, 16], "uv": [0, 0]}
					]
				}
			]
		}
	]
}