{
  "format_version": "1.17.30",
  "minecraft:item": {
    "description": {
      "identifier": "btr:education_i_iron_sword",
      "category": "commands"
    },
    "components": {
      "minecraft:durability": {
        "max_durability": 250
      },
      "minecraft:repairable": {
        "repair_items": [
          {
            "repair_amount": 63,
            "items": [
              "minecraft:iron_ingot"
            ]
          },
          {
            "items": [
              "minecraft:iron_sword"
            ],
            "repair_amount": "query.max_durability"
          }
        ]
      },
      "minecraft:foil": true,
      "minecraft:display_name": {
        "value": "§bIron Sword\n§7Education I"
      },
      "minecraft:icon": {
        "texture": "iron_sword"
      },
      "minecraft:weapon": {
        "on_hurt_entity": {
          "event": "dmg"
        }
      },
      "minecraft:max_stack_size": 1,
      "minecraft:use_duration": 3600,
      "minecraft:hand_equipped": true,
      "minecraft:damageable": {
        "max_damage": 250
      },
      "minecraft:mining_speed": 1.5,
      "minecraft:damage": 6,
      "minecraft:enchantable": {
        "value": 14,
        "slot": "sword"
      },
      "minecraft:can_destroy_in_creative": false,
      "minecraft:digger": {
        "use_efficiency": false,
        "destroy_speeds": [
          {
            "block": "minecraft:web",
            "speed": 15,
            "on_dig": {
              "event": "rdc"
            }
          },
          {
            "block": "minecraft:bamboo",
            "speed": 100,
            "on_dig": {
              "event": "rdc"
            }
          }
        ],
        "on_dig": {
          "event": "rdc"
        }
      }
    },
    "events": {
      "dmg": {
        "damage": {
          "amount": 2,
          "type": "durability",
          "target": "self"
        },
        "run_command": {
          "command": [
            "function enchantment/education_i"
          ]
        }
      },
      "rdc": {
        "damage": {
          "amount": 1,
          "type": "durability",
          "target": "self"
        }
      }
    }
  }
}