{
  "format_version": "1.16.210",
  "minecraft:entity": {
    "description": {
      "identifier": "minecraft:armor_stand",
      "is_spawnable": false,
      "is_summonable": true,
      "is_experimental": false
    },
    "components": {
      "minecraft:type_family": {
        "family": [ "armor_stand", "inanimate", "mob" ]
      },
      "minecraft:collision_box": {
        "width": 0.5,
        "height": 1.975
      },
      "minecraft:health": {
        "value": 6,
        "max": 6
      },
      "minecraft:hurt_on_condition": {
        "damage_conditions": [
          {
            "filters": { "test": "in_lava", "subject": "self", "operator": "==", "value": true },
            "cause": "lava",
            "damage_per_tick": 4
          }
        ]
      },
      "minecraft:knockback_resistance": {
        "value": 1.0
      },
      "minecraft:loot": {
        "table": "loot_tables/entities/armor_stand.json"
      },
      "minecraft:nameable": {
      },
      "minecraft:persistent": {
      },
      "minecraft:physics": {
      },
      "minecraft:pushable": {
        "is_pushable": false,
        "is_pushable_by_piston": true
      },
      "minecraft:conditional_bandwidth_optimization": {
      },
      "minecraft:environment_sensor": {
        "triggers": [	 
          {
            "filters": {
              "any_of": [
                {
                  "test": "has_equipment",
                  "subject": "self",
                  "operator": "==",
                  "domain": "head",
                  "value": "yes:copper_helmet"
                },
                {
                  "test": "has_equipment",
                  "subject": "self",
                  "operator": "==",
                  "domain": "head",
                  "value": "yes:exposed_copper_helmet"
                },
                {
                  "test": "has_equipment",
                  "subject": "self",
                  "operator": "==",
                  "domain": "head",
                  "value": "yes:weathered_copper_helmet"
                },
                {
                  "test": "has_equipment",
                  "subject": "self",
                  "operator": "==",
                  "domain": "torso",
                  "value": "yes:copper_chestplate"
                },
                {
                  "test": "has_equipment",
                  "subject": "self",
                  "operator": "==",
                  "domain": "torso",
                  "value": "yes:exposed_copper_chestplate"
                },
                {
                  "test": "has_equipment",
                  "subject": "self",
                  "operator": "==",
                  "domain": "torso",
                  "value": "yes:weathered_copper_chestplate"
                },
                {
                  "test": "has_equipment",
                  "subject": "self",
                  "operator": "==",
                  "domain": "leg",
                  "value": "yes:copper_leggings"
                },
                {
                  "test": "has_equipment",
                  "subject": "self",
                  "operator": "==",
                  "domain": "leg",
                  "value": "yes:exposed_copper_leggings"
                },
                {
                  "test": "has_equipment",
                  "subject": "self",
                  "operator": "==",
                  "domain": "leg",
                  "value": "yes:weathered_copper_leggings"
                },
                {
                  "test": "has_equipment",
                  "subject": "self",
                  "operator": "==",
                  "domain": "feet",
                  "value": "yes:copper_boots"
                },
                {
                  "test": "has_equipment",
                  "subject": "self",
                  "operator": "==",
                  "domain": "feet",
                  "value": "yes:exposed_copper_boots"
                },
                {
                  "test": "has_equipment",
                  "subject": "self",
                  "operator": "==",
                  "domain": "feet",
                  "value": "yes:weathered_copper_boots"
                },
                {
                  "test": "has_equipment",
                  "subject": "self",
                  "operator": "==",
                  "domain": "hand",
                  "value": "yes:copper_sword"
                },
                {
                  "test": "has_equipment",
                  "subject": "self",
                  "operator": "==",
                  "domain": "hand",
                  "value": "yes:exposed_copper_sword"
                },
                {
                  "test": "has_equipment",
                  "subject": "self",
                  "operator": "==",
                  "domain": "hand",
                  "value": "yes:weathered_copper_sword"
                },
                {
                  "test": "has_equipment",
                  "subject": "self",
                  "operator": "==",
                  "domain": "hand",
                  "value": "yes:copper_pickaxe"
                },
                {
                  "test": "has_equipment",
                  "subject": "self",
                  "operator": "==",
                  "domain": "hand",
                  "value": "yes:exposed_copper_pickaxe"
                },
                {
                  "test": "has_equipment",
                  "subject": "self",
                  "operator": "==",
                  "domain": "hand",
                  "value": "yes:weathered_copper_pickaxe"
                },
                {
                  "test": "has_equipment",
                  "subject": "self",
                  "operator": "==",
                  "domain": "hand",
                  "value": "yes:copper_axe"
                },
                {
                  "test": "has_equipment",
                  "subject": "self",
                  "operator": "==",
                  "domain": "hand",
                  "value": "yes:exposed_copper_axe"
                },
                {
                  "test": "has_equipment",
                  "subject": "self",
                  "operator": "==",
                  "domain": "hand",
                  "value": "yes:weathered_copper_axe"
                },
                {
                  "test": "has_equipment",
                  "subject": "self",
                  "operator": "==",
                  "domain": "hand",
                  "value": "yes:copper_shovel"
                },
                {
                  "test": "has_equipment",
                  "subject": "self",
                  "operator": "==",
                  "domain": "hand",
                  "value": "yes:exposed_copper_shovel"
                },
                {
                  "test": "has_equipment",
                  "subject": "self",
                  "operator": "==",
                  "domain": "hand",
                  "value": "yes:weathered_copper_shovel"
                },
                {
                  "test": "has_equipment",
                  "subject": "self",
                  "operator": "==",
                  "domain": "hand",
                  "value": "yes:copper_hoe"
                },
                {
                  "test": "has_equipment",
                  "subject": "self",
                  "operator": "==",
                  "domain": "hand",
                  "value": "yes:exposed_copper_hoe"
                },
                {
                  "test": "has_equipment",
                  "subject": "self",
                  "operator": "==",
                  "domain": "hand",
                  "value": "yes:weathered_copper_hoe"
                },
                {
                  "test": "has_equipment",
                  "subject": "self",
                  "operator": "==",
                  "domain": "hand",
                  "value": "yes:copper_hammer"
                },
                {
                  "test": "has_equipment",
                  "subject": "self",
                  "operator": "==",
                  "domain": "hand",
                  "value": "yes:exposed_copper_hammer"
                },
                {
                  "test": "has_equipment",
                  "subject": "self",
                  "operator": "==",
                  "domain": "hand",
                  "value": "yes:weathered_copper_hammer"
                }
              ]
            },
            "event": "yes:copper_oxidation_event"
          },
			 
			 
			 
			 
			 
			 
			 
			 
			 
			 
			
          {
            "filters": {
              "all_of": [
                {
                  "test": "has_equipment",
                  "subject": "self",
                  "operator": "==",
                  "domain": "hand",
                  "value": "yes:copper_sword"
                },
                {
                  "test": "has_tag",
                  "subject": "self",
                  "operator": "==",
                  "value": "oxidation_event_tag"
                }
              ]
            },
            "event": "yes:copper_sword_event"
          },
          {
            "filters": {
              "all_of": [
                {
                  "test": "has_equipment",
                  "subject": "self",
                  "operator": "==",
                  "domain": "hand",
                  "value": "yes:copper_pickaxe"
                },
                {
                  "test": "has_tag",
                  "subject": "self",
                  "operator": "==",
                  "value": "oxidation_event_tag"
                }
              ]
            },
            "event": "yes:copper_pickaxe_event"
          },
          {
            "filters": {
              "all_of": [
                {
                  "test": "has_equipment",
                  "subject": "self",
                  "operator": "==",
                  "domain": "hand",
                  "value": "yes:copper_axe"
                },
                {
                  "test": "has_tag",
                  "subject": "self",
                  "operator": "==",
                  "value": "oxidation_event_tag"
                }
              ]
            },
            "event": "yes:copper_axe_event"
          },
          {
            "filters": {
              "all_of": [
                {
                  "test": "has_equipment",
                  "subject": "self",
                  "operator": "==",
                  "domain": "hand",
                  "value": "yes:copper_shovel"
                },
                {
                  "test": "has_tag",
                  "subject": "self",
                  "operator": "==",
                  "value": "oxidation_event_tag"
                }
              ]
            },
            "event": "yes:copper_shovel_event"
          },
          {
            "filters": {
              "all_of": [
                {
                  "test": "has_equipment",
                  "subject": "self",
                  "operator": "==",
                  "domain": "hand",
                  "value": "yes:copper_hoe"
                },
                {
                  "test": "has_tag",
                  "subject": "self",
                  "operator": "==",
                  "value": "oxidation_event_tag"
                }
              ]
            },
            "event": "yes:copper_hoe_event"
          },
          {
            "filters": {
              "all_of": [
                {
                  "test": "has_equipment",
                  "subject": "self",
                  "operator": "==",
                  "domain": "hand",
                  "value": "yes:copper_hammer"
                },
                {
                  "test": "has_tag",
                  "subject": "self",
                  "operator": "==",
                  "value": "oxidation_event_tag"
                }
              ]
            },
            "event": "yes:copper_hammer_event"
          },
			 
			 
			 
			 
			 
          {
            "filters": {
              "all_of": [
                {
                  "test": "has_equipment",
                  "subject": "self",
                  "operator": "==",
                  "domain": "feet",
                  "value": "yes:copper_boots"
                },
                {
                  "test": "has_tag",
                  "subject": "self",
                  "operator": "==",
                  "value": "oxidation_event_tag"
                }
              ]
            },
            "event": "yes:copper_boots_event"
          },
          {
            "filters": {
              "all_of": [
                {
                  "test": "has_equipment",
                  "subject": "self",
                  "operator": "==",
                  "domain": "head",
                  "value": "yes:copper_helmet"
                },
                {
                  "test": "has_tag",
                  "subject": "self",
                  "operator": "==",
                  "value": "oxidation_event_tag"
                }
              ]
            },
            "event": "yes:copper_helmet_event"
          },
          {
            "filters": {
              "all_of": [
                {
                  "test": "has_equipment",
                  "subject": "self",
                  "operator": "==",
                  "domain": "leg",
                  "value": "yes:copper_leggings"
                },
                {
                  "test": "has_tag",
                  "subject": "self",
                  "operator": "==",
                  "value": "oxidation_event_tag"
                }
              ]
            },
            "event": "yes:copper_leggings_event"
          },
          {
            "filters": {
              "all_of": [
                {
                  "test": "has_equipment",
                  "subject": "self",
                  "operator": "==",
                  "domain": "torso",
                  "value": "yes:copper_chestplate"
                },
                {
                  "test": "has_tag",
                  "subject": "self",
                  "operator": "==",
                  "value": "oxidation_event_tag"
                }
              ]
            },
            "event": "yes:copper_chestplate_event"
          },





          {
            "filters": {
              "all_of": [
                {
                  "test": "has_equipment",
                  "subject": "self",
                  "operator": "==",
                  "domain": "hand",
                  "value": "yes:exposed_copper_sword"
                },
                {
                  "test": "has_tag",
                  "subject": "self",
                  "operator": "==",
                  "value": "oxidation_event_tag"
                }
              ]
            },
            "event": "yes:exposed_copper_sword_event"
          },
          {
            "filters": {
              "all_of": [
                {
                  "test": "has_equipment",
                  "subject": "self",
                  "operator": "==",
                  "domain": "hand",
                  "value": "yes:exposed_copper_pickaxe"
                },
                {
                  "test": "has_tag",
                  "subject": "self",
                  "operator": "==",
                  "value": "oxidation_event_tag"
                }
              ]
            },
            "event": "yes:exposed_copper_pickaxe_event"
          },
          {
            "filters": {
              "all_of": [
                {
                  "test": "has_equipment",
                  "subject": "self",
                  "operator": "==",
                  "domain": "hand",
                  "value": "yes:exposed_copper_axe"
                },
                {
                  "test": "has_tag",
                  "subject": "self",
                  "operator": "==",
                  "value": "oxidation_event_tag"
                }
              ]
            },
            "event": "yes:exposed_copper_axe_event"
          },
          {
            "filters": {
              "all_of": [
                {
                  "test": "has_equipment",
                  "subject": "self",
                  "operator": "==",
                  "domain": "hand",
                  "value": "yes:exposed_copper_shovel"
                },
                {
                  "test": "has_tag",
                  "subject": "self",
                  "operator": "==",
                  "value": "oxidation_event_tag"
                }
              ]
            },
            "event": "yes:exposed_copper_shovel_event"
          },
          {
            "filters": {
              "all_of": [
                {
                  "test": "has_equipment",
                  "subject": "self",
                  "operator": "==",
                  "domain": "hand",
                  "value": "yes:exposed_copper_hoe"
                },
                {
                  "test": "has_tag",
                  "subject": "self",
                  "operator": "==",
                  "value": "oxidation_event_tag"
                }
              ]
            },
            "event": "yes:exposed_copper_hoe_event"
          },
          {
            "filters": {
              "all_of": [
                {
                  "test": "has_equipment",
                  "subject": "self",
                  "operator": "==",
                  "domain": "hand",
                  "value": "yes:exposed_copper_hammer"
                },
                {
                  "test": "has_tag",
                  "subject": "self",
                  "operator": "==",
                  "value": "oxidation_event_tag"
                }
              ]
            },
            "event": "yes:exposed_copper_hammer_event"
          },





          {
            "filters": {
              "all_of": [
                {
                  "test": "has_equipment",
                  "subject": "self",
                  "operator": "==",
                  "domain": "feet",
                  "value": "yes:exposed_copper_boots"
                },
                {
                  "test": "has_tag",
                  "subject": "self",
                  "operator": "==",
                  "value": "oxidation_event_tag"
                }
              ]
            },
            "event": "yes:exposed_copper_boots_event"
          },
          {
            "filters": {
              "all_of": [
                {
                  "test": "has_equipment",
                  "subject": "self",
                  "operator": "==",
                  "domain": "head",
                  "value": "yes:exposed_copper_helmet"
                },
                {
                  "test": "has_tag",
                  "subject": "self",
                  "operator": "==",
                  "value": "oxidation_event_tag"
                }
              ]
            },
            "event": "yes:exposed_copper_helmet_event"
          },
          {
            "filters": {
              "all_of": [
                {
                  "test": "has_equipment",
                  "subject": "self",
                  "operator": "==",
                  "domain": "leg",
                  "value": "yes:exposed_copper_leggings"
                },
                {
                  "test": "has_tag",
                  "subject": "self",
                  "operator": "==",
                  "value": "oxidation_event_tag"
                }
              ]
            },
            "event": "yes:exposed_copper_leggings_event"
          },
          {
            "filters": {
              "all_of": [
                {
                  "test": "has_equipment",
                  "subject": "self",
                  "operator": "==",
                  "domain": "torso",
                  "value": "yes:exposed_copper_chestplate"
                },
                {
                  "test": "has_tag",
                  "subject": "self",
                  "operator": "==",
                  "value": "oxidation_event_tag"
                }
              ]
            },
            "event": "yes:exposed_copper_chestplate_event"
          },





          {
            "filters": {
              "all_of": [
                {
                  "test": "has_equipment",
                  "subject": "self",
                  "operator": "==",
                  "domain": "hand",
                  "value": "yes:weathered_copper_sword"
                },
                {
                  "test": "has_tag",
                  "subject": "self",
                  "operator": "==",
                  "value": "oxidation_event_tag"
                }
              ]
            },
            "event": "yes:weathered_copper_sword_event"
          },
          {
            "filters": {
              "all_of": [
                {
                  "test": "has_equipment",
                  "subject": "self",
                  "operator": "==",
                  "domain": "hand",
                  "value": "yes:weathered_copper_pickaxe"
                },
                {
                  "test": "has_tag",
                  "subject": "self",
                  "operator": "==",
                  "value": "oxidation_event_tag"
                }
              ]
            },
            "event": "yes:weathered_copper_pickaxe_event"
          },
          {
            "filters": {
              "all_of": [
                {
                  "test": "has_equipment",
                  "subject": "self",
                  "operator": "==",
                  "domain": "hand",
                  "value": "yes:weathered_copper_axe"
                },
                {
                  "test": "has_tag",
                  "subject": "self",
                  "operator": "==",
                  "value": "oxidation_event_tag"
                }
              ]
            },
            "event": "yes:weathered_copper_axe_event"
          },
          {
            "filters": {
              "all_of": [
                {
                  "test": "has_equipment",
                  "subject": "self",
                  "operator": "==",
                  "domain": "hand",
                  "value": "yes:weathered_copper_shovel"
                },
                {
                  "test": "has_tag",
                  "subject": "self",
                  "operator": "==",
                  "value": "oxidation_event_tag"
                }
              ]
            },
            "event": "yes:weathered_copper_shovel_event"
          },
          {
            "filters": {
              "all_of": [
                {
                  "test": "has_equipment",
                  "subject": "self",
                  "operator": "==",
                  "domain": "hand",
                  "value": "yes:weathered_copper_hoe"
                },
                {
                  "test": "has_tag",
                  "subject": "self",
                  "operator": "==",
                  "value": "oxidation_event_tag"
                }
              ]
            },
            "event": "yes:weathered_copper_hoe_event"
          },
          {
            "filters": {
              "all_of": [
                {
                  "test": "has_equipment",
                  "subject": "self",
                  "operator": "==",
                  "domain": "hand",
                  "value": "yes:weathered_copper_hammer"
                },
                {
                  "test": "has_tag",
                  "subject": "self",
                  "operator": "==",
                  "value": "oxidation_event_tag"
                }
              ]
            },
            "event": "yes:weathered_copper_hammer_event"
          },





          {
            "filters": {
              "all_of": [
                {
                  "test": "has_equipment",
                  "subject": "self",
                  "operator": "==",
                  "domain": "feet",
                  "value": "yes:weathered_copper_boots"
                },
                {
                  "test": "has_tag",
                  "subject": "self",
                  "operator": "==",
                  "value": "oxidation_event_tag"
                }
              ]
            },
            "event": "yes:weathered_copper_boots_event"
          },
          {
            "filters": {
              "all_of": [
                {
                  "test": "has_equipment",
                  "subject": "self",
                  "operator": "==",
                  "domain": "head",
                  "value": "yes:weathered_copper_helmet"
                },
                {
                  "test": "has_tag",
                  "subject": "self",
                  "operator": "==",
                  "value": "oxidation_event_tag"
                }
              ]
            },
            "event": "yes:weathered_copper_helmet_event"
          },
          {
            "filters": {
              "all_of": [
                {
                  "test": "has_equipment",
                  "subject": "self",
                  "operator": "==",
                  "domain": "leg",
                  "value": "yes:weathered_copper_leggings"
                },
                {
                  "test": "has_tag",
                  "subject": "self",
                  "operator": "==",
                  "value": "oxidation_event_tag"
                }
              ]
            },
            "event": "yes:weathered_copper_leggings_event"
          }, 
          {
            "filters": {
              "all_of": [
                {
                  "test": "has_equipment",
                  "subject": "self",
                  "operator": "==",
                  "domain": "torso",
                  "value": "yes:weathered_copper_chestplate"
                },
                {
                  "test": "has_tag",
                  "subject": "self",
                  "operator": "==",
                  "value": "oxidation_event_tag"
                }
              ]
            },
            "event": "yes:weathered_copper_chestplate_event"
          }
        ]
      }
    },
    "events": {
      "yes:copper_oxidation_event": {
				  "run_command": {
   				 "command": [
						 "scoreboard objectives add oxidationcounter dummy",
						 "scoreboard objectives add oxidationevent dummy",
						 "scoreboard objectives add oxidationrandom dummy",
						 "tag @s[scores={oxidationcounter=!1200..}] add oxidation_checked",
						 
						 "scoreboard players add @s oxidationcounter 1",
						 "scoreboard players add @s[scores={oxidationcounter=1200..}] oxidationevent 1",
						 "tag @s[scores={oxidationevent=0..39,oxidationcounter=1200..}] remove oxidation_checked",
						 "execute @s[scores={oxidationevent=5..39},tag=!oxidation_checked] ~~~ scoreboard players random @s oxidationrandom 5 35",
						 "tag @s[scores={oxidationrandom=20}] add oxidation_event_tag",
						 "tag @s[scores={oxidationevent=40..90000}] add oxidation_event_tag",
						 
						 "scoreboard players set @e[type=armor_stand,tag=!oxidation_checked] oxidationcounter 0"
  						  ]
 					 }
				},
     "yes:copper_helmet_event": {
				  "run_command": {
   				 "command": [
						 "replaceitem entity @s[scores={oxidationevent=40..}] slot.armor.head 0 yes:exposed_copper_helmet",
						 "replaceitem entity @s[scores={oxidationrandom=20}] slot.armor.head 0 yes:exposed_copper_helmet",
						 "scoreboard players set @s[tag=oxidation_event_tag] oxidationevent 0",
						 "execute @s[scores={oxidationrandom=20}] ~~~ scoreboard players set @s oxidationrandom 0",
						 "tag @s[tag=oxidation_event_tag] remove oxidation_event_tag"
  						  ]
 					 }
	  },
     "yes:exposed_copper_helmet_event": {
				  "run_command": {
   				 "command": [
						 "replaceitem entity @s[scores={oxidationevent=40..}] slot.armor.head 0 yes:weathered_copper_helmet",
						 "replaceitem entity @s[scores={oxidationrandom=20}] slot.armor.head 0 yes:weathered_copper_helmet",
						 "scoreboard players set @s[tag=oxidation_event_tag] oxidationevent 0",
						 "execute @s[scores={oxidationrandom=20}] ~~~ scoreboard players set @s oxidationrandom 0",
						 "tag @s[tag=oxidation_event_tag] remove oxidation_event_tag"
  						  ]
 					 }
	  },
     "yes:weathered_copper_helmet_event": {
				  "run_command": {
   				 "command": [
						 "replaceitem entity @s[scores={oxidationevent=40..}] slot.armor.head 0 yes:oxidized_copper_helmet",
						 "replaceitem entity @s[scores={oxidationrandom=20}] slot.armor.head 0 yes:oxidized_copper_helmet",
						 "scoreboard players set @s[tag=oxidation_event_tag] oxidationevent 0",
						 "execute @s[scores={oxidationrandom=20}] ~~~ scoreboard players set @s oxidationrandom 0",
						 "tag @s[tag=oxidation_event_tag] remove oxidation_event_tag"
  						  ]
 					 }
	  },
     "yes:copper_chestplate_event": {
				  "run_command": {
   				 "command": [
						 "replaceitem entity @s[scores={oxidationevent=40..}] slot.armor.chest 0 yes:exposed_copper_chestplate",
						 "replaceitem entity @s[scores={oxidationrandom=20}] slot.armor.chest 0 yes:exposed_copper_chestplate",
						 "scoreboard players set @s[tag=oxidation_event_tag] oxidationevent 0",
						 "execute @s[scores={oxidationrandom=20}] ~~~ scoreboard players set @s oxidationrandom 0",
						 "tag @s[tag=oxidation_event_tag] remove oxidation_event_tag"
  						  ]
 					 }
	  },
     "yes:exposed_copper_chestplate_event": {
				  "run_command": {
   				 "command": [
						 "replaceitem entity @s[scores={oxidationevent=40..}] slot.armor.chest 0 yes:weathered_copper_chestplate",
						 "replaceitem entity @s[scores={oxidationrandom=20}] slot.armor.chest 0 yes:weathered_copper_chestplate",
						 "scoreboard players set @s[tag=oxidation_event_tag] oxidationevent 0",
						 "execute @s[scores={oxidationrandom=20}] ~~~ scoreboard players set @s oxidationrandom 0",
						 "tag @s[tag=oxidation_event_tag] remove oxidation_event_tag"
  						  ]
 					 }
	  },
     "yes:weathered_copper_chestplate_event": {
				  "run_command": {
   				 "command": [
						 "replaceitem entity @s[scores={oxidationevent=40..}] slot.armor.chest 0 yes:oxidized_copper_chestplate",
						 "replaceitem entity @s[scores={oxidationrandom=20}] slot.armor.chest 0 yes:oxidized_copper_chestplate",
						 "scoreboard players set @s[tag=oxidation_event_tag] oxidationevent 0",
						 "execute @s[scores={oxidationrandom=20}] ~~~ scoreboard players set @s oxidationrandom 0",
						 "tag @s[tag=oxidation_event_tag] remove oxidation_event_tag"
  						  ]
 					 }
	  },
     "yes:copper_leggings_event": {
				  "run_command": {
   				 "command": [
						 "replaceitem entity @s[scores={oxidationevent=40..}] slot.armor.legs 0 yes:exposed_copper_leggings",
						 "replaceitem entity @s[scores={oxidationrandom=20}] slot.armor.legs 0 yes:exposed_copper_leggings",
						 "scoreboard players set @s[tag=oxidation_event_tag] oxidationevent 0",
						 "execute @s[scores={oxidationrandom=20}] ~~~ scoreboard players set @s oxidationrandom 0",
						 "tag @s[tag=oxidation_event_tag] remove oxidation_event_tag"
  						  ]
 					 }
	  },
     "yes:exposed_copper_leggings_event": {
				  "run_command": {
   				 "command": [
						 "replaceitem entity @s[scores={oxidationevent=40..}] slot.armor.legs 0 yes:weathered_copper_leggings",
						 "replaceitem entity @s[scores={oxidationrandom=20}] slot.armor.legs 0 yes:weathered_copper_leggings",
						 "scoreboard players set @s[tag=oxidation_event_tag] oxidationevent 0",
						 "execute @s[scores={oxidationrandom=20}] ~~~ scoreboard players set @s oxidationrandom 0",
						 "tag @s[tag=oxidation_event_tag] remove oxidation_event_tag"
  						  ]
 					 }
	  },
     "yes:weathered_copper_leggings_event": {
				  "run_command": {
   				 "command": [
						 "replaceitem entity @s[scores={oxidationevent=40..}] slot.armor.legs 0 yes:oxidized_copper_leggings",
						 "replaceitem entity @s[scores={oxidationrandom=20}] slot.armor.legs 0 yes:oxidized_copper_leggings",
						 "scoreboard players set @s[tag=oxidation_event_tag] oxidationevent 0",
						 "execute @s[scores={oxidationrandom=20}] ~~~ scoreboard players set @s oxidationrandom 0",
						 "tag @s[tag=oxidation_event_tag] remove oxidation_event_tag"
  						  ]
 					 }
	  },
     "yes:copper_boots_event": {
				  "run_command": {
   				 "command": [
						 "replaceitem entity @s[scores={oxidationevent=40..}] slot.armor.feet 0 yes:exposed_copper_boots",
						 "replaceitem entity @s[scores={oxidationrandom=20}] slot.armor.feet 0 yes:exposed_copper_boots",
						 "scoreboard players set @s[tag=oxidation_event_tag] oxidationevent 0",
						 "execute @s[scores={oxidationrandom=20}] ~~~ scoreboard players set @s oxidationrandom 0",
						 "tag @s[tag=oxidation_event_tag] remove oxidation_event_tag"
  						  ]
 					 }
	  },
     "yes:exposed_copper_boots_event": {
				  "run_command": {
   				 "command": [
						 "replaceitem entity @s[scores={oxidationevent=40..}] slot.armor.feet 0 yes:weathered_copper_boots",
						 "replaceitem entity @s[scores={oxidationrandom=20}] slot.armor.feet 0 yes:weathered_copper_boots",
						 "scoreboard players set @s[tag=oxidation_event_tag] oxidationevent 0",
						 "execute @s[scores={oxidationrandom=20}] ~~~ scoreboard players set @s oxidationrandom 0",
						 "tag @s[tag=oxidation_event_tag] remove oxidation_event_tag"
  						  ]
 					 }
	  },
     "yes:weathered_copper_boots_event": {
				  "run_command": {
   				 "command": [
						 "replaceitem entity @s[scores={oxidationevent=40..}] slot.armor.feet 0 yes:oxidized_copper_boots",
						 "replaceitem entity @s[scores={oxidationrandom=20}] slot.armor.feet 0 yes:oxidized_copper_boots",
						 "scoreboard players set @s[tag=oxidation_event_tag] oxidationevent 0",
						 "execute @s[scores={oxidationrandom=20}] ~~~ scoreboard players set @s oxidationrandom 0",
						 "tag @s[tag=oxidation_event_tag] remove oxidation_event_tag"
  						  ]
 					 }
     },
     "yes:copper_sword_event": {
				  "run_command": {
   				 "command": [
						 "replaceitem entity @s[scores={oxidationevent=40..}] slot.weapon.mainhand 0 yes:exposed_copper_sword",
						 "replaceitem entity @s[scores={oxidationrandom=20}] slot.weapon.mainhand 0 yes:exposed_copper_sword",
						 "scoreboard players set @s[tag=oxidation_event_tag] oxidationevent 0",
						 "execute @s[scores={oxidationrandom=20}] ~~~ scoreboard players set @s oxidationrandom 0",
						 "tag @s[tag=oxidation_event_tag] remove oxidation_event_tag"
  						  ]
 					 }
	  },
     "yes:copper_pickaxe_event": {
				  "run_command": {
   				 "command": [
						 "replaceitem entity @s[scores={oxidationevent=40..}] slot.weapon.mainhand 0 yes:exposed_copper_pickaxe",
						 "replaceitem entity @s[scores={oxidationrandom=20}] slot.weapon.mainhand 0 yes:exposed_copper_pickaxe",
						 "scoreboard players set @s[tag=oxidation_event_tag] oxidationevent 0",
						 "execute @s[scores={oxidationrandom=20}] ~~~ scoreboard players set @s oxidationrandom 0",
						 "tag @s[tag=oxidation_event_tag] remove oxidation_event_tag"
  						  ]
 					 }
	  },
     "yes:copper_axe_event": {
				  "run_command": {
   				 "command": [
						 "replaceitem entity @s[scores={oxidationevent=40..}] slot.weapon.mainhand 0 yes:exposed_copper_axe",
						 "replaceitem entity @s[scores={oxidationrandom=20}] slot.weapon.mainhand 0 yes:exposed_copper_axe",
						 "scoreboard players set @s[tag=oxidation_event_tag] oxidationevent 0",
						 "execute @s[scores={oxidationrandom=20}] ~~~ scoreboard players set @s oxidationrandom 0",
						 "tag @s[tag=oxidation_event_tag] remove oxidation_event_tag"
  						  ]
 					 }
	  },
     "yes:copper_shovel_event": {
				  "run_command": {
   				 "command": [
						 "replaceitem entity @s[scores={oxidationevent=40..}] slot.weapon.mainhand 0 yes:exposed_copper_shovel",
						 "replaceitem entity @s[scores={oxidationrandom=20}] slot.weapon.mainhand 0 yes:exposed_copper_shovel",
						 "scoreboard players set @s[tag=oxidation_event_tag] oxidationevent 0",
						 "execute @s[scores={oxidationrandom=20}] ~~~ scoreboard players set @s oxidationrandom 0",
						 "tag @s[tag=oxidation_event_tag] remove oxidation_event_tag"
  						  ]
 					 }
	  },
     "yes:copper_hoe_event": {
				  "run_command": {
   				 "command": [
						 "replaceitem entity @s[scores={oxidationevent=40..}] slot.weapon.mainhand 0 yes:exposed_copper_hoe",
						 "replaceitem entity @s[scores={oxidationrandom=20}] slot.weapon.mainhand 0 yes:exposed_copper_hoe",
						 "scoreboard players set @s[tag=oxidation_event_tag] oxidationevent 0",
						 "execute @s[scores={oxidationrandom=20}] ~~~ scoreboard players set @s oxidationrandom 0",
						 "tag @s[tag=oxidation_event_tag] remove oxidation_event_tag"
  						  ]
 					 }
	  },
     "yes:copper_hammer_event": {
				  "run_command": {
   				 "command": [
						 "replaceitem entity @s[scores={oxidationevent=40..}] slot.weapon.mainhand 0 yes:exposed_copper_hammer",
						 "replaceitem entity @s[scores={oxidationrandom=20}] slot.weapon.mainhand 0 yes:exposed_copper_hammer",
						 "scoreboard players set @s[tag=oxidation_event_tag] oxidationevent 0",
						 "execute @s[scores={oxidationrandom=20}] ~~~ scoreboard players set @s oxidationrandom 0",
						 "tag @s[tag=oxidation_event_tag] remove oxidation_event_tag"
  						  ]
 					 }
	  },
     "yes:exposed_copper_sword_event": {
				  "run_command": {
   				 "command": [
						 "replaceitem entity @s[scores={oxidationevent=40..}] slot.weapon.mainhand 0 yes:weathered_copper_sword",
						 "replaceitem entity @s[scores={oxidationrandom=20}] slot.weapon.mainhand 0 yes:weathered_copper_sword",
						 "scoreboard players set @s[tag=oxidation_event_tag] oxidationevent 0",
						 "execute @s[scores={oxidationrandom=20}] ~~~ scoreboard players set @s oxidationrandom 0",
						 "tag @s[tag=oxidation_event_tag] remove oxidation_event_tag"
  						  ]
 					 }
	  },
     "yes:exposed_copper_pickaxe_event": {
				  "run_command": {
   				 "command": [
						 "replaceitem entity @s[scores={oxidationevent=40..}] slot.weapon.mainhand 0 yes:weathered_copper_pickaxe",
						 "replaceitem entity @s[scores={oxidationrandom=20}] slot.weapon.mainhand 0 yes:weathered_copper_pickaxe",
						 "scoreboard players set @s[tag=oxidation_event_tag] oxidationevent 0",
						 "execute @s[scores={oxidationrandom=20}] ~~~ scoreboard players set @s oxidationrandom 0",
						 "tag @s[tag=oxidation_event_tag] remove oxidation_event_tag"
  						  ]
 					 }
	  },
     "yes:exposed_copper_axe_event": {
				  "run_command": {
   				 "command": [
						 "replaceitem entity @s[scores={oxidationevent=40..}] slot.weapon.mainhand 0 yes:weathered_copper_axe",
						 "replaceitem entity @s[scores={oxidationrandom=20}] slot.weapon.mainhand 0 yes:weathered_copper_axe",
						 "scoreboard players set @s[tag=oxidation_event_tag] oxidationevent 0",
						 "execute @s[scores={oxidationrandom=20}] ~~~ scoreboard players set @s oxidationrandom 0",
						 "tag @s[tag=oxidation_event_tag] remove oxidation_event_tag"
  						  ]
 					 }
	  },
     "yes:exposed_copper_shovel_event": {
				  "run_command": {
   				 "command": [
						 "replaceitem entity @s[scores={oxidationevent=40..}] slot.weapon.mainhand 0 yes:weathered_copper_shovel",
						 "replaceitem entity @s[scores={oxidationrandom=20}] slot.weapon.mainhand 0 yes:weathered_copper_shovel",
						 "scoreboard players set @s[tag=oxidation_event_tag] oxidationevent 0",
						 "execute @s[scores={oxidationrandom=20}] ~~~ scoreboard players set @s oxidationrandom 0",
						 "tag @s[tag=oxidation_event_tag] remove oxidation_event_tag"
  						  ]
 					 }
	  },
     "yes:exposed_copper_hoe_event": {
				  "run_command": {
   				 "command": [
						 "replaceitem entity @s[scores={oxidationevent=40..}] slot.weapon.mainhand 0 yes:weathered_copper_hoe",
						 "replaceitem entity @s[scores={oxidationrandom=20}] slot.weapon.mainhand 0 yes:weathered_copper_hoe",
						 "scoreboard players set @s[tag=oxidation_event_tag] oxidationevent 0",
						 "execute @s[scores={oxidationrandom=20}] ~~~ scoreboard players set @s oxidationrandom 0",
						 "tag @s[tag=oxidation_event_tag] remove oxidation_event_tag"
  						  ]
 					 }
	  },
     "yes:exposed_copper_hammer_event": {
				  "run_command": {
   				 "command": [
						 "replaceitem entity @s[scores={oxidationevent=40..}] slot.weapon.mainhand 0 yes:weathered_copper_hammer",
						 "replaceitem entity @s[scores={oxidationrandom=20}] slot.weapon.mainhand 0 yes:weathered_copper_hammer",
						 "scoreboard players set @s[tag=oxidation_event_tag] oxidationevent 0",
						 "execute @s[scores={oxidationrandom=20}] ~~~ scoreboard players set @s oxidationrandom 0",
						 "tag @s[tag=oxidation_event_tag] remove oxidation_event_tag"
  						  ]
 					 }
	  },	 
     "yes:weathered_copper_sword_event": {
				  "run_command": {
   				 "command": [
						 "replaceitem entity @s[scores={oxidationevent=40..}] slot.weapon.mainhand 0 yes:oxidized_copper_sword",
						 "replaceitem entity @s[scores={oxidationrandom=20}] slot.weapon.mainhand 0 yes:oxidized_copper_sword",
						 "scoreboard players set @s[tag=oxidation_event_tag] oxidationevent 0",
						 "execute @s[scores={oxidationrandom=20}] ~~~ scoreboard players set @s oxidationrandom 0",
						 "tag @s[tag=oxidation_event_tag] remove oxidation_event_tag"
  						  ]
 					 }
	  },
     "yes:weathered_copper_pickaxe_event": {
				  "run_command": {
   				 "command": [
						 "replaceitem entity @s[scores={oxidationevent=40..}] slot.weapon.mainhand 0 yes:oxidized_copper_pickaxe",
						 "replaceitem entity @s[scores={oxidationrandom=20}] slot.weapon.mainhand 0 yes:oxidized_copper_pickaxe",
						 "scoreboard players set @s[tag=oxidation_event_tag] oxidationevent 0",
						 "execute @s[scores={oxidationrandom=20}] ~~~ scoreboard players set @s oxidationrandom 0",
						 "tag @s[tag=oxidation_event_tag] remove oxidation_event_tag"
  						  ]
 					 }
	  },
     "yes:weathered_copper_axe_event": {
				  "run_command": {
   				 "command": [
						 "replaceitem entity @s[scores={oxidationevent=40..}] slot.weapon.mainhand 0 yes:oxidized_copper_axe",
						 "replaceitem entity @s[scores={oxidationrandom=20}] slot.weapon.mainhand 0 yes:oxidized_copper_axe",
						 "scoreboard players set @s[tag=oxidation_event_tag] oxidationevent 0",
						 "execute @s[scores={oxidationrandom=20}] ~~~ scoreboard players set @s oxidationrandom 0",
						 "tag @s[tag=oxidation_event_tag] remove oxidation_event_tag"
  						  ]
 					 }
	  },
     "yes:weathered_copper_shovel_event": {
				  "run_command": {
   				 "command": [
						 "replaceitem entity @s[scores={oxidationevent=40..}] slot.weapon.mainhand 0 yes:oxidized_copper_shovel",
						 "replaceitem entity @s[scores={oxidationrandom=20}] slot.weapon.mainhand 0 yes:oxidized_copper_shovel",
						 "scoreboard players set @s[tag=oxidation_event_tag] oxidationevent 0",
						 "execute @s[scores={oxidationrandom=20}] ~~~ scoreboard players set @s oxidationrandom 0",
						 "tag @s[tag=oxidation_event_tag] remove oxidation_event_tag"
  						  ]
 					 }
	  },
     "yes:weathered_copper_hoe_event": {
				  "run_command": {
   				 "command": [
						 "replaceitem entity @s[scores={oxidationevent=40..}] slot.weapon.mainhand 0 yes:oxidized_copper_hoe",
						 "replaceitem entity @s[scores={oxidationrandom=20}] slot.weapon.mainhand 0 yes:oxidized_copper_hoe",
						 "scoreboard players set @s[tag=oxidation_event_tag] oxidationevent 0",
						 "execute @s[scores={oxidationrandom=20}] ~~~ scoreboard players set @s oxidationrandom 0",
						 "tag @s[tag=oxidation_event_tag] remove oxidation_event_tag"
  						  ]
 					 }
	  },
     "yes:weathered_copper_hammer_event": {
				  "run_command": {
   				 "command": [
						 "replaceitem entity @s[scores={oxidationevent=40..}] slot.weapon.mainhand 0 yes:oxidized_copper_hammer",
						 "replaceitem entity @s[scores={oxidationrandom=20}] slot.weapon.mainhand 0 yes:oxidized_copper_hammer",
						 "scoreboard players set @s[tag=oxidation_event_tag] oxidationevent 0",
						 "execute @s[scores={oxidationrandom=20}] ~~~ scoreboard players set @s oxidationrandom 0",
						 "tag @s[tag=oxidation_event_tag] remove oxidation_event_tag"
  						  ]
 					 }
	  			}
        }
    }
}