{
  "format_version": "1.16.0",
  "minecraft:entity": {
    "description": {
      "identifier": "yes:copper_hammer_attack_entityc",
      "is_spawnable": false,
      "is_summonable": true,
      "is_experimental": false
   },
    "component_groups": {
      "yes:despawn": {
        "minecraft:instant_despawn": {}
      }
	 },
        "components": {
	  "minecraft:type_family": {
	    "family": [ "despawn", "weeweejuice" ]
	  },
        "minecraft:timer": {
          "looping": false,
          "time": 0.9,
          "time_down_event": {
            "event": "yes:copper_hammer_attack"
          }
        },
            "minecraft:custom_hit_test": {
                "hitboxes": [
                    {
                        "pivot": [ 0, 100, 0 ],
                        "width": 0,
                        "height": 0
                    }
                ]
            },
            "minecraft:damage_sensor": {
                "triggers": {
                    "deals_damage": false
                }
            },
            "minecraft:pushable": {
                "is_pushable": false,
                "is_pushable_by_piston": false
            },
            "minecraft:collision_box": {
                "width": 0.0001,
                "height": 0.0001
            }
        },
    "events": {
    	  "yes:copper_hammer_attack": {
				  "run_command": {
   				 "command": [
						   "execute @e[c=1,type=!player,scores={mobhammer=23..},tag=!mob_hammer_attacking] ~ ~ ~ tag @s add mob_hammer_attacking",
						   "execute @e[c=1,type=!player,scores={mobhammer=23..}] ~ ~ ~ summon yes:copper_hammer_knockbackc ^^^2",
						   "execute @e[c=1,type=!player,scores={mobhammer=23..}] ~ ~ ~ summon yes:hammer_smash_block_entity ^^-0.5^2",
						   "execute @e[type=husk,c=1,r=4.5,scores={mobhammer=23..},tag=mob_hammer_attacking] ~~~ scoreboard players set @s mobhammer 0",
						   "execute @e[type=zombie,c=1,r=4.5,scores={mobhammer=23..},tag=mob_hammer_attacking] ~~~ scoreboard players set @s mobhammer 0",
						   "execute @e[type=skeleton,c=1,r=4.5,scores={mobhammer=23..},tag=mob_hammer_attacking] ~~~ scoreboard players set @s mobhammer 0",
						   "execute @e[type=zombie_villager,c=1,r=4.5,scores={mobhammer=23..},tag=mob_hammer_attacking] ~~~ scoreboard players set @s mobhammer 0",
						   "execute @e[type=stray,c=1,r=4.5,scores={mobhammer=23..},tag=mob_hammer_attacking] ~~~ scoreboard players set @s mobhammer 0",
						   "execute @e[type=drowned,c=1,r=4.5,scores={mobhammer=23..},tag=mob_hammer_attacking] ~~~ scoreboard players set @s mobhammer 0",
						   "tag @e[type=yes:hammer_smash_block_entity] add copper_hammer_attacking",
						   "event entity @s yes:despawn"
  						  ]
 					 }
				},
    	  "yes:despawn": {
        "add": {
          "component_groups": [
            "yes:despawn"
        		 	  ]
       	 	  }
		     }
	     }
    }
}