{
  "format_version": "1.16.0",
  "minecraft:entity": {
    "description": {
      "identifier": "yes:copper_hammer_entityb",
      "is_spawnable": false,
      "is_summonable": true,
      "is_experimental": false,
	  "scripts": {
	    "animate": [ 
			"teleportb", 
			"hammerb"
		]
	  },
	  "animations": {
		"teleportb": "controller.animation.copper_hammer_teleportb",
		"hammerb": "animation.hammerb"
	  }
   },
    "component_groups": {
      "yes:despawn": {
        "minecraft:instant_despawn": {}
      }
	 },
        "components": {
	  "minecraft:type_family": {
	    "family": [ "weeweejuice" ]
	  },
      "minecraft:environment_sensor": {
        "triggers": [
          {
            "filters": 
                {
                  "test": "has_tag",
                  "subject": "self",
                  "operator": "!=",
                  "value": "alive"
                },
            "event": "yes:despawn"
          }
        ]
      },
            "minecraft:custom_hit_test": {
                "hitboxes": [
                    {
                        "pivot": [ 0, 100, 0 ],
                        "width": 0,
                        "height": 0
                    }
                ]
            },
            "minecraft:damage_sensor": {
                "triggers": {
                    "deals_damage": false
                }
            },
            "minecraft:pushable": {
                "is_pushable": false,
                "is_pushable_by_piston": false
            },
            "minecraft:collision_box": {
                "width": 0.0001,
                "height": 0.0001
            }
        },
    "events": {
    	  "yes:despawn": {
        "add": {
          "component_groups": [
            "yes:despawn"
        		 	  ]
       	 	  }
		     }
	     }
    }
}