{
  "format_version": "1.16.100",
  "minecraft:entity": {
    "description": {
      "identifier": "yes:copper_hammer_knockback",
      "is_spawnable": false,
      "is_summonable": true,
      "is_experimental": false
    },
    "component_groups": {
      "yes:despawn": {
        "minecraft:instant_despawn": {}
      },
		"yes:start": {
	      "minecraft:environment_sensor": {
	        "triggers": [
			      {
	            "filters": {
	              "all_of": [
							{ 
								"test": "is_game_rule", 
								"subject": "self", 
								"domain": "pvp", 
								"operator": "==", 
								"value": true
							}
	              ]
	            },
	            "event": "yes:pvp_true"
	          },
			      {
	            "filters": {
	              "all_of": [
							{ 
								"test": "is_game_rule", 
								"subject": "self", 
								"domain": "pvp", 
								"operator": "==", 
								"value": false
							}
	              ]
	            },
	            "event": "yes:pvp_false"
	          }
			  ]
			}
		},
		"yes:pvp_true": {
	      "minecraft:behavior.knockback_roar": {
	        "priority": 0,
	        "attack_time": 0.1,
	        "cooldown_time": 0.0,
	        "duration": 0.1,
	        "knockback_damage": 5,
	        "knockback_strength": 2,
	        "knockback_range": 4.5,
	        "knockback_filters": {
	          "all_of": [
	            { "test": "has_tag", "subject": "other", "operator": "!=", "value": "copper_hammer_attacking" },
	            { "test": "is_family", "subject": "other", "operator": "!=", "value": "armor_stand" },
					{ "test": "is_family", "subject": "other", "operator": "!=", "value": "weeweejuice" }
	          ]
	        },
	        "damage_filters": {
	          "any_of": [
	            { "test": "has_tag", "subject": "other", "operator": "!=", "value": "copper_hammer_attacking" },
	            { "test": "is_family", "subject": "other", "operator": "!=", "value": "armor_stand" },
					{ "test": "is_family", "subject": "other", "operator": "!=", "value": "weeweejuice" }
	          ]
	        },
	        "on_roar_end": {
	          "event": "yes:despawn"
	        }
	      }
		 },
		"yes:pvp_false": {
	      "minecraft:behavior.knockback_roar": {
	        "priority": 0,
	        "attack_time": 0.1,
	        "cooldown_time": 0.0,
	        "duration": 0.1,
	        "knockback_damage": 5,
	        "knockback_strength": 2,
	        "knockback_range": 4.5,
	        "knockback_filters": {
	          "all_of": [
	            { "test": "has_tag", "subject": "other", "operator": "!=", "value": "copper_hammer_attacking" },
	            { "test": "is_family", "subject": "other", "operator": "!=", "value": "armor_stand" },
					{ "test": "is_family", "subject": "other", "operator": "!=", "value": "weeweejuice" },
					{ "test": "is_family", "subject": "other", "operator": "!=", "value": "player" }
	          ]
	        },
	        "damage_filters": {
	          "any_of": [
	            { "test": "has_tag", "subject": "other", "operator": "!=", "value": "copper_hammer_attacking" },
	            { "test": "is_family", "subject": "other", "operator": "!=", "value": "armor_stand" },
					{ "test": "is_family", "subject": "other", "operator": "!=", "value": "weeweejuice" },
					{ "test": "is_family", "subject": "other", "operator": "!=", "value": "player" }
	          ]
	        },
	        "on_roar_end": {
	          "event": "yes:despawn"
	        }
	      }
		 }
    },
    "components": {
        "minecraft:timer": {
          "looping": false,
          "time": 0.01,
          "time_down_event": {
            "event": "yes:start_event"
          }
        },
			"minecraft:conditional_bandwidth_optimization": {},
        "minecraft:behavior.find_mount": {
          "priority": 0,
          "within_radius": 10,
          "avoid_water": false,
          "start_delay": 0,
          "target_needed": false,
          "mount_distance": 10.0
        },
      "minecraft:navigation.walk": {
        "is_amphibious": false,
        "can_pass_doors": false,
        "can_walk": false,
        "can_break_doors": false
      },
      "minecraft:physics": {
      },
      "minecraft:type_family": {
        "family": [
          "despawn",
			 "weeweejuice"
        ]
      },
      "minecraft:damage_sensor": {
        "triggers": [
          {
            "cause": "all",
            "deals_damage": false
          }
        ]
      },
      "minecraft:fire_immune": {
      },
            "minecraft:custom_hit_test": {
                "hitboxes": [
                    {
                        "pivot": [ 0, 100, 0 ],
                        "width": 0,
                        "height": 0
                    }
                ]
            },
            "minecraft:damage_sensor": {
                "triggers": {
                    "deals_damage": false
                }
            },
            "minecraft:pushable": {
                "is_pushable": false,
                "is_pushable_by_piston": false
            },
            "minecraft:collision_box": {
                "width": 0.0001,
                "height": 0.0001
            }
	 },
    "events": {
      "yes:despawn": {
				  "run_command": {
   				 "command": [
						 "tag @p[c=1,r=2.7,tag=copper_hammer_attacking] remove copper_hammer_attacking",
						 "scoreboard players random @s weapon_sound 1 3",
						 "execute @s[scores={weapon_sound=1}] ~~~ playsound weapon.hammer_hit_weewee @a[r=20] ~~1~ 1 0.65 0.5",
						 "execute @s[scores={weapon_sound=2}] ~~~ playsound weapon.hammer_hit_weewee @a[r=20] ~~1~ 1 0.75 0.5",
						 "execute @s[scores={weapon_sound=3}] ~~~ playsound weapon.hammer_hit_weewee @a[r=20] ~~1~ 1 0.9 0.5",
						 "execute @s[scores={weapon_sound=1}] ~~~ playsound weapon.hammer_hit_weewee @a[r=20] ~~1~ 0.6 0.3 0.3",
						 "execute @s[scores={weapon_sound=2}] ~~~ playsound weapon.hammer_hit_weewee @a[r=20] ~~1~ 0.6 0.4 0.3",
						 "execute @s[scores={weapon_sound=3}] ~~~ playsound weapon.hammer_hit_weewee @a[r=20] ~~1~ 0.6 0.5 0.3"
					 ]
				  },
        "add": {
          "component_groups": [
            "yes:despawn"
          ]
        }
      },
      "yes:start_event": {
        "add": {
          "component_groups": [
            "yes:start"
          ]
        }
      },
		
		
		
      "yes:pvp_true": {
        "add": {
          "component_groups": [
            "yes:pvp_true"
          ]
        },
        "remove": {
          "component_groups": [
            "yes:start"
          ]
        }
      },
		
		
		
      "yes:pvp_false": {
        "add": {
          "component_groups": [
            "yes:pvp_false"
          ]
        },
        "remove": {
          "component_groups": [
            "yes:start"
          ]
        }
      }
    }
  }
}