{
  "format_version": "1.16.0",
  "minecraft:entity": {
    "description": {
      "identifier": "yes:hammer_smash_block_entity",
      "is_spawnable": false,
      "is_summonable": true,
      "is_experimental": false
   },
    "component_groups": {
      "yes:despawn": {
        "minecraft:instant_despawn": {}
      }
	 },
        "components": {
	  "minecraft:type_family": {
	    "family": [ "despawn", "weeweejuice" ]
	  },
        "minecraft:timer": {
          "looping": false,
          "time": 0.25,
          "time_down_event": {
            "event": "yes:copper_hammer_block"
          }
        },
            "minecraft:custom_hit_test": {
                "hitboxes": [
                    {
                        "pivot": [ 0, 100, 0 ],
                        "width": 0,
                        "height": 0
                    }
                ]
            },
            "minecraft:damage_sensor": {
                "triggers": {
                    "deals_damage": false
                }
            },
            "minecraft:pushable": {
                "is_pushable": false,
                "is_pushable_by_piston": false
            },
            "minecraft:collision_box": {
                "width": 0.0001,
                "height": 0.0001
            }
        },
    "events": {
    	  "yes:copper_hammer_block": {
            "sequence": [
					{
			 	 	"filters": { 
				  		"test": "is_game_rule",
				  		"domain": "mobgriefing",
				  		"value": true
			  		}, 
			  			"run_command": { 
				  			"command": [ 
						  		"scoreboard objectives add hammerblock dummy",
						   	"scoreboard players set @s hammerblock 1",
						 
						 
						 
						   "execute @s ~~~ detect ~~-1~ bedrock -1 scoreboard players set @s hammerblock 0",
						   "execute @s ~~~ detect ~~~ bedrock -1 scoreboard players set @s hammerblock 0",
						   "execute @s ~~~ detect ~~-1~ obsidian -1 scoreboard players set @s hammerblock 0",
						   "execute @s ~~~ detect ~~~ obsidian -1 scoreboard players set @s hammerblock 0",
						   "execute @s ~~~ detect ~~-1~ crying_obsidian -1 scoreboard players set @s hammerblock 0",
						   "execute @s ~~~ detect ~~~ crying_obsidian -1 scoreboard players set @s hammerblock 0",
						   "execute @s ~~~ detect ~~-1~ yes:glowing_obsidian_block -1 scoreboard players set @s hammerblock 0",
						   "execute @s ~~~ detect ~~~ yes:glowing_obsidian_block -1 scoreboard players set @s hammerblock 0",
						   "execute @s ~~~ detect ~~-1~ yes:glowing_obsidian_light_block -1 scoreboard players set @s hammerblock 0",
						   "execute @s ~~~ detect ~~~ yes:glowing_obsidian_light_block -1 scoreboard players set @s hammerblock 0",
						   "execute @s ~~~ detect ~~-1~ mob_spawner -1 scoreboard players set @s hammerblock 0",
						   "execute @s ~~~ detect ~~~ mob_spawner -1 scoreboard players set @s hammerblock 0",
						   "execute @s ~~~ detect ~~-1~ end_portal_frame -1 scoreboard players set @s hammerblock 0",
						   "execute @s ~~~ detect ~~~ end_portal_frame -1 scoreboard players set @s hammerblock 0",
						   "execute @s ~~~ detect ~~-1~ enchanting_table -1 scoreboard players set @s hammerblock 0",
						   "execute @s ~~~ detect ~~~ enchanting_table -1 scoreboard players set @s hammerblock 0",
						   "execute @s ~~~ detect ~~~ conduit -1 scoreboard players set @s hammerblock 0",
						   "execute @s ~~~ detect ~~-1~ conduit -1 scoreboard players set @s hammerblock 0",
						   "execute @s ~~~ detect ~~1~ bedrock -1 scoreboard players set @s hammerblock 0",
						   "execute @s ~~~ detect ~~1~ obsidian -1 scoreboard players set @s hammerblock 0",
						   "execute @s ~~~ detect ~~1~ crying_obsidian -1 scoreboard players set @s hammerblock 0",
						   "execute @s ~~~ detect ~~1~ mob_spawner -1 scoreboard players set @s hammerblock 0",
						   "execute @s ~~~ detect ~~1~ end_portal_frame -1 scoreboard players set @s hammerblock 0",
						   "execute @s ~~~ detect ~~1~ enchanting_table -1 scoreboard players set @s hammerblock 0",
						   "execute @s ~~~ detect ~~1~ conduit -1 scoreboard players set @s hammerblock 0",
						   "execute @s ~~~ detect ~~-1~ ancient_debris -1 scoreboard players set @s hammerblock 0",
						   "execute @s ~~~ detect ~~~ ancient_debris -1 scoreboard players set @s hammerblock 0",
						   "execute @s ~~~ detect ~~1~ ancient_debris -1 scoreboard players set @s hammerblock 0",
						   "execute @s ~~~ detect ~~-1~ netherite_block -1 scoreboard players set @s hammerblock 0",
						   "execute @s ~~~ detect ~~~ netherite_block -1 scoreboard players set @s hammerblock 0",
						   "execute @s ~~~ detect ~~1~ netherite_block -1 scoreboard players set @s hammerblock 0",
						   "execute @s ~~~ detect ~~~ air -1 scoreboard players set @s hammerblock 0",
						 
						   "execute @s ~~~ detect ~~-1~ chest -1 scoreboard players set @s hammerblock 0",
						   "execute @s ~~~ detect ~~~ chest -1 scoreboard players set @s hammerblock 0",
						   "execute @s ~~~ detect ~~-1~ trapped_chest -1 scoreboard players set @s hammerblock 0",
						   "execute @s ~~~ detect ~~~ trapped_chest -1 scoreboard players set @s hammerblock 0",
						   "execute @s ~~~ detect ~~-1~ ender_chest -1 scoreboard players set @s hammerblock 0",
						   "execute @s ~~~ detect ~~~ ender_chest -1 scoreboard players set @s hammerblock 0",
						   "execute @s ~~~ detect ~~-1~ shulker_box -1 scoreboard players set @s hammerblock 0",
						   "execute @s ~~~ detect ~~~ shulker_box -1 scoreboard players set @s hammerblock 0",
						   "execute @s ~~~ detect ~~-1~ undyed_shulker_box -1 scoreboard players set @s hammerblock 0",
						   "execute @s ~~~ detect ~~~ undyed_shulker_box -1 scoreboard players set @s hammerblock 0",
						   "execute @s ~~~ detect ~~-1~ barrel -1 scoreboard players set @s hammerblock 0",
						   "execute @s ~~~ detect ~~~ barrel -1 scoreboard players set @s hammerblock 0",
						 
						   "execute @s ~~~ detect ~~-1~ command_block -1 scoreboard players set @s hammerblock 0",
						   "execute @s ~~~ detect ~~~ command_block -1 scoreboard players set @s hammerblock 0",
						   "execute @s ~~~ detect ~~-1~ chain_command_block -1 scoreboard players set @s hammerblock 0",
						   "execute @s ~~~ detect ~~~ chain_command_block -1 scoreboard players set @s hammerblock 0",
						   "execute @s ~~~ detect ~~-1~ repeating_command_block -1 scoreboard players set @s hammerblock 0",
						   "execute @s ~~~ detect ~~~ repeating_command_block -1 scoreboard players set @s hammerblock 0",
						   "execute @s ~~~ detect ~~-1~ border_block -1 scoreboard players set @s hammerblock 0",
						   "execute @s ~~~ detect ~~~ border_block -1 scoreboard players set @s hammerblock 0",
						   "execute @s ~~~ detect ~~-1~ barrier -1 scoreboard players set @s hammerblock 0",
						   "execute @s ~~~ detect ~~~ barrier -1 scoreboard players set @s hammerblock 0",
						 
						   "execute @s ~~~ detect ~~~ water -1 scoreboard players set @s hammerblock 0",
						   "execute @s ~~~ detect ~~~ flowing_water -1 scoreboard players set @s hammerblock 0",
						   "execute @s ~~~ detect ~~~ lava -1 scoreboard players set @s hammerblock 0",
						   "execute @s ~~~ detect ~~~ flowing_lava -1 scoreboard players set @s hammerblock 0",
						   "execute @s ~~~ detect ~~~ fire -1 scoreboard players set @s hammerblock 0",
						   "execute @s ~~~ detect ~~~ soul_fire -1 scoreboard players set @s hammerblock 0",
						 
						   "execute @s ~~~ detect ~~~ redstone_wire -1 scoreboard players set @s hammerblock 0",
						   "execute @s ~~~ detect ~~~ redstone_torch -1 scoreboard players set @s hammerblock 0",
						   "execute @s ~~~ detect ~~~ powered_repeater -1 scoreboard players set @s hammerblock 0",
						   "execute @s ~~~ detect ~~~ unpowered_repeater -1 scoreboard players set @s hammerblock 0",
						   "execute @s ~~~ detect ~~~ powered_comparator -1 scoreboard players set @s hammerblock 0",
						   "execute @s ~~~ detect ~~~ unpowered_comparator -1 scoreboard players set @s hammerblock 0",
						   "execute @s ~~~ detect ~~~ frame -1 scoreboard players set @s hammerblock 0",
						   "execute @s ~~~ detect ~~~ glow_frame -1 scoreboard players set @s hammerblock 0",
						   "execute @s ~~~ detect ~~~ standing_banner -1 scoreboard players set @s hammerblock 0",
						   "execute @s ~~~ detect ~~~ wall_banner -1 scoreboard players set @s hammerblock 0",
						   "execute @s ~~~ detect ~~-1~ redstone_wire -1 scoreboard players set @s hammerblock 0",
						   "execute @s ~~~ detect ~~-1~ redstone_torch -1 scoreboard players set @s hammerblock 0",
						   "execute @s ~~~ detect ~~-1~ powered_repeater -1 scoreboard players set @s hammerblock 0",
						   "execute @s ~~~ detect ~~-1~ unpowered_repeater -1 scoreboard players set @s hammerblock 0",
						   "execute @s ~~~ detect ~~-1~ powered_comparator -1 scoreboard players set @s hammerblock 0",
						   "execute @s ~~~ detect ~~-1~ unpowered_comparator -1 scoreboard players set @s hammerblock 0",
						   "execute @s ~~~ detect ~~-1~ frame -1 scoreboard players set @s hammerblock 0",
						   "execute @s ~~~ detect ~~-1~ glow_frame -1 scoreboard players set @s hammerblock 0",
						   "execute @s ~~~ detect ~~-1~ standing_banner -1 scoreboard players set @s hammerblock 0",
						   "execute @s ~~~ detect ~~-1~ wall_banner -1 scoreboard players set @s hammerblock 0",
						   "execute @s ~~~ detect ~~~ lever -1 scoreboard players set @s hammerblock 0",
						   "execute @s ~~~ detect ~~-1~ lever -1 scoreboard players set @s hammerblock 0",
						   "execute @s ~~~ detect ~~1~ redstone_wire -1 scoreboard players set @s hammerblock 0",
						   "execute @s ~~~ detect ~~1~ redstone_torch -1 scoreboard players set @s hammerblock 0",
						   "execute @s ~~~ detect ~~1~ powered_repeater -1 scoreboard players set @s hammerblock 0",
						   "execute @s ~~~ detect ~~1~ unpowered_repeater -1 scoreboard players set @s hammerblock 0",
						   "execute @s ~~~ detect ~~1~ powered_comparator -1 scoreboard players set @s hammerblock 0",
						   "execute @s ~~~ detect ~~1~ unpowered_comparator -1 scoreboard players set @s hammerblock 0",
						   "execute @s ~~~ detect ~~1~ frame -1 scoreboard players set @s hammerblock 0",
						   "execute @s ~~~ detect ~~1~ glow_frame -1 scoreboard players set @s hammerblock 0",
						   "execute @s ~~~ detect ~~1~ standing_banner -1 scoreboard players set @s hammerblock 0",
						   "execute @s ~~~ detect ~~1~ wall_banner -1 scoreboard players set @s hammerblock 0",
						   "execute @s ~~~ detect ~~1~ lever -1 scoreboard players set @s hammerblock 0",
						 
						   "execute @s ~~~ detect ~~~ red_flower -1 scoreboard players set @s hammerblock 2",
						   "execute @s ~~~ detect ~~~ yellow_flower -1 scoreboard players set @s hammerblock 2",
						   "execute @s ~~~ detect ~~~ seagrass -1 scoreboard players set @s hammerblock 2",
						   "execute @s ~~~ detect ~~~ tallgrass -1 scoreboard players set @s hammerblock 2",
						   "execute @s ~~~ detect ~~~ carrots -1 scoreboard players set @s hammerblock 2",
						   "execute @s ~~~ detect ~~~ sweet_berry_bush -1 scoreboard players set @s hammerblock 2",
						   "execute @s ~~~ detect ~~~ beetroot -1 scoreboard players set @s hammerblock 2",
						   "execute @s ~~~ detect ~~~ sapling -1 scoreboard players set @s hammerblock 2",
						   "execute @s ~~~ detect ~~~ brown_mushroom -1 scoreboard players set @s hammerblock 2",
						   "execute @s ~~~ detect ~~~ red_mushroom -1 scoreboard players set @s hammerblock 2",
						   "execute @s ~~~ detect ~~~ cocoa -1 scoreboard players set @s hammerblock 2",
						   "execute @s ~~~ detect ~~~ potatoes -1 scoreboard players set @s hammerblock 2",
						   "execute @s ~~~ detect ~~~ wheat -1 scoreboard players set @s hammerblock 2",
						   "execute @s ~~~ detect ~~~ azalea -1 scoreboard players set @s hammerblock 2",
						   "execute @s ~~~ detect ~~~ large_amethyst_bud -1 scoreboard players set @s hammerblock 2",
						   "execute @s ~~~ detect ~~~ medium_amethyst_bud -1 scoreboard players set @s hammerblock 2",
						   "execute @s ~~~ detect ~~~ small_amethyst_bud -1 scoreboard players set @s hammerblock 2",
						   "execute @s ~~~ detect ~~~ bamboo -1 scoreboard players set @s hammerblock 2",
						   "execute @s ~~~ detect ~~~ bamboo_sapling -1 scoreboard players set @s hammerblock 2",
						   "execute @s ~~~ detect ~~~ double_plant -1 scoreboard players set @s hammerblock 2",
						 
						 
						 
						   "execute @s[scores={hammerblock=1}] ~~~ fill ~~-1~ ~~-1~ air 0 destroy",
						   "execute @s[scores={hammerblock=1}] ~~~ clone ~~~ ~~~ ~~-1~",
						   "execute @s[scores={hammerblock=1}] ~~~ setblock ~~~ air 0",
						   "execute @s[scores={hammerblock=2}] ~~~ fill ~~~ ~~~ air 0 destroy",
						   "event entity @s yes:despawn"
				  		] 
			  		}
				}
			]
		},
    	  "yes:despawn": {
        "add": {
          "component_groups": [
            "yes:despawn"
        		 	  ]
       	 	  }
		     }
	     }
    }
}