{
  "format_version": "1.16.100",
  "minecraft:entity": {
    "description": {
      "identifier": "btr:cloud_ender_warp",
      "is_spawnable": false,
      "is_summonable": true,
      "is_experimental": false
    },
    "component_groups": {
      "despawn": {
        "minecraft:instant_despawn": {}
      }
    },
    "components": {
      "minecraft:physics": {
        "has_collision": false,
        "has_gravity": false
      },
      "minecraft:entity_sensor": {
        "sensor_range": 3,
        "event": "cloud"
      },
      "minecraft:timer": {
        "time": 20,
        "time_down_event": {
          "event": "despawn"
        }
      },
      "minecraft:conditional_bandwidth_optimization": {}
    },
    "events": {
      "despawn": {
        "add": {
          "component_groups": [
            "despawn"
          ]
        }
      },
      "cloud": {
        "run_command": {
          "command": [
            "spreadplayers ~ ~ 0.1 8.0 @e [type=!btr:lingering_ender_warp,r=3]",
            "spreadplayers ~ ~ 0.1 8.0 @e [type=!btr:lingering_ender_warp,r=3]",
            "spreadplayers ~ ~ 0.1 8.0 @e [type=!btr:lingering_ender_warp,r=3]",
            "spreadplayers ~ ~ 0.1 8.0 @e [type=!btr:lingering_ender_warp,r=3]",
            "spreadplayers ~ ~ 0.1 8.0 @e [type=!btr:lingering_ender_warp,r=3]",
            "spreadplayers ~ ~ 0.1 8.0 @e [type=!btr:lingering_ender_warp,r=3]",
            "spreadplayers ~ ~ 0.1 8.0 @e [type=!btr:lingering_ender_warp,r=3]",
            "spreadplayers ~ ~ 0.1 8.0 @e [type=!btr:lingering_ender_warp,r=3]"
          ]
        }
      }
    }
  }
}