{
  "format_version": "1.16.100",
  "minecraft:entity": {
    "description": {
      "identifier": "btr:cloud_cure",
      "is_spawnable": false,
      "is_summonable": true,
      "is_experimental": false
    },
    "component_groups": {
      "despawn": {
        "minecraft:instant_despawn": {}
      }
    },
    "components": {
      "minecraft:physics": {
        "has_collision": false,
        "has_gravity": false
      },
      "minecraft:entity_sensor": {
        "sensor_range": 3,
        "event": "cloud"
      },
      "minecraft:timer": {
        "time": 20,
        "time_down_event": {
          "event": "despawn"
        }
      },
      "minecraft:conditional_bandwidth_optimization": {}
    },
    "events": {
      "despawn": {
        "add": {
          "component_groups": [
            "despawn"
          ]
        }
      },
      "cloud": {
        "run_command": {
          "command": [
            "effect @e [r=3] bad_omen 0 0 true",
            "effect @e [r=3] blindness 0 0 true",
            "effect @e [r=3] fatal_poison 0 0 true",
            "effect @e [r=3] hunger 0 0 true",
            "effect @e [r=3] instant_damage 0 0 true",
            "effect @e [r=3] levitation 0 0 true",
            "effect @e [r=3] mining_fatigue 0 0 true",
            "effect @e [r=3] nausea 0 0 true",
            "effect @e [r=3] poison 0 0 true",
            "effect @e [r=3] slowness 0 0 true",
            "effect @e [r=3] weakness 0 0 true",
            "effect @e [r=3] wither 0 0 true"
          ]
        }
      }
    }
  }
}