{
  "format_version": "1.16.100",
  "minecraft:entity": {
    "description": {
      "identifier": "btr:lingering_blindness",
      "is_spawnable": false,
      "is_summonable": true,
      "is_experimental": false,
      "runtime_identifier": "lingering_potion"
    },
    "components": {
      "minecraft:collision_box": {
        "width": 0.25,
        "height": 0.25
      },
      "minecraft:hurt_on_condition": {
        "damage_conditions": [
          {
            "filters": {
              "test": "in_lava",
              "subject": "self",
              "operator": "==",
              "value": true
            },
            "cause": "lava",
            "damage_per_tick": 4
          }
        ]
      },
      "minecraft:projectile": {
        "on_hit": {
          "definition_event": {
            "affect_projectile": true,
            "event_trigger": {
              "event": "splash",
              "target": "self"
            }
          },
          "spawn_aoe_cloud": {
            "radius": 3,
            "radius_on_use": 0,
            "potion": 0,
            "duration": 30,
            "color": [
              0,
              0,
              0
            ],
            "affect_owner": true,
            "reapplication_delay": 20
          },
          "remove_on_hit": {}
        },
        "hit_sound": "random.glass",
        "power": 1.2,
        "gravity": 0.05,
        "anchor": 1,
        "angle_offset": -20,
        "offset": [
          0,
          -0.1,
          0
        ]
      },
      "minecraft:physics": {},
      "minecraft:pushable": {
        "is_pushable": false,
        "is_pushable_by_piston": true
      },
      "minecraft:conditional_bandwidth_optimization": {
        "default_values": {
          "max_optimized_distance": 80.0,
          "max_dropped_ticks": 7,
          "use_motion_prediction_hints": true
        }
      },
      "minecraft:knockback_resistance": {
        "value": 10,
        "max": 10
      },
      "minecraft:health": {
        "value": 1
      },
      "minecraft:damage_sensor": {
        "triggers": [
          {
            "cause": "all",
            "deals_damage": false,
            "damage_modifier": 0,
            "damage_multiplier": 0
          }
        ]
      }
    },
    "events": {
      "splash": {
        "run_command": {
          "command": [
            "summon btr:cloud_blindness"
          ]
        }
      }
    }
  }
}