{
  "format_version": "1.13.0",
  "minecraft:entity": {
    "description": {
      "identifier": "btr:netherite_spear",
      "is_spawnable": false,
      "is_summonable": true,
      "is_experimental": false
    },
    "components": {
      "minecraft:collision_box": {
        "width": 0.25,
        "height": 0.25
      },
      "minecraft:hurt_on_condition": {
        "damage_conditions": [
          {
            "filters": {
              "test": "in_lava",
              "subject": "self",
              "operator": "==",
              "value": true
            },
            "cause": "lava",
            "damage_per_tick": 4
          }
        ]
      },
      "minecraft:projectile": {
        "on_hit": {
          "impact_damage": {
            "damage": 7,
            "knockback": true,
            "semi_random_diff_damage": false,
            "destroy_on_hit": true
          },
          "stick_in_ground": {
            "shake_time": 0.35
          },
          "arrow_effect": {}
        },
        "hit_sound": "bow.hit",
        "hit_ground_sound": "bow.hit",
        "liquid_inertia": 0.55,
        "power": 2,
        "gravity": 0.1,
        "uncertainty_base": 8,
        "uncertainty_multiplier": 2,
        "anchor": 1,
        "should_bounce": true,
        "offset": [
          0,
          -0.1,
          0
        ]
      },
      "minecraft:physics": {},
      "minecraft:pushable": {
        "is_pushable": false,
        "is_pushable_by_piston": true
      },
      "minecraft:conditional_bandwidth_optimization": {
        "default_values": {
          "max_optimized_distance": 80.0,
          "max_dropped_ticks": 7,
          "use_motion_prediction_hints": true
        }
      },
      "minecraft:knockback_resistance": {
        "value": 10,
        "max": 10
      },
      "minecraft:health": {
        "value": 1
      },
      "minecraft:damage_sensor": {
        "triggers": [
          {
            "cause": "all",
            "deals_damage": false,
            "damage_modifier": 0,
            "damage_multiplier": 0
          }
        ]
      },
      "minecraft:despawn": {
        "filters": {
          "any_of": [
            {
              "test": "on_ground",
              "subject": "self"
            }
          ]
        }
      }
    }
  }
}