{
	"format_version": "1.16",
	"minecraft:recipe_shaped": {
		"description": {
			"identifier": "nether:chaga_planks_bed1"
		},
		"tags": [
			"crafting_table"
		],
		"pattern": [
			"BBB",
			"AAA"
		],
		"key": {
			"A": {
				"item": "nether:chaga_planks"
			},
			"B": {
				"item": "minecraft:wool",
				"data": 1
			}
		},
		"result": {
			"item": "minecraft:bed",
			"data": 1,
			"count": 1
		},
		"priority": 2
	}
}