{
	"format_version": "1.14",
	"minecraft:recipe_shaped": {
		"description": {
			"identifier": "nether:beehive_from_chaga_planks"
		},
		"tags": [
			"crafting_table"
		],
		"pattern": [
			"###",
			"ooo",
			"###"
		],
		"key": {
			"#": {
				"item": "nether:chaga_planks"
			},
			"o": {
				"item": "minecraft:honeycomb"
			}
		},
		"result": [
			{
				"item": "minecraft:beehive"
			}
		]
	}
}