{
	"format_version": "1.12",
	"minecraft:recipe_furnace": {
		"description": {
			"identifier": "nether:furnace_stripped_chaga_wood"
		},
		"tags": [
			"furnace"
		],
		"input": "nether:stripped_chaga_hyphae",
		"output": "minecraft:coal:1"
	}
}