{
	"format_version": 1.16,
	"minecraft:recipe_shaped": {
		"description": {
			"identifier": "nether:noteblock_from_chaga_planks"
		},
		"tags": [
			"crafting_table"
		],
		"pattern": [
			"AAA",
			"ABA",
			"AAA"
		],
		"key": {
			"A": {
				"item": "nether:chaga_planks"
			},
			"B": {
				"item": "redstone"
			}
		},
		"result": {
			"item": "noteblock",
			"count": 1
		}
	}
}