{
	"format_version": 1.12,
	"minecraft:recipe_shaped": {
		"description": {
			"identifier": "nether:chaga_planks_slab_to_composter"
		},
		"tags": [
			"crafting_table"
		],
		"pattern": [
			"# #",
			"# #",
			"###"
		],
		"key": {
			"#": {
				"item": "nether:chaga_slab"
			}
		},
		"result": {
			"item": "minecraft:composter"
		}
	}
}