{
	"format_version": "1.12",
	"minecraft:recipe_shaped": {
		"description": {
			"identifier": "nether:chaga_slab"
		},
		"tags": [
			"crafting_table"
		],
		"pattern": [
			"###"
		],
		"key": {
			"#": {
				"item": "nether:chaga_planks"
			}
		},
		"result": {
			"item": "nether:chaga_slab",
			"count": 6
		}
	}
}