{
	"format_version": "1.19.0",
	"minecraft:recipe_shaped": {
		"description": {
			"identifier": "nether:smoker_from_chaga_log"
		},
		"tags": [
			"crafting_table"
		],
		"pattern": [
			" # ",
			"#F#",
			" # "
		],
		"key": {
			"F": {
				"item": "minecraft:furnace"
			},
			"#": {
				"item": "nether:chaga_stem"
			}
		},
		"result": {
			"item": "minecraft:smoker"
		}
	}
}