{
	"format_version": "1.12",
	"minecraft:recipe_shaped": {
		"description": {
			"identifier": "nether:stick_from_chaga_planks"
		},
		"tags": [
			"crafting_table"
		],
		"pattern": [
			"#",
			"#"
		],
		"key": {
			"#": {
				"item": "nether:chaga_planks"
			}
		},
		"result": {
			"item": "minecraft:stick",
			"count": 4
		}
	}
}