{
	"format_version": "1.17.0",
	"minecraft:recipe_shaped": {
		"description": {
			"identifier": "nether:wooden_axe_with_chaga_wood"
		},
		"tags": [
			"crafting_table"
		],
		"pattern": [
			"##",
			"#.",
			" ."
		],
		"key": {
			"#": {
				"item": "nether:chaga_planks"
			},
			".": {
				"item": "minecraft:stick"
			}
		},
		"result": [
			{
				"item": "minecraft:wooden_axe"
			}
		]
	}
}