{
	"format_version": "1.17.0",
	"minecraft:block": {
		"description": {
			"identifier": "nether:psilocybe_sapling_spawn"
		},
		"components": {
			"minecraft:geometry": "geometry.chain_cross_display",
			"minecraft:entity_collision": false,
			"minecraft:creative_category": {
				"group": "commands",
				"category": "commands"
			},
			"minecraft:ticking": {
				"range": [
					0.1,
					0.1
				],
				"on_tick": {
					"event": "placed"
				}
			},
			"minecraft:material_instances": {
				"*": {
					"render_method": "alpha_test",
					"texture": "psilocybe_sapling"
				}
			},
			"minecraft:pick_collision": {
				"origin": [
					-3,
					0,
					-3
				],
				"size": [
					6,
					10,
					6
				]
			}
		},
		"events": {
			"placed": {
				"run_command": {
					"command": [
						"structure load psilocybe_tree1 ~-8~~-6",
						"setblock ~ ~ ~ nether:psilocybe_stem"
					]
				}
			}
		}
	}
}