{
	"format_version": "1.17.0",
	"minecraft:block": {
		"description": {
			"identifier": "nether:psilocybe_sapling"
		},
		"components": {
			"minecraft:material_instances": {
				"*": {
					"render_method": "alpha_test",
					"texture": "psilocybe_sapling"
				}
			},
			"minecraft:geometry": "geometry.chain_cross_display",
			"minecraft:pick_collision": {
				"origin": [
					-3,
					0,
					-3
				],
				"size": [
					6,
					10,
					6
				]
			},
			"minecraft:entity_collision": false,
			"minecraft:block_light_absorption": 1,
			"minecraft:placement_filter": {
				"conditions": [
					{
						"allowed_faces": [
							"up"
						]
					}
				]
			},
			"minecraft:on_interact": {
				"condition": "query.get_equipped_item_name=='bone_meal'",
				"event": "bone_grow"
			},
			"minecraft:creative_category": {
				"group": "commands",
				"category": "commands"
			},
			"minecraft:loot": "loot_tables/vstem/psilocybe_sapling_item.json"
		},
		"events": {
			"grow": {
				"randomize": [
					{
						"weight": 10,
						"run_command": {
							"command": [
								"setblock ~ ~ ~ air",
								"structure load psilocybe_tree1 ~-8~~-6"
							]
						},
						"decrement_stack": {}
					},
					{
						"weight": 90
					}
				]
			},
			"placed": {
				"run_command": {
					"command": [
						"playsound place.dirt_with_roots @p"
					]
				}
			},
			"bone_grow": {
				"run_command": {
					"command": [
						"particle minecraft:crop_growth_emitter ~ ~ ~",
						"playsound item.bone_meal.use  @p"
					]
				},
				"decrement_stack": {},
				"trigger": {
					"event": "grow",
					"target": "self"
				}
			}
		}
	}
}