{
	"format_version": "1.16.0",
	"minecraft:geometry": [
		{
			"description": {
				"identifier": "geometry.tool_base_hoe_back",
				"texture_width": 16,
				"texture_height": 16,
				"visible_bounds_width": 1,
				"visible_bounds_height": 1,
				"visible_bounds_offset": [0, 0, 0]
			},
			"bones": [
				{
					"name": "rightitem",
					"pivot": [-12, -6, -3],
					"rotation": [90, 0, 90],
					"binding": "q.item_slot_to_bone_name(c.item_slot)",
					"texture_meshes": [
						{
							"texture": "tool_hoe_diamond",
							"position": [-12, 11, -3],
							"rotation": [90, 0, -49]
						}
					]
				}
			]
		}
	]
}