[
	{
		"flipbook_texture": "textures/blocks/nethercraft/death_cap/side_death_cap_stem",
		"frames": [
			0,
			1,
			2,
			3,
			4
		],
		"atlas_tile": "side_death_cap_stem",
		"ticks_per_frame": 5
	},
	{
		"flipbook_texture": "textures/blocks/nethercraft/chaga_stems/chaga_stem_side",
		"frames": [
			0,
			1,
			2,
			3,
			4
		],
		"atlas_tile": "chaga_stem_side",
		"ticks_per_frame": 5
	},
	{
		"flipbook_texture": "textures/blocks/nethercraft/psilocybe_stems/psilocybe_stem_side",
		"frames": [
			0,
			1,
			2,
			3,
			4
		],
		"atlas_tile": "psilocybe_stem_side",
		"ticks_per_frame": 5
	},
	{
		"flipbook_texture": "textures/blocks/nethercraft/gallium_interiored_netherrack",
		"frames": [
			0,
			1,
			2,
			3
		],
		"atlas_tile": "gallium_interiored_netherrack",
		"ticks_per_frame": 5
	},
	{
		"flipbook_texture": "textures/blocks/nethercraft/mercury_interiored_netherrack",
		"frames": [
			0,
			1,
			2,
			3
		],
		"atlas_tile": "mercury_interiored_netherrack",
		"ticks_per_frame": 5
	}
]