{
	"format_version": "1.17.0",
	"minecraft:entity": {
		"description": {
			"identifier": "v:sheep_wool_sheared",
			"is_summonable": true,
			"is_spawnable": false,
			"runtime_identifier": "minecraft:ender_crystal"
		},
		"component_groups": {},
		"components": {
			"minecraft:timer": {
				"looping": true,
				"time": [
					0,
					0
				],
				"time_down_event": {
					"event": "dies"
				}
			},
			"minecraft:loot": {
				"table": "loot_tables/sheep_shear.json"
			}
		},
		"events": {
			"dies": {
				"run_command": {
					"command": [
						"kill @s"
					]
				}
			}
		}
	}
}