{
	"format_version": "1.17.0",
	"minecraft:entity": {
		"description": {
			"is_summonable": true,
			"is_spawnable": false,
			"identifier": "v:structure_copier"
		},
		"component_groups": {
			"ded": {
				"minecraft:instant_despawn": {}
			}
		},
		"components": {
			"minecraft:damage_sensor": {
				"triggers": [
					{
						"cause": "all",
						"deals_damage": false
					}
				]
			},
			"minecraft:pushable": {
				"is_pushable": false,
				"is_pushable_by_piston": true
			},
			"minecraft:physics": {
				"has_collision": false,
				"has_gravity": false
			},
			"minecraft:scale": {
				"value": 0.1
			},
			"minecraft:timer": {
				"looping": false,
				"time": [
					0.3,
					0.3
				],
				"time_down_event": {
					"event": "dies"
				}
			}
		},
		"events": {
			"dies": {
				"add": {
					"component_groups": [
						"ded"
					]
				}
			}
		}
	}
}