{
  "format_version": "1.16.100",
  "minecraft:item": {
        "description": {
      "category": "equipment",
      "identifier": "yes:gilded_netherite_chestplate"
    },
    "components": {
		"tag:minecraft:is_armor": {},
		"tag:minecraft:netherite_tier": {},
      "minecraft:creative_category": {
        "parent": "itemGroup.name.chestplate"
     },
		"minecraft:display_name": 
 			 {
  				"value": "Gilded Netherite Chestplate\n§l§r"
  			 },
     "minecraft:icon": {
        "texture": "gilded_netherite_chestplate"
     },
    "minecraft:render_offsets": "chestplate",
      "minecraft:max_stack_size": 1,
      "minecraft:enchantable": {
        "value": 20,
        "slot": "armor_torso"
      },
      "minecraft:durability": {
        "max_durability": 789,
			"damage_chance": {
				"min": 60,
				"max": 100
			}
      },
      "minecraft:armor": {
        "protection": 12
      },
		"minecraft:knockback_resistance": {
			"protection": 0.25
		},
      "minecraft:wearable": {
        "slot": "slot.armor.chest"
      },
                  "minecraft:repairable": {
                "repair_items": [
                    {
                        "items": [
                            "yes:gilded_netherite_chestplate",
                            "yes:gilded_netherite_ingot"
                            ],
                            "repair_amount": 789
          }
        ]
      }
    },
        "events": {
            "yes:damage_event": {
                "damage": {
                    "type": "durability",
                    "amount": 1
                }
            }
		  }
	 }
}