{
  "format_version": "1.8.0",
  "render_controllers": {
    "controller.render.phantom_whip2_ad": {
      "arrays": {
        "textures": {
          "array.one": [
            "texture.one"
          ],
          "array.two": [
            "texture.two"
          ],
          "array.three": [
            "texture.three"
          ],
          "array.four": [
            "texture.four"
          ],
          "array.five": [
            "texture.five"
          ],
          "array.six": [
            "texture.six"
          ],
          "array.seven": [
            "texture.seven"
          ]
        },
        "geometries": {
          "array.one": [
            "geometry.one"
          ],
          "array.two": [
            "geometry.two"
          ],
			 "array.three": [
            "geometry.three"
          ],
			 "array.four": [
            "geometry.four"
          ],
			 "array.five": [
            "geometry.five"
          ],
          "array.six": [
            "geometry.six"
          ],
          "array.seven": [
            "geometry.seven"
          ]
        }
      },
      "geometry": "query.scoreboard('whip_animation') <= 1 ? array.one[query.life_time] : (query.scoreboard('whip_animation') <= 2 ? array.two[query.life_time] : (query.scoreboard('whip_animation') <= 3 ? array.three[query.life_time] : (query.scoreboard('whip_animation') <= 4 ? array.four[query.life_time] : (query.scoreboard('whip_animation') <= 5 ? array.five[query.life_time] : (query.scoreboard('whip_animation') <= 6 ? array.six[query.life_time] : (query.scoreboard('whip_animation') <= 7 ? array.seven[query.life_time]))))))",
     "textures": ["query.scoreboard('whip_animation') <= 1 ? array.one[query.life_time] : (query.scoreboard('whip_animation') <= 2 ? array.two[query.life_time] : (query.scoreboard('whip_animation') <= 3 ? array.three[query.life_time] : (query.scoreboard('whip_animation') <= 4 ? array.four[query.life_time] : (query.scoreboard('whip_animation') <= 5 ? array.five[query.life_time] : (query.scoreboard('whip_animation') <= 6 ? array.six[query.life_time] : (query.scoreboard('whip_animation') <= 7 ? array.seven[query.life_time]))))))",
			"texture.enchanted" 
		],
      "materials": [ { "*": "variable.is_enchanted ? material.enchanted : material.enchanted" } ]
    }
  }
}