{
  "format_version": "1.16.100",
  "minecraft:item": {
    "description": {
      "category": "commands",
      "identifier": "btr:disarm_iii_iron_battleaxe"
    },
    "components": {
      "minecraft:icon": {
        "texture": "iron_battleaxe"
      },
      "minecraft:max_stack_size": 1,
      "minecraft:use_duration": 3600,
      "minecraft:hand_equipped": true,
      "minecraft:foil": true,
      "minecraft:durability": {
        "max_durability": 418
      },
      "minecraft:repairable": {
        "repair_items": [
          {
            "items": [
              "minecraft:iron_ingot"
            ],
            "repair_amount": 104
          },
          {
            "items": [
              "btr:iron_battleaxe"
            ],
            "repair_amount": "context.other->query.remaining_durability + 0.5 * context.other->query.max_durability"
          }
        ]
      },
      "minecraft:mining_speed": 1.5,
      "minecraft:damage": 8,
      "minecraft:enchantable": {
        "value": 14,
        "slot": "sword"
      },
      "minecraft:can_destroy_in_creative": false,
      "minecraft:digger": {
        "use_efficiency": false,
        "destroy_speeds": [
          {
            "block": "minecraft:infested_deepslate",
            "speed": 10,
            "on_dig": {
              "event": "dig"
            }
          },
          {
            "block": "minecraft:bamboo",
            "speed": 10,
            "on_dig": {
              "event": "dig"
            }
          },
          {
            "block": "minecraft:monster_egg",
            "speed": 10,
            "on_dig": {
              "event": "dig"
            }
          },
          {
            "block": "minecraft:web",
            "speed": 15,
            "on_dig": {
              "event": "dig"
            }
          }
        ],
        "on_dig": {
          "event": "dig"
        }
      },
      "minecraft:weapon": {
        "on_hurt_entity": {
          "event": "attack"
        }
      },
      "tag:minecraft:is_sword": {},
      "minecraft:display_name": {
        "value": "§bIron Battleaxe\n§7Disarm III"
      }
    },
    "events": {
      "dig": {
        "damage": {
          "type": "durability",
          "amount": 2,
          "target": "self"
        }
      },
      "attack": {
        "randomize": [
          {
            "weight": 45,
            "damage": {
              "type": "durability",
              "amount": 1,
              "target": "self"
            },
            "run_command": {
              "command": [
                "effect @s mining_fatigue 2 9 true",
                "effect @s weakness 2 9 true"
              ]
            }
          },
          {
            "weight": 55,
            "damage": {
              "type": "durability",
              "amount": 2,
              "target": "self"
            },
            "run_command": {
              "command": [
                "function disarm",
                "effect @s mining_fatigue 2 9 true",
                "effect @s weakness 2 9 true"
              ]
            }
          }
        ]
      }
    }
  }
}