{
	"format_version": "1.17.0",
	"minecraft:feature_rules": {
		"description": {
			"identifier": "nether:berly_shale_stone_patches_rule",
			"places_feature": "nether:berly_shale_stone_patches"
		},
		"conditions": {
			"placement_pass": "surface_pass",
			"minecraft:biome_filter": {
				"test": "has_biome_tag",
				"operator": "==",
				"value": "nether"
			}
		},
		"distribution": {
			"iterations": 10,
			"x": {
				"distribution": "uniform",
				"extent": [
					0,
					16
				]
			},
			"y": {
				"distribution": "uniform",
				"extent": [
					1,
					100
				]
			},
			"z": {
				"extent": [
					0,
					16
				],
				"distribution": "uniform"
			}
		}
	}
}