{
	"format_version": "1.17.0",
	"minecraft:feature_rules": {
		"description": {
			"identifier": "nether:psilocybe_tree_feature_rule",
			"places_feature": "nether:psilocybe_tree_1_structure_floor"
		},
		"conditions": {
			"placement_pass": "surface_pass",
			"minecraft:biome_filter": {
				"test": "has_biome_tag",
				"operator": "==",
				"value": "warped_forest"
			}
		},
		"distribution": {
			"iterations": 2,
			"x": {
				"distribution": "fixed_grid",
				"extent": [
					0,
					15
				]
			},
			"y": {
				"distribution": "uniform",
				"extent": [
					20,
					120
				]
			},
			"z": {
				"distribution": "fixed_grid",
				"extent": [
					0,
					15
				]
			}
		}
	}
}